[{"tablename" : "ad_element", "data" : {"ad_element_id":269,
 "columnname":"DatePromised",
 "ad_client_id":0,
 "ad_org_id":0,
 "ad_reference_id":15,
 "ad_reference_value_id":null,
 "created":"1999-11-19T10:07:43",
 "createdby":0,
 "description":"Date Order was promised",
 "entitytype":"Material Management",
 "fieldlength":7,
 "help":"The Date Promised indicates the date, if any, that an Order was promised for.",
 "isactive":"Y",
 "name":"Date Promised",
 "po_description":null,
 "po_help":null,
 "po_name":null,
 "po_printname":null,
 "printname":"Date Promised",
 "updated":"2016-04-11T16:46:55",
 "updatedby":0}, "children" : []},
 {"tablename" : "ad_element", "data" : {"ad_element_id":446,
 "columnname":"Lot",
 "ad_client_id":0,
 "ad_org_id":0,
 "ad_reference_id":10,
 "ad_reference_value_id":null,
 "created":"1999-11-19T10:07:43",
 "createdby":0,
 "description":"Lot number (alphanumeric)",
 "entitytype":"Material Management",
 "fieldlength":40,
 "help":"The Lot Number indicates the specific lot that a product was part of.",
 "isactive":"Y",
 "name":"Lot No",
 "po_description":null,
 "po_help":null,
 "po_name":null,
 "po_printname":null,
 "printname":"Lot No",
 "updated":"2016-04-11T16:36:05",
 "updatedby":0}, "children" : []},
 {"tablename" : "ad_element", "data" : {"ad_element_id":522,
 "columnname":"PriorityRule",
 "ad_client_id":0,
 "ad_org_id":0,
 "ad_reference_id":17,
 "ad_reference_value_id":154,
 "created":"1999-11-19T10:07:43",
 "createdby":0,
 "description":"Priority of a document",
 "entitytype":"Material Management",
 "fieldlength":1,
 "help":"The Priority indicates the importance (high, medium, low) of this document",
 "isactive":"Y",
 "name":"Priority",
 "po_description":null,
 "po_help":null,
 "po_name":null,
 "po_printname":null,
 "printname":"Priority",
 "updated":"2000-01-02T00:00:00",
 "updatedby":0}, "children" : []},
 {"tablename" : "ad_element", "data" : {"ad_element_id":568,
 "columnname":"SerNo",
 "ad_client_id":0,
 "ad_org_id":0,
 "ad_reference_id":10,
 "ad_reference_value_id":null,
 "created":"1999-11-19T10:07:43",
 "createdby":0,
 "description":"Product Serial Number ",
 "entitytype":"Material Management",
 "fieldlength":40,
 "help":"The Serial Number identifies a tracked, warranted product.  It can only be used when the quantity is 1.",
 "isactive":"Y",
 "name":"Serial No",
 "po_description":null,
 "po_help":null,
 "po_name":null,
 "po_printname":null,
 "printname":"Serial No",
 "updated":"2016-04-11T16:36:06",
 "updatedby":0}, "children" : []},
 {"tablename" : "ad_element", "data" : {"ad_element_id":1027,
 "columnname":"M_Inventory_ID",
 "ad_client_id":0,
 "ad_org_id":0,
 "ad_reference_id":13,
 "ad_reference_value_id":null,
 "created":"1999-12-19T20:40:45",
 "createdby":0,
 "description":"Parameters for a Physical Inventory",
 "entitytype":"Material Management",
 "fieldlength":22,
 "help":"The Physical Inventory indicates a unique parameters for a physical inventory.",
 "isactive":"Y",
 "name":"Phys.Inventory",
 "po_description":null,
 "po_help":null,
 "po_name":null,
 "po_printname":null,
 "printname":"Phys.Inventory",
 "updated":"2000-01-02T00:00:00",
 "updatedby":0}, "children" : []},
 {"tablename" : "ad_element", "data" : {"ad_element_id":1029,
 "columnname":"M_LocatorTo_ID",
 "ad_client_id":0,
 "ad_org_id":0,
 "ad_reference_id":31,
 "ad_reference_value_id":191,
 "created":"1999-12-19T20:40:45",
 "createdby":0,
 "description":"Location inventory is moved to",
 "entitytype":"Material Management",
 "fieldlength":22,
 "help":"The Locator To indicates the location where the inventory is being moved to.",
 "isactive":"Y",
 "name":"Locator To",
 "po_description":null,
 "po_help":null,
 "po_name":null,
 "po_printname":null,
 "printname":"Locator To",
 "updated":"2000-01-02T00:00:00",
 "updatedby":0}, "children" : []},
 {"tablename" : "ad_element", "data" : {"ad_element_id":1030,
 "columnname":"M_Movement_ID",
 "ad_client_id":0,
 "ad_org_id":0,
 "ad_reference_id":13,
 "ad_reference_value_id":null,
 "created":"1999-12-19T20:40:45",
 "createdby":0,
 "description":"Movement of Inventory",
 "entitytype":"Material Management",
 "fieldlength":22,
 "help":"The Inventory Movement uniquely identifies a group of movement lines.",
 "isactive":"Y",
 "name":"Inventory Move",
 "po_description":null,
 "po_help":null,
 "po_name":null,
 "po_printname":null,
 "printname":"Move",
 "updated":"2000-01-02T00:00:00",
 "updatedby":0}, "children" : []},
 {"tablename" : "ad_element", "data" : {"ad_element_id":1032,
 "columnname":"M_Production_ID",
 "ad_client_id":0,
 "ad_org_id":0,
 "ad_reference_id":13,
 "ad_reference_value_id":null,
 "created":"1999-12-19T20:40:45",
 "createdby":0,
 "description":"Plan for producing a product",
 "entitytype":"Material Management",
 "fieldlength":22,
 "help":"The Production uniquely identifies a Production Plan",
 "isactive":"Y",
 "name":"Production",
 "po_description":null,
 "po_help":null,
 "po_name":null,
 "po_printname":null,
 "printname":"Production",
 "updated":"2000-01-02T00:00:00",
 "updatedby":0}, "children" : []},
 {"tablename" : "ad_element", "data" : {"ad_element_id":1048,
 "columnname":"QtyBook",
 "ad_client_id":0,
 "ad_org_id":0,
 "ad_reference_id":29,
 "ad_reference_value_id":null,
 "created":"1999-12-19T20:40:45",
 "createdby":0,
 "description":"Book Quantity",
 "entitytype":"Material Management",
 "fieldlength":22,
 "help":"The Quantity Book indicates the line count stored in the system for a product in inventory",
 "isactive":"Y",
 "name":"Quantity book",
 "po_description":null,
 "po_help":null,
 "po_name":null,
 "po_printname":null,
 "printname":"Qty book",
 "updated":"2000-01-02T00:00:00",
 "updatedby":0}, "children" : []},
 {"tablename" : "ad_element", "data" : {"ad_element_id":1049,
 "columnname":"QtyCount",
 "ad_client_id":0,
 "ad_org_id":0,
 "ad_reference_id":29,
 "ad_reference_value_id":null,
 "created":"1999-12-19T20:40:45",
 "createdby":0,
 "description":"Counted Quantity",
 "entitytype":"Material Management",
 "fieldlength":22,
 "help":"The Quantity Count indicates the actual inventory count taken for a product in inventory",
 "isactive":"Y",
 "name":"Quantity count",
 "po_description":null,
 "po_help":null,
 "po_name":null,
 "po_printname":null,
 "printname":"Qty count",
 "updated":"2000-01-02T00:00:00",
 "updatedby":0}, "children" : []},
 {"tablename" : "ad_element", "data" : {"ad_element_id":1096,
 "columnname":"GenerateList",
 "ad_client_id":0,
 "ad_org_id":0,
 "ad_reference_id":28,
 "ad_reference_value_id":null,
 "created":"2000-01-24T18:04:25",
 "createdby":0,
 "description":"Generate List",
 "entitytype":"Material Management",
 "fieldlength":1,
 "help":null,
 "isactive":"Y",
 "name":"Generate List",
 "po_description":null,
 "po_help":null,
 "po_name":null,
 "po_printname":null,
 "printname":"Generate List",
 "updated":"2000-01-02T00:00:00",
 "updatedby":0}, "children" : []},
 {"tablename" : "ad_element", "data" : {"ad_element_id":1138,
 "columnname":"UpdateQty",
 "ad_client_id":0,
 "ad_org_id":0,
 "ad_reference_id":28,
 "ad_reference_value_id":null,
 "created":"2000-01-24T18:04:26",
 "createdby":0,
 "description":null,
 "entitytype":"Material Management",
 "fieldlength":1,
 "help":null,
 "isactive":"Y",
 "name":"Update Quantities",
 "po_description":null,
 "po_help":null,
 "po_name":null,
 "po_printname":null,
 "printname":"Update Quantities",
 "updated":"2000-01-02T00:00:00",
 "updatedby":0}, "children" : []},
 {"tablename" : "ad_element", "data" : {"ad_element_id":1257,
 "columnname":"QtyToOrder",
 "ad_client_id":0,
 "ad_org_id":0,
 "ad_reference_id":29,
 "ad_reference_value_id":null,
 "created":"2000-05-11T18:31:14",
 "createdby":0,
 "description":null,
 "entitytype":"Material Management",
 "fieldlength":22,
 "help":null,
 "isactive":"Y",
 "name":"Quantity to Order",
 "po_description":null,
 "po_help":null,
 "po_name":null,
 "po_printname":null,
 "printname":"Qty to Order",
 "updated":"2016-04-11T16:46:54",
 "updatedby":0}, "children" : []},
 {"tablename" : "ad_element", "data" : {"ad_element_id":1324,
 "columnname":"DateReceived",
 "ad_client_id":0,
 "ad_org_id":0,
 "ad_reference_id":15,
 "ad_reference_value_id":null,
 "created":"2000-10-11T21:50:04",
 "createdby":0,
 "description":"Date a product was received",
 "entitytype":"Material Management",
 "fieldlength":7,
 "help":"The Date Received indicates the date that product was received.",
 "isactive":"Y",
 "name":"Date received",
 "po_description":null,
 "po_help":null,
 "po_name":null,
 "po_printname":null,
 "printname":"Date received",
 "updated":"2000-01-02T00:00:00",
 "updatedby":0}, "children" : []},
 {"tablename" : "ad_element", "data" : {"ad_element_id":1341,
 "columnname":"IsCreated",
 "ad_client_id":0,
 "ad_org_id":0,
 "ad_reference_id":17,
 "ad_reference_value_id":319,
 "created":"2000-10-15T11:57:59",
 "createdby":0,
 "description":null,
 "entitytype":"Material Management",
 "fieldlength":1,
 "help":null,
 "isactive":"Y",
 "name":"Records created",
 "po_description":null,
 "po_help":null,
 "po_name":null,
 "po_printname":null,
 "printname":"Records created",
 "updated":"2000-01-02T00:00:00",
 "updatedby":0}, "children" : []},
 {"tablename" : "ad_element", "data" : {"ad_element_id":1342,
 "columnname":"M_ProductionPlan_ID",
 "ad_client_id":0,
 "ad_org_id":0,
 "ad_reference_id":19,
 "ad_reference_value_id":null,
 "created":"2000-10-15T11:57:59",
 "createdby":0,
 "description":"Plan for how a product is produced",
 "entitytype":"Material Management",
 "fieldlength":22,
 "help":"The Production Plan identifies the items and steps in generating a product.",
 "isactive":"Y",
 "name":"Production Plan",
 "po_description":null,
 "po_help":null,
 "po_name":null,
 "po_printname":null,
 "printname":"Production Plan",
 "updated":"2000-01-02T00:00:00",
 "updatedby":0}, "children" : []},
 {"tablename" : "ad_element", "data" : {"ad_element_id":1343,
 "columnname":"ProductionQty",
 "ad_client_id":0,
 "ad_org_id":0,
 "ad_reference_id":29,
 "ad_reference_value_id":null,
 "created":"2000-10-15T11:57:59",
 "createdby":0,
 "description":"Quantity of products to produce",
 "entitytype":"Material Management",
 "fieldlength":22,
 "help":"The Production Quantity identifies the number of products to produce",
 "isactive":"Y",
 "name":"Production Quantity",
 "po_description":null,
 "po_help":null,
 "po_name":null,
 "po_printname":null,
 "printname":"Production Qty",
 "updated":"2000-01-02T00:00:00",
 "updatedby":0}, "children" : []},
 {"tablename" : "ad_element", "data" : {"ad_element_id":1676,
 "columnname":"QtyRange",
 "ad_client_id":0,
 "ad_org_id":0,
 "ad_reference_id":null,
 "ad_reference_value_id":null,
 "created":"2001-11-18T16:27:47",
 "createdby":0,
 "description":null,
 "entitytype":"Material Management",
 "fieldlength":null,
 "help":null,
 "isactive":"Y",
 "name":"Inventory Quantity",
 "po_description":null,
 "po_help":null,
 "po_name":null,
 "po_printname":null,
 "printname":"Inventory Quantity",
 "updated":"2000-01-02T00:00:00",
 "updatedby":0}, "children" : []},
 {"tablename" : "ad_element", "data" : {"ad_element_id":1726,
 "columnname":"CostStandardAmt",
 "ad_client_id":0,
 "ad_org_id":0,
 "ad_reference_id":37,
 "ad_reference_value_id":null,
 "created":"2002-01-17T21:11:55",
 "createdby":0,
 "description":"Value in Standard Costs",
 "entitytype":"Material Management",
 "fieldlength":22,
 "help":null,
 "isactive":"Y",
 "name":"Standard Cost Value",
 "po_description":null,
 "po_help":null,
 "po_name":null,
 "po_printname":null,
 "printname":"Standard Cost Value",
 "updated":"2000-01-02T00:00:00",
 "updatedby":0}, "children" : []},
 {"tablename" : "ad_element", "data" : {"ad_element_id":1727,
 "columnname":"DateValue",
 "ad_client_id":0,
 "ad_org_id":0,
 "ad_reference_id":15,
 "ad_reference_value_id":null,
 "created":"2002-01-17T21:11:55",
 "createdby":0,
 "description":"Date of valuation",
 "entitytype":"Material Management",
 "fieldlength":7,
 "help":null,
 "isactive":"Y",
 "name":"Valuation Date",
 "po_description":null,
 "po_help":null,
 "po_name":null,
 "po_printname":null,
 "printname":"Valuation Date",
 "updated":"2000-01-02T00:00:00",
 "updatedby":0}, "children" : []},
 {"tablename" : "ad_element", "data" : {"ad_element_id":1728,
 "columnname":"PriceLimitAmt",
 "ad_client_id":0,
 "ad_org_id":0,
 "ad_reference_id":37,
 "ad_reference_value_id":null,
 "created":"2002-01-17T21:11:55",
 "createdby":0,
 "description":"Value with limit price",
 "entitytype":"Material Management",
 "fieldlength":22,
 "help":null,
 "isactive":"Y",
 "name":"Limit price Value",
 "po_description":null,
 "po_help":null,
 "po_name":null,
 "po_printname":null,
 "printname":"Limit price Value",
 "updated":"2000-01-02T00:00:00",
 "updatedby":0}, "children" : []},
 {"tablename" : "ad_element", "data" : {"ad_element_id":1729,
 "columnname":"PriceListAmt",
 "ad_client_id":0,
 "ad_org_id":0,
 "ad_reference_id":37,
 "ad_reference_value_id":null,
 "created":"2002-01-17T21:11:55",
 "createdby":0,
 "description":"Valuation with List Price",
 "entitytype":"Material Management",
 "fieldlength":22,
 "help":null,
 "isactive":"Y",
 "name":"List price Value",
 "po_description":null,
 "po_help":null,
 "po_name":null,
 "po_printname":null,
 "printname":"List price Value",
 "updated":"2000-01-02T00:00:00",
 "updatedby":0}, "children" : []},
 {"tablename" : "ad_element", "data" : {"ad_element_id":1730,
 "columnname":"PricePOAmt",
 "ad_client_id":0,
 "ad_org_id":0,
 "ad_reference_id":37,
 "ad_reference_value_id":null,
 "created":"2002-01-17T21:11:55",
 "createdby":0,
 "description":"Valuation with PO Price",
 "entitytype":"Material Management",
 "fieldlength":22,
 "help":null,
 "isactive":"Y",
 "name":"PO Price Value",
 "po_description":null,
 "po_help":null,
 "po_name":null,
 "po_printname":null,
 "printname":"PO Price Value",
 "updated":"2000-01-02T00:00:00",
 "updatedby":0}, "children" : []},
 {"tablename" : "ad_element", "data" : {"ad_element_id":1731,
 "columnname":"PriceStdAmt",
 "ad_client_id":0,
 "ad_org_id":0,
 "ad_reference_id":37,
 "ad_reference_value_id":null,
 "created":"2002-01-17T21:11:55",
 "createdby":0,
 "description":"Valuation with standard price",
 "entitytype":"Material Management",
 "fieldlength":22,
 "help":null,
 "isactive":"Y",
 "name":"Std Price Value",
 "po_description":null,
 "po_help":null,
 "po_name":null,
 "po_printname":null,
 "printname":"Std Price Value",
 "updated":"2000-01-02T00:00:00",
 "updatedby":0}, "children" : []},
 {"tablename" : "ad_element", "data" : {"ad_element_id":1936,
 "columnname":"GuaranteeDate",
 "ad_client_id":0,
 "ad_org_id":0,
 "ad_reference_id":15,
 "ad_reference_value_id":null,
 "created":"2003-01-23T00:10:32",
 "createdby":0,
 "description":"Date when guarantee expires",
 "entitytype":"Material Management",
 "fieldlength":7,
 "help":"Date when the normal guarantee or availability expires",
 "isactive":"Y",
 "name":"Guarantee Date",
 "po_description":null,
 "po_help":null,
 "po_name":null,
 "po_printname":null,
 "printname":"Guarantee date",
 "updated":"2016-04-11T16:36:03",
 "updatedby":0}, "children" : []},
 {"tablename" : "ad_element", "data" : {"ad_element_id":2021,
 "columnname":"M_Lot_ID",
 "ad_client_id":0,
 "ad_org_id":0,
 "ad_reference_id":13,
 "ad_reference_value_id":null,
 "created":"2003-05-05T20:33:24",
 "createdby":0,
 "description":"Product Lot Definition",
 "entitytype":"Material Management",
 "fieldlength":22,
 "help":"The individual Lot of a Product",
 "isactive":"Y",
 "name":"Lot",
 "po_description":null,
 "po_help":null,
 "po_name":null,
 "po_printname":null,
 "printname":"Lot",
 "updated":"2000-01-02T00:00:00",
 "updatedby":0}, "children" : []},
 {"tablename" : "ad_element", "data" : {"ad_element_id":2109,
 "columnname":"LocatorValue",
 "ad_client_id":0,
 "ad_org_id":0,
 "ad_reference_id":10,
 "ad_reference_value_id":null,
 "created":"2003-06-07T19:49:51",
 "createdby":0,
 "description":"Key of the Warehouse Locator",
 "entitytype":"Material Management",
 "fieldlength":40,
 "help":null,
 "isactive":"Y",
 "name":"Locator Key",
 "po_description":null,
 "po_help":null,
 "po_name":null,
 "po_printname":null,
 "printname":"Locator Key",
 "updated":"2000-01-02T00:00:00",
 "updatedby":0}, "children" : []},
 {"tablename" : "ad_element", "data" : {"ad_element_id":2202,
 "columnname":"InventoryType",
 "ad_client_id":0,
 "ad_org_id":0,
 "ad_reference_id":17,
 "ad_reference_value_id":292,
 "created":"2003-10-07T15:10:01",
 "createdby":0,
 "description":"Type of inventory difference",
 "entitytype":"Material Management",
 "fieldlength":1,
 "help":"The type of inventory difference determines which account is used. The default is the Inventory Difference account defined for the warehouse.  Alternatively, you could select any charge.  This allows you to account for Internal Use or extraordinary inventory losses.",
 "isactive":"Y",
 "name":"Inventory Type",
 "po_description":null,
 "po_help":null,
 "po_name":null,
 "po_printname":null,
 "printname":"Inventory Type",
 "updated":"2000-01-02T00:00:00",
 "updatedby":0}, "children" : []},
 {"tablename" : "ad_element", "data" : {"ad_element_id":2237,
 "columnname":"GoodForDays",
 "ad_client_id":0,
 "ad_org_id":0,
 "ad_reference_id":11,
 "ad_reference_value_id":null,
 "created":"2003-12-04T23:32:04",
 "createdby":0,
 "description":"Shelf Life Days remaining to Guarantee Date (minus minimum guarantee days)",
 "entitytype":"Material Management",
 "fieldlength":22,
 "help":"Shelf Life of products with Guarantee Date instance compared to today minus the minimum guaranteed days.\n(Guarantee Date-Today) – Min Guarantee Days",
 "isactive":"Y",
 "name":"Good for Days",
 "po_description":null,
 "po_help":null,
 "po_name":null,
 "po_printname":null,
 "printname":"Good Days",
 "updated":"2010-01-13T10:38:15",
 "updatedby":0}, "children" : []},
 {"tablename" : "ad_element", "data" : {"ad_element_id":2238,
 "columnname":"QtyAvailable",
 "ad_client_id":0,
 "ad_org_id":0,
 "ad_reference_id":29,
 "ad_reference_value_id":null,
 "created":"2003-12-04T23:32:04",
 "createdby":0,
 "description":"Available Quantity (On Hand - Reserved)",
 "entitytype":"Material Management",
 "fieldlength":22,
 "help":"Quantity available to promise = On Hand minus Reserved Quantity",
 "isactive":"Y",
 "name":"Available Quantity",
 "po_description":null,
 "po_help":null,
 "po_name":null,
 "po_printname":null,
 "printname":"Qty Available",
 "updated":"2000-01-02T00:00:00",
 "updatedby":0}, "children" : []},
 {"tablename" : "ad_element", "data" : {"ad_element_id":2239,
 "columnname":"ShelfLifeRemainingPct",
 "ad_client_id":0,
 "ad_org_id":0,
 "ad_reference_id":11,
 "ad_reference_value_id":null,
 "created":"2003-12-04T23:32:04",
 "createdby":0,
 "description":"Remaining shelf life in percent based on Guarantee Date",
 "entitytype":"Material Management",
 "fieldlength":22,
 "help":"(Guarantee Date-Today) / Guarantee Days",
 "isactive":"Y",
 "name":"Remaining Shelf Life %",
 "po_description":null,
 "po_help":null,
 "po_name":null,
 "po_printname":null,
 "printname":"Rem Shelf Life %",
 "updated":"2000-01-02T00:00:00",
 "updatedby":0}, "children" : []},
 {"tablename" : "ad_element", "data" : {"ad_element_id":2265,
 "columnname":"ShelfLifeDays",
 "ad_client_id":0,
 "ad_org_id":0,
 "ad_reference_id":11,
 "ad_reference_value_id":null,
 "created":"2003-12-07T16:21:46",
 "createdby":0,
 "description":"Shelf Life in days based on Product Instance Guarantee Date",
 "entitytype":"Material Management",
 "fieldlength":22,
 "help":"Shelf Life of products with Guarantee Date instance compared to today.",
 "isactive":"Y",
 "name":"Shelf Life Days",
 "po_description":null,
 "po_help":null,
 "po_name":null,
 "po_printname":null,
 "printname":"Shelf Life Days",
 "updated":"2000-01-02T00:00:00",
 "updatedby":0}, "children" : []},
 {"tablename" : "ad_element", "data" : {"ad_element_id":2386,
 "columnname":"ConfirmedQty",
 "ad_client_id":0,
 "ad_org_id":0,
 "ad_reference_id":29,
 "ad_reference_value_id":null,
 "created":"2004-02-19T10:36:37",
 "createdby":0,
 "description":"Confirmation of a received quantity",
 "entitytype":"Material Management",
 "fieldlength":22,
 "help":"Confirmation of a received quantity",
 "isactive":"Y",
 "name":"Confirmed Quantity",
 "po_description":null,
 "po_help":null,
 "po_name":null,
 "po_printname":null,
 "printname":"Confirmed Qty",
 "updated":"2000-01-02T00:00:00",
 "updatedby":0}, "children" : []},
 {"tablename" : "ad_element", "data" : {"ad_element_id":2422,
 "columnname":"PickedQty",
 "ad_client_id":0,
 "ad_org_id":0,
 "ad_reference_id":29,
 "ad_reference_value_id":null,
 "created":"2004-02-19T10:36:37",
 "createdby":0,
 "description":null,
 "entitytype":"Material Management",
 "fieldlength":22,
 "help":null,
 "isactive":"Y",
 "name":"Picked Qty",
 "po_description":null,
 "po_help":null,
 "po_name":null,
 "po_printname":null,
 "printname":"Picked Qty",
 "updated":"2016-04-11T16:07:52",
 "updatedby":0}, "children" : []},
 {"tablename" : "ad_element", "data" : {"ad_element_id":2435,
 "columnname":"ScrappedQty",
 "ad_client_id":0,
 "ad_org_id":0,
 "ad_reference_id":29,
 "ad_reference_value_id":null,
 "created":"2004-02-19T10:36:37",
 "createdby":0,
 "description":"The Quantity scrapped due to QA issues",
 "entitytype":"Material Management",
 "fieldlength":22,
 "help":null,
 "isactive":"Y",
 "name":"Scrapped Quantity",
 "po_description":null,
 "po_help":null,
 "po_name":null,
 "po_printname":null,
 "printname":"Scrapped Qty",
 "updated":"2000-01-02T00:00:00",
 "updatedby":0}, "children" : []},
 {"tablename" : "ad_element", "data" : {"ad_element_id":2436,
 "columnname":"TargetQty",
 "ad_client_id":0,
 "ad_org_id":0,
 "ad_reference_id":29,
 "ad_reference_value_id":null,
 "created":"2004-02-19T10:36:37",
 "createdby":0,
 "description":"Target Movement Quantity",
 "entitytype":"Material Management",
 "fieldlength":22,
 "help":"The Quantity which should have been received",
 "isactive":"Y",
 "name":"Target Quantity",
 "po_description":null,
 "po_help":null,
 "po_name":null,
 "po_printname":null,
 "printname":"Target Qty",
 "updated":"2000-01-02T00:00:00",
 "updatedby":0}, "children" : []},
 {"tablename" : "ad_element", "data" : {"ad_element_id":2453,
 "columnname":"M_RequisitionLine_ID",
 "ad_client_id":0,
 "ad_org_id":0,
 "ad_reference_id":13,
 "ad_reference_value_id":null,
 "created":"2004-03-11T23:54:41",
 "createdby":0,
 "description":"Material Requisition Line",
 "entitytype":"Material Management",
 "fieldlength":22,
 "help":null,
 "isactive":"Y",
 "name":"Requisition Line",
 "po_description":null,
 "po_help":null,
 "po_name":null,
 "po_printname":null,
 "printname":"Requisition Line",
 "updated":"2000-01-02T00:00:00",
 "updatedby":0}, "children" : []},
 {"tablename" : "ad_element", "data" : {"ad_element_id":2495,
 "columnname":"M_Demand_ID",
 "ad_client_id":0,
 "ad_org_id":0,
 "ad_reference_id":19,
 "ad_reference_value_id":null,
 "created":"2004-04-17T11:16:43",
 "createdby":0,
 "description":"Material Demand",
 "entitytype":"Material Management",
 "fieldlength":22,
 "help":"Material Demand can be based on Forecast, Requisitions, Open Orders",
 "isactive":"Y",
 "name":"Demand",
 "po_description":null,
 "po_help":null,
 "po_name":null,
 "po_printname":null,
 "printname":"Demand",
 "updated":"2000-01-02T00:00:00",
 "updatedby":0}, "children" : []},
 {"tablename" : "ad_element", "data" : {"ad_element_id":2496,
 "columnname":"M_DemandDetail_ID",
 "ad_client_id":0,
 "ad_org_id":0,
 "ad_reference_id":13,
 "ad_reference_value_id":null,
 "created":"2004-04-17T11:16:43",
 "createdby":0,
 "description":"Material Demand Line Source Detail",
 "entitytype":"Material Management",
 "fieldlength":22,
 "help":"Source Link for Material Demand Lines",
 "isactive":"Y",
 "name":"Demand Detail",
 "po_description":null,
 "po_help":null,
 "po_name":null,
 "po_printname":null,
 "printname":"Demand Detail",
 "updated":"2000-01-02T00:00:00",
 "updatedby":0}, "children" : []},
 {"tablename" : "ad_element", "data" : {"ad_element_id":2497,
 "columnname":"M_DemandLine_ID",
 "ad_client_id":0,
 "ad_org_id":0,
 "ad_reference_id":13,
 "ad_reference_value_id":null,
 "created":"2004-04-17T11:16:43",
 "createdby":0,
 "description":"Material Demand Line",
 "entitytype":"Material Management",
 "fieldlength":22,
 "help":"Demand for a product in a period",
 "isactive":"Y",
 "name":"Demand Line",
 "po_description":null,
 "po_help":null,
 "po_name":null,
 "po_printname":null,
 "printname":"Demand Line",
 "updated":"2000-01-02T00:00:00",
 "updatedby":0}, "children" : []},
 {"tablename" : "ad_element", "data" : {"ad_element_id":2499,
 "columnname":"M_ForecastLine_ID",
 "ad_client_id":0,
 "ad_org_id":0,
 "ad_reference_id":30,
 "ad_reference_value_id":null,
 "created":"2004-04-17T11:16:43",
 "createdby":0,
 "description":"Forecast Line",
 "entitytype":"Material Management",
 "fieldlength":22,
 "help":"Forecast of Product Qyantity by Period",
 "isactive":"Y",
 "name":"Forecast Line",
 "po_description":null,
 "po_help":null,
 "po_name":null,
 "po_printname":null,
 "printname":"Forecast Line",
 "updated":"2010-02-15T13:06:23",
 "updatedby":0}, "children" : []},
 {"tablename" : "ad_element", "data" : {"ad_element_id":2500,
 "columnname":"QtyCalculated",
 "ad_client_id":0,
 "ad_org_id":0,
 "ad_reference_id":29,
 "ad_reference_value_id":null,
 "created":"2004-04-17T12:04:47",
 "createdby":0,
 "description":"Calculated Quantity",
 "entitytype":"Material Management",
 "fieldlength":22,
 "help":null,
 "isactive":"Y",
 "name":"Calculated Quantity",
 "po_description":null,
 "po_help":null,
 "po_name":null,
 "po_printname":null,
 "printname":"Calculated Qty",
 "updated":"2008-06-25T22:51:20",
 "updatedby":0}, "children" : []},
 {"tablename" : "ad_element", "data" : {"ad_element_id":2519,
 "columnname":"ConfirmType",
 "ad_client_id":0,
 "ad_org_id":0,
 "ad_reference_id":17,
 "ad_reference_value_id":320,
 "created":"2004-05-10T17:22:03",
 "createdby":0,
 "description":"Type of confirmation",
 "entitytype":"Material Management",
 "fieldlength":2,
 "help":null,
 "isactive":"Y",
 "name":"Confirmation Type",
 "po_description":null,
 "po_help":null,
 "po_name":null,
 "po_printname":null,
 "printname":"Confirm Type",
 "updated":"2000-01-02T00:00:00",
 "updatedby":0}, "children" : []},
 {"tablename" : "ad_element", "data" : {"ad_element_id":2523,
 "columnname":"M_InOutConfirm_ID",
 "ad_client_id":0,
 "ad_org_id":0,
 "ad_reference_id":13,
 "ad_reference_value_id":null,
 "created":"2004-05-10T17:22:03",
 "createdby":0,
 "description":"Material Shipment or Receipt Confirmation",
 "entitytype":"Material Management",
 "fieldlength":22,
 "help":"Confirmation of Shipment or Receipt - Created from the Shipment/Receipt",
 "isactive":"Y",
 "name":"Ship/Receipt Confirmation",
 "po_description":null,
 "po_help":null,
 "po_name":null,
 "po_printname":null,
 "printname":"Ship/Receipt Confirm",
 "updated":"2000-01-02T00:00:00",
 "updatedby":0}, "children" : []},
 {"tablename" : "ad_element", "data" : {"ad_element_id":2524,
 "columnname":"M_InOutLineConfirm_ID",
 "ad_client_id":0,
 "ad_org_id":0,
 "ad_reference_id":13,
 "ad_reference_value_id":null,
 "created":"2004-05-10T17:22:03",
 "createdby":0,
 "description":"Material Shipment or Receipt Confirmation Line",
 "entitytype":"Material Management",
 "fieldlength":22,
 "help":"Confirmation details",
 "isactive":"Y",
 "name":"Ship/Receipt Confirmation Line",
 "po_description":null,
 "po_help":null,
 "po_name":null,
 "po_printname":null,
 "printname":"Ship/Receipt Confirm Line",
 "updated":"2000-01-02T00:00:00",
 "updatedby":0}, "children" : []},
 {"tablename" : "ad_element", "data" : {"ad_element_id":2525,
 "columnname":"CreatePackage",
 "ad_client_id":0,
 "ad_org_id":0,
 "ad_reference_id":28,
 "ad_reference_value_id":null,
 "created":"2004-05-12T11:19:18",
 "createdby":0,
 "description":null,
 "entitytype":"Material Management",
 "fieldlength":1,
 "help":null,
 "isactive":"Y",
 "name":"Create Package",
 "po_description":null,
 "po_help":null,
 "po_name":null,
 "po_printname":null,
 "printname":"Create Package",
 "updated":"2000-01-02T00:00:00",
 "updatedby":0}, "children" : []},
 {"tablename" : "ad_element", "data" : {"ad_element_id":2526,
 "columnname":"DifferenceQty",
 "ad_client_id":0,
 "ad_org_id":0,
 "ad_reference_id":29,
 "ad_reference_value_id":null,
 "created":"2004-05-12T11:19:18",
 "createdby":0,
 "description":"Difference Quantity",
 "entitytype":"Material Management",
 "fieldlength":22,
 "help":null,
 "isactive":"Y",
 "name":"Difference",
 "po_description":null,
 "po_help":null,
 "po_name":null,
 "po_printname":null,
 "printname":"Difference",
 "updated":"2000-01-02T00:00:00",
 "updatedby":0}, "children" : []},
 {"tablename" : "ad_element", "data" : {"ad_element_id":2531,
 "columnname":"IsCancelled",
 "ad_client_id":0,
 "ad_org_id":0,
 "ad_reference_id":20,
 "ad_reference_value_id":null,
 "created":"2004-05-17T22:51:57",
 "createdby":0,
 "description":"The transaction was cancelled",
 "entitytype":"Material Management",
 "fieldlength":1,
 "help":null,
 "isactive":"Y",
 "name":"Cancelled",
 "po_description":null,
 "po_help":null,
 "po_name":null,
 "po_printname":null,
 "printname":"Cancelled",
 "updated":"2000-01-02T00:00:00",
 "updatedby":0}, "children" : []},
 {"tablename" : "ad_element", "data" : {"ad_element_id":2533,
 "columnname":"ApprovalAmt",
 "ad_client_id":0,
 "ad_org_id":0,
 "ad_reference_id":12,
 "ad_reference_value_id":null,
 "created":"2004-06-10T18:22:14",
 "createdby":0,
 "description":"Document Approval Amount",
 "entitytype":"Material Management",
 "fieldlength":22,
 "help":"Approval Amount for Workflow",
 "isactive":"Y",
 "name":"Approval Amount",
 "po_description":null,
 "po_help":null,
 "po_name":null,
 "po_printname":null,
 "printname":"Approval Amt",
 "updated":"2000-01-02T00:00:00",
 "updatedby":0}, "children" : []},
 {"tablename" : "ad_element", "data" : {"ad_element_id":2543,
 "columnname":"IsInDispute",
 "ad_client_id":0,
 "ad_org_id":0,
 "ad_reference_id":20,
 "ad_reference_value_id":null,
 "created":"2004-06-14T22:05:00",
 "createdby":0,
 "description":"Document is in dispute",
 "entitytype":"Material Management",
 "fieldlength":1,
 "help":"The document is in dispute. Use Requests to track details.",
 "isactive":"Y",
 "name":"In Dispute",
 "po_description":null,
 "po_help":null,
 "po_name":null,
 "po_printname":null,
 "printname":"In Dispute",
 "updated":"2000-01-02T00:00:00",
 "updatedby":0}, "children" : []},
 {"tablename" : "ad_element", "data" : {"ad_element_id":2560,
 "columnname":"ConfirmationNo",
 "ad_client_id":0,
 "ad_org_id":0,
 "ad_reference_id":10,
 "ad_reference_value_id":null,
 "created":"2004-07-02T14:15:14",
 "createdby":0,
 "description":"Confirmation Number",
 "entitytype":"Material Management",
 "fieldlength":20,
 "help":null,
 "isactive":"Y",
 "name":"Confirmation No",
 "po_description":null,
 "po_help":null,
 "po_name":null,
 "po_printname":null,
 "printname":"Confirmation No",
 "updated":"2000-01-02T00:00:00",
 "updatedby":0}, "children" : []},
 {"tablename" : "ad_element", "data" : {"ad_element_id":2627,
 "columnname":"ReplenishmentCreate",
 "ad_client_id":0,
 "ad_org_id":0,
 "ad_reference_id":17,
 "ad_reference_value_id":329,
 "created":"2004-08-25T22:54:39",
 "createdby":0,
 "description":"Create from Replenishment",
 "entitytype":"Material Management",
 "fieldlength":1,
 "help":null,
 "isactive":"Y",
 "name":"Create",
 "po_description":null,
 "po_help":null,
 "po_name":null,
 "po_printname":null,
 "printname":"Create",
 "updated":"2000-01-02T00:00:00",
 "updatedby":0}, "children" : []},
 {"tablename" : "ad_element", "data" : {"ad_element_id":2654,
 "columnname":"QtyInternalUse",
 "ad_client_id":0,
 "ad_org_id":0,
 "ad_reference_id":29,
 "ad_reference_value_id":null,
 "created":"2004-11-26T21:01:11",
 "createdby":0,
 "description":"Internal Use Quantity removed from Inventory",
 "entitytype":"Material Management",
 "fieldlength":22,
 "help":"Quantity of product inventory used internally (positive if taken out - negative if returned)",
 "isactive":"Y",
 "name":"Internal Use Qty",
 "po_description":null,
 "po_help":null,
 "po_name":null,
 "po_printname":null,
 "printname":"Internal Use",
 "updated":"2000-01-02T00:00:00",
 "updatedby":0}, "children" : []},
 {"tablename" : "ad_element", "data" : {"ad_element_id":2658,
 "columnname":"M_Product_To_ID",
 "ad_client_id":0,
 "ad_org_id":0,
 "ad_reference_id":null,
 "ad_reference_value_id":null,
 "created":"2004-11-27T23:42:43",
 "createdby":0,
 "description":"Product to be converted to (must have UOM Conversion defined to From Product)",
 "entitytype":"Material Management",
 "fieldlength":null,
 "help":null,
 "isactive":"Y",
 "name":"To Product",
 "po_description":null,
 "po_help":null,
 "po_name":null,
 "po_printname":null,
 "printname":"To Product",
 "updated":"2000-01-02T00:00:00",
 "updatedby":0}, "children" : []},
 {"tablename" : "ad_element", "data" : {"ad_element_id":2687,
 "columnname":"Search_Invoice_ID",
 "ad_client_id":0,
 "ad_org_id":0,
 "ad_reference_id":30,
 "ad_reference_value_id":336,
 "created":"2005-04-01T15:51:08",
 "createdby":100,
 "description":"Search Invoice Identifier",
 "entitytype":"Material Management",
 "fieldlength":22,
 "help":"The Invoice Document.",
 "isactive":"Y",
 "name":"Search Invoice",
 "po_description":null,
 "po_help":null,
 "po_name":null,
 "po_printname":null,
 "printname":"Search Invoice",
 "updated":"2005-04-01T15:51:08",
 "updatedby":100}, "children" : []},
 {"tablename" : "ad_element", "data" : {"ad_element_id":2688,
 "columnname":"Search_Order_ID",
 "ad_client_id":0,
 "ad_org_id":0,
 "ad_reference_id":30,
 "ad_reference_value_id":290,
 "created":"2005-04-01T15:52:48",
 "createdby":100,
 "description":"Order Identifier",
 "entitytype":"Material Management",
 "fieldlength":22,
 "help":"Order is a control document.",
 "isactive":"Y",
 "name":"Search Order",
 "po_description":null,
 "po_help":null,
 "po_name":null,
 "po_printname":null,
 "printname":"Search Order",
 "updated":"2005-04-01T15:52:48",
 "updatedby":100}, "children" : []},
 {"tablename" : "ad_element", "data" : {"ad_element_id":2689,
 "columnname":"Search_InOut_ID",
 "ad_client_id":0,
 "ad_org_id":0,
 "ad_reference_id":30,
 "ad_reference_value_id":295,
 "created":"2005-04-01T16:00:21",
 "createdby":100,
 "description":"Material Shipment Document",
 "entitytype":"Material Management",
 "fieldlength":22,
 "help":"The Material Shipment / Receipt ",
 "isactive":"Y",
 "name":"Search Shipment/Receipt",
 "po_description":null,
 "po_help":null,
 "po_name":null,
 "po_printname":null,
 "printname":"Search Shipment/Receipt",
 "updated":"2005-04-01T16:00:21",
 "updatedby":100}, "children" : []},
 {"tablename" : "ad_element", "data" : {"ad_element_id":2799,
 "columnname":"M_AttributeSetInstanceTo_ID",
 "ad_client_id":0,
 "ad_org_id":0,
 "ad_reference_id":35,
 "ad_reference_value_id":null,
 "created":"2005-05-29T00:49:29",
 "createdby":100,
 "description":"Target Product Attribute Set Instance",
 "entitytype":"Material Management",
 "fieldlength":10,
 "help":null,
 "isactive":"Y",
 "name":"Attribute Set Instance To",
 "po_description":null,
 "po_help":null,
 "po_name":null,
 "po_printname":null,
 "printname":"Attribute Set Instance To",
 "updated":"2005-05-29T00:52:45",
 "updatedby":100}, "children" : []},
 {"tablename" : "ad_element", "data" : {"ad_element_id":2962,
 "columnname":"CostAmt",
 "ad_client_id":0,
 "ad_org_id":0,
 "ad_reference_id":12,
 "ad_reference_value_id":null,
 "created":"2006-01-09T17:54:23",
 "createdby":100,
 "description":"Value with Cost",
 "entitytype":"Material Management",
 "fieldlength":22,
 "help":null,
 "isactive":"Y",
 "name":"Cost Value",
 "po_description":null,
 "po_help":null,
 "po_name":null,
 "po_printname":null,
 "printname":"Cost Value",
 "updated":"2016-04-11T16:31:56",
 "updatedby":0}, "children" : []},
 {"tablename" : "ad_element", "data" : {"ad_element_id":2968,
 "columnname":"InventoryCountSet",
 "ad_client_id":0,
 "ad_org_id":0,
 "ad_reference_id":null,
 "ad_reference_value_id":null,
 "created":"2006-01-19T13:10:47",
 "createdby":100,
 "description":"Set the value of the inventory count to Zero or On Hand Quantity",
 "entitytype":"Material Management",
 "fieldlength":null,
 "help":null,
 "isactive":"Y",
 "name":"Set Inventory Count to",
 "po_description":null,
 "po_help":null,
 "po_name":null,
 "po_printname":null,
 "printname":"Set Inventory Count to",
 "updated":"2006-01-19T13:15:02",
 "updatedby":100}, "children" : []},
 {"tablename" : "ad_element", "data" : {"ad_element_id":52053,
 "columnname":"QtyCsv",
 "ad_client_id":0,
 "ad_org_id":0,
 "ad_reference_id":29,
 "ad_reference_value_id":null,
 "created":"2008-12-21T03:58:43.440582",
 "createdby":100,
 "description":null,
 "entitytype":"Material Management",
 "fieldlength":131089,
 "help":null,
 "isactive":"Y",
 "name":"QtyCsv",
 "po_description":null,
 "po_help":null,
 "po_name":null,
 "po_printname":null,
 "printname":"QtyCsv",
 "updated":"2008-12-21T03:58:43.440582",
 "updatedby":100}, "children" : []},
 {"tablename" : "ad_element", "data" : {"ad_element_id":53457,
 "columnname":"Reversal_ID",
 "ad_client_id":0,
 "ad_org_id":0,
 "ad_reference_id":18,
 "ad_reference_value_id":337,
 "created":"2008-04-22T17:27:18",
 "createdby":0,
 "description":"ID of document reversal",
 "entitytype":"Material Management",
 "fieldlength":22,
 "help":null,
 "isactive":"Y",
 "name":"Reversal ID",
 "po_description":null,
 "po_help":null,
 "po_name":null,
 "po_printname":null,
 "printname":"Reversal ID",
 "updated":"2008-04-22T17:27:18",
 "updatedby":0}, "children" : []},
 {"tablename" : "ad_element", "data" : {"ad_element_id":53689,
 "columnname":"ReversalLine_ID",
 "ad_client_id":0,
 "ad_org_id":0,
 "ad_reference_id":18,
 "ad_reference_value_id":295,
 "created":"2008-09-28T14:39:22",
 "createdby":0,
 "description":"Use to keep the reversal line ID for reversing costing purpose",
 "entitytype":"Material Management",
 "fieldlength":22,
 "help":null,
 "isactive":"Y",
 "name":"Reversal Line",
 "po_description":null,
 "po_help":null,
 "po_name":null,
 "po_printname":null,
 "printname":"Reversal Line",
 "updated":"2008-09-28T14:39:22",
 "updatedby":0}, "children" : []},
 {"tablename" : "ad_element", "data" : {"ad_element_id":54087,
 "columnname":"SumQtyOnHand",
 "ad_client_id":0,
 "ad_org_id":0,
 "ad_reference_id":29,
 "ad_reference_value_id":null,
 "created":"2009-12-01T16:57:45",
 "createdby":100,
 "description":"Summary of product on hand in all locators",
 "entitytype":"Material Management",
 "fieldlength":131089,
 "help":null,
 "isactive":"Y",
 "name":"Sum Qty on Hand",
 "po_description":null,
 "po_help":null,
 "po_name":null,
 "po_printname":null,
 "printname":"Sum Qty on Hand",
 "updated":"2009-12-01T16:59:05",
 "updatedby":100}, "children" : []},
 {"tablename" : "ad_element", "data" : {"ad_element_id":55236,
 "columnname":"QtyUsed",
 "ad_client_id":0,
 "ad_org_id":0,
 "ad_reference_id":12,
 "ad_reference_value_id":null,
 "created":"2011-07-27T15:15:22",
 "createdby":100,
 "description":null,
 "entitytype":"Material Management",
 "fieldlength":10,
 "help":null,
 "isactive":"Y",
 "name":"Quantity Used",
 "po_description":null,
 "po_help":null,
 "po_name":null,
 "po_printname":null,
 "printname":"Quantity Used in production",
 "updated":"2011-07-27T15:15:22",
 "updatedby":100}, "children" : []},
 {"tablename" : "ad_element", "data" : {"ad_element_id":55237,
 "columnname":"IsEndProduct",
 "ad_client_id":0,
 "ad_org_id":0,
 "ad_reference_id":20,
 "ad_reference_value_id":null,
 "created":"2011-07-27T15:15:27",
 "createdby":100,
 "description":"End Product of production",
 "entitytype":"Material Management",
 "fieldlength":1,
 "help":null,
 "isactive":"Y",
 "name":"End Product",
 "po_description":null,
 "po_help":null,
 "po_name":null,
 "po_printname":null,
 "printname":"End Product",
 "updated":"2011-07-27T15:15:27",
 "updatedby":100}, "children" : []},
 {"tablename" : "ad_element", "data" : {"ad_element_id":55238,
 "columnname":"M_QualityTestResult_ID",
 "ad_client_id":0,
 "ad_org_id":0,
 "ad_reference_id":13,
 "ad_reference_value_id":null,
 "created":"2011-07-27T15:15:57",
 "createdby":100,
 "description":null,
 "entitytype":"Material Management",
 "fieldlength":22,
 "help":null,
 "isactive":"Y",
 "name":"Quality Test Result",
 "po_description":null,
 "po_help":null,
 "po_name":null,
 "po_printname":null,
 "printname":"Quality Test Result",
 "updated":"2011-07-27T15:15:57",
 "updatedby":100}, "children" : []},
 {"tablename" : "ad_element", "data" : {"ad_element_id":55239,
 "columnname":"M_QualityTest_ID",
 "ad_client_id":0,
 "ad_org_id":0,
 "ad_reference_id":19,
 "ad_reference_value_id":null,
 "created":"2011-07-27T15:16:20",
 "createdby":100,
 "description":null,
 "entitytype":"Material Management",
 "fieldlength":10,
 "help":null,
 "isactive":"Y",
 "name":"Quality Test",
 "po_description":null,
 "po_help":null,
 "po_name":null,
 "po_printname":null,
 "printname":"Quality Test",
 "updated":"2011-07-27T15:16:20",
 "updatedby":100}, "children" : []},
 {"tablename" : "ad_element", "data" : {"ad_element_id":55240,
 "columnname":"IsQCPass",
 "ad_client_id":0,
 "ad_org_id":0,
 "ad_reference_id":20,
 "ad_reference_value_id":null,
 "created":"2011-07-27T15:16:23",
 "createdby":100,
 "description":null,
 "entitytype":"Material Management",
 "fieldlength":1,
 "help":null,
 "isactive":"Y",
 "name":"QC Pass",
 "po_description":null,
 "po_help":null,
 "po_name":null,
 "po_printname":null,
 "printname":"QC Pass",
 "updated":"2011-07-27T15:16:23",
 "updatedby":100}, "children" : []},
 {"tablename" : "ad_element", "data" : {"ad_element_id":55241,
 "columnname":"ExpectedResult",
 "ad_client_id":0,
 "ad_org_id":0,
 "ad_reference_id":10,
 "ad_reference_value_id":null,
 "created":"2011-07-27T15:16:28",
 "createdby":100,
 "description":null,
 "entitytype":"Material Management",
 "fieldlength":22,
 "help":null,
 "isactive":"Y",
 "name":"Expected Result",
 "po_description":null,
 "po_help":null,
 "po_name":null,
 "po_printname":null,
 "printname":"Expected Result",
 "updated":"2011-07-27T15:16:28",
 "updatedby":100}, "children" : []},
 {"tablename" : "ad_element", "data" : {"ad_element_id":56351,
 "columnname":"FirstCountQty",
 "ad_client_id":0,
 "ad_org_id":0,
 "ad_reference_id":29,
 "ad_reference_value_id":null,
 "created":"2013-09-17T08:39:05",
 "createdby":100,
 "description":null,
 "entitytype":"Material Management",
 "fieldlength":22,
 "help":null,
 "isactive":"Y",
 "name":"First Count Qty",
 "po_description":null,
 "po_help":null,
 "po_name":null,
 "po_printname":null,
 "printname":"1st Count",
 "updated":"2013-09-17T08:39:05",
 "updatedby":100}, "children" : []},
 {"tablename" : "ad_element", "data" : {"ad_element_id":56352,
 "columnname":"SecondCountQty",
 "ad_client_id":0,
 "ad_org_id":0,
 "ad_reference_id":29,
 "ad_reference_value_id":null,
 "created":"2013-09-17T08:40:00",
 "createdby":100,
 "description":null,
 "entitytype":"Material Management",
 "fieldlength":22,
 "help":null,
 "isactive":"Y",
 "name":"Second Count Qty",
 "po_description":null,
 "po_help":null,
 "po_name":null,
 "po_printname":null,
 "printname":"2nd Count",
 "updated":"2013-09-17T08:40:00",
 "updatedby":100}, "children" : []},
 {"tablename" : "ad_element", "data" : {"ad_element_id":56353,
 "columnname":"CountEntered",
 "ad_client_id":0,
 "ad_org_id":0,
 "ad_reference_id":20,
 "ad_reference_value_id":null,
 "created":"2013-09-17T08:41:33",
 "createdby":100,
 "description":null,
 "entitytype":"Material Management",
 "fieldlength":1,
 "help":null,
 "isactive":"Y",
 "name":"Count Entered",
 "po_description":null,
 "po_help":null,
 "po_name":null,
 "po_printname":null,
 "printname":"Entered",
 "updated":"2013-09-17T08:41:33",
 "updatedby":100}, "children" : []},
 {"tablename" : "ad_element", "data" : {"ad_element_id":56778,
 "columnname":"IsStocktake",
 "ad_client_id":0,
 "ad_org_id":0,
 "ad_reference_id":20,
 "ad_reference_value_id":null,
 "created":"2013-12-08T18:33:43",
 "createdby":100,
 "description":null,
 "entitytype":"Material Management",
 "fieldlength":1,
 "help":"Enable stocktake enhancements, including facility to record first and second counts.",
 "isactive":"Y",
 "name":"Stocktake",
 "po_description":null,
 "po_help":null,
 "po_name":null,
 "po_printname":null,
 "printname":"Stocktake",
 "updated":"2013-12-08T18:33:43",
 "updatedby":100}, "children" : []},
 {"tablename" : "ad_element", "data" : {"ad_element_id":56782,
 "columnname":"UpdateQtyCount",
 "ad_client_id":0,
 "ad_org_id":0,
 "ad_reference_id":28,
 "ad_reference_value_id":null,
 "created":"2013-12-09T10:15:06",
 "createdby":100,
 "description":null,
 "entitytype":"Material Management",
 "fieldlength":1,
 "help":null,
 "isactive":"Y",
 "name":"Update Quantity Count",
 "po_description":null,
 "po_help":null,
 "po_name":null,
 "po_printname":null,
 "printname":"UpdateQtyCount",
 "updated":"2013-12-09T10:15:06",
 "updatedby":100}, "children" : []},
 {"tablename" : "ad_element", "data" : {"ad_element_id":57919,
 "columnname":"Apr",
 "ad_client_id":0,
 "ad_org_id":0,
 "ad_reference_id":null,
 "ad_reference_value_id":null,
 "created":"2015-03-24T15:46:02",
 "createdby":100,
 "description":null,
 "entitytype":"Material Management",
 "fieldlength":null,
 "help":null,
 "isactive":"Y",
 "name":"April",
 "po_description":null,
 "po_help":null,
 "po_name":null,
 "po_printname":null,
 "printname":"April",
 "updated":"2016-04-11T16:47:17",
 "updatedby":0}, "children" : []},
 {"tablename" : "ad_element", "data" : {"ad_element_id":57920,
 "columnname":"Aug",
 "ad_client_id":0,
 "ad_org_id":0,
 "ad_reference_id":null,
 "ad_reference_value_id":null,
 "created":"2015-03-24T15:46:03",
 "createdby":100,
 "description":null,
 "entitytype":"Material Management",
 "fieldlength":null,
 "help":null,
 "isactive":"Y",
 "name":"August",
 "po_description":null,
 "po_help":null,
 "po_name":null,
 "po_printname":null,
 "printname":"August",
 "updated":"2016-04-11T16:47:17",
 "updatedby":0}, "children" : []},
 {"tablename" : "ad_element", "data" : {"ad_element_id":57921,
 "columnname":"Dec",
 "ad_client_id":0,
 "ad_org_id":0,
 "ad_reference_id":null,
 "ad_reference_value_id":null,
 "created":"2015-03-24T15:46:05",
 "createdby":100,
 "description":null,
 "entitytype":"Material Management",
 "fieldlength":null,
 "help":null,
 "isactive":"Y",
 "name":"December",
 "po_description":null,
 "po_help":null,
 "po_name":null,
 "po_printname":null,
 "printname":"December",
 "updated":"2016-04-11T16:47:18",
 "updatedby":0}, "children" : []},
 {"tablename" : "ad_element", "data" : {"ad_element_id":57922,
 "columnname":"Feb",
 "ad_client_id":0,
 "ad_org_id":0,
 "ad_reference_id":null,
 "ad_reference_value_id":null,
 "created":"2015-03-24T15:46:06",
 "createdby":100,
 "description":null,
 "entitytype":"Material Management",
 "fieldlength":null,
 "help":null,
 "isactive":"Y",
 "name":"February",
 "po_description":null,
 "po_help":null,
 "po_name":null,
 "po_printname":null,
 "printname":"February",
 "updated":"2016-04-11T16:47:18",
 "updatedby":0}, "children" : []},
 {"tablename" : "ad_element", "data" : {"ad_element_id":57923,
 "columnname":"Jan",
 "ad_client_id":0,
 "ad_org_id":0,
 "ad_reference_id":null,
 "ad_reference_value_id":null,
 "created":"2015-03-24T15:46:08",
 "createdby":100,
 "description":null,
 "entitytype":"Material Management",
 "fieldlength":null,
 "help":null,
 "isactive":"Y",
 "name":"January",
 "po_description":null,
 "po_help":null,
 "po_name":null,
 "po_printname":null,
 "printname":"January",
 "updated":"2016-04-11T16:47:18",
 "updatedby":0}, "children" : []},
 {"tablename" : "ad_element", "data" : {"ad_element_id":57924,
 "columnname":"Jul",
 "ad_client_id":0,
 "ad_org_id":0,
 "ad_reference_id":null,
 "ad_reference_value_id":null,
 "created":"2015-03-24T15:46:09",
 "createdby":100,
 "description":null,
 "entitytype":"Material Management",
 "fieldlength":null,
 "help":null,
 "isactive":"Y",
 "name":"July",
 "po_description":null,
 "po_help":null,
 "po_name":null,
 "po_printname":null,
 "printname":"July",
 "updated":"2016-04-11T16:47:19",
 "updatedby":0}, "children" : []},
 {"tablename" : "ad_element", "data" : {"ad_element_id":57925,
 "columnname":"Jun",
 "ad_client_id":0,
 "ad_org_id":0,
 "ad_reference_id":null,
 "ad_reference_value_id":null,
 "created":"2015-03-24T15:46:10",
 "createdby":100,
 "description":null,
 "entitytype":"Material Management",
 "fieldlength":null,
 "help":null,
 "isactive":"Y",
 "name":"June",
 "po_description":null,
 "po_help":null,
 "po_name":null,
 "po_printname":null,
 "printname":"June",
 "updated":"2016-04-11T16:47:19",
 "updatedby":0}, "children" : []},
 {"tablename" : "ad_element", "data" : {"ad_element_id":57926,
 "columnname":"Mar",
 "ad_client_id":0,
 "ad_org_id":0,
 "ad_reference_id":null,
 "ad_reference_value_id":null,
 "created":"2015-03-24T15:46:11",
 "createdby":100,
 "description":null,
 "entitytype":"Material Management",
 "fieldlength":null,
 "help":null,
 "isactive":"Y",
 "name":"March",
 "po_description":null,
 "po_help":null,
 "po_name":null,
 "po_printname":null,
 "printname":"March",
 "updated":"2016-04-11T16:47:20",
 "updatedby":0}, "children" : []},
 {"tablename" : "ad_element", "data" : {"ad_element_id":57927,
 "columnname":"May",
 "ad_client_id":0,
 "ad_org_id":0,
 "ad_reference_id":null,
 "ad_reference_value_id":null,
 "created":"2015-03-24T15:46:12",
 "createdby":100,
 "description":null,
 "entitytype":"Material Management",
 "fieldlength":null,
 "help":null,
 "isactive":"Y",
 "name":"May",
 "po_description":null,
 "po_help":null,
 "po_name":null,
 "po_printname":null,
 "printname":"May",
 "updated":"2016-04-11T16:47:20",
 "updatedby":0}, "children" : []},
 {"tablename" : "ad_element", "data" : {"ad_element_id":57928,
 "columnname":"Nov",
 "ad_client_id":0,
 "ad_org_id":0,
 "ad_reference_id":null,
 "ad_reference_value_id":null,
 "created":"2015-03-24T15:46:13",
 "createdby":100,
 "description":null,
 "entitytype":"Material Management",
 "fieldlength":null,
 "help":null,
 "isactive":"Y",
 "name":"November",
 "po_description":null,
 "po_help":null,
 "po_name":null,
 "po_printname":null,
 "printname":"November",
 "updated":"2016-04-11T16:47:20",
 "updatedby":0}, "children" : []},
 {"tablename" : "ad_element", "data" : {"ad_element_id":57929,
 "columnname":"Oct",
 "ad_client_id":0,
 "ad_org_id":0,
 "ad_reference_id":null,
 "ad_reference_value_id":null,
 "created":"2015-03-24T15:46:14",
 "createdby":100,
 "description":null,
 "entitytype":"Material Management",
 "fieldlength":null,
 "help":null,
 "isactive":"Y",
 "name":"October",
 "po_description":null,
 "po_help":null,
 "po_name":null,
 "po_printname":null,
 "printname":"October",
 "updated":"2016-04-11T16:47:21",
 "updatedby":0}, "children" : []},
 {"tablename" : "ad_element", "data" : {"ad_element_id":57930,
 "columnname":"Sep",
 "ad_client_id":0,
 "ad_org_id":0,
 "ad_reference_id":null,
 "ad_reference_value_id":null,
 "created":"2015-03-24T15:46:14",
 "createdby":100,
 "description":null,
 "entitytype":"Material Management",
 "fieldlength":null,
 "help":null,
 "isactive":"Y",
 "name":"September",
 "po_description":null,
 "po_help":null,
 "po_name":null,
 "po_printname":null,
 "printname":"September",
 "updated":"2016-04-11T16:47:21",
 "updatedby":0}, "children" : []},
 {"tablename" : "ad_element", "data" : {"ad_element_id":58026,
 "columnname":"IsWIP",
 "ad_client_id":0,
 "ad_org_id":0,
 "ad_reference_id":20,
 "ad_reference_value_id":null,
 "created":"2015-07-12T11:35:32",
 "createdby":100,
 "description":null,
 "entitytype":"Material Management",
 "fieldlength":1,
 "help":null,
 "isactive":"Y",
 "name":"Work In Progress",
 "po_description":null,
 "po_help":null,
 "po_name":null,
 "po_printname":null,
 "printname":"WIP",
 "updated":"2015-07-12T11:35:32",
 "updatedby":100}, "children" : []},
 {"tablename" : "ad_element", "data" : {"ad_element_id":58354,
 "columnname":"M_Production_Batch_ID",
 "ad_client_id":0,
 "ad_org_id":0,
 "ad_reference_id":null,
 "ad_reference_value_id":null,
 "created":"2015-11-20T15:21:32",
 "createdby":100,
 "description":null,
 "entitytype":"Material Management",
 "fieldlength":null,
 "help":null,
 "isactive":"Y",
 "name":"Production Batch",
 "po_description":null,
 "po_help":null,
 "po_name":null,
 "po_printname":null,
 "printname":"Production Batch",
 "updated":"2015-11-20T15:21:32",
 "updatedby":100}, "children" : []},
 {"tablename" : "ad_element", "data" : {"ad_element_id":58355,
 "columnname":"CountOrder",
 "ad_client_id":0,
 "ad_org_id":0,
 "ad_reference_id":null,
 "ad_reference_value_id":null,
 "created":"2015-11-20T15:23:25",
 "createdby":100,
 "description":null,
 "entitytype":"Material Management",
 "fieldlength":null,
 "help":null,
 "isactive":"Y",
 "name":"Order Count",
 "po_description":null,
 "po_help":null,
 "po_name":null,
 "po_printname":null,
 "printname":"Order Count",
 "updated":"2016-04-11T16:54:41",
 "updatedby":0}, "children" : []},
 {"tablename" : "ad_element", "data" : {"ad_element_id":58356,
 "columnname":"QtyCompleted",
 "ad_client_id":0,
 "ad_org_id":0,
 "ad_reference_id":null,
 "ad_reference_value_id":null,
 "created":"2015-11-20T15:23:27",
 "createdby":100,
 "description":null,
 "entitytype":"Material Management",
 "fieldlength":null,
 "help":null,
 "isactive":"Y",
 "name":"Qty Completed",
 "po_description":null,
 "po_help":null,
 "po_name":null,
 "po_printname":null,
 "printname":"Qty Completed",
 "updated":"2016-04-11T16:54:41",
 "updatedby":0}, "children" : []},
 {"tablename" : "ad_element", "data" : {"ad_element_id":58413,
 "columnname":"IsCreateMove",
 "ad_client_id":0,
 "ad_org_id":0,
 "ad_reference_id":20,
 "ad_reference_value_id":null,
 "created":"2016-04-20T16:09:00",
 "createdby":100,
 "description":null,
 "entitytype":"Material Management",
 "fieldlength":1,
 "help":null,
 "isactive":"Y",
 "name":"Create Move",
 "po_description":null,
 "po_help":null,
 "po_name":null,
 "po_printname":null,
 "printname":"Create Move",
 "updated":"2016-04-20T16:09:00",
 "updatedby":100}, "children" : []},
 {"tablename" : "ad_element", "data" : {"ad_element_id":58925,
 "columnname":"CurrentCostValue",
 "ad_client_id":0,
 "ad_org_id":0,
 "ad_reference_id":12,
 "ad_reference_value_id":null,
 "created":"2016-05-25T14:09:11",
 "createdby":100,
 "description":null,
 "entitytype":"Material Management",
 "fieldlength":null,
 "help":null,
 "isactive":"Y",
 "name":"Current Cost Value",
 "po_description":null,
 "po_help":null,
 "po_name":null,
 "po_printname":null,
 "printname":"Current Cost Value",
 "updated":"2016-07-01T00:52:03",
 "updatedby":0}, "children" : []},
 {"tablename" : "ad_element", "data" : {"ad_element_id":58926,
 "columnname":"FutureCostValue",
 "ad_client_id":0,
 "ad_org_id":0,
 "ad_reference_id":12,
 "ad_reference_value_id":null,
 "created":"2016-05-25T14:09:13",
 "createdby":100,
 "description":null,
 "entitytype":"Material Management",
 "fieldlength":null,
 "help":null,
 "isactive":"Y",
 "name":"Future Cost Value",
 "po_description":null,
 "po_help":null,
 "po_name":null,
 "po_printname":null,
 "printname":"Future Cost Value",
 "updated":"2016-07-01T00:52:03",
 "updatedby":0}, "children" : []},
 {"tablename" : "ad_element", "data" : {"ad_element_id":58927,
 "columnname":"AmountDiff",
 "ad_client_id":0,
 "ad_org_id":0,
 "ad_reference_id":12,
 "ad_reference_value_id":null,
 "created":"2016-05-25T14:09:15",
 "createdby":100,
 "description":null,
 "entitytype":"Material Management",
 "fieldlength":null,
 "help":null,
 "isactive":"Y",
 "name":"Amount Diff",
 "po_description":null,
 "po_help":null,
 "po_name":null,
 "po_printname":null,
 "printname":"Amount Diff",
 "updated":"2016-07-01T00:52:03",
 "updatedby":0}, "children" : []},
 {"tablename" : "ad_element", "data" : {"ad_element_id":59024,
 "columnname":"isGroupByLocator",
 "ad_client_id":0,
 "ad_org_id":0,
 "ad_reference_id":20,
 "ad_reference_value_id":null,
 "created":"2016-10-31T11:41:52",
 "createdby":100,
 "description":null,
 "entitytype":"Material Management",
 "fieldlength":1,
 "help":null,
 "isactive":"Y",
 "name":"Group By Locator",
 "po_description":null,
 "po_help":null,
 "po_name":null,
 "po_printname":null,
 "printname":"Group By Locator",
 "updated":"2016-10-31T11:41:52",
 "updatedby":100}, "children" : []},
 {"tablename" : "ad_element", "data" : {"ad_element_id":59043,
 "columnname":"IsUseThisTime",
 "ad_client_id":0,
 "ad_org_id":0,
 "ad_reference_id":20,
 "ad_reference_value_id":null,
 "created":"2016-11-07T17:36:40",
 "createdby":100,
 "description":"Preserve this item.  Exclude from delete Process.",
 "entitytype":"Material Management",
 "fieldlength":1,
 "help":"Flag a line to be excluded in the delete process.",
 "isactive":"Y",
 "name":"Use This Time",
 "po_description":null,
 "po_help":null,
 "po_name":null,
 "po_printname":null,
 "printname":"Use This Time",
 "updated":"2016-11-07T17:36:40",
 "updatedby":100}, "children" : []}]