[{"tablename" : "ad_element", "data" : {"ad_element_id":173,
 "columnname":"BillTo_ID",
 "ad_client_id":0,
 "ad_org_id":0,
 "ad_reference_id":18,
 "ad_reference_value_id":159,
 "created":"1999-11-19T10:07:43",
 "createdby":0,
 "description":"Bill to Address",
 "entitytype":"Data Import",
 "fieldlength":22,
 "help":"The Bill/Invoice To indicates the address to use when remitting bills",
 "isactive":"Y",
 "name":"Invoice To",
 "po_description":"Bill From Address",
 "po_help":"The Bill/Invoice From indicated the address where the invoice is created by the vendor",
 "po_name":"Invoice From",
 "po_printname":"Invoice From",
 "printname":"Invoice To",
 "updated":"2000-01-02T00:00:00",
 "updatedby":0}, "children" : []},
 {"tablename" : "ad_element", "data" : {"ad_element_id":1312,
 "columnname":"AD_ImpFormat_Row_ID",
 "ad_client_id":0,
 "ad_org_id":0,
 "ad_reference_id":13,
 "ad_reference_value_id":null,
 "created":"2000-09-15T14:49:49",
 "createdby":0,
 "description":null,
 "entitytype":"Data Import",
 "fieldlength":22,
 "help":null,
 "isactive":"Y",
 "name":"Format Field",
 "po_description":null,
 "po_help":null,
 "po_name":null,
 "po_printname":null,
 "printname":"Format Field",
 "updated":"2000-01-02T00:00:00",
 "updatedby":0}, "children" : []},
 {"tablename" : "ad_element", "data" : {"ad_element_id":1314,
 "columnname":"DataFormat",
 "ad_client_id":0,
 "ad_org_id":0,
 "ad_reference_id":10,
 "ad_reference_value_id":null,
 "created":"2000-09-15T14:49:49",
 "createdby":0,
 "description":"Format String in Java Notation, e.g. ddMMyy",
 "entitytype":"Data Import",
 "fieldlength":20,
 "help":"The Date Format indicates how dates are defined on the record to be imported.  It must be in Java Notation",
 "isactive":"Y",
 "name":"Data Format",
 "po_description":null,
 "po_help":null,
 "po_name":null,
 "po_printname":null,
 "printname":"Data Format",
 "updated":"2000-01-02T00:00:00",
 "updatedby":0}, "children" : []},
 {"tablename" : "ad_element", "data" : {"ad_element_id":1316,
 "columnname":"DecimalPoint",
 "ad_client_id":0,
 "ad_org_id":0,
 "ad_reference_id":10,
 "ad_reference_value_id":null,
 "created":"2000-09-15T14:49:49",
 "createdby":0,
 "description":"Decimal Point in the data file - if any",
 "entitytype":"Data Import",
 "fieldlength":1,
 "help":null,
 "isactive":"Y",
 "name":"Decimal Point",
 "po_description":null,
 "po_help":null,
 "po_name":null,
 "po_printname":null,
 "printname":"Decimal Point",
 "updated":"2000-01-02T00:00:00",
 "updatedby":0}, "children" : []},
 {"tablename" : "ad_element", "data" : {"ad_element_id":1317,
 "columnname":"DivideBy100",
 "ad_client_id":0,
 "ad_org_id":0,
 "ad_reference_id":20,
 "ad_reference_value_id":null,
 "created":"2000-09-15T14:49:49",
 "createdby":0,
 "description":"Divide number by 100 to get correct amount",
 "entitytype":"Data Import",
 "fieldlength":1,
 "help":null,
 "isactive":"Y",
 "name":"Divide by 100",
 "po_description":null,
 "po_help":null,
 "po_name":null,
 "po_printname":null,
 "printname":"Divide by 100",
 "updated":"2000-01-02T00:00:00",
 "updatedby":0}, "children" : []},
 {"tablename" : "ad_element", "data" : {"ad_element_id":1318,
 "columnname":"EndNo",
 "ad_client_id":0,
 "ad_org_id":0,
 "ad_reference_id":11,
 "ad_reference_value_id":null,
 "created":"2000-09-15T14:49:49",
 "createdby":0,
 "description":null,
 "entitytype":"Data Import",
 "fieldlength":22,
 "help":null,
 "isactive":"Y",
 "name":"End No",
 "po_description":null,
 "po_help":null,
 "po_name":null,
 "po_printname":null,
 "printname":"End No",
 "updated":"2000-01-02T00:00:00",
 "updatedby":0}, "children" : []},
 {"tablename" : "ad_element", "data" : {"ad_element_id":1319,
 "columnname":"FormatType",
 "ad_client_id":0,
 "ad_org_id":0,
 "ad_reference_id":17,
 "ad_reference_value_id":209,
 "created":"2000-09-15T14:49:49",
 "createdby":0,
 "description":"Format of the data",
 "entitytype":"Data Import",
 "fieldlength":1,
 "help":"The Format is a drop down list box for selecting the format type (text, tab delimited, XML, etc) of the file to be imported",
 "isactive":"Y",
 "name":"Format",
 "po_description":null,
 "po_help":null,
 "po_name":null,
 "po_printname":null,
 "printname":"Format",
 "updated":"2000-01-02T00:00:00",
 "updatedby":0}, "children" : []},
 {"tablename" : "ad_element", "data" : {"ad_element_id":1886,
 "columnname":"SalesRep_Name",
 "ad_client_id":0,
 "ad_org_id":0,
 "ad_reference_id":10,
 "ad_reference_value_id":null,
 "created":"2002-09-11T16:13:37",
 "createdby":0,
 "description":null,
 "entitytype":"Data Import",
 "fieldlength":60,
 "help":null,
 "isactive":"Y",
 "name":"Sales Representative",
 "po_description":null,
 "po_help":null,
 "po_name":"Company Agent",
 "po_printname":"Company Agent",
 "printname":"Sales Rep",
 "updated":"2000-01-02T00:00:00",
 "updatedby":0}, "children" : []},
 {"tablename" : "ad_element", "data" : {"ad_element_id":1906,
 "columnname":"BPartner_Value",
 "ad_client_id":0,
 "ad_org_id":0,
 "ad_reference_id":10,
 "ad_reference_value_id":null,
 "created":"2003-01-11T15:04:52",
 "createdby":0,
 "description":"The Key of the Business Partner",
 "entitytype":"Data Import",
 "fieldlength":40,
 "help":null,
 "isactive":"Y",
 "name":"Business Partner Key",
 "po_description":null,
 "po_help":null,
 "po_name":null,
 "po_printname":null,
 "printname":"Partner Key",
 "updated":"2010-02-15T13:05:25",
 "updatedby":0}, "children" : []},
 {"tablename" : "ad_element", "data" : {"ad_element_id":1910,
 "columnname":"ElementValue",
 "ad_client_id":0,
 "ad_org_id":0,
 "ad_reference_id":10,
 "ad_reference_value_id":null,
 "created":"2003-01-11T15:04:52",
 "createdby":0,
 "description":"Key of the element",
 "entitytype":"Data Import",
 "fieldlength":40,
 "help":null,
 "isactive":"Y",
 "name":"Element Key",
 "po_description":null,
 "po_help":null,
 "po_name":null,
 "po_printname":null,
 "printname":"Element Key",
 "updated":"2000-01-02T00:00:00",
 "updatedby":0}, "children" : []},
 {"tablename" : "ad_element", "data" : {"ad_element_id":1913,
 "columnname":"I_Product_ID",
 "ad_client_id":0,
 "ad_org_id":0,
 "ad_reference_id":13,
 "ad_reference_value_id":null,
 "created":"2003-01-11T15:04:52",
 "createdby":0,
 "description":"Import Item or Service",
 "entitytype":"Data Import",
 "fieldlength":22,
 "help":null,
 "isactive":"Y",
 "name":"Import Product",
 "po_description":null,
 "po_help":null,
 "po_name":null,
 "po_printname":null,
 "printname":"Import Product",
 "updated":"2000-01-02T00:00:00",
 "updatedby":0}, "children" : []},
 {"tablename" : "ad_element", "data" : {"ad_element_id":1914,
 "columnname":"I_ReportLine_ID",
 "ad_client_id":0,
 "ad_org_id":0,
 "ad_reference_id":13,
 "ad_reference_value_id":null,
 "created":"2003-01-11T15:04:52",
 "createdby":0,
 "description":"Import Report Line Set values",
 "entitytype":"Data Import",
 "fieldlength":22,
 "help":null,
 "isactive":"Y",
 "name":"Import Report Line Set",
 "po_description":null,
 "po_help":null,
 "po_name":null,
 "po_printname":null,
 "printname":"Import Report Line Set",
 "updated":"2000-01-02T00:00:00",
 "updatedby":0}, "children" : []},
 {"tablename" : "ad_element", "data" : {"ad_element_id":1916,
 "columnname":"ProductCategory_Value",
 "ad_client_id":0,
 "ad_org_id":0,
 "ad_reference_id":10,
 "ad_reference_value_id":null,
 "created":"2003-01-11T15:04:52",
 "createdby":0,
 "description":null,
 "entitytype":"Data Import",
 "fieldlength":40,
 "help":null,
 "isactive":"Y",
 "name":"Product Category Key",
 "po_description":null,
 "po_help":null,
 "po_name":null,
 "po_printname":null,
 "printname":"Product Category Key",
 "updated":"2000-01-02T00:00:00",
 "updatedby":0}, "children" : []},
 {"tablename" : "ad_element", "data" : {"ad_element_id":1917,
 "columnname":"ReportLineSetName",
 "ad_client_id":0,
 "ad_org_id":0,
 "ad_reference_id":10,
 "ad_reference_value_id":null,
 "created":"2003-01-11T15:04:52",
 "createdby":0,
 "description":"Name of the Report Line Set",
 "entitytype":"Data Import",
 "fieldlength":60,
 "help":null,
 "isactive":"Y",
 "name":"Report Line Set Name",
 "po_description":null,
 "po_help":null,
 "po_name":null,
 "po_printname":null,
 "printname":"Report Line Set Name",
 "updated":"2000-01-02T00:00:00",
 "updatedby":0}, "children" : []},
 {"tablename" : "ad_element", "data" : {"ad_element_id":2043,
 "columnname":"I_Inventory_ID",
 "ad_client_id":0,
 "ad_org_id":0,
 "ad_reference_id":13,
 "ad_reference_value_id":null,
 "created":"2003-05-28T21:40:00",
 "createdby":0,
 "description":"Import Inventory Transactions",
 "entitytype":"Data Import",
 "fieldlength":22,
 "help":null,
 "isactive":"Y",
 "name":"Import Inventory",
 "po_description":null,
 "po_help":null,
 "po_name":null,
 "po_printname":null,
 "printname":"Import Inventory",
 "updated":"2000-01-02T00:00:00",
 "updatedby":0}, "children" : []},
 {"tablename" : "ad_element", "data" : {"ad_element_id":2070,
 "columnname":"WarehouseValue",
 "ad_client_id":0,
 "ad_org_id":0,
 "ad_reference_id":10,
 "ad_reference_value_id":null,
 "created":"2003-05-29T21:58:21",
 "createdby":0,
 "description":"Key of the Warehouse",
 "entitytype":"Data Import",
 "fieldlength":40,
 "help":"Key to identify the Warehouse",
 "isactive":"Y",
 "name":"Warehouse Key",
 "po_description":null,
 "po_help":null,
 "po_name":null,
 "po_printname":null,
 "printname":"Warehouse Key",
 "updated":"2010-02-15T13:06:15",
 "updatedby":0}, "children" : []},
 {"tablename" : "ad_element", "data" : {"ad_element_id":2084,
 "columnname":"AcctSchemaName",
 "ad_client_id":0,
 "ad_org_id":0,
 "ad_reference_id":10,
 "ad_reference_value_id":null,
 "created":"2003-06-07T19:49:50",
 "createdby":0,
 "description":"Name of the Accounting Schema",
 "entitytype":"Data Import",
 "fieldlength":60,
 "help":null,
 "isactive":"Y",
 "name":"Account Schema Name",
 "po_description":null,
 "po_help":null,
 "po_name":null,
 "po_printname":null,
 "printname":"AcctSchema Name",
 "updated":"2000-01-02T00:00:00",
 "updatedby":0}, "children" : []},
 {"tablename" : "ad_element", "data" : {"ad_element_id":2091,
 "columnname":"BankAccountNo",
 "ad_client_id":0,
 "ad_org_id":0,
 "ad_reference_id":10,
 "ad_reference_value_id":null,
 "created":"2003-06-07T19:49:50",
 "createdby":0,
 "description":"Bank Account Number",
 "entitytype":"Data Import",
 "fieldlength":20,
 "help":null,
 "isactive":"Y",
 "name":"Bank Account No",
 "po_description":null,
 "po_help":null,
 "po_name":null,
 "po_printname":null,
 "printname":"Bank Account No",
 "updated":"2000-01-02T00:00:00",
 "updatedby":0}, "children" : []},
 {"tablename" : "ad_element", "data" : {"ad_element_id":2092,
 "columnname":"BatchDescription",
 "ad_client_id":0,
 "ad_org_id":0,
 "ad_reference_id":10,
 "ad_reference_value_id":null,
 "created":"2003-06-07T19:49:50",
 "createdby":0,
 "description":"Description of the Batch",
 "entitytype":"Data Import",
 "fieldlength":255,
 "help":null,
 "isactive":"Y",
 "name":"Batch Description",
 "po_description":null,
 "po_help":null,
 "po_name":null,
 "po_printname":null,
 "printname":"Batch Description",
 "updated":"2000-01-02T00:00:00",
 "updatedby":0}, "children" : []},
 {"tablename" : "ad_element", "data" : {"ad_element_id":2093,
 "columnname":"BatchDocumentNo",
 "ad_client_id":0,
 "ad_org_id":0,
 "ad_reference_id":10,
 "ad_reference_value_id":null,
 "created":"2003-06-07T19:49:50",
 "createdby":0,
 "description":"Document Number of the Batch",
 "entitytype":"Data Import",
 "fieldlength":30,
 "help":null,
 "isactive":"Y",
 "name":"Batch Document No",
 "po_description":null,
 "po_help":null,
 "po_name":null,
 "po_printname":null,
 "printname":"Batch Document No",
 "updated":"2000-01-02T00:00:00",
 "updatedby":0}, "children" : []},
 {"tablename" : "ad_element", "data" : {"ad_element_id":2095,
 "columnname":"CategoryName",
 "ad_client_id":0,
 "ad_org_id":0,
 "ad_reference_id":10,
 "ad_reference_value_id":null,
 "created":"2003-06-07T19:49:50",
 "createdby":0,
 "description":"Name of the Category",
 "entitytype":"Data Import",
 "fieldlength":60,
 "help":null,
 "isactive":"Y",
 "name":"Category Name",
 "po_description":null,
 "po_help":null,
 "po_name":null,
 "po_printname":null,
 "printname":"Category Name",
 "updated":"2000-01-02T00:00:00",
 "updatedby":0}, "children" : []},
 {"tablename" : "ad_element", "data" : {"ad_element_id":2097,
 "columnname":"ClientValue",
 "ad_client_id":0,
 "ad_org_id":0,
 "ad_reference_id":10,
 "ad_reference_value_id":null,
 "created":"2003-06-07T19:49:50",
 "createdby":0,
 "description":"Key of the Client",
 "entitytype":"Data Import",
 "fieldlength":40,
 "help":null,
 "isactive":"Y",
 "name":"Client Key",
 "po_description":null,
 "po_help":null,
 "po_name":null,
 "po_printname":null,
 "printname":"Client Key",
 "updated":"2000-01-02T00:00:00",
 "updatedby":0}, "children" : []},
 {"tablename" : "ad_element", "data" : {"ad_element_id":2098,
 "columnname":"DocTypeName",
 "ad_client_id":0,
 "ad_org_id":0,
 "ad_reference_id":10,
 "ad_reference_value_id":null,
 "created":"2003-06-07T19:49:50",
 "createdby":0,
 "description":"Name of the Document Type",
 "entitytype":"Data Import",
 "fieldlength":60,
 "help":null,
 "isactive":"Y",
 "name":"Document Type Name",
 "po_description":null,
 "po_help":null,
 "po_name":null,
 "po_printname":null,
 "printname":"DocType Name",
 "updated":"2000-01-02T00:00:00",
 "updatedby":0}, "children" : []},
 {"tablename" : "ad_element", "data" : {"ad_element_id":2102,
 "columnname":"I_BankStatement_ID",
 "ad_client_id":0,
 "ad_org_id":0,
 "ad_reference_id":13,
 "ad_reference_value_id":null,
 "created":"2003-06-07T19:49:51",
 "createdby":0,
 "description":"Import of the Bank Statement",
 "entitytype":"Data Import",
 "fieldlength":22,
 "help":null,
 "isactive":"Y",
 "name":"Import Bank Statement",
 "po_description":null,
 "po_help":null,
 "po_name":null,
 "po_printname":null,
 "printname":"Import Bank Statement",
 "updated":"2000-01-02T00:00:00",
 "updatedby":0}, "children" : []},
 {"tablename" : "ad_element", "data" : {"ad_element_id":2103,
 "columnname":"I_GLJournal_ID",
 "ad_client_id":0,
 "ad_org_id":0,
 "ad_reference_id":13,
 "ad_reference_value_id":null,
 "created":"2003-06-07T19:49:51",
 "createdby":0,
 "description":"Import General Ledger Journal",
 "entitytype":"Data Import",
 "fieldlength":22,
 "help":null,
 "isactive":"Y",
 "name":"Import GL Journal",
 "po_description":null,
 "po_help":null,
 "po_name":null,
 "po_printname":null,
 "printname":"Import GL Journal",
 "updated":"2000-01-02T00:00:00",
 "updatedby":0}, "children" : []},
 {"tablename" : "ad_element", "data" : {"ad_element_id":2104,
 "columnname":"I_Order_ID",
 "ad_client_id":0,
 "ad_org_id":0,
 "ad_reference_id":13,
 "ad_reference_value_id":null,
 "created":"2003-06-07T19:49:51",
 "createdby":0,
 "description":"Import Orders",
 "entitytype":"Data Import",
 "fieldlength":22,
 "help":null,
 "isactive":"Y",
 "name":"Import Order",
 "po_description":null,
 "po_help":null,
 "po_name":null,
 "po_printname":null,
 "printname":"Import Order",
 "updated":"2000-01-02T00:00:00",
 "updatedby":0}, "children" : []},
 {"tablename" : "ad_element", "data" : {"ad_element_id":2105,
 "columnname":"I_Payment_ID",
 "ad_client_id":0,
 "ad_org_id":0,
 "ad_reference_id":13,
 "ad_reference_value_id":null,
 "created":"2003-06-07T19:49:51",
 "createdby":0,
 "description":"Import Payment",
 "entitytype":"Data Import",
 "fieldlength":22,
 "help":null,
 "isactive":"Y",
 "name":"Import Payment",
 "po_description":null,
 "po_help":null,
 "po_name":null,
 "po_printname":null,
 "printname":"Import Payment",
 "updated":"2000-01-02T00:00:00",
 "updatedby":0}, "children" : []},
 {"tablename" : "ad_element", "data" : {"ad_element_id":2114,
 "columnname":"OrgTrxValue",
 "ad_client_id":0,
 "ad_org_id":0,
 "ad_reference_id":10,
 "ad_reference_value_id":null,
 "created":"2003-06-07T19:49:51",
 "createdby":0,
 "description":"Key of the Transaction Organization",
 "entitytype":"Data Import",
 "fieldlength":40,
 "help":null,
 "isactive":"Y",
 "name":"Trx Org Key",
 "po_description":null,
 "po_help":null,
 "po_name":null,
 "po_printname":null,
 "printname":"Trx Org Key",
 "updated":"2000-01-02T00:00:00",
 "updatedby":0}, "children" : []},
 {"tablename" : "ad_element", "data" : {"ad_element_id":2116,
 "columnname":"PaymentTermValue",
 "ad_client_id":0,
 "ad_org_id":0,
 "ad_reference_id":10,
 "ad_reference_value_id":null,
 "created":"2003-06-07T19:49:51",
 "createdby":0,
 "description":"Key of the Payment Term",
 "entitytype":"Data Import",
 "fieldlength":40,
 "help":null,
 "isactive":"Y",
 "name":"Payment Term Key",
 "po_description":null,
 "po_help":null,
 "po_name":null,
 "po_printname":null,
 "printname":"Payment Term Key",
 "updated":"2000-01-02T00:00:00",
 "updatedby":0}, "children" : []},
 {"tablename" : "ad_element", "data" : {"ad_element_id":2128,
 "columnname":"I_Invoice_ID",
 "ad_client_id":0,
 "ad_org_id":0,
 "ad_reference_id":13,
 "ad_reference_value_id":null,
 "created":"2003-06-07T21:13:27",
 "createdby":0,
 "description":"Import Invoice",
 "entitytype":"Data Import",
 "fieldlength":22,
 "help":null,
 "isactive":"Y",
 "name":"Import Invoice",
 "po_description":null,
 "po_help":null,
 "po_name":null,
 "po_printname":null,
 "printname":"Import Invoice",
 "updated":"2000-01-02T00:00:00",
 "updatedby":0}, "children" : []},
 {"tablename" : "ad_element", "data" : {"ad_element_id":2169,
 "columnname":"IsImportOnlyNoErrors",
 "ad_client_id":0,
 "ad_org_id":0,
 "ad_reference_id":null,
 "ad_reference_value_id":null,
 "created":"2003-08-21T10:36:00",
 "createdby":0,
 "description":"Only start the import, if there are no validation Errors",
 "entitytype":"Data Import",
 "fieldlength":null,
 "help":null,
 "isactive":"Y",
 "name":"Import only if No Errors",
 "po_description":null,
 "po_help":null,
 "po_name":null,
 "po_printname":null,
 "printname":"Import No Errors",
 "updated":"2000-01-02T00:00:00",
 "updatedby":0}, "children" : []},
 {"tablename" : "ad_element", "data" : {"ad_element_id":2170,
 "columnname":"AD_OrgDoc_ID",
 "ad_client_id":0,
 "ad_org_id":0,
 "ad_reference_id":18,
 "ad_reference_value_id":130,
 "created":"2003-08-27T12:12:59",
 "createdby":0,
 "description":"Document Organization (independent from account organization)",
 "entitytype":"Data Import",
 "fieldlength":22,
 "help":null,
 "isactive":"Y",
 "name":"Document Org",
 "po_description":null,
 "po_help":null,
 "po_name":null,
 "po_printname":null,
 "printname":"Document Org",
 "updated":"2000-01-02T00:00:00",
 "updatedby":0}, "children" : []},
 {"tablename" : "ad_element", "data" : {"ad_element_id":2171,
 "columnname":"JournalDocumentNo",
 "ad_client_id":0,
 "ad_org_id":0,
 "ad_reference_id":10,
 "ad_reference_value_id":null,
 "created":"2003-08-27T12:12:59",
 "createdby":0,
 "description":"Document number of the Journal",
 "entitytype":"Data Import",
 "fieldlength":30,
 "help":null,
 "isactive":"Y",
 "name":"Journal Document No",
 "po_description":null,
 "po_help":null,
 "po_name":null,
 "po_printname":null,
 "printname":"Journal Doc No",
 "updated":"2000-01-02T00:00:00",
 "updatedby":0}, "children" : []},
 {"tablename" : "ad_element", "data" : {"ad_element_id":2279,
 "columnname":"ConversionTypeValue",
 "ad_client_id":0,
 "ad_org_id":0,
 "ad_reference_id":10,
 "ad_reference_value_id":null,
 "created":"2003-12-21T00:11:12",
 "createdby":0,
 "description":"Key value for the Currency Conversion Rate Type",
 "entitytype":"Data Import",
 "fieldlength":40,
 "help":"The date type key for the conversion of foreign currency transactions",
 "isactive":"Y",
 "name":"Currency Type Key",
 "po_description":null,
 "po_help":null,
 "po_name":null,
 "po_printname":null,
 "printname":"Currency Conversion Type",
 "updated":"2000-01-02T00:00:00",
 "updatedby":0}, "children" : []},
 {"tablename" : "ad_element", "data" : {"ad_element_id":2298,
 "columnname":"PaymentDocumentNo",
 "ad_client_id":0,
 "ad_org_id":0,
 "ad_reference_id":10,
 "ad_reference_value_id":null,
 "created":"2003-12-25T14:02:45",
 "createdby":0,
 "description":"Document number of the Payment",
 "entitytype":"Data Import",
 "fieldlength":30,
 "help":null,
 "isactive":"Y",
 "name":"Payment Document No",
 "po_description":null,
 "po_help":null,
 "po_name":null,
 "po_printname":null,
 "printname":"Payment Document No",
 "updated":"2000-01-02T00:00:00",
 "updatedby":0}, "children" : []},
 {"tablename" : "ad_element", "data" : {"ad_element_id":2302,
 "columnname":"CreateReciprocalRate",
 "ad_client_id":0,
 "ad_org_id":0,
 "ad_reference_id":20,
 "ad_reference_value_id":null,
 "created":"2003-12-29T18:34:49",
 "createdby":0,
 "description":"Create Reciprocal Rate from current information",
 "entitytype":"Data Import",
 "fieldlength":1,
 "help":"If selected, the imported USD->EUR rate is used to create/calculate the reciprocal rate EUR->USD.",
 "isactive":"Y",
 "name":"Create Reciprocal Rate",
 "po_description":null,
 "po_help":null,
 "po_name":null,
 "po_printname":null,
 "printname":"Create Reciprocal",
 "updated":"2000-01-02T00:00:00",
 "updatedby":0}, "children" : []},
 {"tablename" : "ad_element", "data" : {"ad_element_id":2303,
 "columnname":"I_Conversion_Rate_ID",
 "ad_client_id":0,
 "ad_org_id":0,
 "ad_reference_id":13,
 "ad_reference_value_id":null,
 "created":"2003-12-29T18:34:49",
 "createdby":0,
 "description":"Import Currency Conversion Rate",
 "entitytype":"Data Import",
 "fieldlength":22,
 "help":null,
 "isactive":"Y",
 "name":"Import Conversion Rate",
 "po_description":null,
 "po_help":null,
 "po_name":null,
 "po_printname":null,
 "printname":"Import Conversion Rate",
 "updated":"2000-01-02T00:00:00",
 "updatedby":0}, "children" : []},
 {"tablename" : "ad_element", "data" : {"ad_element_id":2304,
 "columnname":"ISO_Code_To",
 "ad_client_id":0,
 "ad_org_id":0,
 "ad_reference_id":10,
 "ad_reference_value_id":null,
 "created":"2003-12-29T18:34:49",
 "createdby":0,
 "description":"Three letter ISO 4217 Code of the To Currency",
 "entitytype":"Data Import",
 "fieldlength":3,
 "help":"For details - http://www.unece.org/trade/rec/rec09en.htm",
 "isactive":"Y",
 "name":"ISO Currency To Code",
 "po_description":null,
 "po_help":null,
 "po_name":null,
 "po_printname":null,
 "printname":"ISO Currency To",
 "updated":"2000-01-02T00:00:00",
 "updatedby":0}, "children" : []},
 {"tablename" : "ad_element", "data" : {"ad_element_id":2333,
 "columnname":"WorkingTime",
 "ad_client_id":0,
 "ad_org_id":0,
 "ad_reference_id":11,
 "ad_reference_value_id":null,
 "created":"2004-01-01T23:37:18",
 "createdby":0,
 "description":"Workflow Simulation Execution Time",
 "entitytype":"Data Import",
 "fieldlength":22,
 "help":"Amount of time the performer of the activity needs to perform the task in Duration Unit",
 "isactive":"Y",
 "name":"Working Time",
 "po_description":null,
 "po_help":null,
 "po_name":null,
 "po_printname":null,
 "printname":"Working Time",
 "updated":"2010-02-15T13:06:08",
 "updatedby":0}, "children" : []},
 {"tablename" : "ad_element", "data" : {"ad_element_id":2498,
 "columnname":"M_Forecast_ID",
 "ad_client_id":0,
 "ad_org_id":0,
 "ad_reference_id":13,
 "ad_reference_value_id":null,
 "created":"2004-04-17T11:16:43",
 "createdby":0,
 "description":"Material Forecast",
 "entitytype":"Data Import",
 "fieldlength":22,
 "help":"Material Forecast",
 "isactive":"Y",
 "name":"Forecast",
 "po_description":null,
 "po_help":null,
 "po_name":null,
 "po_printname":null,
 "printname":"Forecast",
 "updated":"2010-02-15T13:06:11",
 "updatedby":0}, "children" : []},
 {"tablename" : "ad_element", "data" : {"ad_element_id":2561,
 "columnname":"I_InOutLineConfirm_ID",
 "ad_client_id":0,
 "ad_org_id":0,
 "ad_reference_id":13,
 "ad_reference_value_id":null,
 "created":"2004-07-02T14:15:14",
 "createdby":0,
 "description":"Material Shipment or Receipt Confirmation Import Line",
 "entitytype":"Data Import",
 "fieldlength":22,
 "help":"Import Confirmation Line Details",
 "isactive":"Y",
 "name":"Ship/Receipt Confirmation Import Line",
 "po_description":null,
 "po_help":null,
 "po_name":null,
 "po_printname":null,
 "printname":"Ship/Receipt Confirm Import Line",
 "updated":"2000-01-02T00:00:00",
 "updatedby":0}, "children" : []},
 {"tablename" : "ad_element", "data" : {"ad_element_id":2851,
 "columnname":"IsCreateNewBatch",
 "ad_client_id":0,
 "ad_org_id":0,
 "ad_reference_id":20,
 "ad_reference_value_id":null,
 "created":"2005-10-08T10:08:52",
 "createdby":100,
 "description":"If selected a new batch is created",
 "entitytype":"Data Import",
 "fieldlength":1,
 "help":"Note that the balance check does not check that individual batches are balanced.",
 "isactive":"Y",
 "name":"Create New Batch",
 "po_description":null,
 "po_help":null,
 "po_name":null,
 "po_printname":null,
 "printname":"New Batch",
 "updated":"2005-10-08T10:10:33",
 "updatedby":100}, "children" : []},
 {"tablename" : "ad_element", "data" : {"ad_element_id":2852,
 "columnname":"IsCreateNewJournal",
 "ad_client_id":0,
 "ad_org_id":0,
 "ad_reference_id":20,
 "ad_reference_value_id":null,
 "created":"2005-10-08T10:08:53",
 "createdby":100,
 "description":"If selected a new journal within the batch is created",
 "entitytype":"Data Import",
 "fieldlength":1,
 "help":"Note that the balance check does not check that individual journals are balanced.",
 "isactive":"Y",
 "name":"Create New Journal",
 "po_description":null,
 "po_help":null,
 "po_name":null,
 "po_printname":null,
 "printname":"New Journal",
 "updated":"2005-10-08T10:12:53",
 "updatedby":100}, "children" : []},
 {"tablename" : "ad_element", "data" : {"ad_element_id":53222,
 "columnname":"ActivityValue",
 "ad_client_id":0,
 "ad_org_id":0,
 "ad_reference_id":10,
 "ad_reference_value_id":null,
 "created":"2007-09-04T22:54:47",
 "createdby":100,
 "description":null,
 "entitytype":"Data Import",
 "fieldlength":40,
 "help":null,
 "isactive":"Y",
 "name":"Activity Value",
 "po_description":null,
 "po_help":null,
 "po_name":null,
 "po_printname":null,
 "printname":"Activity Value",
 "updated":"2010-03-29T16:11:46",
 "updatedby":100}, "children" : []},
 {"tablename" : "ad_element", "data" : {"ad_element_id":53258,
 "columnname":"IsCreatePlan",
 "ad_client_id":0,
 "ad_org_id":0,
 "ad_reference_id":20,
 "ad_reference_value_id":null,
 "created":"2007-12-17T03:28:36",
 "createdby":0,
 "description":"Indicates whether planned orders will be generated by MRP",
 "entitytype":"Data Import",
 "fieldlength":1,
 "help":"Indicates whether planned orders will be generated by MRP, if this flag is not just MRP generate a 'Create' action notice",
 "isactive":"Y",
 "name":"Create Plan",
 "po_description":null,
 "po_help":null,
 "po_name":null,
 "po_printname":null,
 "printname":"Create Plan",
 "updated":"2010-02-15T13:05:42",
 "updatedby":0}, "children" : []},
 {"tablename" : "ad_element", "data" : {"ad_element_id":53261,
 "columnname":"IsMPS",
 "ad_client_id":0,
 "ad_org_id":0,
 "ad_reference_id":20,
 "ad_reference_value_id":null,
 "created":"2007-12-17T03:28:45",
 "createdby":0,
 "description":null,
 "entitytype":"Data Import",
 "fieldlength":1,
 "help":null,
 "isactive":"Y",
 "name":"Is MPS",
 "po_description":null,
 "po_help":null,
 "po_name":null,
 "po_printname":null,
 "printname":"Is MPS",
 "updated":"2010-02-15T13:05:43",
 "updatedby":0}, "children" : []},
 {"tablename" : "ad_element", "data" : {"ad_element_id":53264,
 "columnname":"Order_Max",
 "ad_client_id":0,
 "ad_org_id":0,
 "ad_reference_id":29,
 "ad_reference_value_id":null,
 "created":"2007-12-17T03:28:56",
 "createdby":0,
 "description":"Maximum order quantity in UOM",
 "entitytype":"Data Import",
 "fieldlength":10,
 "help":"The Maximum Order Quantity indicates the biggest quantity of this product which can be ordered.",
 "isactive":"Y",
 "name":"Maximum Order Qty",
 "po_description":null,
 "po_help":null,
 "po_name":null,
 "po_printname":null,
 "printname":"Maximum Order Qty",
 "updated":"2010-02-15T13:05:53",
 "updatedby":0}, "children" : []},
 {"tablename" : "ad_element", "data" : {"ad_element_id":53265,
 "columnname":"Order_Period",
 "ad_client_id":0,
 "ad_org_id":0,
 "ad_reference_id":29,
 "ad_reference_value_id":null,
 "created":"2007-12-17T03:29:02",
 "createdby":0,
 "description":null,
 "entitytype":"Data Import",
 "fieldlength":22,
 "help":null,
 "isactive":"Y",
 "name":"Order Period",
 "po_description":null,
 "po_help":null,
 "po_name":null,
 "po_printname":null,
 "printname":"Order Period",
 "updated":"2010-02-15T13:05:56",
 "updatedby":0}, "children" : []},
 {"tablename" : "ad_element", "data" : {"ad_element_id":53266,
 "columnname":"Order_Policy",
 "ad_client_id":0,
 "ad_org_id":0,
 "ad_reference_id":17,
 "ad_reference_value_id":53228,
 "created":"2007-12-17T03:29:08",
 "createdby":0,
 "description":null,
 "entitytype":"Data Import",
 "fieldlength":3,
 "help":null,
 "isactive":"Y",
 "name":"Order Policy",
 "po_description":null,
 "po_help":null,
 "po_name":null,
 "po_printname":null,
 "printname":"Order Policy",
 "updated":"2010-02-15T13:05:57",
 "updatedby":0}, "children" : []},
 {"tablename" : "ad_element", "data" : {"ad_element_id":53267,
 "columnname":"Order_Qty",
 "ad_client_id":0,
 "ad_org_id":0,
 "ad_reference_id":29,
 "ad_reference_value_id":null,
 "created":"2007-12-17T03:29:10",
 "createdby":0,
 "description":null,
 "entitytype":"Data Import",
 "fieldlength":22,
 "help":null,
 "isactive":"Y",
 "name":"Order Qty",
 "po_description":null,
 "po_help":null,
 "po_name":null,
 "po_printname":null,
 "printname":"Order Qty",
 "updated":"2010-02-15T13:05:59",
 "updatedby":0}, "children" : []},
 {"tablename" : "ad_element", "data" : {"ad_element_id":53269,
 "columnname":"Planner_ID",
 "ad_client_id":0,
 "ad_org_id":0,
 "ad_reference_id":18,
 "ad_reference_value_id":110,
 "created":"2007-12-17T03:29:18",
 "createdby":0,
 "description":null,
 "entitytype":"Data Import",
 "fieldlength":22,
 "help":null,
 "isactive":"Y",
 "name":"Planner",
 "po_description":null,
 "po_help":null,
 "po_name":null,
 "po_printname":null,
 "printname":"Planner",
 "updated":"2010-02-15T13:06:00",
 "updatedby":0}, "children" : []},
 {"tablename" : "ad_element", "data" : {"ad_element_id":53270,
 "columnname":"TimeFence",
 "ad_client_id":0,
 "ad_org_id":0,
 "ad_reference_id":29,
 "ad_reference_value_id":null,
 "created":"2007-12-17T03:29:22",
 "createdby":0,
 "description":null,
 "entitytype":"Data Import",
 "fieldlength":22,
 "help":null,
 "isactive":"Y",
 "name":"Time Fence",
 "po_description":null,
 "po_help":null,
 "po_name":null,
 "po_printname":null,
 "printname":"Time Fence",
 "updated":"2010-02-15T13:06:05",
 "updatedby":0}, "children" : []},
 {"tablename" : "ad_element", "data" : {"ad_element_id":53271,
 "columnname":"TransfertTime",
 "ad_client_id":0,
 "ad_org_id":0,
 "ad_reference_id":29,
 "ad_reference_value_id":null,
 "created":"2007-12-17T03:29:25",
 "createdby":0,
 "description":null,
 "entitytype":"Data Import",
 "fieldlength":10,
 "help":null,
 "isactive":"Y",
 "name":"Transfert Time",
 "po_description":null,
 "po_help":null,
 "po_name":null,
 "po_printname":null,
 "printname":"Transfert Time",
 "updated":"2010-02-15T13:06:07",
 "updatedby":0}, "children" : []},
 {"tablename" : "ad_element", "data" : {"ad_element_id":53272,
 "columnname":"Yield",
 "ad_client_id":0,
 "ad_org_id":0,
 "ad_reference_id":11,
 "ad_reference_value_id":null,
 "created":"2007-12-17T03:29:35",
 "createdby":0,
 "description":"The Yield is the percentage of a lot that is expected to be of acceptable wuality may fall below 100 percent",
 "entitytype":"Data Import",
 "fieldlength":22,
 "help":"ADempiere Calculate the total yield for a product from the yield for each activity when the process Workflow Cost Roll-Up is executed.\n\nThe expected yield for an Activity can be expressed as:\n\nYield = Acceptable Units at Activity End x 100\n\nThe Total manufacturing yield for a product is determined by multiplying the yied percentage for each activity.\n\nManufacturing Yield = Yield % for Activity 10 x Yied % for Activity 20 , etc \n\nTake care when setting yield to anything but 100% particularly when yied is used for multiples activities\n\n",
 "isactive":"Y",
 "name":"Yield %",
 "po_description":null,
 "po_help":null,
 "po_name":null,
 "po_printname":null,
 "printname":"Yield %",
 "updated":"2010-02-15T13:06:09",
 "updatedby":0}, "children" : []},
 {"tablename" : "ad_element", "data" : {"ad_element_id":53354,
 "columnname":"SafetyStock",
 "ad_client_id":0,
 "ad_org_id":0,
 "ad_reference_id":29,
 "ad_reference_value_id":null,
 "created":"2008-03-01T22:25:08",
 "createdby":0,
 "description":"Safety stock is a term used to describe a level of stock that is maintained below the cycle stock to buffer against stock-outs",
 "entitytype":"Data Import",
 "fieldlength":22,
 "help":"Safety stock is defined as extra units of inventory carried as protection against possible stockouts. It is held when an organization cannot accurately predict demand and/or lead time for the product.\n\nRereference:\nhttp://en.wikipedia.org/wiki/Safety_stock",
 "isactive":"Y",
 "name":"Safety Stock Qty",
 "po_description":null,
 "po_help":null,
 "po_name":null,
 "po_printname":null,
 "printname":"Safety Stock Qty",
 "updated":"2010-02-15T13:06:02",
 "updatedby":0}, "children" : []},
 {"tablename" : "ad_element", "data" : {"ad_element_id":53797,
 "columnname":"I_PriceList_ID",
 "ad_client_id":0,
 "ad_org_id":0,
 "ad_reference_id":13,
 "ad_reference_value_id":null,
 "created":"2009-03-17T23:18:11",
 "createdby":100,
 "description":null,
 "entitytype":"Data Import",
 "fieldlength":22,
 "help":null,
 "isactive":"Y",
 "name":"Import Price List",
 "po_description":null,
 "po_help":null,
 "po_name":null,
 "po_printname":null,
 "printname":"Import Price List",
 "updated":"2009-03-17T23:18:11",
 "updatedby":100}, "children" : []},
 {"tablename" : "ad_element", "data" : {"ad_element_id":54095,
 "columnname":"IsUpdateCosting",
 "ad_client_id":0,
 "ad_org_id":0,
 "ad_reference_id":null,
 "ad_reference_value_id":null,
 "created":"2009-12-05T16:35:27",
 "createdby":100,
 "description":null,
 "entitytype":"Data Import",
 "fieldlength":null,
 "help":null,
 "isactive":"Y",
 "name":"Update Costing",
 "po_description":null,
 "po_help":null,
 "po_name":null,
 "po_printname":null,
 "printname":"Update Costing",
 "updated":"2009-12-05T16:35:27",
 "updatedby":100}, "children" : []},
 {"tablename" : "ad_element", "data" : {"ad_element_id":54096,
 "columnname":"IsImportPriceList",
 "ad_client_id":0,
 "ad_org_id":0,
 "ad_reference_id":null,
 "ad_reference_value_id":null,
 "created":"2009-12-10T12:32:23",
 "createdby":100,
 "description":null,
 "entitytype":"Data Import",
 "fieldlength":null,
 "help":null,
 "isactive":"Y",
 "name":"Import List price",
 "po_description":null,
 "po_help":null,
 "po_name":null,
 "po_printname":null,
 "printname":"Import List price",
 "updated":"2009-12-10T12:32:23",
 "updatedby":100}, "children" : []},
 {"tablename" : "ad_element", "data" : {"ad_element_id":54097,
 "columnname":"IsImportPriceStd",
 "ad_client_id":0,
 "ad_org_id":0,
 "ad_reference_id":null,
 "ad_reference_value_id":null,
 "created":"2009-12-10T12:34:14",
 "createdby":100,
 "description":null,
 "entitytype":"Data Import",
 "fieldlength":null,
 "help":null,
 "isactive":"Y",
 "name":"Import Standard Price",
 "po_description":null,
 "po_help":null,
 "po_name":null,
 "po_printname":null,
 "printname":"Import Standard Price",
 "updated":"2009-12-10T12:34:14",
 "updatedby":100}, "children" : []},
 {"tablename" : "ad_element", "data" : {"ad_element_id":54098,
 "columnname":"IsImportPriceLimit",
 "ad_client_id":0,
 "ad_org_id":0,
 "ad_reference_id":null,
 "ad_reference_value_id":null,
 "created":"2009-12-10T12:35:33",
 "createdby":100,
 "description":null,
 "entitytype":"Data Import",
 "fieldlength":null,
 "help":null,
 "isactive":"Y",
 "name":"Import Limit Price",
 "po_description":null,
 "po_help":null,
 "po_name":null,
 "po_printname":null,
 "printname":"Import Limit Price",
 "updated":"2009-12-10T12:35:33",
 "updatedby":100}, "children" : []},
 {"tablename" : "ad_element", "data" : {"ad_element_id":54113,
 "columnname":"I_HR_Movement_ID",
 "ad_client_id":0,
 "ad_org_id":0,
 "ad_reference_id":13,
 "ad_reference_value_id":null,
 "created":"2010-02-08T18:18:58",
 "createdby":100,
 "description":null,
 "entitytype":"Data Import",
 "fieldlength":10,
 "help":null,
 "isactive":"Y",
 "name":"Payroll Movement Import",
 "po_description":null,
 "po_help":null,
 "po_name":null,
 "po_printname":null,
 "printname":"Payroll Movement Import",
 "updated":"2010-02-08T18:18:58",
 "updatedby":100}, "children" : []},
 {"tablename" : "ad_element", "data" : {"ad_element_id":54114,
 "columnname":"ConceptValue",
 "ad_client_id":0,
 "ad_org_id":0,
 "ad_reference_id":10,
 "ad_reference_value_id":null,
 "created":"2010-02-08T18:19:34",
 "createdby":100,
 "description":"Value of the Concept",
 "entitytype":"Data Import",
 "fieldlength":40,
 "help":null,
 "isactive":"Y",
 "name":"Concept Value",
 "po_description":null,
 "po_help":null,
 "po_name":null,
 "po_printname":null,
 "printname":"Concept Value",
 "updated":"2010-02-08T18:19:34",
 "updatedby":100}, "children" : []},
 {"tablename" : "ad_element", "data" : {"ad_element_id":54115,
 "columnname":"ProcessName",
 "ad_client_id":0,
 "ad_org_id":0,
 "ad_reference_id":10,
 "ad_reference_value_id":null,
 "created":"2010-02-08T18:19:37",
 "createdby":100,
 "description":"Name of the Process",
 "entitytype":"Data Import",
 "fieldlength":60,
 "help":null,
 "isactive":"Y",
 "name":"Process Name",
 "po_description":null,
 "po_help":null,
 "po_name":null,
 "po_printname":null,
 "printname":"Process Name",
 "updated":"2010-02-08T18:19:37",
 "updatedby":100}, "children" : []},
 {"tablename" : "ad_element", "data" : {"ad_element_id":54117,
 "columnname":"I_ProductPlanning_ID",
 "ad_client_id":0,
 "ad_org_id":0,
 "ad_reference_id":13,
 "ad_reference_value_id":null,
 "created":"2010-02-15T13:05:12",
 "createdby":0,
 "description":null,
 "entitytype":"Data Import",
 "fieldlength":10,
 "help":null,
 "isactive":"Y",
 "name":"Import Product Planning",
 "po_description":null,
 "po_help":null,
 "po_name":null,
 "po_printname":null,
 "printname":"Import Product Planning",
 "updated":"2010-02-15T13:05:12",
 "updatedby":0}, "children" : []},
 {"tablename" : "ad_element", "data" : {"ad_element_id":54118,
 "columnname":"NetworkDistributionValue",
 "ad_client_id":0,
 "ad_org_id":0,
 "ad_reference_id":10,
 "ad_reference_value_id":null,
 "created":"2010-02-15T13:06:17",
 "createdby":0,
 "description":"Key of the Network Distribution",
 "entitytype":"Data Import",
 "fieldlength":40,
 "help":null,
 "isactive":"Y",
 "name":"Network Distribution Key",
 "po_description":null,
 "po_help":null,
 "po_name":null,
 "po_printname":null,
 "printname":"Network Distribution Key",
 "updated":"2010-02-15T13:06:17",
 "updatedby":0}, "children" : []},
 {"tablename" : "ad_element", "data" : {"ad_element_id":54120,
 "columnname":"ForecastValue",
 "ad_client_id":0,
 "ad_org_id":0,
 "ad_reference_id":10,
 "ad_reference_value_id":null,
 "created":"2010-02-15T13:06:19",
 "createdby":0,
 "description":"Key of the Forecast",
 "entitytype":"Data Import",
 "fieldlength":40,
 "help":null,
 "isactive":"Y",
 "name":"Forecast Key",
 "po_description":null,
 "po_help":null,
 "po_name":null,
 "po_printname":null,
 "printname":"Forecast Key",
 "updated":"2010-02-15T13:06:19",
 "updatedby":0}, "children" : []},
 {"tablename" : "ad_element", "data" : {"ad_element_id":54121,
 "columnname":"ResourceValue",
 "ad_client_id":0,
 "ad_org_id":0,
 "ad_reference_id":10,
 "ad_reference_value_id":null,
 "created":"2010-02-15T13:06:20",
 "createdby":0,
 "description":"Key of the Resource",
 "entitytype":"Data Import",
 "fieldlength":40,
 "help":null,
 "isactive":"Y",
 "name":"Resource Key",
 "po_description":null,
 "po_help":null,
 "po_name":null,
 "po_printname":null,
 "printname":"Resource Key",
 "updated":"2010-02-15T13:06:20",
 "updatedby":0}, "children" : []},
 {"tablename" : "ad_element", "data" : {"ad_element_id":54122,
 "columnname":"PlannerValue",
 "ad_client_id":0,
 "ad_org_id":0,
 "ad_reference_id":10,
 "ad_reference_value_id":null,
 "created":"2010-02-15T13:06:22",
 "createdby":0,
 "description":"Search Key of the Planning",
 "entitytype":"Data Import",
 "fieldlength":40,
 "help":null,
 "isactive":"Y",
 "name":"Planner Key",
 "po_description":null,
 "po_help":null,
 "po_name":null,
 "po_printname":null,
 "printname":"Planner Key",
 "updated":"2010-02-15T13:06:22",
 "updatedby":0}, "children" : []},
 {"tablename" : "ad_element", "data" : {"ad_element_id":54129,
 "columnname":"C_OrderSourceValue",
 "ad_client_id":0,
 "ad_org_id":0,
 "ad_reference_id":10,
 "ad_reference_value_id":null,
 "created":"2010-03-08T16:23:39",
 "createdby":100,
 "description":null,
 "entitytype":"Data Import",
 "fieldlength":40,
 "help":null,
 "isactive":"Y",
 "name":"Order Source Key",
 "po_description":null,
 "po_help":null,
 "po_name":null,
 "po_printname":null,
 "printname":"Order Source Key",
 "updated":"2010-03-08T16:23:39",
 "updatedby":100}, "children" : []},
 {"tablename" : "ad_element", "data" : {"ad_element_id":54158,
 "columnname":"SeparatorChar",
 "ad_client_id":0,
 "ad_org_id":0,
 "ad_reference_id":10,
 "ad_reference_value_id":null,
 "created":"2010-06-03T10:06:56",
 "createdby":100,
 "description":null,
 "entitytype":"Data Import",
 "fieldlength":1,
 "help":null,
 "isactive":"Y",
 "name":"Separator Character",
 "po_description":null,
 "po_help":null,
 "po_name":null,
 "po_printname":null,
 "printname":"Separator Character",
 "updated":"2010-06-03T10:06:56",
 "updatedby":100}, "children" : []},
 {"tablename" : "ad_element", "data" : {"ad_element_id":55261,
 "columnname":"Operand1Name",
 "ad_client_id":0,
 "ad_org_id":0,
 "ad_reference_id":10,
 "ad_reference_value_id":null,
 "created":"2011-08-23T17:37:17",
 "createdby":100,
 "description":"Name of element to use for operand 1",
 "entitytype":"Data Import",
 "fieldlength":60,
 "help":null,
 "isactive":"Y",
 "name":"Operand 1 Name",
 "po_description":null,
 "po_help":null,
 "po_name":null,
 "po_printname":null,
 "printname":"Operand 1 Name",
 "updated":"2011-08-23T17:37:17",
 "updatedby":100}, "children" : []},
 {"tablename" : "ad_element", "data" : {"ad_element_id":55262,
 "columnname":"Operand2Name",
 "ad_client_id":0,
 "ad_org_id":0,
 "ad_reference_id":10,
 "ad_reference_value_id":null,
 "created":"2011-08-23T17:37:48",
 "createdby":100,
 "description":"Name of element to use for operand 2",
 "entitytype":"Data Import",
 "fieldlength":60,
 "help":null,
 "isactive":"Y",
 "name":"Operand 2 Name",
 "po_description":null,
 "po_help":null,
 "po_name":null,
 "po_printname":null,
 "printname":"Operand 2 Name",
 "updated":"2011-08-23T17:37:48",
 "updatedby":100}, "children" : []},
 {"tablename" : "ad_element", "data" : {"ad_element_id":55264,
 "columnname":"Ship_Location_ID",
 "ad_client_id":0,
 "ad_org_id":0,
 "ad_reference_id":18,
 "ad_reference_value_id":159,
 "created":"2011-08-24T16:47:09",
 "createdby":100,
 "description":"Ship To Business Partner Location name",
 "entitytype":"Data Import",
 "fieldlength":10,
 "help":null,
 "isactive":"Y",
 "name":"Ship To BP Location",
 "po_description":null,
 "po_help":null,
 "po_name":null,
 "po_printname":null,
 "printname":"Ship To BP Location",
 "updated":"2011-09-05T15:31:13",
 "updatedby":100}, "children" : []},
 {"tablename" : "ad_element", "data" : {"ad_element_id":55273,
 "columnname":"Ship_C_Location_ID",
 "ad_client_id":0,
 "ad_org_id":0,
 "ad_reference_id":21,
 "ad_reference_value_id":null,
 "created":"2011-08-24T16:47:39",
 "createdby":100,
 "description":"Address to ship to",
 "entitytype":"Data Import",
 "fieldlength":10,
 "help":null,
 "isactive":"Y",
 "name":"Ship To Address",
 "po_description":null,
 "po_help":null,
 "po_name":null,
 "po_printname":null,
 "printname":"Ship To Address",
 "updated":"2011-09-05T15:31:13",
 "updatedby":100}, "children" : []},
 {"tablename" : "ad_element", "data" : {"ad_element_id":55435,
 "columnname":"AD_Import_ID",
 "ad_client_id":0,
 "ad_org_id":0,
 "ad_reference_id":13,
 "ad_reference_value_id":null,
 "created":"2012-02-28T16:28:08",
 "createdby":100,
 "description":null,
 "entitytype":"Data Import",
 "fieldlength":22,
 "help":null,
 "isactive":"Y",
 "name":"Data Import",
 "po_description":null,
 "po_help":null,
 "po_name":null,
 "po_printname":null,
 "printname":"Data Import",
 "updated":"2012-02-28T16:28:08",
 "updatedby":100}, "children" : []},
 {"tablename" : "ad_element", "data" : {"ad_element_id":55436,
 "columnname":"Source_Table_ID",
 "ad_client_id":0,
 "ad_org_id":0,
 "ad_reference_id":18,
 "ad_reference_value_id":53290,
 "created":"2012-02-28T16:30:27",
 "createdby":100,
 "description":"Source table for importing data from",
 "entitytype":"Data Import",
 "fieldlength":22,
 "help":"The source table is a data staging table that can be populated by the file import loader.",
 "isactive":"Y",
 "name":"Source Table",
 "po_description":null,
 "po_help":null,
 "po_name":null,
 "po_printname":null,
 "printname":"Source Table",
 "updated":"2012-02-28T16:30:27",
 "updatedby":100}, "children" : []},
 {"tablename" : "ad_element", "data" : {"ad_element_id":55437,
 "columnname":"Target_Table_ID",
 "ad_client_id":0,
 "ad_org_id":0,
 "ad_reference_id":18,
 "ad_reference_value_id":53290,
 "created":"2012-02-28T16:31:05",
 "createdby":100,
 "description":"Target table for importing data to",
 "entitytype":"Data Import",
 "fieldlength":22,
 "help":"The target table is the destination for the imported data",
 "isactive":"Y",
 "name":"Target Table",
 "po_description":null,
 "po_help":null,
 "po_name":null,
 "po_printname":null,
 "printname":"Target Table",
 "updated":"2012-02-28T16:31:05",
 "updatedby":100}, "children" : []},
 {"tablename" : "ad_element", "data" : {"ad_element_id":55438,
 "columnname":"AD_ImportValidation_ID",
 "ad_client_id":0,
 "ad_org_id":0,
 "ad_reference_id":13,
 "ad_reference_value_id":null,
 "created":"2012-02-28T16:38:30",
 "createdby":100,
 "description":null,
 "entitytype":"Data Import",
 "fieldlength":22,
 "help":null,
 "isactive":"Y",
 "name":"Import Validation",
 "po_description":null,
 "po_help":null,
 "po_name":null,
 "po_printname":null,
 "printname":"Import Validation",
 "updated":"2012-02-28T16:38:30",
 "updatedby":100}, "children" : []},
 {"tablename" : "ad_element", "data" : {"ad_element_id":55439,
 "columnname":"AD_ImportColumn_ID",
 "ad_client_id":0,
 "ad_org_id":0,
 "ad_reference_id":13,
 "ad_reference_value_id":null,
 "created":"2012-02-28T17:19:23",
 "createdby":100,
 "description":null,
 "entitytype":"Data Import",
 "fieldlength":22,
 "help":null,
 "isactive":"Y",
 "name":"Import Column Mapping",
 "po_description":null,
 "po_help":null,
 "po_name":null,
 "po_printname":null,
 "printname":"Import Column Mapping",
 "updated":"2012-02-28T17:19:23",
 "updatedby":100}, "children" : []},
 {"tablename" : "ad_element", "data" : {"ad_element_id":55440,
 "columnname":"Source_Column_ID",
 "ad_client_id":0,
 "ad_org_id":0,
 "ad_reference_id":18,
 "ad_reference_value_id":3,
 "created":"2012-02-28T17:21:39",
 "createdby":100,
 "description":"Source column for import",
 "entitytype":"Data Import",
 "fieldlength":22,
 "help":null,
 "isactive":"Y",
 "name":"Source Column",
 "po_description":null,
 "po_help":null,
 "po_name":null,
 "po_printname":null,
 "printname":"Source Column",
 "updated":"2012-02-28T17:21:39",
 "updatedby":100}, "children" : []},
 {"tablename" : "ad_element", "data" : {"ad_element_id":55441,
 "columnname":"Target_Column_ID",
 "ad_client_id":0,
 "ad_org_id":0,
 "ad_reference_id":18,
 "ad_reference_value_id":3,
 "created":"2012-02-28T17:22:02",
 "createdby":100,
 "description":"Target column for import",
 "entitytype":"Data Import",
 "fieldlength":22,
 "help":null,
 "isactive":"Y",
 "name":"Target Column",
 "po_description":null,
 "po_help":null,
 "po_name":null,
 "po_printname":null,
 "printname":"Target Column",
 "updated":"2012-02-28T17:22:02",
 "updatedby":100}, "children" : []},
 {"tablename" : "ad_element", "data" : {"ad_element_id":55447,
 "columnname":"I_User_ID",
 "ad_client_id":0,
 "ad_org_id":0,
 "ad_reference_id":13,
 "ad_reference_value_id":null,
 "created":"2012-03-13T15:33:11",
 "createdby":100,
 "description":null,
 "entitytype":"Data Import",
 "fieldlength":22,
 "help":null,
 "isactive":"Y",
 "name":"User/Contact import",
 "po_description":null,
 "po_help":null,
 "po_name":null,
 "po_printname":null,
 "printname":"User/Contact import",
 "updated":"2012-03-13T15:33:11",
 "updatedby":100}, "children" : []},
 {"tablename" : "ad_element", "data" : {"ad_element_id":56460,
 "columnname":"AssetValue",
 "ad_client_id":0,
 "ad_org_id":0,
 "ad_reference_id":null,
 "ad_reference_value_id":null,
 "created":"2013-10-11T16:30:42",
 "createdby":100,
 "description":null,
 "entitytype":"Data Import",
 "fieldlength":null,
 "help":null,
 "isactive":"Y",
 "name":"Asset Value",
 "po_description":null,
 "po_help":null,
 "po_name":null,
 "po_printname":null,
 "printname":"Asset Value",
 "updated":"2013-10-11T16:30:42",
 "updatedby":100}, "children" : []},
 {"tablename" : "ad_element", "data" : {"ad_element_id":56461,
 "columnname":"BudgetCode",
 "ad_client_id":0,
 "ad_org_id":0,
 "ad_reference_id":null,
 "ad_reference_value_id":null,
 "created":"2013-10-11T16:32:59",
 "createdby":100,
 "description":null,
 "entitytype":"Data Import",
 "fieldlength":null,
 "help":null,
 "isactive":"Y",
 "name":"Budget Code ",
 "po_description":null,
 "po_help":null,
 "po_name":null,
 "po_printname":null,
 "printname":"Budget Code",
 "updated":"2013-10-11T16:32:59",
 "updatedby":100}, "children" : []},
 {"tablename" : "ad_element", "data" : {"ad_element_id":56462,
 "columnname":"CampaignValue",
 "ad_client_id":0,
 "ad_org_id":0,
 "ad_reference_id":null,
 "ad_reference_value_id":null,
 "created":"2013-10-11T16:38:42",
 "createdby":100,
 "description":null,
 "entitytype":"Data Import",
 "fieldlength":null,
 "help":null,
 "isactive":"Y",
 "name":"Campaign Value",
 "po_description":null,
 "po_help":null,
 "po_name":null,
 "po_printname":null,
 "printname":"Campaign Value",
 "updated":"2013-10-11T16:38:42",
 "updatedby":100}, "children" : []},
 {"tablename" : "ad_element", "data" : {"ad_element_id":56463,
 "columnname":"I_Budget_ID",
 "ad_client_id":0,
 "ad_org_id":0,
 "ad_reference_id":null,
 "ad_reference_value_id":null,
 "created":"2013-10-11T16:41:11",
 "createdby":100,
 "description":null,
 "entitytype":"Data Import",
 "fieldlength":null,
 "help":null,
 "isactive":"Y",
 "name":"I_Budget_ID",
 "po_description":null,
 "po_help":null,
 "po_name":null,
 "po_printname":null,
 "printname":"I_Budget_ID",
 "updated":"2013-10-11T16:41:11",
 "updatedby":100}, "children" : []},
 {"tablename" : "ad_element", "data" : {"ad_element_id":56464,
 "columnname":"Month_0_Amt",
 "ad_client_id":0,
 "ad_org_id":0,
 "ad_reference_id":null,
 "ad_reference_value_id":null,
 "created":"2013-10-11T16:49:12",
 "createdby":100,
 "description":null,
 "entitytype":"Data Import",
 "fieldlength":null,
 "help":null,
 "isactive":"Y",
 "name":"Month_0_Amt",
 "po_description":null,
 "po_help":null,
 "po_name":null,
 "po_printname":null,
 "printname":"Month_0_Amt",
 "updated":"2013-10-11T16:49:12",
 "updatedby":100}, "children" : []},
 {"tablename" : "ad_element", "data" : {"ad_element_id":56465,
 "columnname":"Month_1_Amt",
 "ad_client_id":0,
 "ad_org_id":0,
 "ad_reference_id":null,
 "ad_reference_value_id":null,
 "created":"2013-10-11T16:50:21",
 "createdby":100,
 "description":null,
 "entitytype":"Data Import",
 "fieldlength":null,
 "help":null,
 "isactive":"Y",
 "name":"Month_1_Amt",
 "po_description":null,
 "po_help":null,
 "po_name":null,
 "po_printname":null,
 "printname":"Month_1_Amt",
 "updated":"2013-10-11T16:50:21",
 "updatedby":100}, "children" : []},
 {"tablename" : "ad_element", "data" : {"ad_element_id":56466,
 "columnname":"Month_10_Amt",
 "ad_client_id":0,
 "ad_org_id":0,
 "ad_reference_id":null,
 "ad_reference_value_id":null,
 "created":"2013-10-11T16:50:53",
 "createdby":100,
 "description":null,
 "entitytype":"Data Import",
 "fieldlength":null,
 "help":null,
 "isactive":"Y",
 "name":"Month_10_Amt",
 "po_description":null,
 "po_help":null,
 "po_name":null,
 "po_printname":null,
 "printname":"Month_10_Amt",
 "updated":"2013-10-11T16:50:53",
 "updatedby":100}, "children" : []},
 {"tablename" : "ad_element", "data" : {"ad_element_id":56467,
 "columnname":"Month_11_Amt",
 "ad_client_id":0,
 "ad_org_id":0,
 "ad_reference_id":null,
 "ad_reference_value_id":null,
 "created":"2013-10-11T16:51:24",
 "createdby":100,
 "description":null,
 "entitytype":"Data Import",
 "fieldlength":null,
 "help":null,
 "isactive":"Y",
 "name":"Month_11_Amt",
 "po_description":null,
 "po_help":null,
 "po_name":null,
 "po_printname":null,
 "printname":"Month_11_Amt",
 "updated":"2013-10-11T16:51:24",
 "updatedby":100}, "children" : []},
 {"tablename" : "ad_element", "data" : {"ad_element_id":56468,
 "columnname":"Month_2_Amt",
 "ad_client_id":0,
 "ad_org_id":0,
 "ad_reference_id":null,
 "ad_reference_value_id":null,
 "created":"2013-10-11T16:51:59",
 "createdby":100,
 "description":null,
 "entitytype":"Data Import",
 "fieldlength":null,
 "help":null,
 "isactive":"Y",
 "name":"Month_2_Amt",
 "po_description":null,
 "po_help":null,
 "po_name":null,
 "po_printname":null,
 "printname":"Month_2_Amt",
 "updated":"2013-10-11T16:51:59",
 "updatedby":100}, "children" : []},
 {"tablename" : "ad_element", "data" : {"ad_element_id":56469,
 "columnname":"Month_3_Amt",
 "ad_client_id":0,
 "ad_org_id":0,
 "ad_reference_id":null,
 "ad_reference_value_id":null,
 "created":"2013-10-11T16:52:26",
 "createdby":100,
 "description":null,
 "entitytype":"Data Import",
 "fieldlength":null,
 "help":null,
 "isactive":"Y",
 "name":"Month_3_Amt",
 "po_description":null,
 "po_help":null,
 "po_name":null,
 "po_printname":null,
 "printname":"Month_3_Amt",
 "updated":"2013-10-11T16:52:26",
 "updatedby":100}, "children" : []},
 {"tablename" : "ad_element", "data" : {"ad_element_id":56470,
 "columnname":"Month_4_Amt",
 "ad_client_id":0,
 "ad_org_id":0,
 "ad_reference_id":null,
 "ad_reference_value_id":null,
 "created":"2013-10-11T16:53:02",
 "createdby":100,
 "description":null,
 "entitytype":"Data Import",
 "fieldlength":null,
 "help":null,
 "isactive":"Y",
 "name":"Month_4_Amt",
 "po_description":null,
 "po_help":null,
 "po_name":null,
 "po_printname":null,
 "printname":"Month_4_Amt",
 "updated":"2013-10-11T16:53:02",
 "updatedby":100}, "children" : []},
 {"tablename" : "ad_element", "data" : {"ad_element_id":56471,
 "columnname":"Month_5_Amt",
 "ad_client_id":0,
 "ad_org_id":0,
 "ad_reference_id":null,
 "ad_reference_value_id":null,
 "created":"2013-10-11T16:53:39",
 "createdby":100,
 "description":null,
 "entitytype":"Data Import",
 "fieldlength":null,
 "help":null,
 "isactive":"Y",
 "name":"Month_5_Amt",
 "po_description":null,
 "po_help":null,
 "po_name":null,
 "po_printname":null,
 "printname":"Month_5_Amt",
 "updated":"2013-10-11T16:53:39",
 "updatedby":100}, "children" : []},
 {"tablename" : "ad_element", "data" : {"ad_element_id":56472,
 "columnname":"Month_6_Amt",
 "ad_client_id":0,
 "ad_org_id":0,
 "ad_reference_id":null,
 "ad_reference_value_id":null,
 "created":"2013-10-11T16:54:07",
 "createdby":100,
 "description":null,
 "entitytype":"Data Import",
 "fieldlength":null,
 "help":null,
 "isactive":"Y",
 "name":"Month_6_Amt",
 "po_description":null,
 "po_help":null,
 "po_name":null,
 "po_printname":null,
 "printname":"Month_6_Amt",
 "updated":"2013-10-11T16:54:07",
 "updatedby":100}, "children" : []},
 {"tablename" : "ad_element", "data" : {"ad_element_id":56473,
 "columnname":"Month_7_Amt",
 "ad_client_id":0,
 "ad_org_id":0,
 "ad_reference_id":null,
 "ad_reference_value_id":null,
 "created":"2013-10-11T16:54:32",
 "createdby":100,
 "description":null,
 "entitytype":"Data Import",
 "fieldlength":null,
 "help":null,
 "isactive":"Y",
 "name":"Month_7_Amt",
 "po_description":null,
 "po_help":null,
 "po_name":null,
 "po_printname":null,
 "printname":"Month_7_Amt",
 "updated":"2013-10-11T16:54:32",
 "updatedby":100}, "children" : []},
 {"tablename" : "ad_element", "data" : {"ad_element_id":56474,
 "columnname":"Month_8_Amt",
 "ad_client_id":0,
 "ad_org_id":0,
 "ad_reference_id":null,
 "ad_reference_value_id":null,
 "created":"2013-10-11T16:54:59",
 "createdby":100,
 "description":null,
 "entitytype":"Data Import",
 "fieldlength":null,
 "help":null,
 "isactive":"Y",
 "name":"Month_8_Amt",
 "po_description":null,
 "po_help":null,
 "po_name":null,
 "po_printname":null,
 "printname":"Month_8_Amt",
 "updated":"2013-10-11T16:54:59",
 "updatedby":100}, "children" : []},
 {"tablename" : "ad_element", "data" : {"ad_element_id":56475,
 "columnname":"Month_9_Amt",
 "ad_client_id":0,
 "ad_org_id":0,
 "ad_reference_id":null,
 "ad_reference_value_id":null,
 "created":"2013-10-11T16:55:27",
 "createdby":100,
 "description":null,
 "entitytype":"Data Import",
 "fieldlength":null,
 "help":null,
 "isactive":"Y",
 "name":"Month_9_Amt",
 "po_description":null,
 "po_help":null,
 "po_name":null,
 "po_printname":null,
 "printname":"Month_9_Amt",
 "updated":"2013-10-11T16:55:27",
 "updatedby":100}, "children" : []},
 {"tablename" : "ad_element", "data" : {"ad_element_id":56476,
 "columnname":"No_Of_Periods",
 "ad_client_id":0,
 "ad_org_id":0,
 "ad_reference_id":null,
 "ad_reference_value_id":null,
 "created":"2013-10-11T16:59:03",
 "createdby":100,
 "description":null,
 "entitytype":"Data Import",
 "fieldlength":null,
 "help":null,
 "isactive":"Y",
 "name":"No_Of_Periods",
 "po_description":null,
 "po_help":null,
 "po_name":null,
 "po_printname":null,
 "printname":"No_Of_Periods",
 "updated":"2013-10-11T16:59:03",
 "updatedby":100}, "children" : []},
 {"tablename" : "ad_element", "data" : {"ad_element_id":56477,
 "columnname":"SalesRegionValue",
 "ad_client_id":0,
 "ad_org_id":0,
 "ad_reference_id":null,
 "ad_reference_value_id":null,
 "created":"2013-10-11T17:03:56",
 "createdby":100,
 "description":null,
 "entitytype":"Data Import",
 "fieldlength":null,
 "help":null,
 "isactive":"Y",
 "name":"Sales Region Value",
 "po_description":null,
 "po_help":null,
 "po_name":null,
 "po_printname":null,
 "printname":"Sales Region Value",
 "updated":"2013-10-11T17:03:56",
 "updatedby":100}, "children" : []},
 {"tablename" : "ad_element", "data" : {"ad_element_id":57238,
 "columnname":"C_DocType_Payment_ID",
 "ad_client_id":0,
 "ad_org_id":0,
 "ad_reference_id":null,
 "ad_reference_value_id":null,
 "created":"2014-06-26T10:38:40",
 "createdby":100,
 "description":null,
 "entitytype":"Data Import",
 "fieldlength":null,
 "help":null,
 "isactive":"Y",
 "name":"Payment Document Type",
 "po_description":null,
 "po_help":null,
 "po_name":null,
 "po_printname":null,
 "printname":"Payment Document Type",
 "updated":"2014-06-26T10:38:40",
 "updatedby":100}, "children" : []},
 {"tablename" : "ad_element", "data" : {"ad_element_id":57239,
 "columnname":"IsChargeOnPayment",
 "ad_client_id":0,
 "ad_org_id":0,
 "ad_reference_id":null,
 "ad_reference_value_id":null,
 "created":"2014-06-26T10:41:00",
 "createdby":100,
 "description":null,
 "entitytype":"Data Import",
 "fieldlength":null,
 "help":null,
 "isactive":"Y",
 "name":"Charge On Payment",
 "po_description":null,
 "po_help":null,
 "po_name":null,
 "po_printname":null,
 "printname":"Charge On Payment",
 "updated":"2014-06-26T10:41:00",
 "updatedby":100}, "children" : []},
 {"tablename" : "ad_element", "data" : {"ad_element_id":57240,
 "columnname":"Imp_Invoice",
 "ad_client_id":0,
 "ad_org_id":0,
 "ad_reference_id":null,
 "ad_reference_value_id":null,
 "created":"2014-06-26T10:43:43",
 "createdby":100,
 "description":null,
 "entitytype":"Data Import",
 "fieldlength":null,
 "help":null,
 "isactive":"Y",
 "name":"Import Invoice From Statement",
 "po_description":null,
 "po_help":null,
 "po_name":null,
 "po_printname":null,
 "printname":"Import Invoice From Statement",
 "updated":"2014-06-26T10:43:43",
 "updatedby":100}, "children" : []},
 {"tablename" : "ad_element", "data" : {"ad_element_id":57241,
 "columnname":"Imp_Payment",
 "ad_client_id":0,
 "ad_org_id":0,
 "ad_reference_id":null,
 "ad_reference_value_id":null,
 "created":"2014-06-26T10:45:48",
 "createdby":100,
 "description":null,
 "entitytype":"Data Import",
 "fieldlength":null,
 "help":null,
 "isactive":"Y",
 "name":"Import Payment From Statement",
 "po_description":null,
 "po_help":null,
 "po_name":null,
 "po_printname":null,
 "printname":"Import Payment From Statement",
 "updated":"2014-06-26T10:45:48",
 "updatedby":100}, "children" : []},
 {"tablename" : "ad_element", "data" : {"ad_element_id":57244,
 "columnname":"SimulateImport",
 "ad_client_id":0,
 "ad_org_id":0,
 "ad_reference_id":null,
 "ad_reference_value_id":null,
 "created":"2014-07-04T13:21:48",
 "createdby":100,
 "description":null,
 "entitytype":"Data Import",
 "fieldlength":null,
 "help":null,
 "isactive":"Y",
 "name":"Simulate Import",
 "po_description":null,
 "po_help":null,
 "po_name":null,
 "po_printname":null,
 "printname":"Simulate Import",
 "updated":"2014-07-04T13:21:48",
 "updatedby":100}, "children" : []},
 {"tablename" : "ad_element", "data" : {"ad_element_id":57481,
 "columnname":"Month_0_Qty",
 "ad_client_id":0,
 "ad_org_id":0,
 "ad_reference_id":null,
 "ad_reference_value_id":null,
 "created":"2014-10-06T11:01:26",
 "createdby":0,
 "description":null,
 "entitytype":"Data Import",
 "fieldlength":null,
 "help":null,
 "isactive":"Y",
 "name":"Month_0_Qty",
 "po_description":null,
 "po_help":null,
 "po_name":null,
 "po_printname":null,
 "printname":"Month_0_Qty",
 "updated":"2014-10-06T11:01:26",
 "updatedby":0}, "children" : []},
 {"tablename" : "ad_element", "data" : {"ad_element_id":57482,
 "columnname":"Month_1_Qty",
 "ad_client_id":0,
 "ad_org_id":0,
 "ad_reference_id":null,
 "ad_reference_value_id":null,
 "created":"2014-10-06T11:01:47",
 "createdby":0,
 "description":null,
 "entitytype":"Data Import",
 "fieldlength":null,
 "help":null,
 "isactive":"Y",
 "name":"Month_1_Qty",
 "po_description":null,
 "po_help":null,
 "po_name":null,
 "po_printname":null,
 "printname":"Month_1_Qty",
 "updated":"2014-10-06T11:01:47",
 "updatedby":0}, "children" : []},
 {"tablename" : "ad_element", "data" : {"ad_element_id":57483,
 "columnname":"Month_2_Qty",
 "ad_client_id":0,
 "ad_org_id":0,
 "ad_reference_id":null,
 "ad_reference_value_id":null,
 "created":"2014-10-06T11:01:56",
 "createdby":0,
 "description":null,
 "entitytype":"Data Import",
 "fieldlength":null,
 "help":null,
 "isactive":"Y",
 "name":"Month_2_Qty",
 "po_description":null,
 "po_help":null,
 "po_name":null,
 "po_printname":null,
 "printname":"Month_2_Qty",
 "updated":"2014-10-06T11:01:56",
 "updatedby":0}, "children" : []},
 {"tablename" : "ad_element", "data" : {"ad_element_id":57484,
 "columnname":"Month_3_Qty",
 "ad_client_id":0,
 "ad_org_id":0,
 "ad_reference_id":null,
 "ad_reference_value_id":null,
 "created":"2014-10-06T11:02:05",
 "createdby":0,
 "description":null,
 "entitytype":"Data Import",
 "fieldlength":null,
 "help":null,
 "isactive":"Y",
 "name":"Month_3_Qty",
 "po_description":null,
 "po_help":null,
 "po_name":null,
 "po_printname":null,
 "printname":"Month_3_Qty",
 "updated":"2014-10-06T11:02:05",
 "updatedby":0}, "children" : []},
 {"tablename" : "ad_element", "data" : {"ad_element_id":57485,
 "columnname":"Month_4_Qty",
 "ad_client_id":0,
 "ad_org_id":0,
 "ad_reference_id":null,
 "ad_reference_value_id":null,
 "created":"2014-10-06T11:02:14",
 "createdby":0,
 "description":null,
 "entitytype":"Data Import",
 "fieldlength":null,
 "help":null,
 "isactive":"Y",
 "name":"Month_4_Qty",
 "po_description":null,
 "po_help":null,
 "po_name":null,
 "po_printname":null,
 "printname":"Month_4_Qty",
 "updated":"2014-10-06T11:02:14",
 "updatedby":0}, "children" : []},
 {"tablename" : "ad_element", "data" : {"ad_element_id":57486,
 "columnname":"Month_5_Qty",
 "ad_client_id":0,
 "ad_org_id":0,
 "ad_reference_id":null,
 "ad_reference_value_id":null,
 "created":"2014-10-06T11:02:22",
 "createdby":0,
 "description":null,
 "entitytype":"Data Import",
 "fieldlength":null,
 "help":null,
 "isactive":"Y",
 "name":"Month_5_Qty",
 "po_description":null,
 "po_help":null,
 "po_name":null,
 "po_printname":null,
 "printname":"Month_5_Qty",
 "updated":"2014-10-06T11:02:22",
 "updatedby":0}, "children" : []},
 {"tablename" : "ad_element", "data" : {"ad_element_id":57487,
 "columnname":"Month_6_Qty",
 "ad_client_id":0,
 "ad_org_id":0,
 "ad_reference_id":null,
 "ad_reference_value_id":null,
 "created":"2014-10-06T11:02:30",
 "createdby":0,
 "description":null,
 "entitytype":"Data Import",
 "fieldlength":null,
 "help":null,
 "isactive":"Y",
 "name":"Month_6_Qty",
 "po_description":null,
 "po_help":null,
 "po_name":null,
 "po_printname":null,
 "printname":"Month_6_Qty",
 "updated":"2014-10-06T11:02:30",
 "updatedby":0}, "children" : []},
 {"tablename" : "ad_element", "data" : {"ad_element_id":57488,
 "columnname":"Month_7_Qty",
 "ad_client_id":0,
 "ad_org_id":0,
 "ad_reference_id":null,
 "ad_reference_value_id":null,
 "created":"2014-10-06T11:02:39",
 "createdby":0,
 "description":null,
 "entitytype":"Data Import",
 "fieldlength":null,
 "help":null,
 "isactive":"Y",
 "name":"Month_7_Qty",
 "po_description":null,
 "po_help":null,
 "po_name":null,
 "po_printname":null,
 "printname":"Month_7_Qty",
 "updated":"2014-10-06T11:02:39",
 "updatedby":0}, "children" : []},
 {"tablename" : "ad_element", "data" : {"ad_element_id":57489,
 "columnname":"Month_8_Qty",
 "ad_client_id":0,
 "ad_org_id":0,
 "ad_reference_id":null,
 "ad_reference_value_id":null,
 "created":"2014-10-06T11:02:48",
 "createdby":0,
 "description":null,
 "entitytype":"Data Import",
 "fieldlength":null,
 "help":null,
 "isactive":"Y",
 "name":"Month_8_Qty",
 "po_description":null,
 "po_help":null,
 "po_name":null,
 "po_printname":null,
 "printname":"Month_8_Qty",
 "updated":"2014-10-06T11:02:48",
 "updatedby":0}, "children" : []},
 {"tablename" : "ad_element", "data" : {"ad_element_id":57490,
 "columnname":"Month_9_Qty",
 "ad_client_id":0,
 "ad_org_id":0,
 "ad_reference_id":null,
 "ad_reference_value_id":null,
 "created":"2014-10-06T11:03:02",
 "createdby":0,
 "description":null,
 "entitytype":"Data Import",
 "fieldlength":null,
 "help":null,
 "isactive":"Y",
 "name":"Month_9_Qty",
 "po_description":null,
 "po_help":null,
 "po_name":null,
 "po_printname":null,
 "printname":"Month_9_Qty",
 "updated":"2014-10-06T11:03:02",
 "updatedby":0}, "children" : []},
 {"tablename" : "ad_element", "data" : {"ad_element_id":57491,
 "columnname":"Month_10_Qty",
 "ad_client_id":0,
 "ad_org_id":0,
 "ad_reference_id":null,
 "ad_reference_value_id":null,
 "created":"2014-10-06T11:03:10",
 "createdby":0,
 "description":null,
 "entitytype":"Data Import",
 "fieldlength":null,
 "help":null,
 "isactive":"Y",
 "name":"Month_10_Qty",
 "po_description":null,
 "po_help":null,
 "po_name":null,
 "po_printname":null,
 "printname":"Month_10_Qty",
 "updated":"2014-10-06T11:03:10",
 "updatedby":0}, "children" : []},
 {"tablename" : "ad_element", "data" : {"ad_element_id":57492,
 "columnname":"Month_11_Qty",
 "ad_client_id":0,
 "ad_org_id":0,
 "ad_reference_id":null,
 "ad_reference_value_id":null,
 "created":"2014-10-06T11:03:18",
 "createdby":0,
 "description":null,
 "entitytype":"Data Import",
 "fieldlength":null,
 "help":null,
 "isactive":"Y",
 "name":"Month_11_Qty",
 "po_description":null,
 "po_help":null,
 "po_name":null,
 "po_printname":null,
 "printname":"Month_11_Qty",
 "updated":"2014-10-06T11:03:18",
 "updatedby":0}, "children" : []},
 {"tablename" : "ad_element", "data" : {"ad_element_id":57493,
 "columnname":"Jnl_Line_Description",
 "ad_client_id":0,
 "ad_org_id":0,
 "ad_reference_id":null,
 "ad_reference_value_id":null,
 "created":"2014-10-06T11:36:59",
 "createdby":0,
 "description":null,
 "entitytype":"Data Import",
 "fieldlength":null,
 "help":null,
 "isactive":"Y",
 "name":"Jnl Line Description",
 "po_description":null,
 "po_help":null,
 "po_name":null,
 "po_printname":null,
 "printname":"Jnl Line Description",
 "updated":"2014-10-06T11:36:59",
 "updatedby":0}, "children" : []},
 {"tablename" : "ad_element", "data" : {"ad_element_id":57907,
 "columnname":"OrderDocumentNo",
 "ad_client_id":0,
 "ad_org_id":0,
 "ad_reference_id":null,
 "ad_reference_value_id":null,
 "created":"2015-03-16T11:24:10",
 "createdby":100,
 "description":null,
 "entitytype":"Data Import",
 "fieldlength":null,
 "help":null,
 "isactive":"Y",
 "name":"Order Document No",
 "po_description":null,
 "po_help":null,
 "po_name":null,
 "po_printname":null,
 "printname":"Order Document No",
 "updated":"2015-03-16T11:24:10",
 "updatedby":100}, "children" : []},
 {"tablename" : "ad_element", "data" : {"ad_element_id":57991,
 "columnname":"ShipAddress1",
 "ad_client_id":0,
 "ad_org_id":0,
 "ad_reference_id":null,
 "ad_reference_value_id":null,
 "created":"2015-05-14T12:50:48",
 "createdby":100,
 "description":null,
 "entitytype":"Data Import",
 "fieldlength":null,
 "help":null,
 "isactive":"Y",
 "name":"Ship Address 1",
 "po_description":null,
 "po_help":null,
 "po_name":null,
 "po_printname":null,
 "printname":"Ship Address 1",
 "updated":"2015-05-14T12:50:48",
 "updatedby":100}, "children" : []},
 {"tablename" : "ad_element", "data" : {"ad_element_id":57992,
 "columnname":"ShipAddress2",
 "ad_client_id":0,
 "ad_org_id":0,
 "ad_reference_id":null,
 "ad_reference_value_id":null,
 "created":"2015-05-14T12:51:34",
 "createdby":100,
 "description":null,
 "entitytype":"Data Import",
 "fieldlength":null,
 "help":null,
 "isactive":"Y",
 "name":"Ship Address 2",
 "po_description":null,
 "po_help":null,
 "po_name":null,
 "po_printname":null,
 "printname":"Ship Address 2",
 "updated":"2015-05-14T12:51:34",
 "updatedby":100}, "children" : []},
 {"tablename" : "ad_element", "data" : {"ad_element_id":57993,
 "columnname":"ShipCity",
 "ad_client_id":0,
 "ad_org_id":0,
 "ad_reference_id":null,
 "ad_reference_value_id":null,
 "created":"2015-05-14T12:52:23",
 "createdby":100,
 "description":null,
 "entitytype":"Data Import",
 "fieldlength":null,
 "help":null,
 "isactive":"Y",
 "name":"Ship City",
 "po_description":null,
 "po_help":null,
 "po_name":null,
 "po_printname":null,
 "printname":"Ship City",
 "updated":"2015-05-14T12:52:23",
 "updatedby":100}, "children" : []},
 {"tablename" : "ad_element", "data" : {"ad_element_id":57994,
 "columnname":"ShipPostCode",
 "ad_client_id":0,
 "ad_org_id":0,
 "ad_reference_id":null,
 "ad_reference_value_id":null,
 "created":"2015-05-14T12:53:28",
 "createdby":100,
 "description":null,
 "entitytype":"Data Import",
 "fieldlength":null,
 "help":null,
 "isactive":"Y",
 "name":"Ship PostCode",
 "po_description":null,
 "po_help":null,
 "po_name":null,
 "po_printname":null,
 "printname":"Ship PostCode",
 "updated":"2015-05-14T12:53:28",
 "updatedby":100}, "children" : []},
 {"tablename" : "ad_element", "data" : {"ad_element_id":57995,
 "columnname":"ShipRegionName",
 "ad_client_id":0,
 "ad_org_id":0,
 "ad_reference_id":null,
 "ad_reference_value_id":null,
 "created":"2015-05-14T12:54:28",
 "createdby":100,
 "description":null,
 "entitytype":"Data Import",
 "fieldlength":null,
 "help":null,
 "isactive":"Y",
 "name":"Ship Region",
 "po_description":null,
 "po_help":null,
 "po_name":null,
 "po_printname":null,
 "printname":"Ship Region",
 "updated":"2015-05-14T12:54:28",
 "updatedby":100}, "children" : []},
 {"tablename" : "ad_element", "data" : {"ad_element_id":57996,
 "columnname":"Ship_C_Region_ID",
 "ad_client_id":0,
 "ad_org_id":0,
 "ad_reference_id":null,
 "ad_reference_value_id":null,
 "created":"2015-05-14T12:55:56",
 "createdby":100,
 "description":null,
 "entitytype":"Data Import",
 "fieldlength":null,
 "help":null,
 "isactive":"Y",
 "name":"Ship Region",
 "po_description":null,
 "po_help":null,
 "po_name":null,
 "po_printname":null,
 "printname":"Ship Region",
 "updated":"2015-05-14T12:55:56",
 "updatedby":100}, "children" : []},
 {"tablename" : "ad_element", "data" : {"ad_element_id":57997,
 "columnname":"ShipCountryCode",
 "ad_client_id":0,
 "ad_org_id":0,
 "ad_reference_id":null,
 "ad_reference_value_id":null,
 "created":"2015-05-14T12:57:21",
 "createdby":100,
 "description":null,
 "entitytype":"Data Import",
 "fieldlength":null,
 "help":null,
 "isactive":"Y",
 "name":"Ship Country",
 "po_description":null,
 "po_help":null,
 "po_name":null,
 "po_printname":null,
 "printname":"Ship Country",
 "updated":"2015-05-14T12:57:21",
 "updatedby":100}, "children" : []},
 {"tablename" : "ad_element", "data" : {"ad_element_id":57998,
 "columnname":"Ship_C_Country_ID",
 "ad_client_id":0,
 "ad_org_id":0,
 "ad_reference_id":null,
 "ad_reference_value_id":null,
 "created":"2015-05-14T12:58:20",
 "createdby":100,
 "description":null,
 "entitytype":"Data Import",
 "fieldlength":null,
 "help":null,
 "isactive":"Y",
 "name":"Ship Country",
 "po_description":null,
 "po_help":null,
 "po_name":null,
 "po_printname":null,
 "printname":"Ship Country",
 "updated":"2015-05-14T12:58:20",
 "updatedby":100}, "children" : []},
 {"tablename" : "ad_element", "data" : {"ad_element_id":58002,
 "columnname":"ShipContactName",
 "ad_client_id":0,
 "ad_org_id":0,
 "ad_reference_id":null,
 "ad_reference_value_id":null,
 "created":"2015-05-19T13:15:03",
 "createdby":100,
 "description":null,
 "entitytype":"Data Import",
 "fieldlength":null,
 "help":null,
 "isactive":"Y",
 "name":"Ship Contact Name",
 "po_description":null,
 "po_help":null,
 "po_name":null,
 "po_printname":null,
 "printname":"Ship Contact Name",
 "updated":"2015-05-19T13:15:03",
 "updatedby":100}, "children" : []},
 {"tablename" : "ad_element", "data" : {"ad_element_id":58003,
 "columnname":"ShipAD_User_ID",
 "ad_client_id":0,
 "ad_org_id":0,
 "ad_reference_id":null,
 "ad_reference_value_id":null,
 "created":"2015-05-19T13:16:10",
 "createdby":100,
 "description":null,
 "entitytype":"Data Import",
 "fieldlength":null,
 "help":null,
 "isactive":"Y",
 "name":"Ship User/Contact",
 "po_description":null,
 "po_help":null,
 "po_name":null,
 "po_printname":null,
 "printname":"Ship User/Contact",
 "updated":"2015-05-19T13:16:10",
 "updatedby":100}, "children" : []},
 {"tablename" : "ad_element", "data" : {"ad_element_id":58009,
 "columnname":"ShipAddress3",
 "ad_client_id":0,
 "ad_org_id":0,
 "ad_reference_id":null,
 "ad_reference_value_id":null,
 "created":"2015-06-03T18:12:11",
 "createdby":100,
 "description":null,
 "entitytype":"Data Import",
 "fieldlength":null,
 "help":null,
 "isactive":"Y",
 "name":"Ship Address 3",
 "po_description":null,
 "po_help":null,
 "po_name":null,
 "po_printname":null,
 "printname":"Ship Address 3",
 "updated":"2015-06-03T18:12:11",
 "updatedby":100}, "children" : []},
 {"tablename" : "ad_element", "data" : {"ad_element_id":58010,
 "columnname":"ShipAddress4",
 "ad_client_id":0,
 "ad_org_id":0,
 "ad_reference_id":null,
 "ad_reference_value_id":null,
 "created":"2015-06-03T18:12:20",
 "createdby":100,
 "description":null,
 "entitytype":"Data Import",
 "fieldlength":null,
 "help":null,
 "isactive":"Y",
 "name":"Ship Address 4",
 "po_description":null,
 "po_help":null,
 "po_name":null,
 "po_printname":null,
 "printname":"Ship Address 4",
 "updated":"2015-06-03T18:12:20",
 "updatedby":100}, "children" : []},
 {"tablename" : "ad_element", "data" : {"ad_element_id":58315,
 "columnname":"BPGroupName",
 "ad_client_id":0,
 "ad_org_id":0,
 "ad_reference_id":null,
 "ad_reference_value_id":null,
 "created":"2015-09-18T18:20:33",
 "createdby":100,
 "description":null,
 "entitytype":"Data Import",
 "fieldlength":null,
 "help":null,
 "isactive":"Y",
 "name":"BP Group Name",
 "po_description":null,
 "po_help":null,
 "po_name":null,
 "po_printname":null,
 "printname":"BP Group Name",
 "updated":"2015-09-18T18:20:33",
 "updatedby":100}, "children" : []},
 {"tablename" : "ad_element", "data" : {"ad_element_id":58337,
 "columnname":"Ext_Category_ID",
 "ad_client_id":0,
 "ad_org_id":0,
 "ad_reference_id":null,
 "ad_reference_value_id":null,
 "created":"2015-10-16T14:06:04",
 "createdby":100,
 "description":null,
 "entitytype":"Data Import",
 "fieldlength":null,
 "help":null,
 "isactive":"Y",
 "name":"Ext Category ID",
 "po_description":null,
 "po_help":null,
 "po_name":null,
 "po_printname":null,
 "printname":"Ext Category ID",
 "updated":"2015-10-16T14:06:04",
 "updatedby":100}, "children" : []},
 {"tablename" : "ad_element", "data" : {"ad_element_id":58338,
 "columnname":"Ext_Product_BOM_ID",
 "ad_client_id":0,
 "ad_org_id":0,
 "ad_reference_id":null,
 "ad_reference_value_id":null,
 "created":"2015-10-19T10:45:59",
 "createdby":100,
 "description":"This ID stores 3rd Party Application BOM/Bundle Product ID",
 "entitytype":"Data Import",
 "fieldlength":null,
 "help":null,
 "isactive":"Y",
 "name":"External Product BOM ID",
 "po_description":null,
 "po_help":null,
 "po_name":null,
 "po_printname":null,
 "printname":"External Product BOM ID",
 "updated":"2015-10-19T10:45:59",
 "updatedby":100}, "children" : []},
 {"tablename" : "ad_element", "data" : {"ad_element_id":59051,
 "columnname":"I_Column_ID",
 "ad_client_id":0,
 "ad_org_id":0,
 "ad_reference_id":null,
 "ad_reference_value_id":null,
 "created":"2016-12-02T14:24:45",
 "createdby":100,
 "description":null,
 "entitytype":"Data Import",
 "fieldlength":null,
 "help":null,
 "isactive":"Y",
 "name":"Import Column ID",
 "po_description":null,
 "po_help":null,
 "po_name":null,
 "po_printname":null,
 "printname":"Import Column ID",
 "updated":"2016-12-02T14:24:45",
 "updatedby":100}, "children" : []},
 {"tablename" : "ad_element", "data" : {"ad_element_id":59052,
 "columnname":"ReferenceName",
 "ad_client_id":0,
 "ad_org_id":0,
 "ad_reference_id":10,
 "ad_reference_value_id":null,
 "created":"2016-12-02T15:53:01",
 "createdby":100,
 "description":"System Reference and Validation Name",
 "entitytype":"Data Import",
 "fieldlength":60,
 "help":"The Reference could be a display type, list or table validation.",
 "isactive":"Y",
 "name":"Reference Name",
 "po_description":null,
 "po_help":null,
 "po_name":null,
 "po_printname":null,
 "printname":"Reference Name",
 "updated":"2016-12-02T15:53:01",
 "updatedby":100}, "children" : []},
 {"tablename" : "ad_element", "data" : {"ad_element_id":59053,
 "columnname":"ReferenceValueName",
 "ad_client_id":0,
 "ad_org_id":0,
 "ad_reference_id":10,
 "ad_reference_value_id":null,
 "created":"2016-12-02T15:56:41",
 "createdby":100,
 "description":"Required to specify, if data type is Table or List",
 "entitytype":"Data Import",
 "fieldlength":22,
 "help":"The Reference Value indicates where the reference values are stored.  It must be specified if the data type is Table or List.  ",
 "isactive":"Y",
 "name":"Reference Key Name",
 "po_description":null,
 "po_help":null,
 "po_name":null,
 "po_printname":null,
 "printname":"Reference Key Name",
 "updated":"2016-12-02T15:56:41",
 "updatedby":100}, "children" : []},
 {"tablename" : "ad_element", "data" : {"ad_element_id":59054,
 "columnname":"SeqNoField",
 "ad_client_id":0,
 "ad_org_id":0,
 "ad_reference_id":11,
 "ad_reference_value_id":null,
 "created":"2016-12-07T15:55:35",
 "createdby":100,
 "description":"Method of ordering records; lowest number comes first",
 "entitytype":"Data Import",
 "fieldlength":22,
 "help":"The Sequence indicates the order of columns in form view",
 "isactive":"Y",
 "name":"Field Sequence",
 "po_description":null,
 "po_help":null,
 "po_name":null,
 "po_printname":null,
 "printname":"Field Sequence",
 "updated":"2016-12-07T15:55:35",
 "updatedby":100}, "children" : []},
 {"tablename" : "ad_element", "data" : {"ad_element_id":59055,
 "columnname":"WindowName",
 "ad_client_id":0,
 "ad_org_id":0,
 "ad_reference_id":10,
 "ad_reference_value_id":null,
 "created":"2016-12-07T16:15:38",
 "createdby":100,
 "description":"Data entry or display window name",
 "entitytype":"Data Import",
 "fieldlength":60,
 "help":"The Window name field identifies a Window in the system.",
 "isactive":"Y",
 "name":"Window Name",
 "po_description":null,
 "po_help":null,
 "po_name":null,
 "po_printname":null,
 "printname":"Window Name",
 "updated":"2016-12-07T16:15:38",
 "updatedby":100}, "children" : []},
 {"tablename" : "ad_element", "data" : {"ad_element_id":59056,
 "columnname":"TabName",
 "ad_client_id":0,
 "ad_org_id":0,
 "ad_reference_id":10,
 "ad_reference_value_id":null,
 "created":"2016-12-07T16:16:19",
 "createdby":100,
 "description":"Tab Name within a Window",
 "entitytype":"Data Import",
 "fieldlength":60,
 "help":"The Tab indicates a tab that displays within a window.",
 "isactive":"Y",
 "name":"Tab Name",
 "po_description":null,
 "po_help":null,
 "po_name":null,
 "po_printname":null,
 "printname":"Tab Name",
 "updated":"2016-12-07T16:16:19",
 "updatedby":100}, "children" : []},
 {"tablename" : "ad_element", "data" : {"ad_element_id":59057,
 "columnname":"FieldGroupName",
 "ad_client_id":0,
 "ad_org_id":0,
 "ad_reference_id":10,
 "ad_reference_value_id":null,
 "created":"2016-12-07T16:17:04",
 "createdby":100,
 "description":"Logical grouping of fields",
 "entitytype":"Data Import",
 "fieldlength":60,
 "help":"The Field Group indicates the logical group that this field belongs to (History, Amounts, Quantities)",
 "isactive":"Y",
 "name":"Field Group Name",
 "po_description":null,
 "po_help":null,
 "po_name":null,
 "po_printname":null,
 "printname":"Field Group Name",
 "updated":"2016-12-07T16:17:04",
 "updatedby":100}, "children" : []},
 {"tablename" : "ad_element", "data" : {"ad_element_id":1000028,
 "columnname":"IsDeleteImported",
 "ad_client_id":0,
 "ad_org_id":0,
 "ad_reference_id":null,
 "ad_reference_value_id":null,
 "created":"2016-04-12T09:52:20",
 "createdby":0,
 "description":null,
 "entitytype":"Data Import",
 "fieldlength":null,
 "help":null,
 "isactive":"Y",
 "name":"IsDeleteImported",
 "po_description":null,
 "po_help":null,
 "po_name":null,
 "po_printname":null,
 "printname":"IsDeleteImported",
 "updated":"2016-04-12T09:52:20",
 "updatedby":0}, "children" : []}]