[{"tablename" : "ad_process", "data" : {"ad_process_id":201,
 "value":"Asset_Delivery",
 "name":"Deliver Assets",
 "accesslevel":"1",
 "ad_client_id":0,
 "ad_form_id":null,
 "ad_org_id":0,
 "ad_printformat_id":null,
 "ad_reportview_id":null,
 "ad_tableselection_id":null,
 "ad_workflow_id":null,
 "classname":"org.compiere.process.AssetDelivery",
 "copyfromprocess":null,
 "created":"2003-01-29T21:13:01",
 "createdby":0,
 "description":"Deliver Customer Assets electronically",
 "entitytype":"Assets",
 "help":"Send Mail to customers and attach new delivery (optional).",
 "isactive":"Y",
 "isbetafunctionality":"Y",
 "isdirectprint":"N",
 "isreport":"N",
 "isserverprocess":"N",
 "jasperreport":null,
 "procedurename":null,
 "showhelp":"Y",
 "statistic_count":0,
 "statistic_seconds":0,
 "updated":"2011-11-02T16:35:05",
 "updatedby":0,
 "workflowvalue":null}, "children" : [{"tablename" : "ad_process_para", "data" : {"ad_process_para_id":271,
 "name":"Asset",
 "ad_client_id":0,
 "ad_element_id":1884,
 "ad_org_id":0,
 "ad_process_id":201,
 "ad_reference_id":30,
 "ad_reference_value_id":null,
 "ad_val_rule_id":null,
 "columnname":"A_Asset_ID",
 "created":"2003-01-29T21:15:06",
 "createdby":0,
 "defaultvalue":null,
 "defaultvalue2":null,
 "description":"Asset used internally or by customers",
 "displaylogic":null,
 "entitytype":"Assets",
 "fieldlength":0,
 "help":"An asset is either created by purchasing or by delivering a product.  An asset can be used internally or be a customer asset.",
 "isactive":"Y",
 "iscentrallymaintained":"Y",
 "ismandatory":"N",
 "isrange":"N",
 "readonlylogic":null,
 "seqno":40,
 "updated":"2000-01-02T00:00:00",
 "updatedby":0,
 "valuemax":null,
 "valuemin":null,
 "vformat":null}, "children" : []},{"tablename" : "ad_process_para", "data" : {"ad_process_para_id":272,
 "name":"Asset Group",
 "ad_client_id":0,
 "ad_element_id":1929,
 "ad_org_id":0,
 "ad_process_id":201,
 "ad_reference_id":19,
 "ad_reference_value_id":null,
 "ad_val_rule_id":null,
 "columnname":"A_Asset_Group_ID",
 "created":"2003-01-29T21:16:01",
 "createdby":0,
 "defaultvalue":null,
 "defaultvalue2":null,
 "description":"Group of Assets",
 "displaylogic":null,
 "entitytype":"Assets",
 "fieldlength":0,
 "help":"The group of assets determines default accounts.  If an asset group is selected in the product category, assets are created when delivering the asset.",
 "isactive":"Y",
 "iscentrallymaintained":"Y",
 "ismandatory":"N",
 "isrange":"N",
 "readonlylogic":null,
 "seqno":10,
 "updated":"2000-01-02T00:00:00",
 "updatedby":0,
 "valuemax":null,
 "valuemin":null,
 "vformat":null}, "children" : []},{"tablename" : "ad_process_para", "data" : {"ad_process_para_id":273,
 "name":"Product",
 "ad_client_id":0,
 "ad_element_id":454,
 "ad_org_id":0,
 "ad_process_id":201,
 "ad_reference_id":30,
 "ad_reference_value_id":null,
 "ad_val_rule_id":null,
 "columnname":"M_Product_ID",
 "created":"2003-01-29T21:17:15",
 "createdby":0,
 "defaultvalue":null,
 "defaultvalue2":null,
 "description":"Product, Service, Item",
 "displaylogic":null,
 "entitytype":"Assets",
 "fieldlength":0,
 "help":"Identifies an item which is either purchased or sold in this organization.",
 "isactive":"Y",
 "iscentrallymaintained":"Y",
 "ismandatory":"N",
 "isrange":"N",
 "readonlylogic":null,
 "seqno":20,
 "updated":"2000-01-02T00:00:00",
 "updatedby":0,
 "valuemax":null,
 "valuemin":null,
 "vformat":null}, "children" : []},{"tablename" : "ad_process_para", "data" : {"ad_process_para_id":274,
 "name":"Business Partner ",
 "ad_client_id":0,
 "ad_element_id":187,
 "ad_org_id":0,
 "ad_process_id":201,
 "ad_reference_id":30,
 "ad_reference_value_id":null,
 "ad_val_rule_id":null,
 "columnname":"C_BPartner_ID",
 "created":"2003-01-29T21:19:57",
 "createdby":0,
 "defaultvalue":null,
 "defaultvalue2":null,
 "description":"Identifies a Business Partner",
 "displaylogic":null,
 "entitytype":"Assets",
 "fieldlength":0,
 "help":"A Business Partner is anyone with whom you transact.  This can include Vendor, Customer, Employee or Salesperson",
 "isactive":"Y",
 "iscentrallymaintained":"Y",
 "ismandatory":"N",
 "isrange":"N",
 "readonlylogic":null,
 "seqno":30,
 "updated":"2000-01-02T00:00:00",
 "updatedby":0,
 "valuemax":null,
 "valuemin":null,
 "vformat":null}, "children" : []},{"tablename" : "ad_process_para", "data" : {"ad_process_para_id":281,
 "name":"Guarantee Date",
 "ad_client_id":0,
 "ad_element_id":1936,
 "ad_org_id":0,
 "ad_process_id":201,
 "ad_reference_id":15,
 "ad_reference_value_id":null,
 "ad_val_rule_id":null,
 "columnname":"GuaranteeDate",
 "created":"2003-02-03T20:36:00",
 "createdby":0,
 "defaultvalue":"@#Date@",
 "defaultvalue2":null,
 "description":"Date when guarantee expires",
 "displaylogic":null,
 "entitytype":"Assets",
 "fieldlength":0,
 "help":"Date when the normal guarantee or availability expires",
 "isactive":"Y",
 "iscentrallymaintained":"Y",
 "ismandatory":"Y",
 "isrange":"N",
 "readonlylogic":null,
 "seqno":50,
 "updated":"2000-01-02T00:00:00",
 "updatedby":0,
 "valuemax":null,
 "valuemin":null,
 "vformat":null}, "children" : []},{"tablename" : "ad_process_para", "data" : {"ad_process_para_id":282,
 "name":"Expired Guarantee Mail",
 "ad_client_id":0,
 "ad_element_id":1980,
 "ad_org_id":0,
 "ad_process_id":201,
 "ad_reference_id":18,
 "ad_reference_value_id":274,
 "ad_val_rule_id":null,
 "columnname":"NoGuarantee_MailText_ID",
 "created":"2003-02-03T20:46:12",
 "createdby":0,
 "defaultvalue":null,
 "defaultvalue2":null,
 "description":"Send email to partners with expired guarantee",
 "displaylogic":null,
 "entitytype":"Assets",
 "fieldlength":0,
 "help":null,
 "isactive":"Y",
 "iscentrallymaintained":"Y",
 "ismandatory":"N",
 "isrange":"N",
 "readonlylogic":null,
 "seqno":60,
 "updated":"2000-01-02T00:00:00",
 "updatedby":0,
 "valuemax":null,
 "valuemin":null,
 "vformat":null}, "children" : []},{"tablename" : "ad_process_para", "data" : {"ad_process_para_id":340,
 "name":"Attach Asset",
 "ad_client_id":0,
 "ad_element_id":2172,
 "ad_org_id":0,
 "ad_process_id":201,
 "ad_reference_id":20,
 "ad_reference_value_id":null,
 "ad_val_rule_id":null,
 "columnname":"AttachAsset",
 "created":"2003-08-27T23:38:19",
 "createdby":0,
 "defaultvalue":"Y",
 "defaultvalue2":null,
 "description":"Attach Asset to be delivered per email",
 "displaylogic":null,
 "entitytype":"Assets",
 "fieldlength":0,
 "help":null,
 "isactive":"Y",
 "iscentrallymaintained":"Y",
 "ismandatory":"N",
 "isrange":"N",
 "readonlylogic":null,
 "seqno":70,
 "updated":"2000-01-02T00:00:00",
 "updatedby":0,
 "valuemax":null,
 "valuemin":null,
 "vformat":null}, "children" : []}]},
 {"tablename" : "ad_process", "data" : {"ad_process_id":222,
 "value":"RV_Asset_Customer",
 "name":"Customer Assets",
 "accesslevel":"3",
 "ad_client_id":0,
 "ad_form_id":null,
 "ad_org_id":0,
 "ad_printformat_id":null,
 "ad_reportview_id":129,
 "ad_tableselection_id":null,
 "ad_workflow_id":null,
 "classname":null,
 "copyfromprocess":null,
 "created":"2003-08-28T16:59:34",
 "createdby":0,
 "description":"Report Customer Assets with Delivery Count",
 "entitytype":"Assets",
 "help":"The report lists the assets of business partners with the total asset delivery count.",
 "isactive":"Y",
 "isbetafunctionality":"Y",
 "isdirectprint":"N",
 "isreport":"Y",
 "isserverprocess":"N",
 "jasperreport":null,
 "procedurename":null,
 "showhelp":"Y",
 "statistic_count":0,
 "statistic_seconds":0,
 "updated":"2011-11-02T16:35:05",
 "updatedby":0,
 "workflowvalue":null}, "children" : [{"tablename" : "ad_process_para", "data" : {"ad_process_para_id":341,
 "name":"Asset Group",
 "ad_client_id":0,
 "ad_element_id":1929,
 "ad_org_id":0,
 "ad_process_id":222,
 "ad_reference_id":19,
 "ad_reference_value_id":null,
 "ad_val_rule_id":null,
 "columnname":"A_Asset_Group_ID",
 "created":"2003-08-28T17:11:59",
 "createdby":0,
 "defaultvalue":null,
 "defaultvalue2":null,
 "description":"Group of Assets",
 "displaylogic":null,
 "entitytype":"Assets",
 "fieldlength":0,
 "help":"The group of assets determines default accounts.  If an asset group is selected in the product category, assets are created when delivering the asset.",
 "isactive":"Y",
 "iscentrallymaintained":"Y",
 "ismandatory":"N",
 "isrange":"N",
 "readonlylogic":null,
 "seqno":10,
 "updated":"2000-01-02T00:00:00",
 "updatedby":0,
 "valuemax":null,
 "valuemin":null,
 "vformat":null}, "children" : []},{"tablename" : "ad_process_para", "data" : {"ad_process_para_id":342,
 "name":"Business Partner ",
 "ad_client_id":0,
 "ad_element_id":187,
 "ad_org_id":0,
 "ad_process_id":222,
 "ad_reference_id":30,
 "ad_reference_value_id":null,
 "ad_val_rule_id":null,
 "columnname":"C_BPartner_ID",
 "created":"2003-08-28T17:12:57",
 "createdby":0,
 "defaultvalue":null,
 "defaultvalue2":null,
 "description":"Identifies a Business Partner",
 "displaylogic":null,
 "entitytype":"Assets",
 "fieldlength":0,
 "help":"A Business Partner is anyone with whom you transact.  This can include Vendor, Customer, Employee or Salesperson",
 "isactive":"Y",
 "iscentrallymaintained":"Y",
 "ismandatory":"N",
 "isrange":"N",
 "readonlylogic":null,
 "seqno":20,
 "updated":"2000-01-02T00:00:00",
 "updatedby":0,
 "valuemax":null,
 "valuemin":null,
 "vformat":null}, "children" : []},{"tablename" : "ad_process_para", "data" : {"ad_process_para_id":343,
 "name":"User/Contact",
 "ad_client_id":0,
 "ad_element_id":138,
 "ad_org_id":0,
 "ad_process_id":222,
 "ad_reference_id":30,
 "ad_reference_value_id":null,
 "ad_val_rule_id":null,
 "columnname":"AD_User_ID",
 "created":"2003-08-28T17:13:49",
 "createdby":0,
 "defaultvalue":"-1",
 "defaultvalue2":null,
 "description":"User within the system - Internal or Business Partner Contact",
 "displaylogic":null,
 "entitytype":"Assets",
 "fieldlength":0,
 "help":"The User identifies a unique user in the system. This could be an internal user or a business partner contact",
 "isactive":"Y",
 "iscentrallymaintained":"Y",
 "ismandatory":"N",
 "isrange":"N",
 "readonlylogic":null,
 "seqno":30,
 "updated":"2000-01-02T00:00:00",
 "updatedby":0,
 "valuemax":null,
 "valuemin":null,
 "vformat":null}, "children" : []},{"tablename" : "ad_process_para", "data" : {"ad_process_para_id":344,
 "name":"Product",
 "ad_client_id":0,
 "ad_element_id":454,
 "ad_org_id":0,
 "ad_process_id":222,
 "ad_reference_id":30,
 "ad_reference_value_id":null,
 "ad_val_rule_id":null,
 "columnname":"M_Product_ID",
 "created":"2003-08-28T17:14:38",
 "createdby":0,
 "defaultvalue":null,
 "defaultvalue2":null,
 "description":"Product, Service, Item",
 "displaylogic":null,
 "entitytype":"Assets",
 "fieldlength":0,
 "help":"Identifies an item which is either purchased or sold in this organization.",
 "isactive":"Y",
 "iscentrallymaintained":"Y",
 "ismandatory":"N",
 "isrange":"N",
 "readonlylogic":null,
 "seqno":40,
 "updated":"2000-01-02T00:00:00",
 "updatedby":0,
 "valuemax":null,
 "valuemin":null,
 "vformat":null}, "children" : []},{"tablename" : "ad_process_para", "data" : {"ad_process_para_id":345,
 "name":"In Service Date",
 "ad_client_id":0,
 "ad_element_id":1934,
 "ad_org_id":0,
 "ad_process_id":222,
 "ad_reference_id":15,
 "ad_reference_value_id":null,
 "ad_val_rule_id":null,
 "columnname":"AssetServiceDate",
 "created":"2003-08-28T17:15:52",
 "createdby":0,
 "defaultvalue":null,
 "defaultvalue2":null,
 "description":"Date when Asset was put into service",
 "displaylogic":null,
 "entitytype":"Assets",
 "fieldlength":0,
 "help":"The date when the asset was put into service - usually used as start date for depreciation.",
 "isactive":"Y",
 "iscentrallymaintained":"Y",
 "ismandatory":"N",
 "isrange":"Y",
 "readonlylogic":null,
 "seqno":50,
 "updated":"2000-01-02T00:00:00",
 "updatedby":0,
 "valuemax":null,
 "valuemin":null,
 "vformat":null}, "children" : []},{"tablename" : "ad_process_para", "data" : {"ad_process_para_id":346,
 "name":"Guarantee Date",
 "ad_client_id":0,
 "ad_element_id":1936,
 "ad_org_id":0,
 "ad_process_id":222,
 "ad_reference_id":15,
 "ad_reference_value_id":null,
 "ad_val_rule_id":null,
 "columnname":"GuaranteeDate",
 "created":"2003-08-28T17:16:42",
 "createdby":0,
 "defaultvalue":null,
 "defaultvalue2":null,
 "description":"Date when guarantee expires",
 "displaylogic":null,
 "entitytype":"Assets",
 "fieldlength":0,
 "help":"Date when the normal guarantee or availability expires",
 "isactive":"Y",
 "iscentrallymaintained":"Y",
 "ismandatory":"N",
 "isrange":"Y",
 "readonlylogic":null,
 "seqno":60,
 "updated":"2000-01-02T00:00:00",
 "updatedby":0,
 "valuemax":null,
 "valuemin":null,
 "vformat":null}, "children" : []}]},
 {"tablename" : "ad_process", "data" : {"ad_process_id":223,
 "value":"RV_Asset_Delivery",
 "name":"Asset Delivery Details",
 "accesslevel":"3",
 "ad_client_id":0,
 "ad_form_id":null,
 "ad_org_id":0,
 "ad_printformat_id":null,
 "ad_reportview_id":130,
 "ad_tableselection_id":null,
 "ad_workflow_id":null,
 "classname":null,
 "copyfromprocess":null,
 "created":"2003-08-28T17:01:25",
 "createdby":0,
 "description":"Report Asset Deliveries Details",
 "entitytype":"Assets",
 "help":"The report lists the details of Asset Deliveries for the records selected.",
 "isactive":"Y",
 "isbetafunctionality":"Y",
 "isdirectprint":"N",
 "isreport":"Y",
 "isserverprocess":"N",
 "jasperreport":null,
 "procedurename":null,
 "showhelp":"Y",
 "statistic_count":0,
 "statistic_seconds":0,
 "updated":"2011-11-02T16:35:05",
 "updatedby":0,
 "workflowvalue":null}, "children" : [{"tablename" : "ad_process_para", "data" : {"ad_process_para_id":347,
 "name":"Asset Group",
 "ad_client_id":0,
 "ad_element_id":1929,
 "ad_org_id":0,
 "ad_process_id":223,
 "ad_reference_id":19,
 "ad_reference_value_id":null,
 "ad_val_rule_id":null,
 "columnname":"A_Asset_Group_ID",
 "created":"2003-08-28T17:17:53",
 "createdby":0,
 "defaultvalue":null,
 "defaultvalue2":null,
 "description":"Group of Assets",
 "displaylogic":null,
 "entitytype":"Assets",
 "fieldlength":0,
 "help":"The group of assets determines default accounts.  If an asset group is selected in the product category, assets are created when delivering the asset.",
 "isactive":"Y",
 "iscentrallymaintained":"Y",
 "ismandatory":"N",
 "isrange":"N",
 "readonlylogic":null,
 "seqno":10,
 "updated":"2000-01-02T00:00:00",
 "updatedby":0,
 "valuemax":null,
 "valuemin":null,
 "vformat":null}, "children" : []},{"tablename" : "ad_process_para", "data" : {"ad_process_para_id":348,
 "name":"Asset",
 "ad_client_id":0,
 "ad_element_id":1884,
 "ad_org_id":0,
 "ad_process_id":223,
 "ad_reference_id":30,
 "ad_reference_value_id":null,
 "ad_val_rule_id":null,
 "columnname":"A_Asset_ID",
 "created":"2003-08-28T17:18:22",
 "createdby":0,
 "defaultvalue":null,
 "defaultvalue2":null,
 "description":"Asset used internally or by customers",
 "displaylogic":null,
 "entitytype":"Assets",
 "fieldlength":0,
 "help":"An asset is either created by purchasing or by delivering a product.  An asset can be used internally or be a customer asset.",
 "isactive":"Y",
 "iscentrallymaintained":"Y",
 "ismandatory":"N",
 "isrange":"N",
 "readonlylogic":null,
 "seqno":20,
 "updated":"2000-01-02T00:00:00",
 "updatedby":0,
 "valuemax":null,
 "valuemin":null,
 "vformat":null}, "children" : []},{"tablename" : "ad_process_para", "data" : {"ad_process_para_id":349,
 "name":"Business Partner ",
 "ad_client_id":0,
 "ad_element_id":187,
 "ad_org_id":0,
 "ad_process_id":223,
 "ad_reference_id":30,
 "ad_reference_value_id":null,
 "ad_val_rule_id":null,
 "columnname":"C_BPartner_ID",
 "created":"2003-08-28T17:22:01",
 "createdby":0,
 "defaultvalue":null,
 "defaultvalue2":null,
 "description":"Identifies a Business Partner",
 "displaylogic":null,
 "entitytype":"Assets",
 "fieldlength":0,
 "help":"A Business Partner is anyone with whom you transact.  This can include Vendor, Customer, Employee or Salesperson",
 "isactive":"Y",
 "iscentrallymaintained":"Y",
 "ismandatory":"N",
 "isrange":"N",
 "readonlylogic":null,
 "seqno":30,
 "updated":"2000-01-02T00:00:00",
 "updatedby":0,
 "valuemax":null,
 "valuemin":null,
 "vformat":null}, "children" : []},{"tablename" : "ad_process_para", "data" : {"ad_process_para_id":350,
 "name":"User/Contact",
 "ad_client_id":0,
 "ad_element_id":138,
 "ad_org_id":0,
 "ad_process_id":223,
 "ad_reference_id":30,
 "ad_reference_value_id":null,
 "ad_val_rule_id":null,
 "columnname":"AD_User_ID",
 "created":"2003-08-28T17:22:44",
 "createdby":0,
 "defaultvalue":"-1",
 "defaultvalue2":null,
 "description":"User within the system - Internal or Business Partner Contact",
 "displaylogic":null,
 "entitytype":"Assets",
 "fieldlength":0,
 "help":"The User identifies a unique user in the system. This could be an internal user or a business partner contact",
 "isactive":"Y",
 "iscentrallymaintained":"Y",
 "ismandatory":"N",
 "isrange":"N",
 "readonlylogic":null,
 "seqno":40,
 "updated":"2000-01-02T00:00:00",
 "updatedby":0,
 "valuemax":null,
 "valuemin":null,
 "vformat":null}, "children" : []},{"tablename" : "ad_process_para", "data" : {"ad_process_para_id":351,
 "name":"Product",
 "ad_client_id":0,
 "ad_element_id":454,
 "ad_org_id":0,
 "ad_process_id":223,
 "ad_reference_id":30,
 "ad_reference_value_id":null,
 "ad_val_rule_id":null,
 "columnname":"M_Product_ID",
 "created":"2003-08-28T17:23:30",
 "createdby":0,
 "defaultvalue":null,
 "defaultvalue2":null,
 "description":"Product, Service, Item",
 "displaylogic":null,
 "entitytype":"Assets",
 "fieldlength":0,
 "help":"Identifies an item which is either purchased or sold in this organization.",
 "isactive":"Y",
 "iscentrallymaintained":"Y",
 "ismandatory":"N",
 "isrange":"N",
 "readonlylogic":null,
 "seqno":50,
 "updated":"2000-01-02T00:00:00",
 "updatedby":0,
 "valuemax":null,
 "valuemin":null,
 "vformat":null}, "children" : []},{"tablename" : "ad_process_para", "data" : {"ad_process_para_id":352,
 "name":"Movement Date",
 "ad_client_id":0,
 "ad_element_id":1037,
 "ad_org_id":0,
 "ad_process_id":223,
 "ad_reference_id":15,
 "ad_reference_value_id":null,
 "ad_val_rule_id":null,
 "columnname":"MovementDate",
 "created":"2003-08-28T17:24:14",
 "createdby":0,
 "defaultvalue":null,
 "defaultvalue2":null,
 "description":"Date a product was moved in or out of inventory",
 "displaylogic":null,
 "entitytype":"Assets",
 "fieldlength":0,
 "help":"The Movement Date indicates the date that a product moved in or out of inventory.  This is the result of a shipment, receipt or inventory movement.",
 "isactive":"Y",
 "iscentrallymaintained":"Y",
 "ismandatory":"N",
 "isrange":"Y",
 "readonlylogic":null,
 "seqno":60,
 "updated":"2000-01-02T00:00:00",
 "updatedby":0,
 "valuemax":null,
 "valuemin":null,
 "vformat":null}, "children" : []}]},
 {"tablename" : "ad_process", "data" : {"ad_process_id":274,
 "value":"RV_Asset_SumMonth",
 "name":"Asset Delivery Month",
 "accesslevel":"3",
 "ad_client_id":0,
 "ad_form_id":null,
 "ad_org_id":0,
 "ad_printformat_id":null,
 "ad_reportview_id":147,
 "ad_tableselection_id":null,
 "ad_workflow_id":null,
 "classname":null,
 "copyfromprocess":null,
 "created":"2004-04-13T11:17:45",
 "createdby":0,
 "description":"Report Asset Deliveries Summary per month",
 "entitytype":"Assets",
 "help":"The report lists the Asset and the deliveries per month for the records selected.",
 "isactive":"Y",
 "isbetafunctionality":"Y",
 "isdirectprint":"N",
 "isreport":"Y",
 "isserverprocess":"N",
 "jasperreport":null,
 "procedurename":null,
 "showhelp":"Y",
 "statistic_count":0,
 "statistic_seconds":0,
 "updated":"2011-11-02T16:35:05",
 "updatedby":0,
 "workflowvalue":null}, "children" : [{"tablename" : "ad_process_para", "data" : {"ad_process_para_id":487,
 "name":"Asset Group",
 "ad_client_id":0,
 "ad_element_id":1929,
 "ad_org_id":0,
 "ad_process_id":274,
 "ad_reference_id":19,
 "ad_reference_value_id":null,
 "ad_val_rule_id":null,
 "columnname":"A_Asset_Group_ID",
 "created":"2004-04-13T11:20:11",
 "createdby":0,
 "defaultvalue":null,
 "defaultvalue2":null,
 "description":"Group of Assets",
 "displaylogic":null,
 "entitytype":"Assets",
 "fieldlength":0,
 "help":"The group of assets determines default accounts.  If an asset group is selected in the product category, assets are created when delivering the asset.",
 "isactive":"Y",
 "iscentrallymaintained":"Y",
 "ismandatory":"N",
 "isrange":"N",
 "readonlylogic":null,
 "seqno":10,
 "updated":"2000-01-02T00:00:00",
 "updatedby":0,
 "valuemax":null,
 "valuemin":null,
 "vformat":null}, "children" : []},{"tablename" : "ad_process_para", "data" : {"ad_process_para_id":488,
 "name":"Business Partner ",
 "ad_client_id":0,
 "ad_element_id":187,
 "ad_org_id":0,
 "ad_process_id":274,
 "ad_reference_id":30,
 "ad_reference_value_id":null,
 "ad_val_rule_id":null,
 "columnname":"C_BPartner_ID",
 "created":"2004-04-13T11:20:37",
 "createdby":0,
 "defaultvalue":null,
 "defaultvalue2":null,
 "description":"Identifies a Business Partner",
 "displaylogic":null,
 "entitytype":"Assets",
 "fieldlength":0,
 "help":"A Business Partner is anyone with whom you transact.  This can include Vendor, Customer, Employee or Salesperson",
 "isactive":"Y",
 "iscentrallymaintained":"Y",
 "ismandatory":"N",
 "isrange":"N",
 "readonlylogic":null,
 "seqno":20,
 "updated":"2000-01-02T00:00:00",
 "updatedby":0,
 "valuemax":null,
 "valuemin":null,
 "vformat":null}, "children" : []},{"tablename" : "ad_process_para", "data" : {"ad_process_para_id":489,
 "name":"User/Contact",
 "ad_client_id":0,
 "ad_element_id":138,
 "ad_org_id":0,
 "ad_process_id":274,
 "ad_reference_id":30,
 "ad_reference_value_id":null,
 "ad_val_rule_id":null,
 "columnname":"AD_User_ID",
 "created":"2004-04-13T11:21:03",
 "createdby":0,
 "defaultvalue":"-1",
 "defaultvalue2":null,
 "description":"User within the system - Internal or Business Partner Contact",
 "displaylogic":null,
 "entitytype":"Assets",
 "fieldlength":0,
 "help":"The User identifies a unique user in the system. This could be an internal user or a business partner contact",
 "isactive":"Y",
 "iscentrallymaintained":"Y",
 "ismandatory":"N",
 "isrange":"N",
 "readonlylogic":null,
 "seqno":30,
 "updated":"2000-01-02T00:00:00",
 "updatedby":0,
 "valuemax":null,
 "valuemin":null,
 "vformat":null}, "children" : []},{"tablename" : "ad_process_para", "data" : {"ad_process_para_id":490,
 "name":"Product",
 "ad_client_id":0,
 "ad_element_id":454,
 "ad_org_id":0,
 "ad_process_id":274,
 "ad_reference_id":30,
 "ad_reference_value_id":null,
 "ad_val_rule_id":null,
 "columnname":"M_Product_ID",
 "created":"2004-04-13T11:21:32",
 "createdby":0,
 "defaultvalue":null,
 "defaultvalue2":null,
 "description":"Product, Service, Item",
 "displaylogic":null,
 "entitytype":"Assets",
 "fieldlength":0,
 "help":"Identifies an item which is either purchased or sold in this organization.",
 "isactive":"Y",
 "iscentrallymaintained":"Y",
 "ismandatory":"N",
 "isrange":"N",
 "readonlylogic":null,
 "seqno":40,
 "updated":"2000-01-02T00:00:00",
 "updatedby":0,
 "valuemax":null,
 "valuemin":null,
 "vformat":null}, "children" : []},{"tablename" : "ad_process_para", "data" : {"ad_process_para_id":491,
 "name":"Movement Date",
 "ad_client_id":0,
 "ad_element_id":1037,
 "ad_org_id":0,
 "ad_process_id":274,
 "ad_reference_id":15,
 "ad_reference_value_id":null,
 "ad_val_rule_id":null,
 "columnname":"MovementDate",
 "created":"2004-04-13T11:22:33",
 "createdby":0,
 "defaultvalue":null,
 "defaultvalue2":null,
 "description":"Date a product was moved in or out of inventory",
 "displaylogic":null,
 "entitytype":"Assets",
 "fieldlength":0,
 "help":"The Movement Date indicates the date that a product moved in or out of inventory.  This is the result of a shipment, receipt or inventory movement.",
 "isactive":"Y",
 "iscentrallymaintained":"Y",
 "ismandatory":"N",
 "isrange":"Y",
 "readonlylogic":null,
 "seqno":50,
 "updated":"2000-01-02T00:00:00",
 "updatedby":0,
 "valuemax":null,
 "valuemin":null,
 "vformat":null}, "children" : []}]},
 {"tablename" : "ad_process", "data" : {"ad_process_id":53091,
 "value":"Import_FAJournal",
 "name":"Import FA Journal",
 "accesslevel":"1",
 "ad_client_id":0,
 "ad_form_id":null,
 "ad_org_id":0,
 "ad_printformat_id":null,
 "ad_reportview_id":null,
 "ad_tableselection_id":null,
 "ad_workflow_id":null,
 "classname":"org.compiere.FA.ImportFAJournal2",
 "copyfromprocess":null,
 "created":"2008-05-30T16:37:31",
 "createdby":100,
 "description":"Import FA Batch/Journal/Line",
 "entitytype":"Assets",
 "help":"The Parameters are default values for null import record values they do not overwrite any data.",
 "isactive":"Y",
 "isbetafunctionality":"Y",
 "isdirectprint":"N",
 "isreport":"N",
 "isserverprocess":"N",
 "jasperreport":null,
 "procedurename":null,
 "showhelp":null,
 "statistic_count":0,
 "statistic_seconds":0,
 "updated":"2008-05-30T16:40:15",
 "updatedby":100,
 "workflowvalue":null}, "children" : [{"tablename" : "ad_process_para", "data" : {"ad_process_para_id":53155,
 "name":"Client",
 "ad_client_id":0,
 "ad_element_id":102,
 "ad_org_id":0,
 "ad_process_id":53091,
 "ad_reference_id":19,
 "ad_reference_value_id":null,
 "ad_val_rule_id":129,
 "columnname":"AD_Client_ID",
 "created":"2008-05-30T16:37:32",
 "createdby":100,
 "defaultvalue":null,
 "defaultvalue2":null,
 "description":"Client/Tenant for this installation.",
 "displaylogic":null,
 "entitytype":"Assets",
 "fieldlength":0,
 "help":"A Client is a company or a legal entity. You cannot share data between Clients. Tenant is a synonym for Client.",
 "isactive":"Y",
 "iscentrallymaintained":"Y",
 "ismandatory":"N",
 "isrange":"N",
 "readonlylogic":null,
 "seqno":10,
 "updated":"2008-05-30T21:55:33.28",
 "updatedby":100,
 "valuemax":null,
 "valuemin":null,
 "vformat":null}, "children" : []},{"tablename" : "ad_process_para", "data" : {"ad_process_para_id":53156,
 "name":"Organisation",
 "ad_client_id":0,
 "ad_element_id":113,
 "ad_org_id":0,
 "ad_process_id":53091,
 "ad_reference_id":19,
 "ad_reference_value_id":null,
 "ad_val_rule_id":130,
 "columnname":"AD_Org_ID",
 "created":"2008-05-30T16:37:33",
 "createdby":100,
 "defaultvalue":null,
 "defaultvalue2":null,
 "description":"Organisational entity within client",
 "displaylogic":null,
 "entitytype":"Assets",
 "fieldlength":0,
 "help":"An organisation is a unit of your client or legal entity - examples are store, department. You can share data between organisations.",
 "isactive":"Y",
 "iscentrallymaintained":"Y",
 "ismandatory":"N",
 "isrange":"N",
 "readonlylogic":null,
 "seqno":20,
 "updated":"2008-05-30T21:55:33.28",
 "updatedby":100,
 "valuemax":null,
 "valuemin":null,
 "vformat":null}, "children" : []},{"tablename" : "ad_process_para", "data" : {"ad_process_para_id":53157,
 "name":"Accounting Schema",
 "ad_client_id":0,
 "ad_element_id":181,
 "ad_org_id":0,
 "ad_process_id":53091,
 "ad_reference_id":19,
 "ad_reference_value_id":null,
 "ad_val_rule_id":null,
 "columnname":"C_AcctSchema_ID",
 "created":"2008-05-30T16:37:33",
 "createdby":100,
 "defaultvalue":null,
 "defaultvalue2":null,
 "description":"Rules for accounting",
 "displaylogic":null,
 "entitytype":"Assets",
 "fieldlength":0,
 "help":"An Accounting Schema defines the rules used in accounting such as costing method, currency and calendar",
 "isactive":"Y",
 "iscentrallymaintained":"Y",
 "ismandatory":"N",
 "isrange":"N",
 "readonlylogic":null,
 "seqno":30,
 "updated":"2008-05-30T21:55:33.28",
 "updatedby":100,
 "valuemax":null,
 "valuemin":null,
 "vformat":null}, "children" : []},{"tablename" : "ad_process_para", "data" : {"ad_process_para_id":53158,
 "name":"Account Date",
 "ad_client_id":0,
 "ad_element_id":263,
 "ad_org_id":0,
 "ad_process_id":53091,
 "ad_reference_id":15,
 "ad_reference_value_id":null,
 "ad_val_rule_id":null,
 "columnname":"DateAcct",
 "created":"2008-05-30T16:37:35",
 "createdby":100,
 "defaultvalue":"@Date@",
 "defaultvalue2":null,
 "description":"Accounting Date",
 "displaylogic":null,
 "entitytype":"Assets",
 "fieldlength":0,
 "help":"The Accounting Date indicates the date to be used on the General Ledger account entries generated from this document. It is also used for any currency conversion.",
 "isactive":"Y",
 "iscentrallymaintained":"Y",
 "ismandatory":"N",
 "isrange":"N",
 "readonlylogic":null,
 "seqno":40,
 "updated":"2008-05-30T21:55:33.28",
 "updatedby":100,
 "valuemax":null,
 "valuemin":null,
 "vformat":null}, "children" : []},{"tablename" : "ad_process_para", "data" : {"ad_process_para_id":53159,
 "name":"Only Validate Data",
 "ad_client_id":0,
 "ad_element_id":2168,
 "ad_org_id":0,
 "ad_process_id":53091,
 "ad_reference_id":20,
 "ad_reference_value_id":null,
 "ad_val_rule_id":null,
 "columnname":"IsValidateOnly",
 "created":"2008-05-30T16:37:35",
 "createdby":100,
 "defaultvalue":"N",
 "defaultvalue2":null,
 "description":"Validate the date and do not process",
 "displaylogic":null,
 "entitytype":"Assets",
 "fieldlength":0,
 "help":null,
 "isactive":"Y",
 "iscentrallymaintained":"Y",
 "ismandatory":"N",
 "isrange":"N",
 "readonlylogic":null,
 "seqno":50,
 "updated":"2008-05-30T21:55:33.28",
 "updatedby":100,
 "valuemax":null,
 "valuemin":null,
 "vformat":null}, "children" : []},{"tablename" : "ad_process_para", "data" : {"ad_process_para_id":53160,
 "name":"Import only if No Errors",
 "ad_client_id":0,
 "ad_element_id":2169,
 "ad_org_id":0,
 "ad_process_id":53091,
 "ad_reference_id":20,
 "ad_reference_value_id":null,
 "ad_val_rule_id":null,
 "columnname":"IsImportOnlyNoErrors",
 "created":"2008-05-30T16:37:36",
 "createdby":100,
 "defaultvalue":"Y",
 "defaultvalue2":null,
 "description":"Only start the import, if there are no validation Errors",
 "displaylogic":null,
 "entitytype":"Assets",
 "fieldlength":0,
 "help":null,
 "isactive":"Y",
 "iscentrallymaintained":"Y",
 "ismandatory":"N",
 "isrange":"N",
 "readonlylogic":null,
 "seqno":60,
 "updated":"2008-05-30T21:55:33.28",
 "updatedby":100,
 "valuemax":null,
 "valuemin":null,
 "vformat":null}, "children" : []},{"tablename" : "ad_process_para", "data" : {"ad_process_para_id":53161,
 "name":"Delete old imported records",
 "ad_client_id":0,
 "ad_element_id":1922,
 "ad_org_id":0,
 "ad_process_id":53091,
 "ad_reference_id":20,
 "ad_reference_value_id":null,
 "ad_val_rule_id":null,
 "columnname":"DeleteOldImported",
 "created":"2008-05-30T16:37:37",
 "createdby":100,
 "defaultvalue":null,
 "defaultvalue2":null,
 "description":"Before processing delete old imported records in the import table",
 "displaylogic":null,
 "entitytype":"Assets",
 "fieldlength":0,
 "help":null,
 "isactive":"Y",
 "iscentrallymaintained":"Y",
 "ismandatory":"N",
 "isrange":"N",
 "readonlylogic":null,
 "seqno":70,
 "updated":"2008-05-30T21:55:33.28",
 "updatedby":100,
 "valuemax":null,
 "valuemin":null,
 "vformat":null}, "children" : []}]},
 {"tablename" : "ad_process", "data" : {"ad_process_id":53097,
 "value":"RV_Asset_Disposal_Entry_Rpt",
 "name":"Asset Disposal Expense Entry Rpt",
 "accesslevel":"7",
 "ad_client_id":0,
 "ad_form_id":null,
 "ad_org_id":0,
 "ad_printformat_id":null,
 "ad_reportview_id":53008,
 "ad_tableselection_id":null,
 "ad_workflow_id":null,
 "classname":null,
 "copyfromprocess":null,
 "created":"2008-05-30T16:41:25",
 "createdby":100,
 "description":"Used to review Assets Disposed Entry",
 "entitytype":"Assets",
 "help":null,
 "isactive":"Y",
 "isbetafunctionality":"Y",
 "isdirectprint":"N",
 "isreport":"Y",
 "isserverprocess":"N",
 "jasperreport":null,
 "procedurename":null,
 "showhelp":"Y",
 "statistic_count":0,
 "statistic_seconds":0,
 "updated":"2008-05-30T16:41:25",
 "updatedby":100,
 "workflowvalue":null}, "children" : []},
 {"tablename" : "ad_process", "data" : {"ad_process_id":53099,
 "value":"RV_Asset_Transfer_Entry",
 "name":"Asset Transfer Entry",
 "accesslevel":"7",
 "ad_client_id":0,
 "ad_form_id":null,
 "ad_org_id":0,
 "ad_printformat_id":null,
 "ad_reportview_id":53009,
 "ad_tableselection_id":null,
 "ad_workflow_id":null,
 "classname":null,
 "copyfromprocess":null,
 "created":"2008-05-30T16:41:51",
 "createdby":100,
 "description":"Used to review Assets Transfered Entry ",
 "entitytype":"Assets",
 "help":null,
 "isactive":"Y",
 "isbetafunctionality":"Y",
 "isdirectprint":"N",
 "isreport":"Y",
 "isserverprocess":"N",
 "jasperreport":null,
 "procedurename":null,
 "showhelp":"Y",
 "statistic_count":0,
 "statistic_seconds":0,
 "updated":"2008-05-30T16:41:51",
 "updatedby":100,
 "workflowvalue":null}, "children" : []},
 {"tablename" : "ad_process", "data" : {"ad_process_id":53101,
 "value":"A_Asset_Split",
 "name":"A_Asset_Split",
 "accesslevel":"7",
 "ad_client_id":0,
 "ad_form_id":null,
 "ad_org_id":0,
 "ad_printformat_id":null,
 "ad_reportview_id":null,
 "ad_tableselection_id":null,
 "ad_workflow_id":null,
 "classname":"org.compiere.FA.AssetSplit",
 "copyfromprocess":null,
 "created":"2008-05-30T16:42:14",
 "createdby":100,
 "description":null,
 "entitytype":"Assets",
 "help":null,
 "isactive":"Y",
 "isbetafunctionality":"Y",
 "isdirectprint":"N",
 "isreport":"N",
 "isserverprocess":"N",
 "jasperreport":null,
 "procedurename":null,
 "showhelp":"Y",
 "statistic_count":0,
 "statistic_seconds":0,
 "updated":"2008-05-30T16:42:14",
 "updatedby":100,
 "workflowvalue":null}, "children" : []},
 {"tablename" : "ad_process", "data" : {"ad_process_id":53103,
 "value":"A_Asset_Disposal",
 "name":"A_Asset_Disposal",
 "accesslevel":"7",
 "ad_client_id":0,
 "ad_form_id":null,
 "ad_org_id":0,
 "ad_printformat_id":null,
 "ad_reportview_id":null,
 "ad_tableselection_id":null,
 "ad_workflow_id":null,
 "classname":"org.compiere.FA.AssetDisposed",
 "copyfromprocess":null,
 "created":"2008-05-30T16:45:52",
 "createdby":100,
 "description":null,
 "entitytype":"Assets",
 "help":null,
 "isactive":"Y",
 "isbetafunctionality":"Y",
 "isdirectprint":"N",
 "isreport":"N",
 "isserverprocess":"N",
 "jasperreport":null,
 "procedurename":null,
 "showhelp":"Y",
 "statistic_count":0,
 "statistic_seconds":0,
 "updated":"2008-05-30T16:45:52",
 "updatedby":100,
 "workflowvalue":null}, "children" : [{"tablename" : "ad_process_para", "data" : {"ad_process_para_id":53163,
 "name":"Delete old/existing records",
 "ad_client_id":0,
 "ad_element_id":1669,
 "ad_org_id":0,
 "ad_process_id":53103,
 "ad_reference_id":20,
 "ad_reference_value_id":null,
 "ad_val_rule_id":null,
 "columnname":"DeleteOld",
 "created":"2008-05-30T16:45:53",
 "createdby":100,
 "defaultvalue":"N",
 "defaultvalue2":null,
 "description":"Otherwise records will be added",
 "displaylogic":null,
 "entitytype":"Assets",
 "fieldlength":0,
 "help":null,
 "isactive":"Y",
 "iscentrallymaintained":"Y",
 "ismandatory":"N",
 "isrange":"N",
 "readonlylogic":null,
 "seqno":10,
 "updated":"2008-05-30T21:55:33.28",
 "updatedby":100,
 "valuemax":null,
 "valuemin":null,
 "vformat":null}, "children" : []}]},
 {"tablename" : "ad_process", "data" : {"ad_process_id":53105,
 "value":"A_Depreciation_Transfer",
 "name":"A_Depreciation_Transfer",
 "accesslevel":"7",
 "ad_client_id":0,
 "ad_form_id":null,
 "ad_org_id":0,
 "ad_printformat_id":null,
 "ad_reportview_id":null,
 "ad_tableselection_id":null,
 "ad_workflow_id":null,
 "classname":"org.compiere.FA.AssetTransfer",
 "copyfromprocess":null,
 "created":"2008-05-30T16:47:06",
 "createdby":100,
 "description":null,
 "entitytype":"Assets",
 "help":null,
 "isactive":"Y",
 "isbetafunctionality":"Y",
 "isdirectprint":"N",
 "isreport":"N",
 "isserverprocess":"N",
 "jasperreport":null,
 "procedurename":null,
 "showhelp":"Y",
 "statistic_count":0,
 "statistic_seconds":0,
 "updated":"2008-05-30T16:47:06",
 "updatedby":100,
 "workflowvalue":null}, "children" : [{"tablename" : "ad_process_para", "data" : {"ad_process_para_id":53164,
 "name":"Delete old/existing records",
 "ad_client_id":0,
 "ad_element_id":1669,
 "ad_org_id":0,
 "ad_process_id":53105,
 "ad_reference_id":20,
 "ad_reference_value_id":null,
 "ad_val_rule_id":null,
 "columnname":"DeleteOld",
 "created":"2008-05-30T16:47:07",
 "createdby":100,
 "defaultvalue":"N",
 "defaultvalue2":null,
 "description":"Otherwise records will be added",
 "displaylogic":null,
 "entitytype":"Assets",
 "fieldlength":0,
 "help":null,
 "isactive":"Y",
 "iscentrallymaintained":"Y",
 "ismandatory":"N",
 "isrange":"N",
 "readonlylogic":null,
 "seqno":10,
 "updated":"2008-05-30T21:55:33.28",
 "updatedby":100,
 "valuemax":null,
 "valuemin":null,
 "vformat":null}, "children" : []}]},
 {"tablename" : "ad_process", "data" : {"ad_process_id":53107,
 "value":"RV_Asset_Split_Entry",
 "name":"Asset Split Entry",
 "accesslevel":"7",
 "ad_client_id":0,
 "ad_form_id":null,
 "ad_org_id":0,
 "ad_printformat_id":null,
 "ad_reportview_id":53010,
 "ad_tableselection_id":null,
 "ad_workflow_id":null,
 "classname":null,
 "copyfromprocess":null,
 "created":"2008-05-30T16:48:49",
 "createdby":100,
 "description":"Used to review Assets Split Entry ",
 "entitytype":"Assets",
 "help":null,
 "isactive":"Y",
 "isbetafunctionality":"Y",
 "isdirectprint":"N",
 "isreport":"Y",
 "isserverprocess":"N",
 "jasperreport":null,
 "procedurename":null,
 "showhelp":"Y",
 "statistic_count":0,
 "statistic_seconds":0,
 "updated":"2008-05-30T16:48:49",
 "updatedby":100,
 "workflowvalue":null}, "children" : []},
 {"tablename" : "ad_process", "data" : {"ad_process_id":53109,
 "value":"RV_Asset_Depreciation_Exp_Entry",
 "name":"Depreciation Expense Entry",
 "accesslevel":"7",
 "ad_client_id":0,
 "ad_form_id":null,
 "ad_org_id":0,
 "ad_printformat_id":null,
 "ad_reportview_id":53011,
 "ad_tableselection_id":null,
 "ad_workflow_id":null,
 "classname":null,
 "copyfromprocess":null,
 "created":"2008-05-30T16:49:20",
 "createdby":100,
 "description":"Used to review Depreciation Expense Entry not yet booked",
 "entitytype":"Assets",
 "help":null,
 "isactive":"Y",
 "isbetafunctionality":"Y",
 "isdirectprint":"N",
 "isreport":"Y",
 "isserverprocess":"N",
 "jasperreport":null,
 "procedurename":null,
 "showhelp":"Y",
 "statistic_count":0,
 "statistic_seconds":0,
 "updated":"2008-05-30T16:49:20",
 "updatedby":100,
 "workflowvalue":null}, "children" : []},
 {"tablename" : "ad_process", "data" : {"ad_process_id":53111,
 "value":"A_Build_Depr_Workfile",
 "name":"Build Depreciation Workfile",
 "accesslevel":"1",
 "ad_client_id":0,
 "ad_form_id":null,
 "ad_org_id":0,
 "ad_printformat_id":null,
 "ad_reportview_id":null,
 "ad_tableselection_id":null,
 "ad_workflow_id":null,
 "classname":"org.compiere.FA.BuildDepWorkFile",
 "copyfromprocess":null,
 "created":"2008-05-30T16:49:30",
 "createdby":100,
 "description":null,
 "entitytype":"Assets",
 "help":null,
 "isactive":"Y",
 "isbetafunctionality":"Y",
 "isdirectprint":"N",
 "isreport":"N",
 "isserverprocess":"N",
 "jasperreport":null,
 "procedurename":null,
 "showhelp":"Y",
 "statistic_count":0,
 "statistic_seconds":0,
 "updated":"2008-05-30T16:49:30",
 "updatedby":100,
 "workflowvalue":null}, "children" : []},
 {"tablename" : "ad_process", "data" : {"ad_process_id":53113,
 "value":"RV_Asset_Depreciation_Forecast",
 "name":"Asset Depreciation Forecast",
 "accesslevel":"7",
 "ad_client_id":0,
 "ad_form_id":null,
 "ad_org_id":0,
 "ad_printformat_id":null,
 "ad_reportview_id":53012,
 "ad_tableselection_id":null,
 "ad_workflow_id":null,
 "classname":null,
 "copyfromprocess":null,
 "created":"2008-05-30T16:50:23",
 "createdby":100,
 "description":"Used to review Assets Forecast",
 "entitytype":"Assets",
 "help":null,
 "isactive":"Y",
 "isbetafunctionality":"Y",
 "isdirectprint":"N",
 "isreport":"Y",
 "isserverprocess":"N",
 "jasperreport":null,
 "procedurename":null,
 "showhelp":"Y",
 "statistic_count":0,
 "statistic_seconds":0,
 "updated":"2008-05-30T16:50:23",
 "updatedby":100,
 "workflowvalue":null}, "children" : []},
 {"tablename" : "ad_process", "data" : {"ad_process_id":53115,
 "value":"RV_Asset_Parent_Report",
 "name":"RV_Asset_Parent_Report",
 "accesslevel":"7",
 "ad_client_id":0,
 "ad_form_id":null,
 "ad_org_id":0,
 "ad_printformat_id":null,
 "ad_reportview_id":53013,
 "ad_tableselection_id":null,
 "ad_workflow_id":null,
 "classname":null,
 "copyfromprocess":null,
 "created":"2008-05-30T16:50:58",
 "createdby":100,
 "description":null,
 "entitytype":"Assets",
 "help":null,
 "isactive":"Y",
 "isbetafunctionality":"Y",
 "isdirectprint":"N",
 "isreport":"Y",
 "isserverprocess":"N",
 "jasperreport":null,
 "procedurename":null,
 "showhelp":"Y",
 "statistic_count":0,
 "statistic_seconds":0,
 "updated":"2008-05-30T16:50:58",
 "updatedby":100,
 "workflowvalue":null}, "children" : [{"tablename" : "ad_process_para", "data" : {"ad_process_para_id":53165,
 "name":"Owned",
 "ad_client_id":0,
 "ad_element_id":1941,
 "ad_org_id":0,
 "ad_process_id":53115,
 "ad_reference_id":20,
 "ad_reference_value_id":null,
 "ad_val_rule_id":null,
 "columnname":"IsOwned",
 "created":"2008-05-30T16:50:59",
 "createdby":100,
 "defaultvalue":"Y",
 "defaultvalue2":null,
 "description":"The asset is owned by the organization",
 "displaylogic":null,
 "entitytype":"Assets",
 "fieldlength":0,
 "help":"The asset may not be in possession, but the asset is legally owned by the organization",
 "isactive":"Y",
 "iscentrallymaintained":"Y",
 "ismandatory":"N",
 "isrange":"N",
 "readonlylogic":null,
 "seqno":10,
 "updated":"2008-05-30T21:55:33.28",
 "updatedby":100,
 "valuemax":null,
 "valuemin":null,
 "vformat":null}, "children" : []}]},
 {"tablename" : "ad_process", "data" : {"ad_process_id":53117,
 "value":"RV_Depreciation_Table",
 "name":"RV_Depreciation_Table",
 "accesslevel":"7",
 "ad_client_id":0,
 "ad_form_id":null,
 "ad_org_id":0,
 "ad_printformat_id":null,
 "ad_reportview_id":53014,
 "ad_tableselection_id":null,
 "ad_workflow_id":null,
 "classname":null,
 "copyfromprocess":null,
 "created":"2008-05-30T16:51:07",
 "createdby":100,
 "description":null,
 "entitytype":"Assets",
 "help":null,
 "isactive":"Y",
 "isbetafunctionality":"Y",
 "isdirectprint":"N",
 "isreport":"Y",
 "isserverprocess":"N",
 "jasperreport":null,
 "procedurename":null,
 "showhelp":"Y",
 "statistic_count":0,
 "statistic_seconds":0,
 "updated":"2008-05-30T16:51:07",
 "updatedby":100,
 "workflowvalue":null}, "children" : []},
 {"tablename" : "ad_process", "data" : {"ad_process_id":53119,
 "value":"RV_Asset_Spread_Rpt",
 "name":"Spread Report",
 "accesslevel":"7",
 "ad_client_id":0,
 "ad_form_id":null,
 "ad_org_id":0,
 "ad_printformat_id":null,
 "ad_reportview_id":53015,
 "ad_tableselection_id":null,
 "ad_workflow_id":null,
 "classname":null,
 "copyfromprocess":null,
 "created":"2008-05-30T16:51:54",
 "createdby":100,
 "description":null,
 "entitytype":"Assets",
 "help":null,
 "isactive":"Y",
 "isbetafunctionality":"Y",
 "isdirectprint":"N",
 "isreport":"Y",
 "isserverprocess":"N",
 "jasperreport":null,
 "procedurename":null,
 "showhelp":"Y",
 "statistic_count":0,
 "statistic_seconds":0,
 "updated":"2008-05-30T16:51:54",
 "updatedby":100,
 "workflowvalue":null}, "children" : []},
 {"tablename" : "ad_process", "data" : {"ad_process_id":53121,
 "value":"RV_Asset_Depreciation_Method",
 "name":"RV_Asset_Depreciation_Method",
 "accesslevel":"7",
 "ad_client_id":0,
 "ad_form_id":null,
 "ad_org_id":0,
 "ad_printformat_id":null,
 "ad_reportview_id":53016,
 "ad_tableselection_id":null,
 "ad_workflow_id":null,
 "classname":null,
 "copyfromprocess":null,
 "created":"2008-05-30T16:52:03",
 "createdby":100,
 "description":"List Depreciation Methods",
 "entitytype":"Assets",
 "help":null,
 "isactive":"Y",
 "isbetafunctionality":"Y",
 "isdirectprint":"N",
 "isreport":"Y",
 "isserverprocess":"N",
 "jasperreport":null,
 "procedurename":null,
 "showhelp":"Y",
 "statistic_count":0,
 "statistic_seconds":0,
 "updated":"2008-05-30T16:52:03",
 "updatedby":100,
 "workflowvalue":null}, "children" : []},
 {"tablename" : "ad_process", "data" : {"ad_process_id":53123,
 "value":"A_Create_Function",
 "name":"Create Depreciation Function",
 "accesslevel":"1",
 "ad_client_id":0,
 "ad_form_id":null,
 "ad_org_id":0,
 "ad_printformat_id":null,
 "ad_reportview_id":null,
 "ad_tableselection_id":null,
 "ad_workflow_id":null,
 "classname":null,
 "copyfromprocess":null,
 "created":"2008-05-30T16:52:11",
 "createdby":100,
 "description":null,
 "entitytype":"Assets",
 "help":null,
 "isactive":"Y",
 "isbetafunctionality":"Y",
 "isdirectprint":"N",
 "isreport":"N",
 "isserverprocess":"N",
 "jasperreport":null,
 "procedurename":"A_Create_Function",
 "showhelp":"Y",
 "statistic_count":0,
 "statistic_seconds":0,
 "updated":"2008-05-30T16:52:11",
 "updatedby":100,
 "workflowvalue":null}, "children" : []},
 {"tablename" : "ad_process", "data" : {"ad_process_id":53125,
 "value":"RV_Asset_Convention_Rpt",
 "name":"RV_Asset_Convention_Rpt",
 "accesslevel":"7",
 "ad_client_id":0,
 "ad_form_id":null,
 "ad_org_id":0,
 "ad_printformat_id":null,
 "ad_reportview_id":53017,
 "ad_tableselection_id":null,
 "ad_workflow_id":null,
 "classname":null,
 "copyfromprocess":null,
 "created":"2008-05-30T16:52:29",
 "createdby":100,
 "description":"Asset Convention Report",
 "entitytype":"Assets",
 "help":null,
 "isactive":"Y",
 "isbetafunctionality":"Y",
 "isdirectprint":"N",
 "isreport":"Y",
 "isserverprocess":"N",
 "jasperreport":null,
 "procedurename":null,
 "showhelp":"Y",
 "statistic_count":0,
 "statistic_seconds":0,
 "updated":"2008-05-30T16:52:29",
 "updatedby":100,
 "workflowvalue":null}, "children" : []},
 {"tablename" : "ad_process", "data" : {"ad_process_id":53129,
 "value":"RV_Depreciation_Calculation_Methods",
 "name":"RV_Depreciation_Calculation_Methods",
 "accesslevel":"7",
 "ad_client_id":0,
 "ad_form_id":null,
 "ad_org_id":0,
 "ad_printformat_id":null,
 "ad_reportview_id":53018,
 "ad_tableselection_id":null,
 "ad_workflow_id":null,
 "classname":null,
 "copyfromprocess":null,
 "created":"2008-05-30T16:52:51",
 "createdby":100,
 "description":"List Depreciation Calculation Methods Available",
 "entitytype":"Assets",
 "help":null,
 "isactive":"Y",
 "isbetafunctionality":"Y",
 "isdirectprint":"N",
 "isreport":"Y",
 "isserverprocess":"N",
 "jasperreport":null,
 "procedurename":null,
 "showhelp":"Y",
 "statistic_count":0,
 "statistic_seconds":0,
 "updated":"2008-05-30T16:52:51",
 "updatedby":100,
 "workflowvalue":null}, "children" : []},
 {"tablename" : "ad_process", "data" : {"ad_process_id":53131,
 "value":"RV_Asset_Group_Defaults",
 "name":"RV_Asset_Group_Defaults",
 "accesslevel":"7",
 "ad_client_id":0,
 "ad_form_id":null,
 "ad_org_id":0,
 "ad_printformat_id":null,
 "ad_reportview_id":53019,
 "ad_tableselection_id":null,
 "ad_workflow_id":null,
 "classname":null,
 "copyfromprocess":null,
 "created":"2008-05-30T16:53:53",
 "createdby":100,
 "description":"Lists Asset Group Settings & Defaults",
 "entitytype":"Assets",
 "help":null,
 "isactive":"Y",
 "isbetafunctionality":"Y",
 "isdirectprint":"N",
 "isreport":"Y",
 "isserverprocess":"N",
 "jasperreport":null,
 "procedurename":null,
 "showhelp":"Y",
 "statistic_count":0,
 "statistic_seconds":0,
 "updated":"2008-05-30T16:53:53",
 "updatedby":100,
 "workflowvalue":null}, "children" : []},
 {"tablename" : "ad_process", "data" : {"ad_process_id":53133,
 "value":"A_InboundChrgGL",
 "name":"Inbound Charges for GL",
 "accesslevel":"3",
 "ad_client_id":0,
 "ad_form_id":null,
 "ad_org_id":0,
 "ad_printformat_id":null,
 "ad_reportview_id":null,
 "ad_tableselection_id":null,
 "ad_workflow_id":null,
 "classname":"org.compiere.FA.CreateGLAsset",
 "copyfromprocess":null,
 "created":"2008-05-30T17:01:10",
 "createdby":100,
 "description":"Process invoice charges from GL",
 "entitytype":"Assets",
 "help":"This process processes charges to Fixed Assets from GL",
 "isactive":"Y",
 "isbetafunctionality":"Y",
 "isdirectprint":"N",
 "isreport":"N",
 "isserverprocess":"N",
 "jasperreport":null,
 "procedurename":null,
 "showhelp":"Y",
 "statistic_count":0,
 "statistic_seconds":0,
 "updated":"2008-05-30T17:01:10",
 "updatedby":100,
 "workflowvalue":null}, "children" : [{"tablename" : "ad_process_para", "data" : {"ad_process_para_id":53166,
 "name":"Client",
 "ad_client_id":0,
 "ad_element_id":102,
 "ad_org_id":0,
 "ad_process_id":53133,
 "ad_reference_id":19,
 "ad_reference_value_id":null,
 "ad_val_rule_id":null,
 "columnname":"AD_Client_ID",
 "created":"2008-05-30T17:01:12",
 "createdby":100,
 "defaultvalue":null,
 "defaultvalue2":null,
 "description":"Client/Tenant for this installation.",
 "displaylogic":null,
 "entitytype":"Assets",
 "fieldlength":22,
 "help":"A Client is a company or a legal entity. You cannot share data between Clients. Tenant is a synonym for Client.",
 "isactive":"Y",
 "iscentrallymaintained":"Y",
 "ismandatory":"Y",
 "isrange":"N",
 "readonlylogic":null,
 "seqno":10,
 "updated":"2008-05-30T21:55:33.28",
 "updatedby":100,
 "valuemax":null,
 "valuemin":null,
 "vformat":null}, "children" : []}]},
 {"tablename" : "ad_process", "data" : {"ad_process_id":53135,
 "value":"RV_Asset_Inbound_Charge_Entry",
 "name":"Inbound Charge Entry Report",
 "accesslevel":"7",
 "ad_client_id":0,
 "ad_form_id":null,
 "ad_org_id":0,
 "ad_printformat_id":null,
 "ad_reportview_id":53020,
 "ad_tableselection_id":null,
 "ad_workflow_id":null,
 "classname":null,
 "copyfromprocess":null,
 "created":"2008-05-30T17:01:40",
 "createdby":100,
 "description":"Used to review Assets Inbound Entry ",
 "entitytype":"Assets",
 "help":null,
 "isactive":"Y",
 "isbetafunctionality":"Y",
 "isdirectprint":"N",
 "isreport":"Y",
 "isserverprocess":"N",
 "jasperreport":null,
 "procedurename":null,
 "showhelp":"Y",
 "statistic_count":0,
 "statistic_seconds":0,
 "updated":"2008-05-30T17:01:40",
 "updatedby":100,
 "workflowvalue":null}, "children" : []},
 {"tablename" : "ad_process", "data" : {"ad_process_id":53137,
 "value":"A_InboundChrgAP",
 "name":"Inbound Charges for AP",
 "accesslevel":"3",
 "ad_client_id":0,
 "ad_form_id":null,
 "ad_org_id":0,
 "ad_printformat_id":null,
 "ad_reportview_id":null,
 "ad_tableselection_id":null,
 "ad_workflow_id":null,
 "classname":"org.compiere.FA.CreateInvoicedAsset",
 "copyfromprocess":null,
 "created":"2008-05-30T17:01:42",
 "createdby":100,
 "description":"Process invoice charges from AP",
 "entitytype":"Assets",
 "help":"This process processes charges to Fixed Assets from AP",
 "isactive":"Y",
 "isbetafunctionality":"Y",
 "isdirectprint":"N",
 "isreport":"N",
 "isserverprocess":"N",
 "jasperreport":null,
 "procedurename":null,
 "showhelp":"Y",
 "statistic_count":0,
 "statistic_seconds":0,
 "updated":"2008-05-30T17:01:42",
 "updatedby":100,
 "workflowvalue":null}, "children" : [{"tablename" : "ad_process_para", "data" : {"ad_process_para_id":53167,
 "name":"Client",
 "ad_client_id":0,
 "ad_element_id":102,
 "ad_org_id":0,
 "ad_process_id":53137,
 "ad_reference_id":19,
 "ad_reference_value_id":null,
 "ad_val_rule_id":null,
 "columnname":"AD_Client_ID",
 "created":"2008-05-30T17:01:43",
 "createdby":100,
 "defaultvalue":null,
 "defaultvalue2":null,
 "description":"Client/Tenant for this installation.",
 "displaylogic":null,
 "entitytype":"Assets",
 "fieldlength":22,
 "help":"A Client is a company or a legal entity. You cannot share data between Clients. Tenant is a synonym for Client.",
 "isactive":"Y",
 "iscentrallymaintained":"Y",
 "ismandatory":"Y",
 "isrange":"N",
 "readonlylogic":null,
 "seqno":10,
 "updated":"2008-05-30T21:55:33.28",
 "updatedby":100,
 "valuemax":null,
 "valuemin":null,
 "vformat":null}, "children" : []}]},
 {"tablename" : "ad_process", "data" : {"ad_process_id":53139,
 "value":"Import Asset",
 "name":"Import Asset ",
 "accesslevel":"3",
 "ad_client_id":0,
 "ad_form_id":null,
 "ad_org_id":0,
 "ad_printformat_id":null,
 "ad_reportview_id":null,
 "ad_tableselection_id":null,
 "ad_workflow_id":null,
 "classname":"org.compiere.FA.ImportAsset",
 "copyfromprocess":null,
 "created":"2008-05-30T17:02:29",
 "createdby":100,
 "description":"Imports Asset from a file into the application",
 "entitytype":"Assets",
 "help":"Import Asset will bring a file of Asset in a predefined format into the application.<p>\nThe Parameters are default values for null import record values they do not overwrite any data.",
 "isactive":"Y",
 "isbetafunctionality":"Y",
 "isdirectprint":"N",
 "isreport":"N",
 "isserverprocess":"N",
 "jasperreport":null,
 "procedurename":null,
 "showhelp":"Y",
 "statistic_count":0,
 "statistic_seconds":0,
 "updated":"2008-05-30T17:02:29",
 "updatedby":100,
 "workflowvalue":null}, "children" : [{"tablename" : "ad_process_para", "data" : {"ad_process_para_id":53168,
 "name":"Client",
 "ad_client_id":0,
 "ad_element_id":102,
 "ad_org_id":0,
 "ad_process_id":53139,
 "ad_reference_id":19,
 "ad_reference_value_id":null,
 "ad_val_rule_id":null,
 "columnname":"AD_Client_ID",
 "created":"2008-05-30T17:02:30",
 "createdby":100,
 "defaultvalue":null,
 "defaultvalue2":null,
 "description":"Client/Tenant for this installation.",
 "displaylogic":null,
 "entitytype":"Assets",
 "fieldlength":0,
 "help":"A Client is a company or a legal entity. You cannot share data between Clients. Tenant is a synonym for Client.",
 "isactive":"Y",
 "iscentrallymaintained":"Y",
 "ismandatory":"N",
 "isrange":"N",
 "readonlylogic":null,
 "seqno":10,
 "updated":"2008-05-30T21:55:33.28",
 "updatedby":100,
 "valuemax":null,
 "valuemin":null,
 "vformat":null}, "children" : []},{"tablename" : "ad_process_para", "data" : {"ad_process_para_id":53169,
 "name":"Delete old imported records",
 "ad_client_id":0,
 "ad_element_id":1922,
 "ad_org_id":0,
 "ad_process_id":53139,
 "ad_reference_id":20,
 "ad_reference_value_id":null,
 "ad_val_rule_id":null,
 "columnname":"DeleteOldImported",
 "created":"2008-05-30T17:02:31",
 "createdby":100,
 "defaultvalue":null,
 "defaultvalue2":null,
 "description":"Before processing delete old imported records in the import table",
 "displaylogic":null,
 "entitytype":"Assets",
 "fieldlength":0,
 "help":null,
 "isactive":"Y",
 "iscentrallymaintained":"Y",
 "ismandatory":"N",
 "isrange":"N",
 "readonlylogic":null,
 "seqno":20,
 "updated":"2008-05-30T21:55:33.28",
 "updatedby":100,
 "valuemax":null,
 "valuemin":null,
 "vformat":null}, "children" : []}]}]