[{"tablename" : "ad_process", "data" : {"ad_process_id":182,
 "value":"M_Cost_Update",
 "name":"Standard Cost Update",
 "accesslevel":"2",
 "ad_client_id":0,
 "ad_form_id":null,
 "ad_org_id":0,
 "ad_printformat_id":null,
 "ad_reportview_id":null,
 "ad_tableselection_id":null,
 "ad_workflow_id":null,
 "classname":"org.compiere.process.CostUpdate",
 "copyfromprocess":null,
 "created":"2002-02-21T15:16:44",
 "createdby":0,
 "description":"Set standard and future cost price",
 "entitytype":"Costing",
 "help":"For Standard Costs you can set/recalculate the current or future cost price (for the cost type of the accounting schema). If the Costing Level of the Accounting Schema is set to Client, missing cost records are created. The historical costs are calculated based on the accumulated amount/quantity of the costing method.",
 "isactive":"Y",
 "isbetafunctionality":"N",
 "isdirectprint":"N",
 "isreport":"N",
 "isserverprocess":"N",
 "jasperreport":null,
 "procedurename":null,
 "showhelp":"Y",
 "statistic_count":0,
 "statistic_seconds":0,
 "updated":"2005-11-27T18:37:05",
 "updatedby":100,
 "workflowvalue":null}, "children" : [{"tablename" : "ad_process_para", "data" : {"ad_process_para_id":232,
 "name":"Set Future Costs to",
 "ad_client_id":0,
 "ad_element_id":1747,
 "ad_org_id":0,
 "ad_process_id":182,
 "ad_reference_id":17,
 "ad_reference_value_id":250,
 "ad_val_rule_id":null,
 "columnname":"SetFutureCostTo",
 "created":"2002-02-21T15:30:23",
 "createdby":0,
 "defaultvalue":null,
 "defaultvalue2":null,
 "description":"Set the Future costs to the selection",
 "displaylogic":null,
 "entitytype":"Costing",
 "fieldlength":0,
 "help":null,
 "isactive":"Y",
 "iscentrallymaintained":"Y",
 "ismandatory":"N",
 "isrange":"N",
 "readonlylogic":null,
 "seqno":30,
 "updated":"2005-11-27T13:44:48",
 "updatedby":100,
 "valuemax":null,
 "valuemin":null,
 "vformat":null}, "children" : []},{"tablename" : "ad_process_para", "data" : {"ad_process_para_id":233,
 "name":"Pricelist Version",
 "ad_client_id":0,
 "ad_element_id":null,
 "ad_org_id":0,
 "ad_process_id":182,
 "ad_reference_id":19,
 "ad_reference_value_id":null,
 "ad_val_rule_id":null,
 "columnname":"M_PriceList_Version_ID",
 "created":"2002-02-21T15:43:30",
 "createdby":0,
 "defaultvalue":null,
 "defaultvalue2":null,
 "description":"Only used if Price List is used to set future/standard cost price",
 "displaylogic":null,
 "entitytype":"Costing",
 "fieldlength":0,
 "help":null,
 "isactive":"Y",
 "iscentrallymaintained":"N",
 "ismandatory":"N",
 "isrange":"N",
 "readonlylogic":null,
 "seqno":40,
 "updated":"2005-11-27T17:34:01",
 "updatedby":100,
 "valuemax":null,
 "valuemin":null,
 "vformat":null}, "children" : []},{"tablename" : "ad_process_para", "data" : {"ad_process_para_id":234,
 "name":"Set Standard Cost to",
 "ad_client_id":0,
 "ad_element_id":1748,
 "ad_org_id":0,
 "ad_process_id":182,
 "ad_reference_id":17,
 "ad_reference_value_id":250,
 "ad_val_rule_id":null,
 "columnname":"SetStandardCostTo",
 "created":"2002-02-21T18:18:42",
 "createdby":0,
 "defaultvalue":null,
 "defaultvalue2":null,
 "description":"Set new Standard Costs to the selection",
 "displaylogic":null,
 "entitytype":"Costing",
 "fieldlength":0,
 "help":null,
 "isactive":"Y",
 "iscentrallymaintained":"Y",
 "ismandatory":"N",
 "isrange":"N",
 "readonlylogic":null,
 "seqno":20,
 "updated":"2005-11-27T17:33:56",
 "updatedby":100,
 "valuemax":null,
 "valuemin":null,
 "vformat":null}, "children" : []},{"tablename" : "ad_process_para", "data" : {"ad_process_para_id":236,
 "name":"Product Category",
 "ad_client_id":0,
 "ad_element_id":453,
 "ad_org_id":0,
 "ad_process_id":182,
 "ad_reference_id":19,
 "ad_reference_value_id":null,
 "ad_val_rule_id":null,
 "columnname":"M_Product_Category_ID",
 "created":"2002-02-22T16:27:08",
 "createdby":0,
 "defaultvalue":"-1",
 "defaultvalue2":null,
 "description":"Category of a Product",
 "displaylogic":null,
 "entitytype":"Costing",
 "fieldlength":0,
 "help":"Identifies the category which this product belongs to.  Product categories are used for pricing and selection.",
 "isactive":"Y",
 "iscentrallymaintained":"Y",
 "ismandatory":"N",
 "isrange":"N",
 "readonlylogic":null,
 "seqno":10,
 "updated":"2005-11-27T17:34:23",
 "updatedby":100,
 "valuemax":null,
 "valuemin":null,
 "vformat":null}, "children" : []}]},
 {"tablename" : "ad_process", "data" : {"ad_process_id":329,
 "value":"RV_Cost",
 "name":"Product Cost",
 "accesslevel":"3",
 "ad_client_id":0,
 "ad_form_id":null,
 "ad_org_id":0,
 "ad_printformat_id":null,
 "ad_reportview_id":161,
 "ad_tableselection_id":null,
 "ad_workflow_id":null,
 "classname":null,
 "copyfromprocess":null,
 "created":"2005-07-25T13:24:24",
 "createdby":0,
 "description":"Product Cost Report",
 "entitytype":"Costing",
 "help":"The Product Cost  report lists the product costs for the product, cost type and cost element",
 "isactive":"Y",
 "isbetafunctionality":"N",
 "isdirectprint":"N",
 "isreport":"Y",
 "isserverprocess":"N",
 "jasperreport":null,
 "procedurename":null,
 "showhelp":"Y",
 "statistic_count":0,
 "statistic_seconds":0,
 "updated":"2005-07-26T14:14:49",
 "updatedby":0,
 "workflowvalue":null}, "children" : [{"tablename" : "ad_process_para", "data" : {"ad_process_para_id":650,
 "name":"Cost Type",
 "ad_client_id":0,
 "ad_element_id":2071,
 "ad_org_id":0,
 "ad_process_id":329,
 "ad_reference_id":19,
 "ad_reference_value_id":null,
 "ad_val_rule_id":null,
 "columnname":"M_CostType_ID",
 "created":"2005-07-25T13:34:46",
 "createdby":0,
 "defaultvalue":null,
 "defaultvalue2":null,
 "description":"Type of Cost (e.g. Current, Plan, Future)",
 "displaylogic":null,
 "entitytype":"Costing",
 "fieldlength":0,
 "help":"You can define multiple cost types. A cost type selected in an Accounting Schema is used for accounting.",
 "isactive":"Y",
 "iscentrallymaintained":"Y",
 "ismandatory":"N",
 "isrange":"N",
 "readonlylogic":null,
 "seqno":20,
 "updated":"2005-07-25T14:13:37",
 "updatedby":0,
 "valuemax":null,
 "valuemin":null,
 "vformat":null}, "children" : []},{"tablename" : "ad_process_para", "data" : {"ad_process_para_id":651,
 "name":"Accounting Schema",
 "ad_client_id":0,
 "ad_element_id":181,
 "ad_org_id":0,
 "ad_process_id":329,
 "ad_reference_id":19,
 "ad_reference_value_id":null,
 "ad_val_rule_id":null,
 "columnname":"C_AcctSchema_ID",
 "created":"2005-07-25T13:36:50",
 "createdby":0,
 "defaultvalue":null,
 "defaultvalue2":null,
 "description":"Rules for accounting",
 "displaylogic":null,
 "entitytype":"Costing",
 "fieldlength":0,
 "help":"An Accounting Schema defines the rules used in accounting such as costing method, currency and calendar",
 "isactive":"Y",
 "iscentrallymaintained":"Y",
 "ismandatory":"N",
 "isrange":"N",
 "readonlylogic":null,
 "seqno":10,
 "updated":"2005-07-25T14:13:37",
 "updatedby":0,
 "valuemax":null,
 "valuemin":null,
 "vformat":null}, "children" : []},{"tablename" : "ad_process_para", "data" : {"ad_process_para_id":652,
 "name":"Product Category",
 "ad_client_id":0,
 "ad_element_id":453,
 "ad_org_id":0,
 "ad_process_id":329,
 "ad_reference_id":19,
 "ad_reference_value_id":null,
 "ad_val_rule_id":null,
 "columnname":"M_Product_Category_ID",
 "created":"2005-07-25T13:37:53",
 "createdby":0,
 "defaultvalue":"-1",
 "defaultvalue2":null,
 "description":"Category of a Product",
 "displaylogic":null,
 "entitytype":"Costing",
 "fieldlength":0,
 "help":"Identifies the category which this product belongs to.  Product categories are used for pricing and selection.",
 "isactive":"Y",
 "iscentrallymaintained":"Y",
 "ismandatory":"N",
 "isrange":"N",
 "readonlylogic":null,
 "seqno":30,
 "updated":"2005-07-25T14:13:37",
 "updatedby":0,
 "valuemax":null,
 "valuemin":null,
 "vformat":null}, "children" : []},{"tablename" : "ad_process_para", "data" : {"ad_process_para_id":653,
 "name":"Product",
 "ad_client_id":0,
 "ad_element_id":454,
 "ad_org_id":0,
 "ad_process_id":329,
 "ad_reference_id":30,
 "ad_reference_value_id":null,
 "ad_val_rule_id":null,
 "columnname":"M_Product_ID",
 "created":"2005-07-25T13:38:53",
 "createdby":0,
 "defaultvalue":null,
 "defaultvalue2":null,
 "description":"Product, Service, Item",
 "displaylogic":null,
 "entitytype":"Costing",
 "fieldlength":0,
 "help":"Identifies an item which is either purchased or sold in this organization.",
 "isactive":"Y",
 "iscentrallymaintained":"Y",
 "ismandatory":"N",
 "isrange":"N",
 "readonlylogic":null,
 "seqno":40,
 "updated":"2005-07-25T14:13:37",
 "updatedby":0,
 "valuemax":null,
 "valuemin":null,
 "vformat":null}, "children" : []},{"tablename" : "ad_process_para", "data" : {"ad_process_para_id":654,
 "name":"Search Key",
 "ad_client_id":0,
 "ad_element_id":620,
 "ad_org_id":0,
 "ad_process_id":329,
 "ad_reference_id":10,
 "ad_reference_value_id":null,
 "ad_val_rule_id":null,
 "columnname":"Value",
 "created":"2005-07-25T13:39:35",
 "createdby":0,
 "defaultvalue":null,
 "defaultvalue2":null,
 "description":"Search key for the record in the format required - must be unique",
 "displaylogic":null,
 "entitytype":"Costing",
 "fieldlength":10,
 "help":"A search key allows you a fast method of finding a particular record.\nIf you leave the search key empty, the system automatically creates a numeric number.  The document sequence used for this fallback number is defined in the \"Maintain Sequence\" window with the name \"DocumentNo_<TableName>\", where TableName is the actual name of the table (e.g. C_Order).",
 "isactive":"Y",
 "iscentrallymaintained":"Y",
 "ismandatory":"N",
 "isrange":"Y",
 "readonlylogic":null,
 "seqno":50,
 "updated":"2005-07-25T14:13:37",
 "updatedby":0,
 "valuemax":null,
 "valuemin":null,
 "vformat":null}, "children" : []},{"tablename" : "ad_process_para", "data" : {"ad_process_para_id":655,
 "name":"Cost Element",
 "ad_client_id":0,
 "ad_element_id":2700,
 "ad_org_id":0,
 "ad_process_id":329,
 "ad_reference_id":19,
 "ad_reference_value_id":null,
 "ad_val_rule_id":null,
 "columnname":"M_CostElement_ID",
 "created":"2005-07-25T13:40:45",
 "createdby":0,
 "defaultvalue":null,
 "defaultvalue2":null,
 "description":"Product Cost Element",
 "displaylogic":null,
 "entitytype":"Costing",
 "fieldlength":0,
 "help":null,
 "isactive":"Y",
 "iscentrallymaintained":"Y",
 "ismandatory":"N",
 "isrange":"N",
 "readonlylogic":null,
 "seqno":60,
 "updated":"2005-07-25T14:13:37",
 "updatedby":0,
 "valuemax":null,
 "valuemin":null,
 "vformat":null}, "children" : []}]},
 {"tablename" : "ad_process", "data" : {"ad_process_id":330,
 "value":"RV_CostSummary",
 "name":"Product Cost Summary",
 "accesslevel":"3",
 "ad_client_id":0,
 "ad_form_id":null,
 "ad_org_id":0,
 "ad_printformat_id":null,
 "ad_reportview_id":162,
 "ad_tableselection_id":null,
 "ad_workflow_id":null,
 "classname":null,
 "copyfromprocess":null,
 "created":"2005-07-25T13:44:51",
 "createdby":0,
 "description":"Product Cost Summary Report",
 "entitytype":"Costing",
 "help":"The Product Cost  report lists the summarized product costs for the product",
 "isactive":"Y",
 "isbetafunctionality":"N",
 "isdirectprint":"N",
 "isreport":"Y",
 "isserverprocess":"N",
 "jasperreport":null,
 "procedurename":null,
 "showhelp":"Y",
 "statistic_count":0,
 "statistic_seconds":0,
 "updated":"2005-07-26T14:14:25",
 "updatedby":0,
 "workflowvalue":null}, "children" : [{"tablename" : "ad_process_para", "data" : {"ad_process_para_id":656,
 "name":"Accounting Schema",
 "ad_client_id":0,
 "ad_element_id":181,
 "ad_org_id":0,
 "ad_process_id":330,
 "ad_reference_id":19,
 "ad_reference_value_id":null,
 "ad_val_rule_id":null,
 "columnname":"C_AcctSchema_ID",
 "created":"2005-07-25T14:05:11",
 "createdby":0,
 "defaultvalue":null,
 "defaultvalue2":null,
 "description":"Rules for accounting",
 "displaylogic":null,
 "entitytype":"Costing",
 "fieldlength":0,
 "help":"An Accounting Schema defines the rules used in accounting such as costing method, currency and calendar",
 "isactive":"Y",
 "iscentrallymaintained":"Y",
 "ismandatory":"N",
 "isrange":"N",
 "readonlylogic":null,
 "seqno":10,
 "updated":"2005-07-25T14:13:37",
 "updatedby":0,
 "valuemax":null,
 "valuemin":null,
 "vformat":null}, "children" : []},{"tablename" : "ad_process_para", "data" : {"ad_process_para_id":657,
 "name":"Product Category",
 "ad_client_id":0,
 "ad_element_id":453,
 "ad_org_id":0,
 "ad_process_id":330,
 "ad_reference_id":19,
 "ad_reference_value_id":null,
 "ad_val_rule_id":null,
 "columnname":"M_Product_Category_ID",
 "created":"2005-07-25T14:05:59",
 "createdby":0,
 "defaultvalue":"-1",
 "defaultvalue2":null,
 "description":"Category of a Product",
 "displaylogic":null,
 "entitytype":"Costing",
 "fieldlength":0,
 "help":"Identifies the category which this product belongs to.  Product categories are used for pricing and selection.",
 "isactive":"Y",
 "iscentrallymaintained":"Y",
 "ismandatory":"N",
 "isrange":"N",
 "readonlylogic":null,
 "seqno":20,
 "updated":"2005-07-25T14:13:37",
 "updatedby":0,
 "valuemax":null,
 "valuemin":null,
 "vformat":null}, "children" : []},{"tablename" : "ad_process_para", "data" : {"ad_process_para_id":658,
 "name":"Product",
 "ad_client_id":0,
 "ad_element_id":454,
 "ad_org_id":0,
 "ad_process_id":330,
 "ad_reference_id":30,
 "ad_reference_value_id":null,
 "ad_val_rule_id":null,
 "columnname":"M_Product_ID",
 "created":"2005-07-25T14:06:39",
 "createdby":0,
 "defaultvalue":null,
 "defaultvalue2":null,
 "description":"Product, Service, Item",
 "displaylogic":null,
 "entitytype":"Costing",
 "fieldlength":0,
 "help":"Identifies an item which is either purchased or sold in this organization.",
 "isactive":"Y",
 "iscentrallymaintained":"Y",
 "ismandatory":"N",
 "isrange":"N",
 "readonlylogic":null,
 "seqno":30,
 "updated":"2005-07-26T18:04:53",
 "updatedby":0,
 "valuemax":null,
 "valuemin":null,
 "vformat":null}, "children" : []},{"tablename" : "ad_process_para", "data" : {"ad_process_para_id":659,
 "name":"Search Key",
 "ad_client_id":0,
 "ad_element_id":620,
 "ad_org_id":0,
 "ad_process_id":330,
 "ad_reference_id":10,
 "ad_reference_value_id":null,
 "ad_val_rule_id":null,
 "columnname":"Value",
 "created":"2005-07-25T14:07:18",
 "createdby":0,
 "defaultvalue":null,
 "defaultvalue2":null,
 "description":"Search key for the record in the format required - must be unique",
 "displaylogic":null,
 "entitytype":"Costing",
 "fieldlength":20,
 "help":"A search key allows you a fast method of finding a particular record.\nIf you leave the search key empty, the system automatically creates a numeric number.  The document sequence used for this fallback number is defined in the \"Maintain Sequence\" window with the name \"DocumentNo_<TableName>\", where TableName is the actual name of the table (e.g. C_Order).",
 "isactive":"Y",
 "iscentrallymaintained":"Y",
 "ismandatory":"N",
 "isrange":"Y",
 "readonlylogic":null,
 "seqno":40,
 "updated":"2005-07-25T14:13:37",
 "updatedby":0,
 "valuemax":null,
 "valuemin":null,
 "vformat":null}, "children" : []}]},
 {"tablename" : "ad_process", "data" : {"ad_process_id":335,
 "value":"M_Cost Create",
 "name":"Create Costing Records",
 "accesslevel":"2",
 "ad_client_id":0,
 "ad_form_id":null,
 "ad_org_id":0,
 "ad_printformat_id":null,
 "ad_reportview_id":null,
 "ad_tableselection_id":null,
 "ad_workflow_id":null,
 "classname":"org.compiere.process.CostCreate",
 "copyfromprocess":null,
 "created":"2005-09-19T16:17:26",
 "createdby":100,
 "description":"Create Costing Records",
 "entitytype":"Costing",
 "help":"The costing records are created when needed or by batch processes. You can force the creation of the costing information here.",
 "isactive":"Y",
 "isbetafunctionality":"N",
 "isdirectprint":"N",
 "isreport":"N",
 "isserverprocess":"N",
 "jasperreport":null,
 "procedurename":null,
 "showhelp":"Y",
 "statistic_count":0,
 "statistic_seconds":0,
 "updated":"2005-09-19T16:18:12",
 "updatedby":100,
 "workflowvalue":null}, "children" : [{"tablename" : "ad_process_para", "data" : {"ad_process_para_id":680,
 "name":"Product",
 "ad_client_id":0,
 "ad_element_id":454,
 "ad_org_id":0,
 "ad_process_id":335,
 "ad_reference_id":30,
 "ad_reference_value_id":null,
 "ad_val_rule_id":null,
 "columnname":"M_Product_ID",
 "created":"2005-09-19T16:18:56",
 "createdby":100,
 "defaultvalue":null,
 "defaultvalue2":null,
 "description":"Product, Service, Item",
 "displaylogic":null,
 "entitytype":"Costing",
 "fieldlength":0,
 "help":"Identifies an item which is either purchased or sold in this organization.",
 "isactive":"Y",
 "iscentrallymaintained":"Y",
 "ismandatory":"Y",
 "isrange":"N",
 "readonlylogic":null,
 "seqno":10,
 "updated":"2005-09-19T16:33:55",
 "updatedby":100,
 "valuemax":null,
 "valuemin":null,
 "vformat":null}, "children" : []}]}]