[{"tablename" : "ad_element", "data" : {"ad_element_id":1502,
 "columnname":"DateLastAction",
 "ad_client_id":0,
 "ad_org_id":0,
 "ad_reference_id":16,
 "ad_reference_value_id":null,
 "created":"2001-01-11T17:05:05",
 "createdby":0,
 "description":"Date this request was last acted on",
 "entitytype":"Sales Management",
 "fieldlength":7,
 "help":"The Date Last Action indicates that last time that the request was acted on.",
 "isactive":"Y",
 "name":"Date last action",
 "po_description":null,
 "po_help":null,
 "po_name":null,
 "po_printname":null,
 "printname":"Date last action",
 "updated":"2000-01-02T00:00:00",
 "updatedby":0}, "children" : []},
 {"tablename" : "ad_element", "data" : {"ad_element_id":1503,
 "columnname":"DateNextAction",
 "ad_client_id":0,
 "ad_org_id":0,
 "ad_reference_id":16,
 "ad_reference_value_id":null,
 "created":"2001-01-11T17:05:05",
 "createdby":0,
 "description":"Date that this request should be acted on",
 "entitytype":"Sales Management",
 "fieldlength":7,
 "help":"The Date Next Action indicates the next scheduled date for an action to occur for this request.",
 "isactive":"Y",
 "name":"Date next action",
 "po_description":null,
 "po_help":null,
 "po_name":null,
 "po_printname":null,
 "printname":"Date next action",
 "updated":"2000-01-02T00:00:00",
 "updatedby":0}, "children" : []},
 {"tablename" : "ad_element", "data" : {"ad_element_id":1504,
 "columnname":"DueType",
 "ad_client_id":0,
 "ad_org_id":0,
 "ad_reference_id":17,
 "ad_reference_value_id":222,
 "created":"2001-01-11T17:05:05",
 "createdby":0,
 "description":"Status of the next action for this Request",
 "entitytype":"Sales Management",
 "fieldlength":1,
 "help":"The Due Type indicates if this request is Due, Overdue or Scheduled.",
 "isactive":"Y",
 "name":"Due type",
 "po_description":null,
 "po_help":null,
 "po_name":null,
 "po_printname":null,
 "printname":"Due type",
 "updated":"2000-01-02T00:00:00",
 "updatedby":0}, "children" : []},
 {"tablename" : "ad_element", "data" : {"ad_element_id":1509,
 "columnname":"IsEscalated",
 "ad_client_id":0,
 "ad_org_id":0,
 "ad_reference_id":20,
 "ad_reference_value_id":null,
 "created":"2001-01-11T17:05:05",
 "createdby":0,
 "description":"This request has been escalated",
 "entitytype":"Sales Management",
 "fieldlength":1,
 "help":"The Escalated checkbox indicates that this request has been escalated or raised in importance.",
 "isactive":"Y",
 "name":"Escalated",
 "po_description":null,
 "po_help":null,
 "po_name":null,
 "po_printname":null,
 "printname":"Escalated",
 "updated":"2000-01-02T00:00:00",
 "updatedby":0}, "children" : []},
 {"tablename" : "ad_element", "data" : {"ad_element_id":1513,
 "columnname":"NextAction",
 "ad_client_id":0,
 "ad_org_id":0,
 "ad_reference_id":17,
 "ad_reference_value_id":219,
 "created":"2001-01-11T17:05:05",
 "createdby":0,
 "description":"Next Action to be taken",
 "entitytype":"Sales Management",
 "fieldlength":1,
 "help":"The Next Action indicates the next action to be taken on this request.",
 "isactive":"Y",
 "name":"Next action",
 "po_description":null,
 "po_help":null,
 "po_name":null,
 "po_printname":null,
 "printname":"Next action",
 "updated":"2000-01-02T00:00:00",
 "updatedby":0}, "children" : []},
 {"tablename" : "ad_element", "data" : {"ad_element_id":1517,
 "columnname":"R_RequestAction_ID",
 "ad_client_id":0,
 "ad_org_id":0,
 "ad_reference_id":13,
 "ad_reference_value_id":null,
 "created":"2001-01-11T17:05:05",
 "createdby":0,
 "description":"Request has been changed",
 "entitytype":"Sales Management",
 "fieldlength":22,
 "help":"Old values",
 "isactive":"Y",
 "name":"Request History",
 "po_description":null,
 "po_help":null,
 "po_name":null,
 "po_printname":null,
 "printname":"Request History",
 "updated":"2005-05-17T12:26:24",
 "updatedby":100}, "children" : []},
 {"tablename" : "ad_element", "data" : {"ad_element_id":1520,
 "columnname":"RequestAmt",
 "ad_client_id":0,
 "ad_org_id":0,
 "ad_reference_id":12,
 "ad_reference_value_id":null,
 "created":"2001-01-11T17:05:05",
 "createdby":0,
 "description":"Amount associated with this request",
 "entitytype":"Sales Management",
 "fieldlength":22,
 "help":"The Request Amount indicates any amount that is associated with this request.  For example, a warranty amount or refund amount.",
 "isactive":"Y",
 "name":"Request Amount",
 "po_description":null,
 "po_help":null,
 "po_name":null,
 "po_printname":null,
 "printname":"Request Amt",
 "updated":"2000-01-02T00:00:00",
 "updatedby":0}, "children" : []},
 {"tablename" : "ad_element", "data" : {"ad_element_id":2704,
 "columnname":"R_Group_ID",
 "ad_client_id":0,
 "ad_org_id":0,
 "ad_reference_id":19,
 "ad_reference_value_id":null,
 "created":"2005-04-26T20:15:49",
 "createdby":100,
 "description":"Request Group",
 "entitytype":"Sales Management",
 "fieldlength":10,
 "help":"Group of requests (e.g. version numbers, responsibility, ...)",
 "isactive":"Y",
 "name":"Group",
 "po_description":null,
 "po_help":null,
 "po_name":null,
 "po_printname":null,
 "printname":"Group",
 "updated":"2005-04-26T21:20:57",
 "updatedby":100}, "children" : []},
 {"tablename" : "ad_element", "data" : {"ad_element_id":2705,
 "columnname":"R_Category_ID",
 "ad_client_id":0,
 "ad_org_id":0,
 "ad_reference_id":19,
 "ad_reference_value_id":null,
 "created":"2005-04-26T20:15:49",
 "createdby":100,
 "description":"Request Category",
 "entitytype":"Sales Management",
 "fieldlength":10,
 "help":"Category or Topic of the Request ",
 "isactive":"Y",
 "name":"Category",
 "po_description":null,
 "po_help":null,
 "po_name":null,
 "po_printname":null,
 "printname":"Category",
 "updated":"2005-04-26T21:30:11",
 "updatedby":100}, "children" : []},
 {"tablename" : "ad_element", "data" : {"ad_element_id":2706,
 "columnname":"R_Status_ID",
 "ad_client_id":0,
 "ad_org_id":0,
 "ad_reference_id":19,
 "ad_reference_value_id":null,
 "created":"2005-04-26T20:15:49",
 "createdby":100,
 "description":"Request Status",
 "entitytype":"Sales Management",
 "fieldlength":10,
 "help":"Status if the request (open, closed, investigating, ..)",
 "isactive":"Y",
 "name":"Status",
 "po_description":null,
 "po_help":null,
 "po_name":null,
 "po_printname":null,
 "printname":"Status",
 "updated":"2005-04-26T21:06:21",
 "updatedby":100}, "children" : []},
 {"tablename" : "ad_element", "data" : {"ad_element_id":2707,
 "columnname":"R_Resolution_ID",
 "ad_client_id":0,
 "ad_org_id":0,
 "ad_reference_id":19,
 "ad_reference_value_id":null,
 "created":"2005-04-26T20:15:50",
 "createdby":100,
 "description":"Request Resolution",
 "entitytype":"Sales Management",
 "fieldlength":10,
 "help":"Resolution status (e.g. Fixed, Rejected, ..)",
 "isactive":"Y",
 "name":"Resolution",
 "po_description":null,
 "po_help":null,
 "po_name":null,
 "po_printname":null,
 "printname":"Resolution",
 "updated":"2005-04-26T21:14:11",
 "updatedby":100}, "children" : []},
 {"tablename" : "ad_element", "data" : {"ad_element_id":2708,
 "columnname":"PriorityUser",
 "ad_client_id":0,
 "ad_org_id":0,
 "ad_reference_id":17,
 "ad_reference_value_id":154,
 "created":"2005-04-26T20:15:50",
 "createdby":100,
 "description":"Priority of the issue for the User",
 "entitytype":"Sales Management",
 "fieldlength":1,
 "help":null,
 "isactive":"Y",
 "name":"User Importance",
 "po_description":null,
 "po_help":null,
 "po_name":null,
 "po_printname":null,
 "printname":"User Importance",
 "updated":"2005-04-26T21:55:12",
 "updatedby":100}, "children" : []},
 {"tablename" : "ad_element", "data" : {"ad_element_id":2709,
 "columnname":"ConfidentialType",
 "ad_client_id":0,
 "ad_org_id":0,
 "ad_reference_id":17,
 "ad_reference_value_id":340,
 "created":"2005-04-26T20:15:50",
 "createdby":100,
 "description":"Type of Confidentiality",
 "entitytype":"Sales Management",
 "fieldlength":1,
 "help":null,
 "isactive":"Y",
 "name":"Confidentiality",
 "po_description":null,
 "po_help":null,
 "po_name":null,
 "po_printname":null,
 "printname":"Confidentiality",
 "updated":"2005-04-26T21:45:30",
 "updatedby":100}, "children" : []},
 {"tablename" : "ad_element", "data" : {"ad_element_id":2710,
 "columnname":"R_RequestRelated_ID",
 "ad_client_id":0,
 "ad_org_id":0,
 "ad_reference_id":30,
 "ad_reference_value_id":341,
 "created":"2005-04-26T20:15:50",
 "createdby":100,
 "description":"Related Request (Master Issue, ..)",
 "entitytype":"Sales Management",
 "fieldlength":10,
 "help":"Request related to this request",
 "isactive":"Y",
 "name":"Related Request",
 "po_description":null,
 "po_help":null,
 "po_name":null,
 "po_printname":null,
 "printname":"Related Request",
 "updated":"2005-04-26T21:58:32",
 "updatedby":100}, "children" : []},
 {"tablename" : "ad_element", "data" : {"ad_element_id":2711,
 "columnname":"ConfidentialTypeEntry",
 "ad_client_id":0,
 "ad_org_id":0,
 "ad_reference_id":17,
 "ad_reference_value_id":340,
 "created":"2005-04-26T20:15:50",
 "createdby":100,
 "description":"Confidentiality of the individual entry",
 "entitytype":"Sales Management",
 "fieldlength":1,
 "help":null,
 "isactive":"Y",
 "name":"Entry Confidentiality",
 "po_description":null,
 "po_help":null,
 "po_name":null,
 "po_printname":null,
 "printname":"Entry Confidentiality",
 "updated":"2005-04-26T22:05:44",
 "updatedby":100}, "children" : []},
 {"tablename" : "ad_element", "data" : {"ad_element_id":2712,
 "columnname":"R_StandardResponse_ID",
 "ad_client_id":0,
 "ad_org_id":0,
 "ad_reference_id":19,
 "ad_reference_value_id":null,
 "created":"2005-04-26T20:15:50",
 "createdby":100,
 "description":"Request Standard Response ",
 "entitytype":"Sales Management",
 "fieldlength":10,
 "help":"Text blocks to be copied into request response text",
 "isactive":"Y",
 "name":"Standard Response",
 "po_description":null,
 "po_help":null,
 "po_name":null,
 "po_printname":null,
 "printname":"Std Response",
 "updated":"2005-04-26T21:05:45",
 "updatedby":100}, "children" : []},
 {"tablename" : "ad_element", "data" : {"ad_element_id":2713,
 "columnname":"StartTime",
 "ad_client_id":0,
 "ad_org_id":0,
 "ad_reference_id":16,
 "ad_reference_value_id":null,
 "created":"2005-04-26T20:15:50",
 "createdby":100,
 "description":"Time started",
 "entitytype":"Sales Management",
 "fieldlength":7,
 "help":null,
 "isactive":"Y",
 "name":"Start Time",
 "po_description":null,
 "po_help":null,
 "po_name":null,
 "po_printname":null,
 "printname":"Start Time",
 "updated":"2005-04-26T22:02:04",
 "updatedby":100}, "children" : []},
 {"tablename" : "ad_element", "data" : {"ad_element_id":2714,
 "columnname":"EndTime",
 "ad_client_id":0,
 "ad_org_id":0,
 "ad_reference_id":16,
 "ad_reference_value_id":null,
 "created":"2005-04-26T20:15:50",
 "createdby":100,
 "description":"End of the time span",
 "entitytype":"Sales Management",
 "fieldlength":7,
 "help":null,
 "isactive":"Y",
 "name":"End Time",
 "po_description":null,
 "po_help":null,
 "po_name":null,
 "po_printname":null,
 "printname":"End Time",
 "updated":"2005-04-26T21:50:40",
 "updatedby":100}, "children" : []},
 {"tablename" : "ad_element", "data" : {"ad_element_id":2715,
 "columnname":"QtySpent",
 "ad_client_id":0,
 "ad_org_id":0,
 "ad_reference_id":29,
 "ad_reference_value_id":null,
 "created":"2005-04-26T20:15:50",
 "createdby":100,
 "description":"Quantity used for this event",
 "entitytype":"Sales Management",
 "fieldlength":22,
 "help":null,
 "isactive":"Y",
 "name":"Quantity Used",
 "po_description":null,
 "po_help":null,
 "po_name":null,
 "po_printname":null,
 "printname":"Qty Used",
 "updated":"2005-04-26T21:56:30",
 "updatedby":100}, "children" : []},
 {"tablename" : "ad_element", "data" : {"ad_element_id":2716,
 "columnname":"M_ProductSpent_ID",
 "ad_client_id":0,
 "ad_org_id":0,
 "ad_reference_id":30,
 "ad_reference_value_id":162,
 "created":"2005-04-26T20:15:50",
 "createdby":100,
 "description":"Product/Resource/Service used in Request",
 "entitytype":"Sales Management",
 "fieldlength":10,
 "help":"Invoicing uses the Product used.",
 "isactive":"Y",
 "name":"Product Used",
 "po_description":null,
 "po_help":null,
 "po_name":null,
 "po_printname":null,
 "printname":"Product Used",
 "updated":"2005-04-26T21:52:59",
 "updatedby":100}, "children" : []},
 {"tablename" : "ad_element", "data" : {"ad_element_id":2717,
 "columnname":"C_InvoiceRequest_ID",
 "ad_client_id":0,
 "ad_org_id":0,
 "ad_reference_id":30,
 "ad_reference_value_id":336,
 "created":"2005-04-26T20:15:51",
 "createdby":100,
 "description":"The generated invoice for this request",
 "entitytype":"Sales Management",
 "fieldlength":10,
 "help":"The optionally generated invoice for the request",
 "isactive":"Y",
 "name":"Request Invoice",
 "po_description":null,
 "po_help":null,
 "po_name":null,
 "po_printname":null,
 "printname":"Request Invoice",
 "updated":"2005-05-19T19:33:42",
 "updatedby":100}, "children" : []},
 {"tablename" : "ad_element", "data" : {"ad_element_id":2723,
 "columnname":"IsClosed",
 "ad_client_id":0,
 "ad_org_id":0,
 "ad_reference_id":20,
 "ad_reference_value_id":null,
 "created":"2005-04-27T11:01:27",
 "createdby":100,
 "description":"The status is closed",
 "entitytype":"Sales Management",
 "fieldlength":1,
 "help":"This allows to have multiple closed status",
 "isactive":"Y",
 "name":"Closed Status",
 "po_description":null,
 "po_help":null,
 "po_name":null,
 "po_printname":null,
 "printname":"Closed",
 "updated":"2010-01-13T10:38:15",
 "updatedby":100}, "children" : []},
 {"tablename" : "ad_element", "data" : {"ad_element_id":2785,
 "columnname":"M_ChangeRequest_ID",
 "ad_client_id":0,
 "ad_org_id":0,
 "ad_reference_id":13,
 "ad_reference_value_id":null,
 "created":"2005-05-15T14:58:21",
 "createdby":100,
 "description":"BOM (Engineering) Change Request",
 "entitytype":"Sales Management",
 "fieldlength":10,
 "help":"Change requests for a Bill of Materials. They can be automatically created from Requests, if enabled in the Request Type and the Request Group refers to a Bill of Materials",
 "isactive":"Y",
 "name":"Change Request",
 "po_description":null,
 "po_help":null,
 "po_name":null,
 "po_printname":null,
 "printname":"Change Request",
 "updated":"2010-01-13T10:38:15",
 "updatedby":100}, "children" : []},
 {"tablename" : "ad_element", "data" : {"ad_element_id":2791,
 "columnname":"R_RequestUpdate_ID",
 "ad_client_id":0,
 "ad_org_id":0,
 "ad_reference_id":13,
 "ad_reference_value_id":null,
 "created":"2005-05-17T12:21:27",
 "createdby":100,
 "description":"Request Updates",
 "entitytype":"Sales Management",
 "fieldlength":10,
 "help":null,
 "isactive":"Y",
 "name":"Request Update",
 "po_description":null,
 "po_help":null,
 "po_name":null,
 "po_printname":null,
 "printname":"Request Update",
 "updated":"2005-05-17T12:23:27",
 "updatedby":100}, "children" : []},
 {"tablename" : "ad_element", "data" : {"ad_element_id":2796,
 "columnname":"NullColumns",
 "ad_client_id":0,
 "ad_org_id":0,
 "ad_reference_id":10,
 "ad_reference_value_id":null,
 "created":"2005-05-20T00:49:05",
 "createdby":100,
 "description":"Columns with NULL value",
 "entitytype":"Sales Management",
 "fieldlength":255,
 "help":"Null values are used for showing \"no change\"",
 "isactive":"Y",
 "name":"Null Columns",
 "po_description":null,
 "po_help":null,
 "po_name":null,
 "po_printname":null,
 "printname":"Null Columns",
 "updated":"2005-05-20T00:51:00",
 "updatedby":100}, "children" : []},
 {"tablename" : "ad_element", "data" : {"ad_element_id":2797,
 "columnname":"M_FixChangeNotice_ID",
 "ad_client_id":0,
 "ad_org_id":0,
 "ad_reference_id":18,
 "ad_reference_value_id":351,
 "created":"2005-05-20T22:39:56",
 "createdby":100,
 "description":"Fixed in Change Notice",
 "entitytype":"Sales Management",
 "fieldlength":10,
 "help":null,
 "isactive":"Y",
 "name":"Fixed in",
 "po_description":null,
 "po_help":null,
 "po_name":null,
 "po_printname":null,
 "printname":"Fixed in",
 "updated":"2005-05-20T22:40:52",
 "updatedby":100}, "children" : []},
 {"tablename" : "ad_element", "data" : {"ad_element_id":2898,
 "columnname":"TaskStatus",
 "ad_client_id":0,
 "ad_org_id":0,
 "ad_reference_id":17,
 "ad_reference_value_id":366,
 "created":"2005-12-21T15:57:01",
 "createdby":100,
 "description":"Status of the Task",
 "entitytype":"Sales Management",
 "fieldlength":1,
 "help":"Completion Rate and Status of the Task",
 "isactive":"Y",
 "name":"Task Status",
 "po_description":null,
 "po_help":null,
 "po_name":null,
 "po_printname":null,
 "printname":"Task Status",
 "updated":"2005-12-21T16:19:14",
 "updatedby":100}, "children" : []},
 {"tablename" : "ad_element", "data" : {"ad_element_id":2899,
 "columnname":"DateCompletePlan",
 "ad_client_id":0,
 "ad_org_id":0,
 "ad_reference_id":15,
 "ad_reference_value_id":null,
 "created":"2005-12-21T15:57:01",
 "createdby":100,
 "description":"Planned Completion Date",
 "entitytype":"Sales Management",
 "fieldlength":7,
 "help":"Date when the task is planned to be complete",
 "isactive":"Y",
 "name":"Complete Plan",
 "po_description":null,
 "po_help":null,
 "po_name":null,
 "po_printname":null,
 "printname":"Complete Plan",
 "updated":"2005-12-21T16:16:31",
 "updatedby":100}, "children" : []},
 {"tablename" : "ad_element", "data" : {"ad_element_id":2900,
 "columnname":"QtyPlan",
 "ad_client_id":0,
 "ad_org_id":0,
 "ad_reference_id":29,
 "ad_reference_value_id":null,
 "created":"2005-12-21T15:57:01",
 "createdby":100,
 "description":"Planned Quantity",
 "entitytype":"Sales Management",
 "fieldlength":22,
 "help":"Planned Quantity",
 "isactive":"Y",
 "name":"Quantity Plan",
 "po_description":null,
 "po_help":null,
 "po_name":null,
 "po_printname":null,
 "printname":"Quantity Plan",
 "updated":"2005-12-21T16:18:19",
 "updatedby":100}, "children" : []},
 {"tablename" : "ad_element", "data" : {"ad_element_id":2901,
 "columnname":"DateStartPlan",
 "ad_client_id":0,
 "ad_org_id":0,
 "ad_reference_id":15,
 "ad_reference_value_id":null,
 "created":"2005-12-21T17:29:47",
 "createdby":100,
 "description":"Planned Start Date",
 "entitytype":"Sales Management",
 "fieldlength":7,
 "help":"Date when you plan to start",
 "isactive":"Y",
 "name":"Start Plan",
 "po_description":null,
 "po_help":null,
 "po_name":null,
 "po_printname":null,
 "printname":"Start Plan",
 "updated":"2005-12-21T17:35:09",
 "updatedby":100}, "children" : []},
 {"tablename" : "ad_element", "data" : {"ad_element_id":55290,
 "columnname":"IsWon",
 "ad_client_id":0,
 "ad_org_id":0,
 "ad_reference_id":20,
 "ad_reference_value_id":null,
 "created":"2011-09-01T22:20:32",
 "createdby":100,
 "description":"The opportunity was won",
 "entitytype":"Sales Management",
 "fieldlength":1,
 "help":null,
 "isactive":"Y",
 "name":"Won",
 "po_description":null,
 "po_help":null,
 "po_name":null,
 "po_printname":null,
 "printname":"Won",
 "updated":"2012-06-08T15:15:24",
 "updatedby":0}, "children" : []},
 {"tablename" : "ad_element", "data" : {"ad_element_id":55292,
 "columnname":"SalesPipeline",
 "ad_client_id":0,
 "ad_org_id":0,
 "ad_reference_id":53370,
 "ad_reference_value_id":null,
 "created":"2011-09-02T12:29:18",
 "createdby":100,
 "description":null,
 "entitytype":"Sales Management",
 "fieldlength":10,
 "help":null,
 "isactive":"Y",
 "name":"Sales Pipeline",
 "po_description":null,
 "po_help":null,
 "po_name":null,
 "po_printname":null,
 "printname":"Sales Pipeline",
 "updated":"2011-09-02T12:29:18",
 "updatedby":100}, "children" : []},
 {"tablename" : "ad_element", "data" : {"ad_element_id":55294,
 "columnname":"OpportunityCampaign",
 "ad_client_id":0,
 "ad_org_id":0,
 "ad_reference_id":53370,
 "ad_reference_value_id":null,
 "created":"2011-09-02T16:59:53",
 "createdby":100,
 "description":null,
 "entitytype":"Sales Management",
 "fieldlength":1,
 "help":null,
 "isactive":"Y",
 "name":"Opportunity by Campaign",
 "po_description":null,
 "po_help":null,
 "po_name":null,
 "po_printname":null,
 "printname":"Opportunity by Campaign",
 "updated":"2011-09-02T16:59:53",
 "updatedby":100}, "children" : []},
 {"tablename" : "ad_element", "data" : {"ad_element_id":55363,
 "columnname":"OpenRequests",
 "ad_client_id":0,
 "ad_org_id":0,
 "ad_reference_id":53370,
 "ad_reference_value_id":null,
 "created":"2011-11-04T11:38:11",
 "createdby":100,
 "description":null,
 "entitytype":"Sales Management",
 "fieldlength":1,
 "help":null,
 "isactive":"Y",
 "name":"Open Requests",
 "po_description":null,
 "po_help":null,
 "po_name":null,
 "po_printname":null,
 "printname":"Open Requests",
 "updated":"2011-11-04T11:38:11",
 "updatedby":100}, "children" : []}]