[{"tablename" : "ad_element", "data" : {"ad_element_id":1411,
 "columnname":"PageURL",
 "ad_client_id":0,
 "ad_org_id":0,
 "ad_reference_id":40,
 "ad_reference_value_id":null,
 "created":"2000-12-17T16:23:13",
 "createdby":0,
 "description":null,
 "entitytype":"Web",
 "fieldlength":120,
 "help":null,
 "isactive":"Y",
 "name":"Page URL",
 "po_description":null,
 "po_help":null,
 "po_name":null,
 "po_printname":null,
 "printname":"Page URL",
 "updated":"2000-01-02T00:00:00",
 "updatedby":0}, "children" : []},
 {"tablename" : "ad_element", "data" : {"ad_element_id":1429,
 "columnname":"Referrer",
 "ad_client_id":0,
 "ad_org_id":0,
 "ad_reference_id":10,
 "ad_reference_value_id":null,
 "created":"2000-12-17T16:23:13",
 "createdby":0,
 "description":"Referring web address",
 "entitytype":"Web",
 "fieldlength":120,
 "help":null,
 "isactive":"Y",
 "name":"Referrer",
 "po_description":null,
 "po_help":null,
 "po_name":null,
 "po_printname":null,
 "printname":"Referrer",
 "updated":"2000-01-02T00:00:00",
 "updatedby":0}, "children" : []},
 {"tablename" : "ad_element", "data" : {"ad_element_id":1620,
 "columnname":"W_Counter_ID",
 "ad_client_id":0,
 "ad_org_id":0,
 "ad_reference_id":13,
 "ad_reference_value_id":null,
 "created":"2001-05-09T21:20:17",
 "createdby":0,
 "description":"Individual Count hit",
 "entitytype":"Web",
 "fieldlength":22,
 "help":"Web Counter Details",
 "isactive":"Y",
 "name":"Web Counter",
 "po_description":null,
 "po_help":null,
 "po_name":null,
 "po_printname":null,
 "printname":"Web Counter",
 "updated":"2000-01-02T00:00:00",
 "updatedby":0}, "children" : []},
 {"tablename" : "ad_element", "data" : {"ad_element_id":1703,
 "columnname":"AcceptLanguage",
 "ad_client_id":0,
 "ad_org_id":0,
 "ad_reference_id":10,
 "ad_reference_value_id":null,
 "created":"2001-12-09T20:33:21",
 "createdby":0,
 "description":"Language accepted based on browser information",
 "entitytype":"Web",
 "fieldlength":60,
 "help":null,
 "isactive":"Y",
 "name":"Accept Language",
 "po_description":null,
 "po_help":null,
 "po_name":null,
 "po_printname":null,
 "printname":"Accept Language",
 "updated":"2000-01-02T00:00:00",
 "updatedby":0}, "children" : []},
 {"tablename" : "ad_element", "data" : {"ad_element_id":1704,
 "columnname":"UserAgent",
 "ad_client_id":0,
 "ad_org_id":0,
 "ad_reference_id":10,
 "ad_reference_value_id":null,
 "created":"2001-12-09T20:33:21",
 "createdby":0,
 "description":"Browser Used",
 "entitytype":"Web",
 "fieldlength":255,
 "help":null,
 "isactive":"Y",
 "name":"User Agent",
 "po_description":null,
 "po_help":null,
 "po_name":null,
 "po_printname":null,
 "printname":"User Agent",
 "updated":"2000-01-02T00:00:00",
 "updatedby":0}, "children" : []},
 {"tablename" : "ad_element", "data" : {"ad_element_id":1997,
 "columnname":"Counter",
 "ad_client_id":0,
 "ad_org_id":0,
 "ad_reference_id":11,
 "ad_reference_value_id":null,
 "created":"2003-05-04T00:31:52",
 "createdby":0,
 "description":"Count Value",
 "entitytype":"Web",
 "fieldlength":22,
 "help":"Number counter",
 "isactive":"Y",
 "name":"Counter",
 "po_description":null,
 "po_help":null,
 "po_name":null,
 "po_printname":null,
 "printname":"Counter",
 "updated":"2000-01-02T00:00:00",
 "updatedby":0}, "children" : []},
 {"tablename" : "ad_element", "data" : {"ad_element_id":2005,
 "columnname":"TargetURL",
 "ad_client_id":0,
 "ad_org_id":0,
 "ad_reference_id":40,
 "ad_reference_value_id":null,
 "created":"2003-05-04T00:31:52",
 "createdby":0,
 "description":"URL for the Target",
 "entitytype":"Web",
 "fieldlength":120,
 "help":"URL of the Target Site",
 "isactive":"Y",
 "name":"Target URL",
 "po_description":null,
 "po_help":null,
 "po_name":null,
 "po_printname":null,
 "printname":"Target URL",
 "updated":"2000-01-02T00:00:00",
 "updatedby":0}, "children" : []},
 {"tablename" : "ad_element", "data" : {"ad_element_id":2007,
 "columnname":"W_Click_ID",
 "ad_client_id":0,
 "ad_org_id":0,
 "ad_reference_id":13,
 "ad_reference_value_id":null,
 "created":"2003-05-04T00:31:52",
 "createdby":0,
 "description":"Individual Web Click",
 "entitytype":"Web",
 "fieldlength":22,
 "help":"Web Click Details",
 "isactive":"Y",
 "name":"Web Click",
 "po_description":null,
 "po_help":null,
 "po_name":null,
 "po_printname":null,
 "printname":"Web Click",
 "updated":"2010-01-13T10:38:15",
 "updatedby":0}, "children" : []},
 {"tablename" : "ad_element", "data" : {"ad_element_id":2008,
 "columnname":"W_ClickCount_ID",
 "ad_client_id":0,
 "ad_org_id":0,
 "ad_reference_id":19,
 "ad_reference_value_id":null,
 "created":"2003-05-04T00:31:52",
 "createdby":0,
 "description":"Web Click Management",
 "entitytype":"Web",
 "fieldlength":22,
 "help":"Web Click Management",
 "isactive":"Y",
 "name":"Click Count",
 "po_description":null,
 "po_help":null,
 "po_name":null,
 "po_printname":null,
 "printname":"Click Ccount",
 "updated":"2000-01-02T00:00:00",
 "updatedby":0}, "children" : []},
 {"tablename" : "ad_element", "data" : {"ad_element_id":2009,
 "columnname":"W_CounterCount_ID",
 "ad_client_id":0,
 "ad_org_id":0,
 "ad_reference_id":13,
 "ad_reference_value_id":null,
 "created":"2003-05-04T00:31:52",
 "createdby":0,
 "description":"Web Counter Count Management",
 "entitytype":"Web",
 "fieldlength":22,
 "help":"Web Counter Information",
 "isactive":"Y",
 "name":"Counter Count",
 "po_description":null,
 "po_help":null,
 "po_name":null,
 "po_printname":null,
 "printname":"Counter Count",
 "updated":"2000-01-02T00:00:00",
 "updatedby":0}, "children" : []},
 {"tablename" : "ad_element", "data" : {"ad_element_id":2062,
 "columnname":"AdText",
 "ad_client_id":0,
 "ad_org_id":0,
 "ad_reference_id":34,
 "ad_reference_value_id":null,
 "created":"2003-05-29T21:58:21",
 "createdby":0,
 "description":"Text of the Advertisement",
 "entitytype":"Web",
 "fieldlength":2000,
 "help":"The text of the advertisement with optional HTML tags. The HTML tags are not checked for correctness and may impact the remaining page.",
 "isactive":"Y",
 "name":"Advertisement Text",
 "po_description":null,
 "po_help":null,
 "po_name":null,
 "po_printname":null,
 "printname":"Ad Text",
 "updated":"2000-01-02T00:00:00",
 "updatedby":0}, "children" : []},
 {"tablename" : "ad_element", "data" : {"ad_element_id":2069,
 "columnname":"W_Advertisement_ID",
 "ad_client_id":0,
 "ad_org_id":0,
 "ad_reference_id":13,
 "ad_reference_value_id":null,
 "created":"2003-05-29T21:58:21",
 "createdby":0,
 "description":"Web Advertisement",
 "entitytype":"Web",
 "fieldlength":22,
 "help":"Advertisement on the Web",
 "isactive":"Y",
 "name":"Advertisement",
 "po_description":null,
 "po_help":null,
 "po_name":null,
 "po_printname":null,
 "printname":"Advertisement",
 "updated":"2000-01-02T00:00:00",
 "updatedby":0}, "children" : []},
 {"tablename" : "ad_element", "data" : {"ad_element_id":2338,
 "columnname":"PublishStatus",
 "ad_client_id":0,
 "ad_org_id":0,
 "ad_reference_id":17,
 "ad_reference_value_id":310,
 "created":"2004-01-08T16:05:59",
 "createdby":0,
 "description":"Status of Publication",
 "entitytype":"Web",
 "fieldlength":1,
 "help":"Used for internal documentation",
 "isactive":"Y",
 "name":"Publication Status",
 "po_description":null,
 "po_help":null,
 "po_name":null,
 "po_printname":null,
 "printname":"Publication Status",
 "updated":"2000-01-02T00:00:00",
 "updatedby":0}, "children" : []}]