[{"tablename" : "ad_element", "data" : {"ad_element_id":52001,
 "columnname":"U_BlackListCheque_ID",
 "ad_client_id":0,
 "ad_org_id":0,
 "ad_reference_id":13,
 "ad_reference_value_id":null,
 "created":"2008-03-26T13:20:00.863",
 "createdby":0,
 "description":null,
 "entitytype":"Web POS",
 "fieldlength":22,
 "help":null,
 "isactive":"Y",
 "name":"Black List Cheque",
 "po_description":null,
 "po_help":null,
 "po_name":null,
 "po_printname":null,
 "printname":"Black List Cheque",
 "updated":"2008-01-15T00:36:17",
 "updatedby":100}, "children" : []},
 {"tablename" : "ad_element", "data" : {"ad_element_id":52002,
 "columnname":"BankName",
 "ad_client_id":0,
 "ad_org_id":0,
 "ad_reference_id":10,
 "ad_reference_value_id":null,
 "created":"2008-03-26T13:20:00.865",
 "createdby":0,
 "description":null,
 "entitytype":"Web POS",
 "fieldlength":120,
 "help":null,
 "isactive":"Y",
 "name":"Bank Name",
 "po_description":null,
 "po_help":null,
 "po_name":null,
 "po_printname":null,
 "printname":"Bank Name",
 "updated":"2008-01-15T00:38:51",
 "updatedby":100}, "children" : []},
 {"tablename" : "ad_element", "data" : {"ad_element_id":52003,
 "columnname":"ChequeNo",
 "ad_client_id":0,
 "ad_org_id":0,
 "ad_reference_id":10,
 "ad_reference_value_id":null,
 "created":"2008-03-26T13:20:00.943",
 "createdby":0,
 "description":null,
 "entitytype":"Web POS",
 "fieldlength":120,
 "help":null,
 "isactive":"Y",
 "name":"Cheque No",
 "po_description":null,
 "po_help":null,
 "po_name":null,
 "po_printname":null,
 "printname":"Cheque No",
 "updated":"2008-01-15T00:39:00",
 "updatedby":100}, "children" : []},
 {"tablename" : "ad_element", "data" : {"ad_element_id":52004,
 "columnname":"U_Web_Properties_ID",
 "ad_client_id":0,
 "ad_org_id":0,
 "ad_reference_id":13,
 "ad_reference_value_id":null,
 "created":"2008-03-26T13:20:00.969",
 "createdby":0,
 "description":null,
 "entitytype":"Web POS",
 "fieldlength":22,
 "help":null,
 "isactive":"Y",
 "name":"Web Properties",
 "po_description":null,
 "po_help":null,
 "po_name":null,
 "po_printname":null,
 "printname":"Web Properties",
 "updated":"2008-01-15T00:40:02",
 "updatedby":100}, "children" : []},
 {"tablename" : "ad_element", "data" : {"ad_element_id":52005,
 "columnname":"U_Key",
 "ad_client_id":0,
 "ad_org_id":0,
 "ad_reference_id":10,
 "ad_reference_value_id":null,
 "created":"2008-03-26T13:20:00.975",
 "createdby":0,
 "description":null,
 "entitytype":"Web POS",
 "fieldlength":240,
 "help":null,
 "isactive":"Y",
 "name":"Key",
 "po_description":null,
 "po_help":null,
 "po_name":null,
 "po_printname":null,
 "printname":"Key",
 "updated":"2008-01-15T00:39:35",
 "updatedby":100}, "children" : []},
 {"tablename" : "ad_element", "data" : {"ad_element_id":52006,
 "columnname":"U_Value",
 "ad_client_id":0,
 "ad_org_id":0,
 "ad_reference_id":10,
 "ad_reference_value_id":null,
 "created":"2008-03-26T13:20:01.005",
 "createdby":0,
 "description":null,
 "entitytype":"Web POS",
 "fieldlength":240,
 "help":null,
 "isactive":"Y",
 "name":"Value",
 "po_description":null,
 "po_help":null,
 "po_name":null,
 "po_printname":null,
 "printname":"Value",
 "updated":"2008-01-15T00:39:47",
 "updatedby":100}, "children" : []},
 {"tablename" : "ad_element", "data" : {"ad_element_id":52007,
 "columnname":"U_RoleMenu_ID",
 "ad_client_id":0,
 "ad_org_id":0,
 "ad_reference_id":13,
 "ad_reference_value_id":null,
 "created":"2008-03-26T13:20:01.007",
 "createdby":0,
 "description":null,
 "entitytype":"Web POS",
 "fieldlength":22,
 "help":null,
 "isactive":"Y",
 "name":"Role Menu",
 "po_description":null,
 "po_help":null,
 "po_name":null,
 "po_printname":null,
 "printname":"Role Menu",
 "updated":"2008-01-15T00:36:49",
 "updatedby":100}, "children" : []},
 {"tablename" : "ad_element", "data" : {"ad_element_id":52008,
 "columnname":"U_WebMenu_ID",
 "ad_client_id":0,
 "ad_org_id":0,
 "ad_reference_id":19,
 "ad_reference_value_id":null,
 "created":"2008-03-26T13:20:01.027",
 "createdby":0,
 "description":null,
 "entitytype":"Web POS",
 "fieldlength":10,
 "help":null,
 "isactive":"Y",
 "name":"Web Menu",
 "po_description":null,
 "po_help":null,
 "po_name":null,
 "po_printname":null,
 "printname":"Web Menu",
 "updated":"2008-01-15T00:37:16",
 "updatedby":100}, "children" : []},
 {"tablename" : "ad_element", "data" : {"ad_element_id":52009,
 "columnname":"MenuLink",
 "ad_client_id":0,
 "ad_org_id":0,
 "ad_reference_id":10,
 "ad_reference_value_id":null,
 "created":"2008-03-26T13:20:01.03",
 "createdby":0,
 "description":null,
 "entitytype":"Web POS",
 "fieldlength":510,
 "help":null,
 "isactive":"Y",
 "name":"Menu Link",
 "po_description":null,
 "po_help":null,
 "po_name":null,
 "po_printname":null,
 "printname":"Menu Link",
 "updated":"2008-01-15T00:38:34",
 "updatedby":100}, "children" : []},
 {"tablename" : "ad_element", "data" : {"ad_element_id":52010,
 "columnname":"Module",
 "ad_client_id":0,
 "ad_org_id":0,
 "ad_reference_id":10,
 "ad_reference_value_id":null,
 "created":"2008-03-26T13:20:01.032",
 "createdby":0,
 "description":null,
 "entitytype":"Web POS",
 "fieldlength":120,
 "help":null,
 "isactive":"Y",
 "name":"Module",
 "po_description":null,
 "po_help":null,
 "po_name":null,
 "po_printname":null,
 "printname":"Module",
 "updated":"2008-03-26T13:20:01.032",
 "updatedby":0}, "children" : []},
 {"tablename" : "ad_element", "data" : {"ad_element_id":52011,
 "columnname":"ParentMenu_ID",
 "ad_client_id":0,
 "ad_org_id":0,
 "ad_reference_id":18,
 "ad_reference_value_id":52000,
 "created":"2008-03-26T13:20:01.034",
 "createdby":0,
 "description":null,
 "entitytype":"Web POS",
 "fieldlength":10,
 "help":null,
 "isactive":"Y",
 "name":"Parent Menu",
 "po_description":null,
 "po_help":null,
 "po_name":null,
 "po_printname":null,
 "printname":"Parent Menu",
 "updated":"2008-01-15T00:37:45",
 "updatedby":100}, "children" : []},
 {"tablename" : "ad_element", "data" : {"ad_element_id":52012,
 "columnname":"HasSubMenu",
 "ad_client_id":0,
 "ad_org_id":0,
 "ad_reference_id":20,
 "ad_reference_value_id":null,
 "created":"2008-03-26T13:20:01.037",
 "createdby":0,
 "description":null,
 "entitytype":"Web POS",
 "fieldlength":1,
 "help":null,
 "isactive":"Y",
 "name":"Has SubMenu",
 "po_description":null,
 "po_help":null,
 "po_name":null,
 "po_printname":null,
 "printname":"Has SubMenu",
 "updated":"2008-01-15T00:38:07",
 "updatedby":100}, "children" : []},
 {"tablename" : "ad_element", "data" : {"ad_element_id":52013,
 "columnname":"ImageLink",
 "ad_client_id":0,
 "ad_org_id":0,
 "ad_reference_id":10,
 "ad_reference_value_id":null,
 "created":"2008-03-26T13:20:01.04",
 "createdby":0,
 "description":null,
 "entitytype":"Web POS",
 "fieldlength":510,
 "help":null,
 "isactive":"Y",
 "name":"Image Link",
 "po_description":null,
 "po_help":null,
 "po_name":null,
 "po_printname":null,
 "printname":"Image Link",
 "updated":"2008-01-15T00:38:24",
 "updatedby":100}, "children" : []},
 {"tablename" : "ad_element", "data" : {"ad_element_id":52014,
 "columnname":"Position",
 "ad_client_id":0,
 "ad_org_id":0,
 "ad_reference_id":10,
 "ad_reference_value_id":null,
 "created":"2008-03-26T13:20:01.042",
 "createdby":0,
 "description":null,
 "entitytype":"Web POS",
 "fieldlength":10,
 "help":null,
 "isactive":"Y",
 "name":"Position",
 "po_description":null,
 "po_help":null,
 "po_name":null,
 "po_printname":null,
 "printname":"Position",
 "updated":"2008-03-26T13:20:01.042",
 "updatedby":0}, "children" : []},
 {"tablename" : "ad_element", "data" : {"ad_element_id":52016,
 "columnname":"Sequence",
 "ad_client_id":0,
 "ad_org_id":0,
 "ad_reference_id":22,
 "ad_reference_value_id":null,
 "created":"2008-03-26T13:20:01.05",
 "createdby":0,
 "description":null,
 "entitytype":"Web POS",
 "fieldlength":22,
 "help":null,
 "isactive":"Y",
 "name":"Sequence",
 "po_description":null,
 "po_help":null,
 "po_name":null,
 "po_printname":null,
 "printname":"Sequence",
 "updated":"2008-03-26T13:20:01.05",
 "updatedby":0}, "children" : []},
 {"tablename" : "ad_element", "data" : {"ad_element_id":52017,
 "columnname":"Category",
 "ad_client_id":0,
 "ad_org_id":0,
 "ad_reference_id":10,
 "ad_reference_value_id":null,
 "created":"2008-03-26T13:20:01.052",
 "createdby":0,
 "description":null,
 "entitytype":"Web POS",
 "fieldlength":120,
 "help":null,
 "isactive":"Y",
 "name":"Category",
 "po_description":null,
 "po_help":null,
 "po_name":null,
 "po_printname":null,
 "printname":"Category",
 "updated":"2008-03-26T13:20:01.052",
 "updatedby":0}, "children" : []},
 {"tablename" : "ad_element", "data" : {"ad_element_id":52030,
 "columnname":"AutoLock",
 "ad_client_id":0,
 "ad_org_id":0,
 "ad_reference_id":20,
 "ad_reference_value_id":null,
 "created":"2008-06-02T00:00:00",
 "createdby":100,
 "description":"Whether to automatically lock the terminal when till is closed",
 "entitytype":"Web POS",
 "fieldlength":1,
 "help":null,
 "isactive":"Y",
 "name":"Auto Lock",
 "po_description":null,
 "po_help":null,
 "po_name":null,
 "po_printname":null,
 "printname":"Auto Lock",
 "updated":"2008-06-02T00:00:00",
 "updatedby":100}, "children" : []},
 {"tablename" : "ad_element", "data" : {"ad_element_id":52031,
 "columnname":"CashBookTransferType",
 "ad_client_id":0,
 "ad_org_id":0,
 "ad_reference_id":17,
 "ad_reference_value_id":52002,
 "created":"2008-06-02T00:00:00",
 "createdby":100,
 "description":"Where the money in the cash book should be transfered to. Either a Bank Account or another Cash Book",
 "entitytype":"Web POS",
 "fieldlength":1,
 "help":null,
 "isactive":"Y",
 "name":"Cash Book Transfer Type",
 "po_description":null,
 "po_help":null,
 "po_name":null,
 "po_printname":null,
 "printname":"Cash Book Transfer Type",
 "updated":"2008-06-02T00:00:00",
 "updatedby":100}, "children" : []},
 {"tablename" : "ad_element", "data" : {"ad_element_id":52033,
 "columnname":"CashTransferCashBook_ID",
 "ad_client_id":0,
 "ad_org_id":0,
 "ad_reference_id":18,
 "ad_reference_value_id":52004,
 "created":"2008-06-02T00:00:00",
 "createdby":100,
 "description":"Cash Book on which to transfer all Cash transactions",
 "entitytype":"Web POS",
 "fieldlength":22,
 "help":null,
 "isactive":"Y",
 "name":"Transfer Cash trx to",
 "po_description":null,
 "po_help":null,
 "po_name":null,
 "po_printname":null,
 "printname":"Transfer Cash trx to",
 "updated":"2008-06-02T00:00:00",
 "updatedby":100}, "children" : []},
 {"tablename" : "ad_element", "data" : {"ad_element_id":52034,
 "columnname":"C_CashBPartner_ID",
 "ad_client_id":0,
 "ad_org_id":0,
 "ad_reference_id":18,
 "ad_reference_value_id":173,
 "created":"2008-06-02T00:00:00",
 "createdby":100,
 "description":"BPartner to be used for Cash transactions",
 "entitytype":"Web POS",
 "fieldlength":22,
 "help":null,
 "isactive":"Y",
 "name":"Cash BPartner",
 "po_description":null,
 "po_help":null,
 "po_name":null,
 "po_printname":null,
 "printname":"Cash BPartner",
 "updated":"2008-06-02T00:00:00",
 "updatedby":100}, "children" : []},
 {"tablename" : "ad_element", "data" : {"ad_element_id":52035,
 "columnname":"Check_BankAccount_ID",
 "ad_client_id":0,
 "ad_org_id":0,
 "ad_reference_id":18,
 "ad_reference_value_id":53283,
 "created":"2008-06-02T00:00:00",
 "createdby":100,
 "description":"Bank Account to be used for processing Cheque transactions",
 "entitytype":"Web POS",
 "fieldlength":22,
 "help":null,
 "isactive":"Y",
 "name":"Cheque Bank Account",
 "po_description":null,
 "po_help":null,
 "po_name":null,
 "po_printname":null,
 "printname":"Cheque Bank Account",
 "updated":"2016-04-11T16:07:03",
 "updatedby":0}, "children" : []},
 {"tablename" : "ad_element", "data" : {"ad_element_id":52036,
 "columnname":"CheckTransferBankAccount_ID",
 "ad_client_id":0,
 "ad_org_id":0,
 "ad_reference_id":18,
 "ad_reference_value_id":53283,
 "created":"2008-06-02T00:00:00",
 "createdby":100,
 "description":"Bank account on which to transfer Cheque transactions",
 "entitytype":"Web POS",
 "fieldlength":22,
 "help":null,
 "isactive":"Y",
 "name":"Tranfer Cheque trx to",
 "po_description":null,
 "po_help":null,
 "po_name":null,
 "po_printname":null,
 "printname":"Transfer Cheque trx to",
 "updated":"2016-04-11T16:07:03",
 "updatedby":0}, "children" : []},
 {"tablename" : "ad_element", "data" : {"ad_element_id":52037,
 "columnname":"CheckTransferType",
 "ad_client_id":0,
 "ad_org_id":0,
 "ad_reference_id":17,
 "ad_reference_value_id":52002,
 "created":"2008-06-02T00:00:00",
 "createdby":100,
 "description":null,
 "entitytype":"Web POS",
 "fieldlength":1,
 "help":null,
 "isactive":"Y",
 "name":"Cheque Transfer Type",
 "po_description":null,
 "po_help":null,
 "po_name":null,
 "po_printname":null,
 "printname":"Cheque Transfer Type",
 "updated":"2016-04-11T16:07:04",
 "updatedby":0}, "children" : []},
 {"tablename" : "ad_element", "data" : {"ad_element_id":52038,
 "columnname":"Card_BankAccount_ID",
 "ad_client_id":0,
 "ad_org_id":0,
 "ad_reference_id":18,
 "ad_reference_value_id":53283,
 "created":"2008-06-02T00:00:00",
 "createdby":100,
 "description":"Bank Account on which card transactions will be processed",
 "entitytype":"Web POS",
 "fieldlength":22,
 "help":null,
 "isactive":"Y",
 "name":"Card Bank Account",
 "po_description":null,
 "po_help":null,
 "po_name":null,
 "po_printname":null,
 "printname":"Card Bank Account",
 "updated":"2008-06-02T00:00:00",
 "updatedby":100}, "children" : []},
 {"tablename" : "ad_element", "data" : {"ad_element_id":52039,
 "columnname":"CardTransferBankAccount_ID",
 "ad_client_id":0,
 "ad_org_id":0,
 "ad_reference_id":18,
 "ad_reference_value_id":53283,
 "created":"2008-06-02T00:00:00",
 "createdby":100,
 "description":"Bank account on which to transfer Card transactions",
 "entitytype":"Web POS",
 "fieldlength":22,
 "help":null,
 "isactive":"Y",
 "name":"Transfer Card trx to",
 "po_description":null,
 "po_help":null,
 "po_name":null,
 "po_printname":null,
 "printname":"Transfer Card trx to",
 "updated":"2008-06-02T00:00:00",
 "updatedby":100}, "children" : []},
 {"tablename" : "ad_element", "data" : {"ad_element_id":52040,
 "columnname":"CardTransferCashBook_ID",
 "ad_client_id":0,
 "ad_org_id":0,
 "ad_reference_id":18,
 "ad_reference_value_id":52004,
 "created":"2008-06-02T00:00:00",
 "createdby":100,
 "description":"Cash Book on which to transfer all Card transactions",
 "entitytype":"Web POS",
 "fieldlength":22,
 "help":null,
 "isactive":"Y",
 "name":"Transfer Card trx to",
 "po_description":null,
 "po_help":null,
 "po_name":null,
 "po_printname":null,
 "printname":"Transfer Card trx to",
 "updated":"2008-06-02T00:00:00",
 "updatedby":100}, "children" : []},
 {"tablename" : "ad_element", "data" : {"ad_element_id":52041,
 "columnname":"CardTransferType",
 "ad_client_id":0,
 "ad_org_id":0,
 "ad_reference_id":17,
 "ad_reference_value_id":52002,
 "created":"2008-06-02T00:00:00",
 "createdby":100,
 "description":null,
 "entitytype":"Web POS",
 "fieldlength":1,
 "help":null,
 "isactive":"Y",
 "name":"Card Transfer Type",
 "po_description":null,
 "po_help":null,
 "po_name":null,
 "po_printname":null,
 "printname":"Card Transfer Type",
 "updated":"2008-06-02T00:00:00",
 "updatedby":100}, "children" : []},
 {"tablename" : "ad_element", "data" : {"ad_element_id":52042,
 "columnname":"C_TemplateBPartner_ID",
 "ad_client_id":0,
 "ad_org_id":0,
 "ad_reference_id":18,
 "ad_reference_value_id":173,
 "created":"2008-06-02T00:00:00",
 "createdby":100,
 "description":"BPartner that is to be used as template when new customers are created",
 "entitytype":"Web POS",
 "fieldlength":22,
 "help":null,
 "isactive":"Y",
 "name":"Template BPartner",
 "po_description":null,
 "po_help":null,
 "po_name":null,
 "po_printname":null,
 "printname":"Template BPartner",
 "updated":"2008-06-02T00:00:00",
 "updatedby":100}, "children" : []},
 {"tablename" : "ad_element", "data" : {"ad_element_id":52043,
 "columnname":"LastLockTime",
 "ad_client_id":0,
 "ad_org_id":0,
 "ad_reference_id":16,
 "ad_reference_value_id":null,
 "created":"2008-06-02T00:00:00",
 "createdby":100,
 "description":"Last time at which the terminal was locked",
 "entitytype":"Web POS",
 "fieldlength":7,
 "help":null,
 "isactive":"Y",
 "name":"Last Lock Time",
 "po_description":null,
 "po_help":null,
 "po_name":null,
 "po_printname":null,
 "printname":"Last Lock Time",
 "updated":"2008-06-02T00:00:00",
 "updatedby":100}, "children" : []},
 {"tablename" : "ad_element", "data" : {"ad_element_id":52044,
 "columnname":"Locked",
 "ad_client_id":0,
 "ad_org_id":0,
 "ad_reference_id":20,
 "ad_reference_value_id":null,
 "created":"2008-06-02T00:00:00",
 "createdby":100,
 "description":"Whether the terminal is locked",
 "entitytype":"Web POS",
 "fieldlength":1,
 "help":null,
 "isactive":"Y",
 "name":"Locked",
 "po_description":null,
 "po_help":null,
 "po_name":null,
 "po_printname":null,
 "printname":"Locked",
 "updated":"2008-06-02T00:00:00",
 "updatedby":100}, "children" : []},
 {"tablename" : "ad_element", "data" : {"ad_element_id":52045,
 "columnname":"LockTime",
 "ad_client_id":0,
 "ad_org_id":0,
 "ad_reference_id":11,
 "ad_reference_value_id":null,
 "created":"2008-06-02T00:00:00",
 "createdby":100,
 "description":"Time in minutes the terminal should be kept in a locked state.",
 "entitytype":"Web POS",
 "fieldlength":10,
 "help":null,
 "isactive":"Y",
 "name":"Lock Time",
 "po_description":null,
 "po_help":null,
 "po_name":null,
 "po_printname":null,
 "printname":"Lock Time",
 "updated":"2008-06-02T00:00:00",
 "updatedby":100}, "children" : []},
 {"tablename" : "ad_element", "data" : {"ad_element_id":52046,
 "columnname":"SO_PriceList_ID",
 "ad_client_id":0,
 "ad_org_id":0,
 "ad_reference_id":18,
 "ad_reference_value_id":166,
 "created":"2008-06-02T00:00:00",
 "createdby":100,
 "description":null,
 "entitytype":"Web POS",
 "fieldlength":22,
 "help":null,
 "isactive":"Y",
 "name":"Sales Pricelist",
 "po_description":null,
 "po_help":null,
 "po_name":null,
 "po_printname":null,
 "printname":"Sales Pricelist",
 "updated":"2008-06-02T00:00:00",
 "updatedby":100}, "children" : []},
 {"tablename" : "ad_element", "data" : {"ad_element_id":52047,
 "columnname":"UnlockingTime",
 "ad_client_id":0,
 "ad_org_id":0,
 "ad_reference_id":16,
 "ad_reference_value_id":null,
 "created":"2008-06-02T00:00:00",
 "createdby":100,
 "description":"Time at which the terminal should be unlocked",
 "entitytype":"Web POS",
 "fieldlength":7,
 "help":null,
 "isactive":"Y",
 "name":"UnlockingTime",
 "po_description":null,
 "po_help":null,
 "po_name":null,
 "po_printname":null,
 "printname":"UnlockingTime",
 "updated":"2008-06-02T00:00:00",
 "updatedby":100}, "children" : []},
 {"tablename" : "ad_element", "data" : {"ad_element_id":52049,
 "columnname":"CheckTransferCashBook_ID",
 "ad_client_id":0,
 "ad_org_id":0,
 "ad_reference_id":18,
 "ad_reference_value_id":52004,
 "created":"2008-06-02T00:00:00",
 "createdby":100,
 "description":"Cash Book on which to transfer all Cheque transactions",
 "entitytype":"Web POS",
 "fieldlength":22,
 "help":null,
 "isactive":"Y",
 "name":"Transfer Cheque trx to",
 "po_description":null,
 "po_help":null,
 "po_name":null,
 "po_printname":null,
 "printname":"Transfer Cheque trx to",
 "updated":"2016-04-11T16:07:03",
 "updatedby":0}, "children" : []}]