[{"tablename" : "ad_alertprocessor", "data" : {"ad_alertprocessor_id":100,
 "name":"System Alert Processor",
 "ad_client_id":0,
 "ad_org_id":0,
 "created":"2004-03-06T00:29:25",
 "createdby":0,
 "datelastrun":"2019-03-06T02:15:35",
 "datenextrun":"2019-03-07T02:15:35",
 "description":null,
 "frequency":1,
 "frequencytype":"D",
 "isactive":"Y",
 "keeplogdays":7,
 "processing":"N",
 "supervisor_id":0,
 "updated":"2019-03-06T02:15:35",
 "updatedby":0}, "children" : []}]