[{"tablename" : "ad_alertrecipient", "data" : {"ad_alertrecipient_id":100,
 "ad_user_id":null,
 "ad_alert_id":100,
 "ad_client_id":0,
 "ad_org_id":0,
 "ad_role_id":0,
 "created":"2004-09-04T00:40:35",
 "createdby":0,
 "isactive":"Y",
 "updated":"2000-01-02T00:00:00",
 "updatedby":0}, "children" : []}]