[{"tablename" : "ad_client", "data" : {"ad_client_id":0,
 "name":"System",
 "ad_language":"en_US",
 "ad_org_id":0,
 "autoarchive":"N",
 "created":"2006-08-10T20:22:41",
 "createdby":0,
 "description":"System Client",
 "dmshost":null,
 "dmspassword":null,
 "dmsport":null,
 "dmsuser":null,
 "dmsworkspace":null,
 "documentdir":null,
 "emailtest":null,
 "isactive":"Y",
 "iscostimmediate":"N",
 "iserrorshowdialog":"N",
 "ismultilingualdocument":"Y",
 "ispostimmediate":"N",
 "isserveremail":"N",
 "issmtpauthorization":"N",
 "issmtptls":"N",
 "isusebetafunctions":"Y",
 "iswarningshowdialog":"N",
 "mmpolicy":"F",
 "modelvalidationclasses":null,
 "postautoconsolelims":"N",
 "requestemail":"you @ company.org",
 "requestfolder":"request",
 "requestuser":"you",
 "requestuserpw":"yourpwd",
 "smtphost":null,
 "smtpport":null,
 "storagearchive":"0",
 "storageattachment":"0",
 "storageimage":null,
 "storearchiveonfilesystem":"N",
 "storeattachmentsonfilesystem":"N",
 "unixarchivepath":null,
 "unixattachmentpath":null,
 "updated":"2009-09-11T00:47:04",
 "updatedby":100,
 "value":"SYSTEM",
 "windowsarchivepath":null,
 "windowsattachmentpath":null}, "children" : []}]