[{"tablename" : "ad_chart", "data" : {"ad_chart_id":50000,
 "name":"My Sales Pipeline",
 "ad_client_id":0,
 "ad_org_id":0,
 "chartbetweenbar":null,
 "chartbetweencategory":null,
 "chartbgcolor":null,
 "chartgridcolor":null,
 "chartleftmargin":null,
 "chartorientation":"V",
 "chartrightmargin":null,
 "charttype":"BS",
 "created":"2011-09-02T12:16:26",
 "createdby":100,
 "description":null,
 "domainlabel":"Sales Stage",
 "isactive":"Y",
 "isdisplaylegend":"Y",
 "istimeseries":"N",
 "rangelabel":"Value",
 "timescope":0,
 "timeunit":null,
 "updated":"2012-06-08T15:16:37",
 "updatedby":0,
 "winheight":300}, "children" : [{"tablename" : "ad_chartdatasource", "data" : {"ad_chartdatasource_id":50000,
 "name":"Total",
 "ad_chart_id":50000,
 "ad_client_id":0,
 "ad_color_id":null,
 "ad_org_id":0,
 "ad_table_id":53337,
 "categorycolumn":"s.Value || '. ' || s.Name",
 "created":"2011-09-02T12:19:44",
 "createdby":100,
 "datecolumn":null,
 "description":null,
 "entitytype":"D",
 "fromclause":"C_Opportunity o\nINNER JOIN C_SalesStage s ON (s.C_SalesStage_ID=o.C_SalesStage_ID)",
 "isactive":"Y",
 "keycolumn":"C_Opportunity_ID",
 "seqno":10,
 "seriescolumn":null,
 "timeoffset":0,
 "updated":"2012-06-08T15:16:37",
 "updatedby":0,
 "valuecolumn":"sum(o.OpportunityAmt)",
 "whereclause":"o.IsActive='Y' AND s.IsClosed='N' and o.SalesRep_ID=@#AD_User_ID@"}, "children" : []},{"tablename" : "ad_chartdatasource", "data" : {"ad_chartdatasource_id":50002,
 "name":"Expected",
 "ad_chart_id":50000,
 "ad_client_id":0,
 "ad_color_id":null,
 "ad_org_id":0,
 "ad_table_id":53337,
 "categorycolumn":"s.Value || '. ' || s.Name",
 "created":"2011-11-03T18:00:24",
 "createdby":100,
 "datecolumn":null,
 "description":null,
 "entitytype":"D",
 "fromclause":"C_Opportunity o\nINNER JOIN C_SalesStage s ON (s.C_SalesStage_ID=o.C_SalesStage_ID)",
 "isactive":"Y",
 "keycolumn":"C_Opportunity_ID",
 "seqno":10,
 "seriescolumn":null,
 "timeoffset":0,
 "updated":"2012-06-08T15:16:37",
 "updatedby":0,
 "valuecolumn":"sum(o.OpportunityAmt * o.Probability/100)",
 "whereclause":"o.IsActive='Y' AND s.IsClosed='N' and o.SalesRep_ID=@#AD_User_ID@"}, "children" : []}]},
 {"tablename" : "ad_chart", "data" : {"ad_chart_id":50001,
 "name":"My Opportunities by Campaign",
 "ad_client_id":0,
 "ad_org_id":0,
 "chartbetweenbar":null,
 "chartbetweencategory":null,
 "chartbgcolor":null,
 "chartgridcolor":null,
 "chartleftmargin":null,
 "chartorientation":"H",
 "chartrightmargin":null,
 "charttype":"P3",
 "created":"2011-09-02T17:01:39",
 "createdby":100,
 "description":null,
 "domainlabel":"Opportunity",
 "isactive":"Y",
 "isdisplaylegend":"Y",
 "istimeseries":"N",
 "rangelabel":"Campaign",
 "timescope":0,
 "timeunit":null,
 "updated":"2012-06-08T15:16:37",
 "updatedby":0,
 "winheight":300}, "children" : [{"tablename" : "ad_chartdatasource", "data" : {"ad_chartdatasource_id":50001,
 "name":"Opportunity",
 "ad_chart_id":50001,
 "ad_client_id":0,
 "ad_color_id":null,
 "ad_org_id":0,
 "ad_table_id":274,
 "categorycolumn":"c.Name",
 "created":"2011-09-02T17:04:51",
 "createdby":100,
 "datecolumn":null,
 "description":null,
 "entitytype":"D",
 "fromclause":"C_Opportunity o\nINNER JOIN C_SalesStage s ON (s.C_SalesStage_ID=o.C_SalesStage_ID)\nINNER JOIN C_Campaign c ON (o.C_Campaign_ID=c.C_Campaign_ID)",
 "isactive":"Y",
 "keycolumn":"o.C_Campaign_ID",
 "seqno":10,
 "seriescolumn":null,
 "timeoffset":0,
 "updated":"2012-06-08T15:16:37",
 "updatedby":0,
 "valuecolumn":"sum(o.OpportunityAmt)",
 "whereclause":"o.SalesRep_ID=@#AD_User_ID@ AND o.IsActive='Y' AND s.IsClosed='N' AND c.IsActive='Y'"}, "children" : []}]},
 {"tablename" : "ad_chart", "data" : {"ad_chart_id":50002,
 "name":"Sales YTD",
 "ad_client_id":0,
 "ad_org_id":0,
 "chartbetweenbar":null,
 "chartbetweencategory":null,
 "chartbgcolor":null,
 "chartgridcolor":null,
 "chartleftmargin":null,
 "chartorientation":"V",
 "chartrightmargin":null,
 "charttype":"LC",
 "created":"2011-11-03T18:13:39",
 "createdby":100,
 "description":null,
 "domainlabel":"Month",
 "isactive":"Y",
 "isdisplaylegend":"N",
 "istimeseries":"Y",
 "rangelabel":"Value",
 "timescope":12,
 "timeunit":"M",
 "updated":"2012-06-08T15:16:37",
 "updatedby":0,
 "winheight":300}, "children" : [{"tablename" : "ad_chartdatasource", "data" : {"ad_chartdatasource_id":50003,
 "name":"Current",
 "ad_chart_id":50002,
 "ad_client_id":0,
 "ad_color_id":null,
 "ad_org_id":0,
 "ad_table_id":259,
 "categorycolumn":null,
 "created":"2011-11-03T18:16:16",
 "createdby":100,
 "datecolumn":"o.DateOrdered",
 "description":null,
 "entitytype":"D",
 "fromclause":"C_Order o",
 "isactive":"Y",
 "keycolumn":"o.C_Order_ID",
 "seqno":10,
 "seriescolumn":null,
 "timeoffset":0,
 "updated":"2012-06-08T15:16:37",
 "updatedby":0,
 "valuecolumn":"sum(o.GrandTotal)",
 "whereclause":"o.DocStatus IN ('CO','CL') AND o.AD_Client_ID=@#AD_Client_ID@ AND o.IsSOTrx='Y'"}, "children" : []},{"tablename" : "ad_chartdatasource", "data" : {"ad_chartdatasource_id":50004,
 "name":"Previous",
 "ad_chart_id":50002,
 "ad_client_id":0,
 "ad_color_id":null,
 "ad_org_id":0,
 "ad_table_id":259,
 "categorycolumn":null,
 "created":"2011-11-03T18:26:37",
 "createdby":100,
 "datecolumn":"o.DateOrdered",
 "description":null,
 "entitytype":"D",
 "fromclause":"C_Order o",
 "isactive":"N",
 "keycolumn":"o.C_Order_ID",
 "seqno":10,
 "seriescolumn":null,
 "timeoffset":-12,
 "updated":"2012-06-08T15:16:37",
 "updatedby":0,
 "valuecolumn":"sum(o.GrandTotal)",
 "whereclause":"o.DocStatus IN ('CO','CL') AND o.AD_Client_ID=@#AD_Client_ID@ AND o.IsSOTrx='Y'"}, "children" : []}]},
 {"tablename" : "ad_chart", "data" : {"ad_chart_id":50003,
 "name":"My Open Requests",
 "ad_client_id":0,
 "ad_org_id":0,
 "chartbetweenbar":null,
 "chartbetweencategory":null,
 "chartbgcolor":null,
 "chartgridcolor":null,
 "chartleftmargin":null,
 "chartorientation":"V",
 "chartrightmargin":null,
 "charttype":"BS",
 "created":"2011-11-04T11:29:41",
 "createdby":100,
 "description":null,
 "domainlabel":null,
 "isactive":"Y",
 "isdisplaylegend":"Y",
 "istimeseries":"N",
 "rangelabel":null,
 "timescope":0,
 "timeunit":null,
 "updated":"2011-11-04T11:29:41",
 "updatedby":100,
 "winheight":300}, "children" : [{"tablename" : "ad_chartdatasource", "data" : {"ad_chartdatasource_id":50005,
 "name":"Number of Requests",
 "ad_chart_id":50003,
 "ad_client_id":0,
 "ad_color_id":null,
 "ad_org_id":0,
 "ad_table_id":417,
 "categorycolumn":"rt.Name",
 "created":"2011-11-04T11:37:05",
 "createdby":100,
 "datecolumn":null,
 "description":null,
 "entitytype":"D",
 "fromclause":"R_Request r\nINNER JOIN R_RequestType rt ON (rt.R_RequestType_ID=r.R_RequestType_ID)\nINNER JOIN R_Status rs ON (r.R_Status_ID=rs.R_Status_ID)\nINNER JOIN AD_Ref_List l ON (l.AD_Reference_ID=154 AND l.Value=r.Priority)",
 "isactive":"Y",
 "keycolumn":"r.R_Request_ID",
 "seqno":10,
 "seriescolumn":"(l.Value || ' ' || l.Name)",
 "timeoffset":0,
 "updated":"2012-06-08T15:16:56",
 "updatedby":0,
 "valuecolumn":"count(r.R_Request_ID)",
 "whereclause":"r.IsActive = 'Y' AND r.SalesRep_ID=@#AD_User_ID@ AND rs.IsOpen='Y'"}, "children" : []}]},
 {"tablename" : "ad_chart", "data" : {"ad_chart_id":50004,
 "name":"Work Centre Capacity",
 "ad_client_id":0,
 "ad_org_id":0,
 "chartbetweenbar":null,
 "chartbetweencategory":null,
 "chartbgcolor":null,
 "chartgridcolor":null,
 "chartleftmargin":null,
 "chartorientation":"V",
 "chartrightmargin":null,
 "charttype":"BS",
 "created":"2016-05-16T16:55:03",
 "createdby":100,
 "description":null,
 "domainlabel":"Week",
 "isactive":"Y",
 "isdisplaylegend":"Y",
 "istimeseries":"N",
 "rangelabel":"Name",
 "timescope":12,
 "timeunit":"W",
 "updated":"2019-02-04T13:39:28",
 "updatedby":0,
 "winheight":350}, "children" : [{"tablename" : "ad_chartdatasource", "data" : {"ad_chartdatasource_id":50008,
 "name":"Firm Order",
 "ad_chart_id":50004,
 "ad_client_id":0,
 "ad_color_id":null,
 "ad_org_id":0,
 "ad_table_id":54226,
 "categorycolumn":"to_char(t.datestart, 'YYYY-MM-DD')",
 "created":"2016-05-16T16:56:39",
 "createdby":100,
 "datecolumn":"t.datestart",
 "description":null,
 "entitytype":"D",
 "fromclause":"t_mrp_run_capacity_summary t",
 "isactive":"Y",
 "keycolumn":"t_mrp_run_capacity_summary_id",
 "seqno":10,
 "seriescolumn":null,
 "timeoffset":0,
 "updated":"2019-02-04T13:39:28",
 "updatedby":0,
 "valuecolumn":"SUM(t.confirmedqty) as  FirmOrder",
 "whereclause":"t.m_product_id = 0 and t.m_workcentre_id = @M_WorkCentre_ID@ AND t.mrp_run_id=@MRP_Run_ID@ "}, "children" : []},{"tablename" : "ad_chartdatasource", "data" : {"ad_chartdatasource_id":50009,
 "name":"Planned Order",
 "ad_chart_id":50004,
 "ad_client_id":0,
 "ad_color_id":null,
 "ad_org_id":0,
 "ad_table_id":54226,
 "categorycolumn":"to_char(t.datestart, 'YYYY-MM-DD')",
 "created":"2016-05-16T16:57:03",
 "createdby":100,
 "datecolumn":"t.datestart",
 "description":null,
 "entitytype":"D",
 "fromclause":"t_mrp_run_capacity_summary t",
 "isactive":"Y",
 "keycolumn":"t_mrp_run_capacity_summary_id",
 "seqno":10,
 "seriescolumn":null,
 "timeoffset":0,
 "updated":"2019-02-04T13:39:28",
 "updatedby":0,
 "valuecolumn":"SUM(t.suggestedqty) as PlannedOrder",
 "whereclause":"t.m_product_id = 0 and t.m_workcentre_id = @M_WorkCentre_ID@ AND t.mrp_run_id=@MRP_Run_ID@ "}, "children" : []},{"tablename" : "ad_chartdatasource", "data" : {"ad_chartdatasource_id":50010,
 "name":"Surplus (+) / Shortage (-)",
 "ad_chart_id":50004,
 "ad_client_id":0,
 "ad_color_id":null,
 "ad_org_id":0,
 "ad_table_id":54226,
 "categorycolumn":"to_char(t.datestart, 'YYYY-MM-DD')",
 "created":"2016-05-16T16:57:20",
 "createdby":100,
 "datecolumn":"t.datestart",
 "description":null,
 "entitytype":"D",
 "fromclause":"t_mrp_run_capacity_summary t",
 "isactive":"Y",
 "keycolumn":"t_mrp_run_capacity_summary_id",
 "seqno":10,
 "seriescolumn":null,
 "timeoffset":0,
 "updated":"2019-02-04T13:39:28",
 "updatedby":0,
 "valuecolumn":"SUM(t.surplusshortageqty) as surplus",
 "whereclause":"t.m_product_id = 0 and t.m_workcentre_id = @M_WorkCentre_ID@ AND t.mrp_run_id=@MRP_Run_ID@ "}, "children" : []}]},
 {"tablename" : "ad_chart", "data" : {"ad_chart_id":50005,
 "name":"Work Centre Cumulated Capacity",
 "ad_client_id":0,
 "ad_org_id":0,
 "chartbetweenbar":null,
 "chartbetweencategory":null,
 "chartbgcolor":null,
 "chartgridcolor":null,
 "chartleftmargin":null,
 "chartorientation":"V",
 "chartrightmargin":null,
 "charttype":"BS",
 "created":"2017-03-15T16:47:44",
 "createdby":100,
 "description":null,
 "domainlabel":"Week",
 "isactive":"Y",
 "isdisplaylegend":"Y",
 "istimeseries":"N",
 "rangelabel":"Name",
 "timescope":12,
 "timeunit":"W",
 "updated":"2019-02-04T13:39:28",
 "updatedby":0,
 "winheight":350}, "children" : [{"tablename" : "ad_chartdatasource", "data" : {"ad_chartdatasource_id":50011,
 "name":"Firm Order",
 "ad_chart_id":50005,
 "ad_client_id":0,
 "ad_color_id":null,
 "ad_org_id":0,
 "ad_table_id":54226,
 "categorycolumn":"to_char(t.datestart, 'YYYY-MM-DD')",
 "created":"2017-03-15T16:49:05",
 "createdby":100,
 "datecolumn":"t.datestart",
 "description":null,
 "entitytype":"D",
 "fromclause":"t_mrp_run_capacity_summary t",
 "isactive":"Y",
 "keycolumn":"t_mrp_run_capacity_summary_id",
 "seqno":10,
 "seriescolumn":null,
 "timeoffset":0,
 "updated":"2019-02-04T13:39:28",
 "updatedby":0,
 "valuecolumn":"SUM(t.confirmedqty) as  FirmOrder",
 "whereclause":"t.m_product_id = 0 and t.m_workcentre_id = @M_WorkCentre_ID@ AND t.mrp_run_id=@MRP_Run_ID@"}, "children" : []},{"tablename" : "ad_chartdatasource", "data" : {"ad_chartdatasource_id":50012,
 "name":"Planned Order",
 "ad_chart_id":50005,
 "ad_client_id":0,
 "ad_color_id":null,
 "ad_org_id":0,
 "ad_table_id":54226,
 "categorycolumn":"to_char(t.datestart, 'YYYY-MM-DD')",
 "created":"2017-03-15T16:55:52",
 "createdby":100,
 "datecolumn":"t.datestart",
 "description":null,
 "entitytype":"D",
 "fromclause":"t_mrp_run_capacity_summary t",
 "isactive":"Y",
 "keycolumn":"t_mrp_run_capacity_summary_id",
 "seqno":10,
 "seriescolumn":null,
 "timeoffset":0,
 "updated":"2019-02-04T13:39:29",
 "updatedby":0,
 "valuecolumn":"SUM(t.suggestedqty)  as PlannedOrder",
 "whereclause":"t.m_product_id = 0 and t.m_workcentre_id = @M_WorkCentre_ID@ AND t.mrp_run_id=@MRP_Run_ID@ "}, "children" : []},{"tablename" : "ad_chartdatasource", "data" : {"ad_chartdatasource_id":50013,
 "name":"Cumulated Capacity",
 "ad_chart_id":50005,
 "ad_client_id":0,
 "ad_color_id":null,
 "ad_org_id":0,
 "ad_table_id":54226,
 "categorycolumn":"to_char(t.datestart, 'YYYY-MM-DD')",
 "created":"2017-03-15T17:01:11",
 "createdby":100,
 "datecolumn":"t.datestart",
 "description":null,
 "entitytype":"D",
 "fromclause":"t_mrp_run_capacity_summary t",
 "isactive":"Y",
 "keycolumn":"t_mrp_run_capacity_summary_id",
 "seqno":10,
 "seriescolumn":null,
 "timeoffset":0,
 "updated":"2019-02-04T13:39:29",
 "updatedby":0,
 "valuecolumn":"SUM(t.cumulatedcapacity) as CumCap",
 "whereclause":"t.m_product_id = 0 and t.m_workcentre_id = @M_WorkCentre_ID@ AND t.mrp_run_id=@MRP_Run_ID@ "}, "children" : []}]}]