[{"tablename" : "ad_color", "data" : {"ad_color_id":1001,
 "name":"Black#000000",
 "ad_client_id":0,
 "ad_image_id":null,
 "ad_org_id":0,
 "alpha":254,
 "alpha_1":null,
 "blue":0,
 "blue_1":null,
 "colortype":"F",
 "created":"2014-01-01T00:00:00",
 "createdby":100,
 "green":0,
 "green_1":null,
 "imagealpha":0,
 "isactive":"Y",
 "isdefault":"N",
 "linedistance":null,
 "linewidth":null,
 "red":0,
 "red_1":null,
 "repeatdistance":null,
 "startpoint":null,
 "updated":"2014-01-01T00:00:00",
 "updatedby":100}, "children" : []},
 {"tablename" : "ad_color", "data" : {"ad_color_id":1002,
 "name":"White#FFFFFF",
 "ad_client_id":0,
 "ad_image_id":null,
 "ad_org_id":0,
 "alpha":254,
 "alpha_1":null,
 "blue":255,
 "blue_1":null,
 "colortype":"F",
 "created":"2014-01-01T00:00:00",
 "createdby":100,
 "green":255,
 "green_1":null,
 "imagealpha":0,
 "isactive":"Y",
 "isdefault":"N",
 "linedistance":null,
 "linewidth":null,
 "red":255,
 "red_1":null,
 "repeatdistance":null,
 "startpoint":null,
 "updated":"2014-01-01T00:00:00",
 "updatedby":100}, "children" : []},
 {"tablename" : "ad_color", "data" : {"ad_color_id":1003,
 "name":"Red#FF0000",
 "ad_client_id":0,
 "ad_image_id":null,
 "ad_org_id":0,
 "alpha":254,
 "alpha_1":null,
 "blue":0,
 "blue_1":null,
 "colortype":"F",
 "created":"2014-01-01T00:00:00",
 "createdby":100,
 "green":0,
 "green_1":null,
 "imagealpha":0,
 "isactive":"Y",
 "isdefault":"N",
 "linedistance":null,
 "linewidth":null,
 "red":255,
 "red_1":null,
 "repeatdistance":null,
 "startpoint":null,
 "updated":"2014-01-01T00:00:00",
 "updatedby":100}, "children" : []},
 {"tablename" : "ad_color", "data" : {"ad_color_id":1004,
 "name":"Green#00FF00",
 "ad_client_id":0,
 "ad_image_id":null,
 "ad_org_id":0,
 "alpha":254,
 "alpha_1":null,
 "blue":0,
 "blue_1":null,
 "colortype":"F",
 "created":"2014-01-01T00:00:00",
 "createdby":100,
 "green":255,
 "green_1":null,
 "imagealpha":0,
 "isactive":"Y",
 "isdefault":"N",
 "linedistance":null,
 "linewidth":null,
 "red":0,
 "red_1":null,
 "repeatdistance":null,
 "startpoint":null,
 "updated":"2014-01-01T00:00:00",
 "updatedby":100}, "children" : []},
 {"tablename" : "ad_color", "data" : {"ad_color_id":1005,
 "name":"Blue#0000FF",
 "ad_client_id":0,
 "ad_image_id":null,
 "ad_org_id":0,
 "alpha":254,
 "alpha_1":null,
 "blue":255,
 "blue_1":null,
 "colortype":"F",
 "created":"2014-01-01T00:00:00",
 "createdby":100,
 "green":0,
 "green_1":null,
 "imagealpha":0,
 "isactive":"Y",
 "isdefault":"N",
 "linedistance":null,
 "linewidth":null,
 "red":0,
 "red_1":null,
 "repeatdistance":null,
 "startpoint":null,
 "updated":"2014-01-01T00:00:00",
 "updatedby":100}, "children" : []},
 {"tablename" : "ad_color", "data" : {"ad_color_id":1006,
 "name":"Yellow#FFFF00",
 "ad_client_id":0,
 "ad_image_id":null,
 "ad_org_id":0,
 "alpha":254,
 "alpha_1":null,
 "blue":0,
 "blue_1":null,
 "colortype":"F",
 "created":"2014-01-01T00:00:00",
 "createdby":100,
 "green":255,
 "green_1":null,
 "imagealpha":0,
 "isactive":"Y",
 "isdefault":"N",
 "linedistance":null,
 "linewidth":null,
 "red":255,
 "red_1":null,
 "repeatdistance":null,
 "startpoint":null,
 "updated":"2014-01-01T00:00:00",
 "updatedby":100}, "children" : []},
 {"tablename" : "ad_color", "data" : {"ad_color_id":1007,
 "name":"Magenta#FF00FF",
 "ad_client_id":0,
 "ad_image_id":null,
 "ad_org_id":0,
 "alpha":254,
 "alpha_1":null,
 "blue":255,
 "blue_1":null,
 "colortype":"F",
 "created":"2014-01-01T00:00:00",
 "createdby":100,
 "green":0,
 "green_1":null,
 "imagealpha":0,
 "isactive":"Y",
 "isdefault":"N",
 "linedistance":null,
 "linewidth":null,
 "red":255,
 "red_1":null,
 "repeatdistance":null,
 "startpoint":null,
 "updated":"2014-01-01T00:00:00",
 "updatedby":100}, "children" : []},
 {"tablename" : "ad_color", "data" : {"ad_color_id":1008,
 "name":"Cyan#00FFFF",
 "ad_client_id":0,
 "ad_image_id":null,
 "ad_org_id":0,
 "alpha":254,
 "alpha_1":null,
 "blue":255,
 "blue_1":null,
 "colortype":"F",
 "created":"2014-01-01T00:00:00",
 "createdby":100,
 "green":255,
 "green_1":null,
 "imagealpha":0,
 "isactive":"Y",
 "isdefault":"N",
 "linedistance":null,
 "linewidth":null,
 "red":0,
 "red_1":null,
 "repeatdistance":null,
 "startpoint":null,
 "updated":"2014-01-01T00:00:00",
 "updatedby":100}, "children" : []},
 {"tablename" : "ad_color", "data" : {"ad_color_id":1009,
 "name":"[Color 9]#800000",
 "ad_client_id":0,
 "ad_image_id":null,
 "ad_org_id":0,
 "alpha":254,
 "alpha_1":null,
 "blue":0,
 "blue_1":null,
 "colortype":"F",
 "created":"2014-01-01T00:00:00",
 "createdby":100,
 "green":0,
 "green_1":null,
 "imagealpha":0,
 "isactive":"Y",
 "isdefault":"N",
 "linedistance":null,
 "linewidth":null,
 "red":128,
 "red_1":null,
 "repeatdistance":null,
 "startpoint":null,
 "updated":"2014-01-01T00:00:00",
 "updatedby":100}, "children" : []},
 {"tablename" : "ad_color", "data" : {"ad_color_id":1010,
 "name":"[Color 10]#008000",
 "ad_client_id":0,
 "ad_image_id":null,
 "ad_org_id":0,
 "alpha":254,
 "alpha_1":null,
 "blue":0,
 "blue_1":null,
 "colortype":"F",
 "created":"2014-01-01T00:00:00",
 "createdby":100,
 "green":128,
 "green_1":null,
 "imagealpha":0,
 "isactive":"Y",
 "isdefault":"N",
 "linedistance":null,
 "linewidth":null,
 "red":0,
 "red_1":null,
 "repeatdistance":null,
 "startpoint":null,
 "updated":"2014-01-01T00:00:00",
 "updatedby":100}, "children" : []},
 {"tablename" : "ad_color", "data" : {"ad_color_id":1011,
 "name":"[Color 11]#000080",
 "ad_client_id":0,
 "ad_image_id":null,
 "ad_org_id":0,
 "alpha":254,
 "alpha_1":null,
 "blue":128,
 "blue_1":null,
 "colortype":"F",
 "created":"2014-01-01T00:00:00",
 "createdby":100,
 "green":0,
 "green_1":null,
 "imagealpha":0,
 "isactive":"Y",
 "isdefault":"N",
 "linedistance":null,
 "linewidth":null,
 "red":0,
 "red_1":null,
 "repeatdistance":null,
 "startpoint":null,
 "updated":"2014-01-01T00:00:00",
 "updatedby":100}, "children" : []},
 {"tablename" : "ad_color", "data" : {"ad_color_id":1012,
 "name":"[Color 12]#808000",
 "ad_client_id":0,
 "ad_image_id":null,
 "ad_org_id":0,
 "alpha":254,
 "alpha_1":null,
 "blue":0,
 "blue_1":null,
 "colortype":"F",
 "created":"2014-01-01T00:00:00",
 "createdby":100,
 "green":128,
 "green_1":null,
 "imagealpha":0,
 "isactive":"Y",
 "isdefault":"N",
 "linedistance":null,
 "linewidth":null,
 "red":128,
 "red_1":null,
 "repeatdistance":null,
 "startpoint":null,
 "updated":"2014-01-01T00:00:00",
 "updatedby":100}, "children" : []},
 {"tablename" : "ad_color", "data" : {"ad_color_id":1013,
 "name":"[Color 13]#800080",
 "ad_client_id":0,
 "ad_image_id":null,
 "ad_org_id":0,
 "alpha":254,
 "alpha_1":null,
 "blue":128,
 "blue_1":null,
 "colortype":"F",
 "created":"2014-01-01T00:00:00",
 "createdby":100,
 "green":0,
 "green_1":null,
 "imagealpha":0,
 "isactive":"Y",
 "isdefault":"N",
 "linedistance":null,
 "linewidth":null,
 "red":128,
 "red_1":null,
 "repeatdistance":null,
 "startpoint":null,
 "updated":"2014-01-01T00:00:00",
 "updatedby":100}, "children" : []},
 {"tablename" : "ad_color", "data" : {"ad_color_id":1014,
 "name":"[Color 14]#008080",
 "ad_client_id":0,
 "ad_image_id":null,
 "ad_org_id":0,
 "alpha":254,
 "alpha_1":null,
 "blue":128,
 "blue_1":null,
 "colortype":"F",
 "created":"2014-01-01T00:00:00",
 "createdby":100,
 "green":128,
 "green_1":null,
 "imagealpha":0,
 "isactive":"Y",
 "isdefault":"N",
 "linedistance":null,
 "linewidth":null,
 "red":0,
 "red_1":null,
 "repeatdistance":null,
 "startpoint":null,
 "updated":"2014-01-01T00:00:00",
 "updatedby":100}, "children" : []},
 {"tablename" : "ad_color", "data" : {"ad_color_id":1015,
 "name":"[Color 15]#C0C0C0",
 "ad_client_id":0,
 "ad_image_id":null,
 "ad_org_id":0,
 "alpha":254,
 "alpha_1":null,
 "blue":192,
 "blue_1":null,
 "colortype":"F",
 "created":"2014-01-01T00:00:00",
 "createdby":100,
 "green":192,
 "green_1":null,
 "imagealpha":0,
 "isactive":"Y",
 "isdefault":"N",
 "linedistance":null,
 "linewidth":null,
 "red":192,
 "red_1":null,
 "repeatdistance":null,
 "startpoint":null,
 "updated":"2014-01-01T00:00:00",
 "updatedby":100}, "children" : []},
 {"tablename" : "ad_color", "data" : {"ad_color_id":1016,
 "name":"[Color 16]#808080",
 "ad_client_id":0,
 "ad_image_id":null,
 "ad_org_id":0,
 "alpha":254,
 "alpha_1":null,
 "blue":128,
 "blue_1":null,
 "colortype":"F",
 "created":"2014-01-01T00:00:00",
 "createdby":100,
 "green":128,
 "green_1":null,
 "imagealpha":0,
 "isactive":"Y",
 "isdefault":"N",
 "linedistance":null,
 "linewidth":null,
 "red":128,
 "red_1":null,
 "repeatdistance":null,
 "startpoint":null,
 "updated":"2014-01-01T00:00:00",
 "updatedby":100}, "children" : []},
 {"tablename" : "ad_color", "data" : {"ad_color_id":1017,
 "name":"[Color 17]#9999FF",
 "ad_client_id":0,
 "ad_image_id":null,
 "ad_org_id":0,
 "alpha":254,
 "alpha_1":null,
 "blue":255,
 "blue_1":null,
 "colortype":"F",
 "created":"2014-01-01T00:00:00",
 "createdby":100,
 "green":153,
 "green_1":null,
 "imagealpha":0,
 "isactive":"Y",
 "isdefault":"N",
 "linedistance":null,
 "linewidth":null,
 "red":153,
 "red_1":null,
 "repeatdistance":null,
 "startpoint":null,
 "updated":"2014-01-01T00:00:00",
 "updatedby":100}, "children" : []},
 {"tablename" : "ad_color", "data" : {"ad_color_id":1018,
 "name":"[Color 18]#993366",
 "ad_client_id":0,
 "ad_image_id":null,
 "ad_org_id":0,
 "alpha":254,
 "alpha_1":null,
 "blue":102,
 "blue_1":null,
 "colortype":"F",
 "created":"2014-01-01T00:00:00",
 "createdby":100,
 "green":51,
 "green_1":null,
 "imagealpha":0,
 "isactive":"Y",
 "isdefault":"N",
 "linedistance":null,
 "linewidth":null,
 "red":153,
 "red_1":null,
 "repeatdistance":null,
 "startpoint":null,
 "updated":"2014-01-01T00:00:00",
 "updatedby":100}, "children" : []},
 {"tablename" : "ad_color", "data" : {"ad_color_id":1019,
 "name":"[Color 19]#FFFFCC",
 "ad_client_id":0,
 "ad_image_id":null,
 "ad_org_id":0,
 "alpha":254,
 "alpha_1":null,
 "blue":204,
 "blue_1":null,
 "colortype":"F",
 "created":"2014-01-01T00:00:00",
 "createdby":100,
 "green":255,
 "green_1":null,
 "imagealpha":0,
 "isactive":"Y",
 "isdefault":"N",
 "linedistance":null,
 "linewidth":null,
 "red":255,
 "red_1":null,
 "repeatdistance":null,
 "startpoint":null,
 "updated":"2014-01-01T00:00:00",
 "updatedby":100}, "children" : []},
 {"tablename" : "ad_color", "data" : {"ad_color_id":1020,
 "name":"[Color 20]#CCFFFF",
 "ad_client_id":0,
 "ad_image_id":null,
 "ad_org_id":0,
 "alpha":254,
 "alpha_1":null,
 "blue":255,
 "blue_1":null,
 "colortype":"F",
 "created":"2014-01-01T00:00:00",
 "createdby":100,
 "green":255,
 "green_1":null,
 "imagealpha":0,
 "isactive":"Y",
 "isdefault":"N",
 "linedistance":null,
 "linewidth":null,
 "red":204,
 "red_1":null,
 "repeatdistance":null,
 "startpoint":null,
 "updated":"2014-01-01T00:00:00",
 "updatedby":100}, "children" : []},
 {"tablename" : "ad_color", "data" : {"ad_color_id":1021,
 "name":"[Color 21]#660066",
 "ad_client_id":0,
 "ad_image_id":null,
 "ad_org_id":0,
 "alpha":254,
 "alpha_1":null,
 "blue":102,
 "blue_1":null,
 "colortype":"F",
 "created":"2014-01-01T00:00:00",
 "createdby":100,
 "green":0,
 "green_1":null,
 "imagealpha":0,
 "isactive":"Y",
 "isdefault":"N",
 "linedistance":null,
 "linewidth":null,
 "red":102,
 "red_1":null,
 "repeatdistance":null,
 "startpoint":null,
 "updated":"2014-01-01T00:00:00",
 "updatedby":100}, "children" : []},
 {"tablename" : "ad_color", "data" : {"ad_color_id":1022,
 "name":"[Color 22]#FF8080",
 "ad_client_id":0,
 "ad_image_id":null,
 "ad_org_id":0,
 "alpha":254,
 "alpha_1":null,
 "blue":128,
 "blue_1":null,
 "colortype":"F",
 "created":"2014-01-01T00:00:00",
 "createdby":100,
 "green":128,
 "green_1":null,
 "imagealpha":0,
 "isactive":"Y",
 "isdefault":"N",
 "linedistance":null,
 "linewidth":null,
 "red":255,
 "red_1":null,
 "repeatdistance":null,
 "startpoint":null,
 "updated":"2014-01-01T00:00:00",
 "updatedby":100}, "children" : []},
 {"tablename" : "ad_color", "data" : {"ad_color_id":1023,
 "name":"[Color 23]#0066CC",
 "ad_client_id":0,
 "ad_image_id":null,
 "ad_org_id":0,
 "alpha":254,
 "alpha_1":null,
 "blue":204,
 "blue_1":null,
 "colortype":"F",
 "created":"2014-01-01T00:00:00",
 "createdby":100,
 "green":102,
 "green_1":null,
 "imagealpha":0,
 "isactive":"Y",
 "isdefault":"N",
 "linedistance":null,
 "linewidth":null,
 "red":0,
 "red_1":null,
 "repeatdistance":null,
 "startpoint":null,
 "updated":"2014-01-01T00:00:00",
 "updatedby":100}, "children" : []},
 {"tablename" : "ad_color", "data" : {"ad_color_id":1024,
 "name":"[Color 24]#CCCCFF",
 "ad_client_id":0,
 "ad_image_id":null,
 "ad_org_id":0,
 "alpha":254,
 "alpha_1":null,
 "blue":255,
 "blue_1":null,
 "colortype":"F",
 "created":"2014-01-01T00:00:00",
 "createdby":100,
 "green":204,
 "green_1":null,
 "imagealpha":0,
 "isactive":"Y",
 "isdefault":"N",
 "linedistance":null,
 "linewidth":null,
 "red":204,
 "red_1":null,
 "repeatdistance":null,
 "startpoint":null,
 "updated":"2014-01-01T00:00:00",
 "updatedby":100}, "children" : []},
 {"tablename" : "ad_color", "data" : {"ad_color_id":1025,
 "name":"[Color 25]#000080",
 "ad_client_id":0,
 "ad_image_id":null,
 "ad_org_id":0,
 "alpha":254,
 "alpha_1":null,
 "blue":128,
 "blue_1":null,
 "colortype":"F",
 "created":"2014-01-01T00:00:00",
 "createdby":100,
 "green":0,
 "green_1":null,
 "imagealpha":0,
 "isactive":"Y",
 "isdefault":"N",
 "linedistance":null,
 "linewidth":null,
 "red":0,
 "red_1":null,
 "repeatdistance":null,
 "startpoint":null,
 "updated":"2014-01-01T00:00:00",
 "updatedby":100}, "children" : []},
 {"tablename" : "ad_color", "data" : {"ad_color_id":1026,
 "name":"[Color 26]#FF00FF",
 "ad_client_id":0,
 "ad_image_id":null,
 "ad_org_id":0,
 "alpha":254,
 "alpha_1":null,
 "blue":255,
 "blue_1":null,
 "colortype":"F",
 "created":"2014-01-01T00:00:00",
 "createdby":100,
 "green":0,
 "green_1":null,
 "imagealpha":0,
 "isactive":"Y",
 "isdefault":"N",
 "linedistance":null,
 "linewidth":null,
 "red":255,
 "red_1":null,
 "repeatdistance":null,
 "startpoint":null,
 "updated":"2014-01-01T00:00:00",
 "updatedby":100}, "children" : []},
 {"tablename" : "ad_color", "data" : {"ad_color_id":1027,
 "name":"[Color 27]#FFFF00",
 "ad_client_id":0,
 "ad_image_id":null,
 "ad_org_id":0,
 "alpha":254,
 "alpha_1":null,
 "blue":0,
 "blue_1":null,
 "colortype":"F",
 "created":"2014-01-01T00:00:00",
 "createdby":100,
 "green":255,
 "green_1":null,
 "imagealpha":0,
 "isactive":"Y",
 "isdefault":"N",
 "linedistance":null,
 "linewidth":null,
 "red":255,
 "red_1":null,
 "repeatdistance":null,
 "startpoint":null,
 "updated":"2014-01-01T00:00:00",
 "updatedby":100}, "children" : []},
 {"tablename" : "ad_color", "data" : {"ad_color_id":1028,
 "name":"[Color 28]#00FFFF",
 "ad_client_id":0,
 "ad_image_id":null,
 "ad_org_id":0,
 "alpha":254,
 "alpha_1":null,
 "blue":255,
 "blue_1":null,
 "colortype":"F",
 "created":"2014-01-01T00:00:00",
 "createdby":100,
 "green":255,
 "green_1":null,
 "imagealpha":0,
 "isactive":"Y",
 "isdefault":"N",
 "linedistance":null,
 "linewidth":null,
 "red":0,
 "red_1":null,
 "repeatdistance":null,
 "startpoint":null,
 "updated":"2014-01-01T00:00:00",
 "updatedby":100}, "children" : []},
 {"tablename" : "ad_color", "data" : {"ad_color_id":1029,
 "name":"[Color 29]#800080",
 "ad_client_id":0,
 "ad_image_id":null,
 "ad_org_id":0,
 "alpha":254,
 "alpha_1":null,
 "blue":128,
 "blue_1":null,
 "colortype":"F",
 "created":"2014-01-01T00:00:00",
 "createdby":100,
 "green":0,
 "green_1":null,
 "imagealpha":0,
 "isactive":"Y",
 "isdefault":"N",
 "linedistance":null,
 "linewidth":null,
 "red":128,
 "red_1":null,
 "repeatdistance":null,
 "startpoint":null,
 "updated":"2014-01-01T00:00:00",
 "updatedby":100}, "children" : []},
 {"tablename" : "ad_color", "data" : {"ad_color_id":1030,
 "name":"[Color 30]#800000",
 "ad_client_id":0,
 "ad_image_id":null,
 "ad_org_id":0,
 "alpha":254,
 "alpha_1":null,
 "blue":0,
 "blue_1":null,
 "colortype":"F",
 "created":"2014-01-01T00:00:00",
 "createdby":100,
 "green":0,
 "green_1":null,
 "imagealpha":0,
 "isactive":"Y",
 "isdefault":"N",
 "linedistance":null,
 "linewidth":null,
 "red":128,
 "red_1":null,
 "repeatdistance":null,
 "startpoint":null,
 "updated":"2014-01-01T00:00:00",
 "updatedby":100}, "children" : []},
 {"tablename" : "ad_color", "data" : {"ad_color_id":1031,
 "name":"[Color 31]#008080",
 "ad_client_id":0,
 "ad_image_id":null,
 "ad_org_id":0,
 "alpha":254,
 "alpha_1":null,
 "blue":128,
 "blue_1":null,
 "colortype":"F",
 "created":"2014-01-01T00:00:00",
 "createdby":100,
 "green":128,
 "green_1":null,
 "imagealpha":0,
 "isactive":"Y",
 "isdefault":"N",
 "linedistance":null,
 "linewidth":null,
 "red":0,
 "red_1":null,
 "repeatdistance":null,
 "startpoint":null,
 "updated":"2014-01-01T00:00:00",
 "updatedby":100}, "children" : []},
 {"tablename" : "ad_color", "data" : {"ad_color_id":1032,
 "name":"[Color 32]#0000FF",
 "ad_client_id":0,
 "ad_image_id":null,
 "ad_org_id":0,
 "alpha":254,
 "alpha_1":null,
 "blue":255,
 "blue_1":null,
 "colortype":"F",
 "created":"2014-01-01T00:00:00",
 "createdby":100,
 "green":0,
 "green_1":null,
 "imagealpha":0,
 "isactive":"Y",
 "isdefault":"N",
 "linedistance":null,
 "linewidth":null,
 "red":0,
 "red_1":null,
 "repeatdistance":null,
 "startpoint":null,
 "updated":"2014-01-01T00:00:00",
 "updatedby":100}, "children" : []},
 {"tablename" : "ad_color", "data" : {"ad_color_id":1033,
 "name":"[Color 33]#00CCFF",
 "ad_client_id":0,
 "ad_image_id":null,
 "ad_org_id":0,
 "alpha":254,
 "alpha_1":null,
 "blue":255,
 "blue_1":null,
 "colortype":"F",
 "created":"2014-01-01T00:00:00",
 "createdby":100,
 "green":204,
 "green_1":null,
 "imagealpha":0,
 "isactive":"Y",
 "isdefault":"N",
 "linedistance":null,
 "linewidth":null,
 "red":0,
 "red_1":null,
 "repeatdistance":null,
 "startpoint":null,
 "updated":"2014-01-01T00:00:00",
 "updatedby":100}, "children" : []},
 {"tablename" : "ad_color", "data" : {"ad_color_id":1034,
 "name":"[Color 34]#CCFFFF",
 "ad_client_id":0,
 "ad_image_id":null,
 "ad_org_id":0,
 "alpha":254,
 "alpha_1":null,
 "blue":255,
 "blue_1":null,
 "colortype":"F",
 "created":"2014-01-01T00:00:00",
 "createdby":100,
 "green":255,
 "green_1":null,
 "imagealpha":0,
 "isactive":"Y",
 "isdefault":"N",
 "linedistance":null,
 "linewidth":null,
 "red":204,
 "red_1":null,
 "repeatdistance":null,
 "startpoint":null,
 "updated":"2014-01-01T00:00:00",
 "updatedby":100}, "children" : []},
 {"tablename" : "ad_color", "data" : {"ad_color_id":1035,
 "name":"[Color 35]#CCFFCC",
 "ad_client_id":0,
 "ad_image_id":null,
 "ad_org_id":0,
 "alpha":254,
 "alpha_1":null,
 "blue":204,
 "blue_1":null,
 "colortype":"F",
 "created":"2014-01-01T00:00:00",
 "createdby":100,
 "green":255,
 "green_1":null,
 "imagealpha":0,
 "isactive":"Y",
 "isdefault":"N",
 "linedistance":null,
 "linewidth":null,
 "red":204,
 "red_1":null,
 "repeatdistance":null,
 "startpoint":null,
 "updated":"2014-01-01T00:00:00",
 "updatedby":100}, "children" : []},
 {"tablename" : "ad_color", "data" : {"ad_color_id":1036,
 "name":"[Color 36]#FFFF99",
 "ad_client_id":0,
 "ad_image_id":null,
 "ad_org_id":0,
 "alpha":254,
 "alpha_1":null,
 "blue":153,
 "blue_1":null,
 "colortype":"F",
 "created":"2014-01-01T00:00:00",
 "createdby":100,
 "green":255,
 "green_1":null,
 "imagealpha":0,
 "isactive":"Y",
 "isdefault":"N",
 "linedistance":null,
 "linewidth":null,
 "red":255,
 "red_1":null,
 "repeatdistance":null,
 "startpoint":null,
 "updated":"2014-01-01T00:00:00",
 "updatedby":100}, "children" : []},
 {"tablename" : "ad_color", "data" : {"ad_color_id":1037,
 "name":"[Color 37]#99CCFF",
 "ad_client_id":0,
 "ad_image_id":null,
 "ad_org_id":0,
 "alpha":254,
 "alpha_1":null,
 "blue":255,
 "blue_1":null,
 "colortype":"F",
 "created":"2014-01-01T00:00:00",
 "createdby":100,
 "green":204,
 "green_1":null,
 "imagealpha":0,
 "isactive":"Y",
 "isdefault":"N",
 "linedistance":null,
 "linewidth":null,
 "red":153,
 "red_1":null,
 "repeatdistance":null,
 "startpoint":null,
 "updated":"2014-01-01T00:00:00",
 "updatedby":100}, "children" : []},
 {"tablename" : "ad_color", "data" : {"ad_color_id":1038,
 "name":"[Color 38]#FF99CC",
 "ad_client_id":0,
 "ad_image_id":null,
 "ad_org_id":0,
 "alpha":254,
 "alpha_1":null,
 "blue":204,
 "blue_1":null,
 "colortype":"F",
 "created":"2014-01-01T00:00:00",
 "createdby":100,
 "green":153,
 "green_1":null,
 "imagealpha":0,
 "isactive":"Y",
 "isdefault":"N",
 "linedistance":null,
 "linewidth":null,
 "red":255,
 "red_1":null,
 "repeatdistance":null,
 "startpoint":null,
 "updated":"2014-01-01T00:00:00",
 "updatedby":100}, "children" : []},
 {"tablename" : "ad_color", "data" : {"ad_color_id":1039,
 "name":"[Color 39]#CC99FF",
 "ad_client_id":0,
 "ad_image_id":null,
 "ad_org_id":0,
 "alpha":254,
 "alpha_1":null,
 "blue":255,
 "blue_1":null,
 "colortype":"F",
 "created":"2014-01-01T00:00:00",
 "createdby":100,
 "green":153,
 "green_1":null,
 "imagealpha":0,
 "isactive":"Y",
 "isdefault":"N",
 "linedistance":null,
 "linewidth":null,
 "red":204,
 "red_1":null,
 "repeatdistance":null,
 "startpoint":null,
 "updated":"2014-01-01T00:00:00",
 "updatedby":100}, "children" : []},
 {"tablename" : "ad_color", "data" : {"ad_color_id":1040,
 "name":"[Color 40]#FFCC99",
 "ad_client_id":0,
 "ad_image_id":null,
 "ad_org_id":0,
 "alpha":254,
 "alpha_1":null,
 "blue":153,
 "blue_1":null,
 "colortype":"F",
 "created":"2014-01-01T00:00:00",
 "createdby":100,
 "green":204,
 "green_1":null,
 "imagealpha":0,
 "isactive":"Y",
 "isdefault":"N",
 "linedistance":null,
 "linewidth":null,
 "red":255,
 "red_1":null,
 "repeatdistance":null,
 "startpoint":null,
 "updated":"2014-01-01T00:00:00",
 "updatedby":100}, "children" : []},
 {"tablename" : "ad_color", "data" : {"ad_color_id":1041,
 "name":"[Color 41]#3366FF",
 "ad_client_id":0,
 "ad_image_id":null,
 "ad_org_id":0,
 "alpha":254,
 "alpha_1":null,
 "blue":255,
 "blue_1":null,
 "colortype":"F",
 "created":"2014-01-01T00:00:00",
 "createdby":100,
 "green":102,
 "green_1":null,
 "imagealpha":0,
 "isactive":"Y",
 "isdefault":"N",
 "linedistance":null,
 "linewidth":null,
 "red":51,
 "red_1":null,
 "repeatdistance":null,
 "startpoint":null,
 "updated":"2014-01-01T00:00:00",
 "updatedby":100}, "children" : []},
 {"tablename" : "ad_color", "data" : {"ad_color_id":1042,
 "name":"[Color 42]#33CCCC",
 "ad_client_id":0,
 "ad_image_id":null,
 "ad_org_id":0,
 "alpha":254,
 "alpha_1":null,
 "blue":204,
 "blue_1":null,
 "colortype":"F",
 "created":"2014-01-01T00:00:00",
 "createdby":100,
 "green":204,
 "green_1":null,
 "imagealpha":0,
 "isactive":"Y",
 "isdefault":"N",
 "linedistance":null,
 "linewidth":null,
 "red":51,
 "red_1":null,
 "repeatdistance":null,
 "startpoint":null,
 "updated":"2014-01-01T00:00:00",
 "updatedby":100}, "children" : []},
 {"tablename" : "ad_color", "data" : {"ad_color_id":1043,
 "name":"[Color 43]#99CC00",
 "ad_client_id":0,
 "ad_image_id":null,
 "ad_org_id":0,
 "alpha":254,
 "alpha_1":null,
 "blue":0,
 "blue_1":null,
 "colortype":"F",
 "created":"2014-01-01T00:00:00",
 "createdby":100,
 "green":204,
 "green_1":null,
 "imagealpha":0,
 "isactive":"Y",
 "isdefault":"N",
 "linedistance":null,
 "linewidth":null,
 "red":153,
 "red_1":null,
 "repeatdistance":null,
 "startpoint":null,
 "updated":"2014-01-01T00:00:00",
 "updatedby":100}, "children" : []},
 {"tablename" : "ad_color", "data" : {"ad_color_id":1044,
 "name":"[Color 44]#FFCC00",
 "ad_client_id":0,
 "ad_image_id":null,
 "ad_org_id":0,
 "alpha":254,
 "alpha_1":null,
 "blue":0,
 "blue_1":null,
 "colortype":"F",
 "created":"2014-01-01T00:00:00",
 "createdby":100,
 "green":204,
 "green_1":null,
 "imagealpha":0,
 "isactive":"Y",
 "isdefault":"N",
 "linedistance":null,
 "linewidth":null,
 "red":255,
 "red_1":null,
 "repeatdistance":null,
 "startpoint":null,
 "updated":"2014-01-01T00:00:00",
 "updatedby":100}, "children" : []},
 {"tablename" : "ad_color", "data" : {"ad_color_id":1045,
 "name":"[Color 45]#FF9900",
 "ad_client_id":0,
 "ad_image_id":null,
 "ad_org_id":0,
 "alpha":254,
 "alpha_1":null,
 "blue":0,
 "blue_1":null,
 "colortype":"F",
 "created":"2014-01-01T00:00:00",
 "createdby":100,
 "green":153,
 "green_1":null,
 "imagealpha":0,
 "isactive":"Y",
 "isdefault":"N",
 "linedistance":null,
 "linewidth":null,
 "red":255,
 "red_1":null,
 "repeatdistance":null,
 "startpoint":null,
 "updated":"2014-01-01T00:00:00",
 "updatedby":100}, "children" : []},
 {"tablename" : "ad_color", "data" : {"ad_color_id":1046,
 "name":"[Color 46]#FF6600",
 "ad_client_id":0,
 "ad_image_id":null,
 "ad_org_id":0,
 "alpha":254,
 "alpha_1":null,
 "blue":0,
 "blue_1":null,
 "colortype":"F",
 "created":"2014-01-01T00:00:00",
 "createdby":100,
 "green":102,
 "green_1":null,
 "imagealpha":0,
 "isactive":"Y",
 "isdefault":"N",
 "linedistance":null,
 "linewidth":null,
 "red":255,
 "red_1":null,
 "repeatdistance":null,
 "startpoint":null,
 "updated":"2014-01-01T00:00:00",
 "updatedby":100}, "children" : []},
 {"tablename" : "ad_color", "data" : {"ad_color_id":1047,
 "name":"[Color 47]#666699",
 "ad_client_id":0,
 "ad_image_id":null,
 "ad_org_id":0,
 "alpha":254,
 "alpha_1":null,
 "blue":153,
 "blue_1":null,
 "colortype":"F",
 "created":"2014-01-01T00:00:00",
 "createdby":100,
 "green":102,
 "green_1":null,
 "imagealpha":0,
 "isactive":"Y",
 "isdefault":"N",
 "linedistance":null,
 "linewidth":null,
 "red":102,
 "red_1":null,
 "repeatdistance":null,
 "startpoint":null,
 "updated":"2014-01-01T00:00:00",
 "updatedby":100}, "children" : []},
 {"tablename" : "ad_color", "data" : {"ad_color_id":1048,
 "name":"[Color 48]#969696",
 "ad_client_id":0,
 "ad_image_id":null,
 "ad_org_id":0,
 "alpha":254,
 "alpha_1":null,
 "blue":150,
 "blue_1":null,
 "colortype":"F",
 "created":"2014-01-01T00:00:00",
 "createdby":100,
 "green":150,
 "green_1":null,
 "imagealpha":0,
 "isactive":"Y",
 "isdefault":"N",
 "linedistance":null,
 "linewidth":null,
 "red":150,
 "red_1":null,
 "repeatdistance":null,
 "startpoint":null,
 "updated":"2014-01-01T00:00:00",
 "updatedby":100}, "children" : []},
 {"tablename" : "ad_color", "data" : {"ad_color_id":1049,
 "name":"[Color 49]#003366",
 "ad_client_id":0,
 "ad_image_id":null,
 "ad_org_id":0,
 "alpha":254,
 "alpha_1":null,
 "blue":102,
 "blue_1":null,
 "colortype":"F",
 "created":"2014-01-01T00:00:00",
 "createdby":100,
 "green":51,
 "green_1":null,
 "imagealpha":0,
 "isactive":"Y",
 "isdefault":"N",
 "linedistance":null,
 "linewidth":null,
 "red":0,
 "red_1":null,
 "repeatdistance":null,
 "startpoint":null,
 "updated":"2014-01-01T00:00:00",
 "updatedby":100}, "children" : []},
 {"tablename" : "ad_color", "data" : {"ad_color_id":1050,
 "name":"[Color 50]#339966",
 "ad_client_id":0,
 "ad_image_id":null,
 "ad_org_id":0,
 "alpha":254,
 "alpha_1":null,
 "blue":102,
 "blue_1":null,
 "colortype":"F",
 "created":"2014-01-01T00:00:00",
 "createdby":100,
 "green":153,
 "green_1":null,
 "imagealpha":0,
 "isactive":"Y",
 "isdefault":"N",
 "linedistance":null,
 "linewidth":null,
 "red":51,
 "red_1":null,
 "repeatdistance":null,
 "startpoint":null,
 "updated":"2014-01-01T00:00:00",
 "updatedby":100}, "children" : []},
 {"tablename" : "ad_color", "data" : {"ad_color_id":1051,
 "name":"[Color 51]#003300",
 "ad_client_id":0,
 "ad_image_id":null,
 "ad_org_id":0,
 "alpha":254,
 "alpha_1":null,
 "blue":0,
 "blue_1":null,
 "colortype":"F",
 "created":"2014-01-01T00:00:00",
 "createdby":100,
 "green":51,
 "green_1":null,
 "imagealpha":0,
 "isactive":"Y",
 "isdefault":"N",
 "linedistance":null,
 "linewidth":null,
 "red":0,
 "red_1":null,
 "repeatdistance":null,
 "startpoint":null,
 "updated":"2014-01-01T00:00:00",
 "updatedby":100}, "children" : []},
 {"tablename" : "ad_color", "data" : {"ad_color_id":1052,
 "name":"[Color 52]#333300",
 "ad_client_id":0,
 "ad_image_id":null,
 "ad_org_id":0,
 "alpha":254,
 "alpha_1":null,
 "blue":0,
 "blue_1":null,
 "colortype":"F",
 "created":"2014-01-01T00:00:00",
 "createdby":100,
 "green":51,
 "green_1":null,
 "imagealpha":0,
 "isactive":"Y",
 "isdefault":"N",
 "linedistance":null,
 "linewidth":null,
 "red":51,
 "red_1":null,
 "repeatdistance":null,
 "startpoint":null,
 "updated":"2014-01-01T00:00:00",
 "updatedby":100}, "children" : []},
 {"tablename" : "ad_color", "data" : {"ad_color_id":1053,
 "name":"[Color 53]#993300",
 "ad_client_id":0,
 "ad_image_id":null,
 "ad_org_id":0,
 "alpha":254,
 "alpha_1":null,
 "blue":0,
 "blue_1":null,
 "colortype":"F",
 "created":"2014-01-01T00:00:00",
 "createdby":100,
 "green":51,
 "green_1":null,
 "imagealpha":0,
 "isactive":"Y",
 "isdefault":"N",
 "linedistance":null,
 "linewidth":null,
 "red":153,
 "red_1":null,
 "repeatdistance":null,
 "startpoint":null,
 "updated":"2014-01-01T00:00:00",
 "updatedby":100}, "children" : []},
 {"tablename" : "ad_color", "data" : {"ad_color_id":1054,
 "name":"[Color 54]#993366",
 "ad_client_id":0,
 "ad_image_id":null,
 "ad_org_id":0,
 "alpha":254,
 "alpha_1":null,
 "blue":102,
 "blue_1":null,
 "colortype":"F",
 "created":"2014-01-01T00:00:00",
 "createdby":100,
 "green":51,
 "green_1":null,
 "imagealpha":0,
 "isactive":"Y",
 "isdefault":"N",
 "linedistance":null,
 "linewidth":null,
 "red":153,
 "red_1":null,
 "repeatdistance":null,
 "startpoint":null,
 "updated":"2014-01-01T00:00:00",
 "updatedby":100}, "children" : []},
 {"tablename" : "ad_color", "data" : {"ad_color_id":1055,
 "name":"[Color 55]#333399",
 "ad_client_id":0,
 "ad_image_id":null,
 "ad_org_id":0,
 "alpha":254,
 "alpha_1":null,
 "blue":153,
 "blue_1":null,
 "colortype":"F",
 "created":"2014-01-01T00:00:00",
 "createdby":100,
 "green":51,
 "green_1":null,
 "imagealpha":0,
 "isactive":"Y",
 "isdefault":"N",
 "linedistance":null,
 "linewidth":null,
 "red":51,
 "red_1":null,
 "repeatdistance":null,
 "startpoint":null,
 "updated":"2014-01-01T00:00:00",
 "updatedby":100}, "children" : []},
 {"tablename" : "ad_color", "data" : {"ad_color_id":1056,
 "name":"[Color 56]#333333",
 "ad_client_id":0,
 "ad_image_id":null,
 "ad_org_id":0,
 "alpha":254,
 "alpha_1":null,
 "blue":51,
 "blue_1":null,
 "colortype":"F",
 "created":"2014-01-01T00:00:00",
 "createdby":100,
 "green":51,
 "green_1":null,
 "imagealpha":0,
 "isactive":"Y",
 "isdefault":"N",
 "linedistance":null,
 "linewidth":null,
 "red":51,
 "red_1":null,
 "repeatdistance":null,
 "startpoint":null,
 "updated":"2014-01-01T00:00:00",
 "updatedby":100}, "children" : []},
 {"tablename" : "ad_color", "data" : {"ad_color_id":50001,
 "name":"Light Gray #cccccc",
 "ad_client_id":0,
 "ad_image_id":null,
 "ad_org_id":0,
 "alpha":200,
 "alpha_1":0,
 "blue":204,
 "blue_1":0,
 "colortype":"F",
 "created":"2017-05-04T11:05:11",
 "createdby":100,
 "green":204,
 "green_1":0,
 "imagealpha":0,
 "isactive":"Y",
 "isdefault":"N",
 "linedistance":0,
 "linewidth":0,
 "red":204,
 "red_1":0,
 "repeatdistance":0,
 "startpoint":null,
 "updated":"2017-05-04T11:05:11",
 "updatedby":100}, "children" : []},
 {"tablename" : "ad_color", "data" : {"ad_color_id":50002,
 "name":"Light Green #92d050",
 "ad_client_id":0,
 "ad_image_id":null,
 "ad_org_id":0,
 "alpha":250,
 "alpha_1":0,
 "blue":80,
 "blue_1":0,
 "colortype":"F",
 "created":"2017-05-04T11:08:36",
 "createdby":100,
 "green":208,
 "green_1":0,
 "imagealpha":0,
 "isactive":"Y",
 "isdefault":"N",
 "linedistance":0,
 "linewidth":0,
 "red":146,
 "red_1":0,
 "repeatdistance":0,
 "startpoint":null,
 "updated":"2017-05-04T11:08:36",
 "updatedby":100}, "children" : []},
 {"tablename" : "ad_color", "data" : {"ad_color_id":50003,
 "name":"Gold #ffc100",
 "ad_client_id":0,
 "ad_image_id":null,
 "ad_org_id":0,
 "alpha":250,
 "alpha_1":0,
 "blue":0,
 "blue_1":0,
 "colortype":"F",
 "created":"2017-05-04T11:10:34",
 "createdby":100,
 "green":193,
 "green_1":0,
 "imagealpha":0,
 "isactive":"Y",
 "isdefault":"N",
 "linedistance":0,
 "linewidth":0,
 "red":255,
 "red_1":0,
 "repeatdistance":0,
 "startpoint":null,
 "updated":"2017-05-04T11:10:34",
 "updatedby":100}, "children" : []},
 {"tablename" : "ad_color", "data" : {"ad_color_id":50004,
 "name":"Silver #eaeaea",
 "ad_client_id":0,
 "ad_image_id":null,
 "ad_org_id":0,
 "alpha":234,
 "alpha_1":0,
 "blue":234,
 "blue_1":0,
 "colortype":"F",
 "created":"2017-05-04T11:13:49",
 "createdby":100,
 "green":234,
 "green_1":0,
 "imagealpha":0,
 "isactive":"Y",
 "isdefault":"N",
 "linedistance":0,
 "linewidth":0,
 "red":234,
 "red_1":0,
 "repeatdistance":0,
 "startpoint":null,
 "updated":"2017-05-04T11:13:49",
 "updatedby":100}, "children" : []}]