[{"tablename" : "ad_document_action_access", "data" : {"ad_client_id":0,
 "ad_org_id":0,
 "ad_ref_list_id":178,
 "ad_role_id":0,
 "c_doctype_id":0,
 "created":"2016-07-01T00:55:39.667494",
 "createdby":0,
 "isactive":"Y",
 "updated":"2016-07-01T00:55:39.667494",
 "updatedby":0}, "children" : []},
 {"tablename" : "ad_document_action_access", "data" : {"ad_client_id":0,
 "ad_org_id":0,
 "ad_ref_list_id":179,
 "ad_role_id":0,
 "c_doctype_id":0,
 "created":"2016-07-01T00:55:39.667494",
 "createdby":0,
 "isactive":"Y",
 "updated":"2016-07-01T00:55:39.667494",
 "updatedby":0}, "children" : []},
 {"tablename" : "ad_document_action_access", "data" : {"ad_client_id":0,
 "ad_org_id":0,
 "ad_ref_list_id":180,
 "ad_role_id":0,
 "c_doctype_id":0,
 "created":"2016-07-01T00:55:39.667494",
 "createdby":0,
 "isactive":"Y",
 "updated":"2016-07-01T00:55:39.667494",
 "updatedby":0}, "children" : []},
 {"tablename" : "ad_document_action_access", "data" : {"ad_client_id":0,
 "ad_org_id":0,
 "ad_ref_list_id":181,
 "ad_role_id":0,
 "c_doctype_id":0,
 "created":"2016-07-01T00:55:39.667494",
 "createdby":0,
 "isactive":"Y",
 "updated":"2016-07-01T00:55:39.667494",
 "updatedby":0}, "children" : []},
 {"tablename" : "ad_document_action_access", "data" : {"ad_client_id":0,
 "ad_org_id":0,
 "ad_ref_list_id":182,
 "ad_role_id":0,
 "c_doctype_id":0,
 "created":"2016-07-01T00:55:39.667494",
 "createdby":0,
 "isactive":"Y",
 "updated":"2016-07-01T00:55:39.667494",
 "updatedby":0}, "children" : []},
 {"tablename" : "ad_document_action_access", "data" : {"ad_client_id":0,
 "ad_org_id":0,
 "ad_ref_list_id":183,
 "ad_role_id":0,
 "c_doctype_id":0,
 "created":"2016-07-01T00:55:39.667494",
 "createdby":0,
 "isactive":"Y",
 "updated":"2016-07-01T00:55:39.667494",
 "updatedby":0}, "children" : []},
 {"tablename" : "ad_document_action_access", "data" : {"ad_client_id":0,
 "ad_org_id":0,
 "ad_ref_list_id":184,
 "ad_role_id":0,
 "c_doctype_id":0,
 "created":"2016-07-01T00:55:39.667494",
 "createdby":0,
 "isactive":"Y",
 "updated":"2016-07-01T00:55:39.667494",
 "updatedby":0}, "children" : []},
 {"tablename" : "ad_document_action_access", "data" : {"ad_client_id":0,
 "ad_org_id":0,
 "ad_ref_list_id":185,
 "ad_role_id":0,
 "c_doctype_id":0,
 "created":"2016-07-01T00:55:39.667494",
 "createdby":0,
 "isactive":"Y",
 "updated":"2016-07-01T00:55:39.667494",
 "updatedby":0}, "children" : []},
 {"tablename" : "ad_document_action_access", "data" : {"ad_client_id":0,
 "ad_org_id":0,
 "ad_ref_list_id":187,
 "ad_role_id":0,
 "c_doctype_id":0,
 "created":"2016-07-01T00:55:39.667494",
 "createdby":0,
 "isactive":"Y",
 "updated":"2016-07-01T00:55:39.667494",
 "updatedby":0}, "children" : []},
 {"tablename" : "ad_document_action_access", "data" : {"ad_client_id":0,
 "ad_org_id":0,
 "ad_ref_list_id":188,
 "ad_role_id":0,
 "c_doctype_id":0,
 "created":"2016-07-01T00:55:39.667494",
 "createdby":0,
 "isactive":"Y",
 "updated":"2016-07-01T00:55:39.667494",
 "updatedby":0}, "children" : []},
 {"tablename" : "ad_document_action_access", "data" : {"ad_client_id":0,
 "ad_org_id":0,
 "ad_ref_list_id":189,
 "ad_role_id":0,
 "c_doctype_id":0,
 "created":"2016-07-01T00:55:39.667494",
 "createdby":0,
 "isactive":"Y",
 "updated":"2016-07-01T00:55:39.667494",
 "updatedby":0}, "children" : []},
 {"tablename" : "ad_document_action_access", "data" : {"ad_client_id":0,
 "ad_org_id":0,
 "ad_ref_list_id":345,
 "ad_role_id":0,
 "c_doctype_id":0,
 "created":"2016-07-01T00:55:39.667494",
 "createdby":0,
 "isactive":"Y",
 "updated":"2016-07-01T00:55:39.667494",
 "updatedby":0}, "children" : []},
 {"tablename" : "ad_document_action_access", "data" : {"ad_client_id":0,
 "ad_org_id":0,
 "ad_ref_list_id":347,
 "ad_role_id":0,
 "c_doctype_id":0,
 "created":"2016-07-01T00:55:39.667494",
 "createdby":0,
 "isactive":"Y",
 "updated":"2016-07-01T00:55:39.667494",
 "updatedby":0}, "children" : []},
 {"tablename" : "ad_document_action_access", "data" : {"ad_client_id":0,
 "ad_org_id":0,
 "ad_ref_list_id":691,
 "ad_role_id":0,
 "c_doctype_id":0,
 "created":"2016-07-01T00:55:39.667494",
 "createdby":0,
 "isactive":"Y",
 "updated":"2016-07-01T00:55:39.667494",
 "updatedby":0}, "children" : []}]