[{"tablename" : "ad_import", "data" : {"ad_import_id":50000,
 "name":"Import Leads",
 "ad_client_id":0,
 "ad_org_id":0,
 "classname":null,
 "created":"2012-03-13T16:25:55",
 "createdby":100,
 "description":null,
 "isactive":"Y",
 "source_table_id":53372,
 "target_table_id":114,
 "updated":"2012-03-13T16:25:55",
 "updatedby":100}, "children" : [{"tablename" : "ad_importcolumn", "data" : {"ad_importcolumn_id":50000,
 "ad_client_id":0,
 "ad_import_id":50000,
 "ad_org_id":0,
 "created":"2012-03-13T16:31:20",
 "createdby":100,
 "defaultvalue":null,
 "description":null,
 "isactive":"Y",
 "isgroupby":"N",
 "iskey":"N",
 "isorderby":"N",
 "sortno":0,
 "source_column_id":62854,
 "target_column_id":422,
 "updated":"2012-03-13T16:31:20",
 "updatedby":100}, "children" : []},{"tablename" : "ad_importcolumn", "data" : {"ad_importcolumn_id":50001,
 "ad_client_id":0,
 "ad_import_id":50000,
 "ad_org_id":0,
 "created":"2012-03-13T16:31:27",
 "createdby":100,
 "defaultvalue":null,
 "description":null,
 "isactive":"Y",
 "isgroupby":"N",
 "iskey":"N",
 "isorderby":"N",
 "sortno":0,
 "source_column_id":62855,
 "target_column_id":423,
 "updated":"2012-03-13T16:31:27",
 "updatedby":100}, "children" : []},{"tablename" : "ad_importcolumn", "data" : {"ad_importcolumn_id":50002,
 "ad_client_id":0,
 "ad_import_id":50000,
 "ad_org_id":0,
 "created":"2012-03-13T16:31:51",
 "createdby":100,
 "defaultvalue":null,
 "description":null,
 "isactive":"Y",
 "isgroupby":"N",
 "iskey":"N",
 "isorderby":"N",
 "sortno":0,
 "source_column_id":62860,
 "target_column_id":62476,
 "updated":"2012-03-13T16:31:51",
 "updatedby":100}, "children" : []},{"tablename" : "ad_importcolumn", "data" : {"ad_importcolumn_id":50003,
 "ad_client_id":0,
 "ad_import_id":50000,
 "ad_org_id":0,
 "created":"2012-03-13T16:32:07",
 "createdby":100,
 "defaultvalue":null,
 "description":null,
 "isactive":"Y",
 "isgroupby":"N",
 "iskey":"N",
 "isorderby":"N",
 "sortno":0,
 "source_column_id":62861,
 "target_column_id":5844,
 "updated":"2012-03-13T16:32:07",
 "updatedby":100}, "children" : []},{"tablename" : "ad_importcolumn", "data" : {"ad_importcolumn_id":50004,
 "ad_client_id":0,
 "ad_import_id":50000,
 "ad_org_id":0,
 "created":"2012-03-13T16:32:26",
 "createdby":100,
 "defaultvalue":null,
 "description":null,
 "isactive":"Y",
 "isgroupby":"N",
 "iskey":"N",
 "isorderby":"N",
 "sortno":0,
 "source_column_id":62863,
 "target_column_id":62130,
 "updated":"2012-03-13T16:32:26",
 "updatedby":100}, "children" : []},{"tablename" : "ad_importcolumn", "data" : {"ad_importcolumn_id":50005,
 "ad_client_id":0,
 "ad_import_id":50000,
 "ad_org_id":0,
 "created":"2012-03-13T16:32:46",
 "createdby":100,
 "defaultvalue":null,
 "description":null,
 "isactive":"Y",
 "isgroupby":"N",
 "iskey":"N",
 "isorderby":"N",
 "sortno":0,
 "source_column_id":62867,
 "target_column_id":8752,
 "updated":"2012-03-13T16:32:46",
 "updatedby":100}, "children" : []},{"tablename" : "ad_importcolumn", "data" : {"ad_importcolumn_id":50006,
 "ad_client_id":0,
 "ad_import_id":50000,
 "ad_org_id":0,
 "created":"2012-03-13T16:33:17",
 "createdby":100,
 "defaultvalue":null,
 "description":null,
 "isactive":"Y",
 "isgroupby":"N",
 "iskey":"N",
 "isorderby":"N",
 "sortno":0,
 "source_column_id":62871,
 "target_column_id":214,
 "updated":"2012-03-13T16:33:17",
 "updatedby":100}, "children" : []},{"tablename" : "ad_importcolumn", "data" : {"ad_importcolumn_id":50007,
 "ad_client_id":0,
 "ad_import_id":50000,
 "ad_org_id":0,
 "created":"2012-03-13T16:33:26",
 "createdby":100,
 "defaultvalue":null,
 "description":null,
 "isactive":"Y",
 "isgroupby":"N",
 "iskey":"N",
 "isorderby":"N",
 "sortno":0,
 "source_column_id":62872,
 "target_column_id":5396,
 "updated":"2012-03-13T16:33:26",
 "updatedby":100}, "children" : []},{"tablename" : "ad_importcolumn", "data" : {"ad_importcolumn_id":50008,
 "ad_client_id":0,
 "ad_import_id":50000,
 "ad_org_id":0,
 "created":"2012-03-13T16:33:36",
 "createdby":100,
 "defaultvalue":null,
 "description":null,
 "isactive":"Y",
 "isgroupby":"N",
 "iskey":"N",
 "isorderby":"N",
 "sortno":0,
 "source_column_id":62877,
 "target_column_id":8748,
 "updated":"2012-03-13T16:33:36",
 "updatedby":100}, "children" : []},{"tablename" : "ad_importcolumn", "data" : {"ad_importcolumn_id":50009,
 "ad_client_id":0,
 "ad_import_id":50000,
 "ad_org_id":0,
 "created":"2012-03-13T16:33:49",
 "createdby":100,
 "defaultvalue":null,
 "description":null,
 "isactive":"Y",
 "isgroupby":"N",
 "iskey":"N",
 "isorderby":"N",
 "sortno":0,
 "source_column_id":62883,
 "target_column_id":62124,
 "updated":"2012-03-13T16:33:49",
 "updatedby":100}, "children" : []},{"tablename" : "ad_importcolumn", "data" : {"ad_importcolumn_id":50010,
 "ad_client_id":0,
 "ad_import_id":50000,
 "ad_org_id":0,
 "created":"2012-03-13T16:34:03",
 "createdby":100,
 "defaultvalue":null,
 "description":null,
 "isactive":"Y",
 "isgroupby":"N",
 "iskey":"N",
 "isorderby":"N",
 "sortno":0,
 "source_column_id":62888,
 "target_column_id":62126,
 "updated":"2012-03-13T16:34:03",
 "updatedby":100}, "children" : []},{"tablename" : "ad_importcolumn", "data" : {"ad_importcolumn_id":50011,
 "ad_client_id":0,
 "ad_import_id":50000,
 "ad_org_id":0,
 "created":"2012-03-13T16:34:12",
 "createdby":100,
 "defaultvalue":null,
 "description":null,
 "isactive":"Y",
 "isgroupby":"N",
 "iskey":"N",
 "isorderby":"N",
 "sortno":0,
 "source_column_id":62889,
 "target_column_id":62128,
 "updated":"2012-03-13T16:34:12",
 "updatedby":100}, "children" : []},{"tablename" : "ad_importcolumn", "data" : {"ad_importcolumn_id":50012,
 "ad_client_id":0,
 "ad_import_id":50000,
 "ad_org_id":0,
 "created":"2012-03-13T16:34:21",
 "createdby":100,
 "defaultvalue":null,
 "description":null,
 "isactive":"Y",
 "isgroupby":"N",
 "iskey":"N",
 "isorderby":"N",
 "sortno":0,
 "source_column_id":62890,
 "target_column_id":62129,
 "updated":"2012-03-13T16:34:21",
 "updatedby":100}, "children" : []},{"tablename" : "ad_importcolumn", "data" : {"ad_importcolumn_id":50013,
 "ad_client_id":0,
 "ad_import_id":50000,
 "ad_org_id":0,
 "created":"2012-03-13T16:34:31",
 "createdby":100,
 "defaultvalue":null,
 "description":null,
 "isactive":"Y",
 "isgroupby":"N",
 "iskey":"N",
 "isorderby":"Y",
 "sortno":0,
 "source_column_id":62892,
 "target_column_id":213,
 "updated":"2012-06-08T15:18:41",
 "updatedby":0}, "children" : []},{"tablename" : "ad_importcolumn", "data" : {"ad_importcolumn_id":50014,
 "ad_client_id":0,
 "ad_import_id":50000,
 "ad_org_id":0,
 "created":"2012-03-13T16:34:52",
 "createdby":100,
 "defaultvalue":null,
 "description":null,
 "isactive":"Y",
 "isgroupby":"N",
 "iskey":"N",
 "isorderby":"N",
 "sortno":0,
 "source_column_id":62895,
 "target_column_id":8747,
 "updated":"2012-03-13T16:34:52",
 "updatedby":100}, "children" : []},{"tablename" : "ad_importcolumn", "data" : {"ad_importcolumn_id":50015,
 "ad_client_id":0,
 "ad_import_id":50000,
 "ad_org_id":0,
 "created":"2012-03-13T16:35:02",
 "createdby":100,
 "defaultvalue":null,
 "description":null,
 "isactive":"Y",
 "isgroupby":"N",
 "iskey":"N",
 "isorderby":"N",
 "sortno":0,
 "source_column_id":62896,
 "target_column_id":8744,
 "updated":"2012-03-13T16:35:02",
 "updatedby":100}, "children" : []},{"tablename" : "ad_importcolumn", "data" : {"ad_importcolumn_id":50016,
 "ad_client_id":0,
 "ad_import_id":50000,
 "ad_org_id":0,
 "created":"2012-03-13T16:35:14",
 "createdby":100,
 "defaultvalue":null,
 "description":null,
 "isactive":"Y",
 "isgroupby":"N",
 "iskey":"N",
 "isorderby":"N",
 "sortno":0,
 "source_column_id":62899,
 "target_column_id":62131,
 "updated":"2012-03-13T16:35:14",
 "updatedby":100}, "children" : []},{"tablename" : "ad_importcolumn", "data" : {"ad_importcolumn_id":50017,
 "ad_client_id":0,
 "ad_import_id":50000,
 "ad_org_id":0,
 "created":"2012-03-13T16:35:25",
 "createdby":100,
 "defaultvalue":null,
 "description":null,
 "isactive":"Y",
 "isgroupby":"N",
 "iskey":"N",
 "isorderby":"N",
 "sortno":0,
 "source_column_id":62903,
 "target_column_id":8751,
 "updated":"2012-03-13T16:35:25",
 "updatedby":100}, "children" : []},{"tablename" : "ad_importcolumn", "data" : {"ad_importcolumn_id":50018,
 "ad_client_id":0,
 "ad_import_id":50000,
 "ad_org_id":0,
 "created":"2012-03-13T16:35:33",
 "createdby":100,
 "defaultvalue":null,
 "description":null,
 "isactive":"Y",
 "isgroupby":"N",
 "iskey":"N",
 "isorderby":"N",
 "sortno":0,
 "source_column_id":62907,
 "target_column_id":15975,
 "updated":"2012-03-13T16:35:33",
 "updatedby":100}, "children" : []},{"tablename" : "ad_importcolumn", "data" : {"ad_importcolumn_id":50019,
 "ad_client_id":0,
 "ad_import_id":50000,
 "ad_org_id":0,
 "created":"2012-03-29T22:39:43",
 "createdby":100,
 "defaultvalue":null,
 "description":null,
 "isactive":"Y",
 "isgroupby":"N",
 "iskey":"N",
 "isorderby":"N",
 "sortno":0,
 "source_column_id":62908,
 "target_column_id":212,
 "updated":"2012-03-29T22:39:43",
 "updatedby":100}, "children" : []},{"tablename" : "ad_importvalidation", "data" : {"ad_importvalidation_id":50000,
 "name":"Match existing contact",
 "ad_client_id":0,
 "ad_import_id":50000,
 "ad_org_id":0,
 "created":"2012-03-13T16:30:46",
 "createdby":100,
 "description":null,
 "isactive":"Y",
 "seqno":10,
 "sqlstatement":"UPDATE I_User SET AD_User_ID = (SELECT u.AD_User_ID FROM AD_User u WHERE u.Value = I_User.Value)",
 "updated":"2012-03-13T16:30:46",
 "updatedby":100}, "children" : []}]},
 {"tablename" : "ad_import", "data" : {"ad_import_id":50001,
 "name":"Import Product BOM",
 "ad_client_id":0,
 "ad_org_id":0,
 "classname":null,
 "created":"2015-08-13T22:15:39",
 "createdby":100,
 "description":null,
 "isactive":"Y",
 "source_table_id":54029,
 "target_table_id":383,
 "updated":"2016-04-11T16:51:52",
 "updatedby":0}, "children" : [{"tablename" : "ad_importcolumn", "data" : {"ad_importcolumn_id":50020,
 "ad_client_id":0,
 "ad_import_id":50001,
 "ad_org_id":0,
 "created":"2015-08-13T23:19:33",
 "createdby":100,
 "defaultvalue":null,
 "description":null,
 "isactive":"Y",
 "isgroupby":"N",
 "iskey":"N",
 "isorderby":"N",
 "sortno":0,
 "source_column_id":77693,
 "target_column_id":4714,
 "updated":"2015-08-13T23:19:33",
 "updatedby":100}, "children" : []},{"tablename" : "ad_importcolumn", "data" : {"ad_importcolumn_id":50021,
 "ad_client_id":0,
 "ad_import_id":50001,
 "ad_org_id":0,
 "created":"2015-08-13T23:19:59",
 "createdby":100,
 "defaultvalue":null,
 "description":null,
 "isactive":"Y",
 "isgroupby":"N",
 "iskey":"N",
 "isorderby":"N",
 "sortno":0,
 "source_column_id":77694,
 "target_column_id":4715,
 "updated":"2015-08-13T23:19:59",
 "updatedby":100}, "children" : []},{"tablename" : "ad_importcolumn", "data" : {"ad_importcolumn_id":50022,
 "ad_client_id":0,
 "ad_import_id":50001,
 "ad_org_id":0,
 "created":"2015-08-13T23:20:25",
 "createdby":100,
 "defaultvalue":null,
 "description":null,
 "isactive":"Y",
 "isgroupby":"N",
 "iskey":"N",
 "isorderby":"N",
 "sortno":0,
 "source_column_id":77701,
 "target_column_id":4723,
 "updated":"2015-08-13T23:20:25",
 "updatedby":100}, "children" : []},{"tablename" : "ad_importcolumn", "data" : {"ad_importcolumn_id":50023,
 "ad_client_id":0,
 "ad_import_id":50001,
 "ad_org_id":0,
 "created":"2015-08-13T23:20:39",
 "createdby":100,
 "defaultvalue":null,
 "description":null,
 "isactive":"Y",
 "isgroupby":"N",
 "iskey":"N",
 "isorderby":"N",
 "sortno":0,
 "source_column_id":77702,
 "target_column_id":8555,
 "updated":"2015-08-13T23:20:39",
 "updatedby":100}, "children" : []},{"tablename" : "ad_importcolumn", "data" : {"ad_importcolumn_id":50024,
 "ad_client_id":0,
 "ad_import_id":50001,
 "ad_org_id":0,
 "created":"2015-08-13T23:20:53",
 "createdby":100,
 "defaultvalue":null,
 "description":null,
 "isactive":"Y",
 "isgroupby":"N",
 "iskey":"N",
 "isorderby":"N",
 "sortno":0,
 "source_column_id":77696,
 "target_column_id":4717,
 "updated":"2015-08-13T23:20:53",
 "updatedby":100}, "children" : []},{"tablename" : "ad_importcolumn", "data" : {"ad_importcolumn_id":50025,
 "ad_client_id":0,
 "ad_import_id":50001,
 "ad_org_id":0,
 "created":"2015-08-13T23:21:13",
 "createdby":100,
 "defaultvalue":null,
 "description":null,
 "isactive":"Y",
 "isgroupby":"N",
 "iskey":"N",
 "isorderby":"N",
 "sortno":0,
 "source_column_id":77698,
 "target_column_id":4718,
 "updated":"2015-08-13T23:21:13",
 "updatedby":100}, "children" : []},{"tablename" : "ad_importcolumn", "data" : {"ad_importcolumn_id":50026,
 "ad_client_id":0,
 "ad_import_id":50001,
 "ad_org_id":0,
 "created":"2015-08-13T23:21:28",
 "createdby":100,
 "defaultvalue":null,
 "description":null,
 "isactive":"Y",
 "isgroupby":"N",
 "iskey":"N",
 "isorderby":"N",
 "sortno":0,
 "source_column_id":77705,
 "target_column_id":4724,
 "updated":"2015-08-13T23:21:28",
 "updatedby":100}, "children" : []},{"tablename" : "ad_importcolumn", "data" : {"ad_importcolumn_id":50027,
 "ad_client_id":0,
 "ad_import_id":50001,
 "ad_org_id":0,
 "created":"2015-08-13T23:22:04",
 "createdby":100,
 "defaultvalue":null,
 "description":null,
 "isactive":"Y",
 "isgroupby":"N",
 "iskey":"N",
 "isorderby":"N",
 "sortno":0,
 "source_column_id":77695,
 "target_column_id":4716,
 "updated":"2015-08-13T23:22:04",
 "updatedby":100}, "children" : []},{"tablename" : "ad_importcolumn", "data" : {"ad_importcolumn_id":50028,
 "ad_client_id":0,
 "ad_import_id":50001,
 "ad_org_id":0,
 "created":"2015-08-13T23:22:21",
 "createdby":100,
 "defaultvalue":null,
 "description":null,
 "isactive":"Y",
 "isgroupby":"N",
 "iskey":"N",
 "isorderby":"N",
 "sortno":0,
 "source_column_id":77707,
 "target_column_id":4770,
 "updated":"2015-08-13T23:22:21",
 "updatedby":100}, "children" : []},{"tablename" : "ad_importcolumn", "data" : {"ad_importcolumn_id":50029,
 "ad_client_id":0,
 "ad_import_id":50001,
 "ad_org_id":0,
 "created":"2015-08-13T23:23:04",
 "createdby":100,
 "defaultvalue":null,
 "description":null,
 "isactive":"Y",
 "isgroupby":"N",
 "iskey":"N",
 "isorderby":"N",
 "sortno":0,
 "source_column_id":77709,
 "target_column_id":4722,
 "updated":"2016-04-11T16:51:53",
 "updatedby":0}, "children" : []},{"tablename" : "ad_importcolumn", "data" : {"ad_importcolumn_id":50030,
 "ad_client_id":0,
 "ad_import_id":50001,
 "ad_org_id":0,
 "created":"2015-08-13T23:23:32",
 "createdby":100,
 "defaultvalue":null,
 "description":null,
 "isactive":"Y",
 "isgroupby":"N",
 "iskey":"N",
 "isorderby":"N",
 "sortno":0,
 "source_column_id":77710,
 "target_column_id":4721,
 "updated":"2015-08-13T23:23:32",
 "updatedby":100}, "children" : []},{"tablename" : "ad_importcolumn", "data" : {"ad_importcolumn_id":50031,
 "ad_client_id":0,
 "ad_import_id":50001,
 "ad_org_id":0,
 "created":"2015-08-13T23:23:48",
 "createdby":100,
 "defaultvalue":null,
 "description":null,
 "isactive":"Y",
 "isgroupby":"N",
 "iskey":"N",
 "isorderby":"N",
 "sortno":0,
 "source_column_id":77697,
 "target_column_id":4719,
 "updated":"2015-08-13T23:23:48",
 "updatedby":100}, "children" : []},{"tablename" : "ad_importcolumn", "data" : {"ad_importcolumn_id":50032,
 "ad_client_id":0,
 "ad_import_id":50001,
 "ad_org_id":0,
 "created":"2015-08-13T23:24:14",
 "createdby":100,
 "defaultvalue":null,
 "description":null,
 "isactive":"Y",
 "isgroupby":"N",
 "iskey":"N",
 "isorderby":"N",
 "sortno":0,
 "source_column_id":77699,
 "target_column_id":4720,
 "updated":"2015-08-13T23:24:14",
 "updatedby":100}, "children" : []},{"tablename" : "ad_importvalidation", "data" : {"ad_importvalidation_id":50001,
 "name":"Match ",
 "ad_client_id":0,
 "ad_import_id":50001,
 "ad_org_id":0,
 "created":"2015-08-13T23:18:42",
 "createdby":100,
 "description":null,
 "isactive":"Y",
 "seqno":10,
 "sqlstatement":"UPDATE I_Product_BOM SET M_Product_BOM_ID = (SELECT u.M_Product_BOM_ID FROM M_Product_BOM b WHERE b.M_ProductBOM_ID` = I_User.M_ProductBOM_ID)",
 "updated":"2015-08-13T23:18:42",
 "updatedby":100}, "children" : []}]},
 {"tablename" : "ad_import", "data" : {"ad_import_id":50002,
 "name":"Import Attribute Set Instance",
 "ad_client_id":0,
 "ad_org_id":0,
 "classname":null,
 "created":"2015-08-13T23:32:12",
 "createdby":100,
 "description":null,
 "isactive":"Y",
 "source_table_id":54030,
 "target_table_id":559,
 "updated":"2015-08-13T23:32:12",
 "updatedby":100}, "children" : [{"tablename" : "ad_importcolumn", "data" : {"ad_importcolumn_id":50033,
 "ad_client_id":0,
 "ad_import_id":50002,
 "ad_org_id":0,
 "created":"2015-08-13T23:33:34",
 "createdby":100,
 "defaultvalue":null,
 "description":null,
 "isactive":"Y",
 "isgroupby":"N",
 "iskey":"N",
 "isorderby":"N",
 "sortno":0,
 "source_column_id":77716,
 "target_column_id":8482,
 "updated":"2015-08-13T23:33:34",
 "updatedby":100}, "children" : []},{"tablename" : "ad_importcolumn", "data" : {"ad_importcolumn_id":50034,
 "ad_client_id":0,
 "ad_import_id":50002,
 "ad_org_id":0,
 "created":"2015-08-13T23:33:54",
 "createdby":100,
 "defaultvalue":null,
 "description":null,
 "isactive":"Y",
 "isgroupby":"N",
 "iskey":"N",
 "isorderby":"N",
 "sortno":0,
 "source_column_id":77717,
 "target_column_id":8481,
 "updated":"2015-08-13T23:33:54",
 "updatedby":100}, "children" : []},{"tablename" : "ad_importcolumn", "data" : {"ad_importcolumn_id":50035,
 "ad_client_id":0,
 "ad_import_id":50002,
 "ad_org_id":0,
 "created":"2015-08-13T23:34:07",
 "createdby":100,
 "defaultvalue":null,
 "description":null,
 "isactive":"Y",
 "isgroupby":"N",
 "iskey":"N",
 "isorderby":"N",
 "sortno":0,
 "source_column_id":77719,
 "target_column_id":8475,
 "updated":"2015-08-13T23:34:07",
 "updatedby":100}, "children" : []},{"tablename" : "ad_importcolumn", "data" : {"ad_importcolumn_id":50036,
 "ad_client_id":0,
 "ad_import_id":50002,
 "ad_org_id":0,
 "created":"2015-08-13T23:34:16",
 "createdby":100,
 "defaultvalue":null,
 "description":null,
 "isactive":"Y",
 "isgroupby":"N",
 "iskey":"N",
 "isorderby":"N",
 "sortno":0,
 "source_column_id":77721,
 "target_column_id":8478,
 "updated":"2015-08-13T23:34:16",
 "updatedby":100}, "children" : []},{"tablename" : "ad_importcolumn", "data" : {"ad_importcolumn_id":50037,
 "ad_client_id":0,
 "ad_import_id":50002,
 "ad_org_id":0,
 "created":"2015-08-13T23:34:53",
 "createdby":100,
 "defaultvalue":null,
 "description":null,
 "isactive":"Y",
 "isgroupby":"N",
 "iskey":"N",
 "isorderby":"N",
 "sortno":0,
 "source_column_id":77725,
 "target_column_id":8479,
 "updated":"2015-08-13T23:34:53",
 "updatedby":100}, "children" : []},{"tablename" : "ad_importcolumn", "data" : {"ad_importcolumn_id":50038,
 "ad_client_id":0,
 "ad_import_id":50002,
 "ad_org_id":0,
 "created":"2015-08-13T23:35:02",
 "createdby":100,
 "defaultvalue":null,
 "description":null,
 "isactive":"Y",
 "isgroupby":"N",
 "iskey":"N",
 "isorderby":"N",
 "sortno":0,
 "source_column_id":77726,
 "target_column_id":8471,
 "updated":"2016-04-11T16:51:59",
 "updatedby":0}, "children" : []},{"tablename" : "ad_importcolumn", "data" : {"ad_importcolumn_id":50039,
 "ad_client_id":0,
 "ad_import_id":50002,
 "ad_org_id":0,
 "created":"2015-08-13T23:36:19",
 "createdby":100,
 "defaultvalue":null,
 "description":null,
 "isactive":"Y",
 "isgroupby":"N",
 "iskey":"N",
 "isorderby":"N",
 "sortno":0,
 "source_column_id":77718,
 "target_column_id":8476,
 "updated":"2015-08-13T23:36:19",
 "updatedby":100}, "children" : []},{"tablename" : "ad_importcolumn", "data" : {"ad_importcolumn_id":50040,
 "ad_client_id":0,
 "ad_import_id":50002,
 "ad_org_id":0,
 "created":"2015-08-13T23:36:29",
 "createdby":100,
 "defaultvalue":null,
 "description":null,
 "isactive":"Y",
 "isgroupby":"N",
 "iskey":"N",
 "isorderby":"N",
 "sortno":0,
 "source_column_id":77727,
 "target_column_id":8473,
 "updated":"2015-08-13T23:36:29",
 "updatedby":100}, "children" : []},{"tablename" : "ad_importcolumn", "data" : {"ad_importcolumn_id":50041,
 "ad_client_id":0,
 "ad_import_id":50002,
 "ad_org_id":0,
 "created":"2015-08-13T23:36:44",
 "createdby":100,
 "defaultvalue":null,
 "description":null,
 "isactive":"Y",
 "isgroupby":"N",
 "iskey":"N",
 "isorderby":"N",
 "sortno":0,
 "source_column_id":77728,
 "target_column_id":8477,
 "updated":"2015-08-13T23:36:44",
 "updatedby":100}, "children" : []},{"tablename" : "ad_importcolumn", "data" : {"ad_importcolumn_id":50042,
 "ad_client_id":0,
 "ad_import_id":50002,
 "ad_org_id":0,
 "created":"2015-08-13T23:37:04",
 "createdby":100,
 "defaultvalue":null,
 "description":null,
 "isactive":"Y",
 "isgroupby":"N",
 "iskey":"N",
 "isorderby":"N",
 "sortno":0,
 "source_column_id":77729,
 "target_column_id":9771,
 "updated":"2015-08-13T23:37:04",
 "updatedby":100}, "children" : []},{"tablename" : "ad_importcolumn", "data" : {"ad_importcolumn_id":50043,
 "ad_client_id":0,
 "ad_import_id":50002,
 "ad_org_id":0,
 "created":"2015-08-13T23:37:20",
 "createdby":100,
 "defaultvalue":null,
 "description":null,
 "isactive":"Y",
 "isgroupby":"N",
 "iskey":"N",
 "isorderby":"N",
 "sortno":0,
 "source_column_id":77730,
 "target_column_id":8470,
 "updated":"2015-08-13T23:37:20",
 "updatedby":100}, "children" : []},{"tablename" : "ad_importcolumn", "data" : {"ad_importcolumn_id":50044,
 "ad_client_id":0,
 "ad_import_id":50002,
 "ad_org_id":0,
 "created":"2015-08-13T23:37:31",
 "createdby":100,
 "defaultvalue":null,
 "description":null,
 "isactive":"Y",
 "isgroupby":"N",
 "iskey":"N",
 "isorderby":"N",
 "sortno":0,
 "source_column_id":77720,
 "target_column_id":8474,
 "updated":"2015-08-13T23:37:31",
 "updatedby":100}, "children" : []}]}]