[{"tablename" : "ad_orginfo", "data" : {"ad_org_id":0,
 "ad_client_id":0,
 "ad_orgtype_id":null,
 "c_bankaccount_id":null,
 "c_calendar_id":null,
 "c_location_id":109,
 "created":"1999-12-10T17:04:26",
 "createdby":0,
 "dropship_warehouse_id":null,
 "duns":"0          ",
 "email":null,
 "fax":null,
 "fglocator_id":null,
 "isactive":"Y",
 "logo_id":null,
 "m_producttemplate_id":null,
 "m_warehouse_id":null,
 "parent_org_id":null,
 "phone":null,
 "phone2":null,
 "receiptfootermsg":null,
 "supervisor_id":null,
 "taxid":"0",
 "transferbank_id":null,
 "updated":"2000-01-02T00:00:00",
 "updatedby":0}, "children" : []}]