[{"tablename" : "ad_reportview", "data" : {"ad_reportview_id":0,
 "name":"*None*",
 "ad_client_id":0,
 "ad_org_id":0,
 "ad_table_id":100,
 "created":"2000-05-01T20:12:41",
 "createdby":0,
 "description":"Do not change",
 "entitytype":"D",
 "isactive":"Y",
 "orderbyclause":null,
 "updated":"2000-01-02T00:00:00",
 "updatedby":0,
 "whereclause":null}, "children" : []},
 {"tablename" : "ad_reportview", "data" : {"ad_reportview_id":100,
 "name":"RV_Order",
 "ad_client_id":0,
 "ad_org_id":0,
 "ad_table_id":259,
 "created":"2000-05-02T20:12:53",
 "createdby":0,
 "description":null,
 "entitytype":"Quote-to-Invoice",
 "isactive":"Y",
 "orderbyclause":null,
 "updated":"2005-08-27T08:51:25",
 "updatedby":100,
 "whereclause":null}, "children" : []},
 {"tablename" : "ad_reportview", "data" : {"ad_reportview_id":102,
 "name":"Vendor Selection",
 "ad_client_id":0,
 "ad_org_id":0,
 "ad_table_id":210,
 "created":"2000-10-12T22:28:28",
 "createdby":0,
 "description":"ProductPO - More then one Vendor",
 "entitytype":"Material Management Rules",
 "isactive":"Y",
 "orderbyclause":null,
 "updated":"2000-01-02T00:00:00",
 "updatedby":0,
 "whereclause":"EXISTS (SELECT M_Product_ID FROM M_Product_PO pp WHERE M_Product_PO.M_Product_ID=pp.M_Product_ID GROUP BY M_Product_ID HAVING COUNT(*) > 1)"}, "children" : []},
 {"tablename" : "ad_reportview", "data" : {"ad_reportview_id":103,
 "name":"UnReconciled Payments",
 "ad_client_id":0,
 "ad_org_id":0,
 "ad_table_id":554,
 "created":"2001-01-03T23:00:04",
 "createdby":0,
 "description":"Payments - Not reconciled and not zero",
 "entitytype":"Open Items",
 "isactive":"Y",
 "orderbyclause":null,
 "updated":"2005-01-27T23:44:12",
 "updatedby":100,
 "whereclause":"IsReconciled='N' AND PayAmt<>0"}, "children" : []},
 {"tablename" : "ad_reportview", "data" : {"ad_reportview_id":104,
 "name":"RV_Order_Open",
 "ad_client_id":0,
 "ad_org_id":0,
 "ad_table_id":360,
 "created":"2001-02-01T13:44:46",
 "createdby":0,
 "description":null,
 "entitytype":"Quote-to-Invoice",
 "isactive":"Y",
 "orderbyclause":null,
 "updated":"2006-09-24T16:26:51",
 "updatedby":100,
 "whereclause":"(QtyToDeliver<>0 OR QtyToInvoice<>0) AND DocStatus NOT IN ('VO','CL')"}, "children" : []},
 {"tablename" : "ad_reportview", "data" : {"ad_reportview_id":105,
 "name":"RV_M_Transaction_Sum",
 "ad_client_id":0,
 "ad_org_id":0,
 "ad_table_id":363,
 "created":"2001-02-01T13:44:46",
 "createdby":0,
 "description":null,
 "entitytype":"Material Management",
 "isactive":"Y",
 "orderbyclause":null,
 "updated":"2000-01-02T00:00:00",
 "updatedby":0,
 "whereclause":null}, "children" : []},
 {"tablename" : "ad_reportview", "data" : {"ad_reportview_id":106,
 "name":"T_Replenish",
 "ad_client_id":0,
 "ad_org_id":0,
 "ad_table_id":364,
 "created":"2001-02-01T13:44:46",
 "createdby":0,
 "description":null,
 "entitytype":"Material Management",
 "isactive":"Y",
 "orderbyclause":null,
 "updated":"2011-07-27T16:24:17",
 "updatedby":100,
 "whereclause":null}, "children" : []},
 {"tablename" : "ad_reportview", "data" : {"ad_reportview_id":107,
 "name":"T_Spool",
 "ad_client_id":0,
 "ad_org_id":0,
 "ad_table_id":365,
 "created":"2001-02-01T13:44:46",
 "createdby":0,
 "description":null,
 "entitytype":"D",
 "isactive":"Y",
 "orderbyclause":null,
 "updated":"2000-01-02T00:00:00",
 "updatedby":0,
 "whereclause":null}, "children" : []},
 {"tablename" : "ad_reportview", "data" : {"ad_reportview_id":108,
 "name":"RV_C_Invoice_Day",
 "ad_client_id":0,
 "ad_org_id":0,
 "ad_table_id":369,
 "created":"2001-02-01T13:44:46",
 "createdby":0,
 "description":null,
 "entitytype":"Quote-to-Invoice",
 "isactive":"Y",
 "orderbyclause":null,
 "updated":"2000-01-02T00:00:00",
 "updatedby":0,
 "whereclause":null}, "children" : []},
 {"tablename" : "ad_reportview", "data" : {"ad_reportview_id":109,
 "name":"RV_C_Invoice_Month",
 "ad_client_id":0,
 "ad_org_id":0,
 "ad_table_id":370,
 "created":"2001-02-01T13:44:46",
 "createdby":0,
 "description":null,
 "entitytype":"Quote-to-Invoice",
 "isactive":"Y",
 "orderbyclause":null,
 "updated":"2000-01-02T00:00:00",
 "updatedby":0,
 "whereclause":null}, "children" : []},
 {"tablename" : "ad_reportview", "data" : {"ad_reportview_id":110,
 "name":"RV_C_Invoice_ProdMonth",
 "ad_client_id":0,
 "ad_org_id":0,
 "ad_table_id":371,
 "created":"2001-02-01T13:44:46",
 "createdby":0,
 "description":null,
 "entitytype":"Quote-to-Invoice",
 "isactive":"Y",
 "orderbyclause":null,
 "updated":"2000-01-02T00:00:00",
 "updatedby":0,
 "whereclause":null}, "children" : []},
 {"tablename" : "ad_reportview", "data" : {"ad_reportview_id":111,
 "name":"RV_C_Invoice_ProdWeek",
 "ad_client_id":0,
 "ad_org_id":0,
 "ad_table_id":372,
 "created":"2001-02-01T13:44:46",
 "createdby":0,
 "description":null,
 "entitytype":"Quote-to-Invoice",
 "isactive":"Y",
 "orderbyclause":null,
 "updated":"2000-01-02T00:00:00",
 "updatedby":0,
 "whereclause":null}, "children" : []},
 {"tablename" : "ad_reportview", "data" : {"ad_reportview_id":112,
 "name":"RV_C_Invoice_VendorMonth",
 "ad_client_id":0,
 "ad_org_id":0,
 "ad_table_id":373,
 "created":"2001-02-01T13:44:46",
 "createdby":0,
 "description":null,
 "entitytype":"Quote-to-Invoice",
 "isactive":"Y",
 "orderbyclause":null,
 "updated":"2000-01-02T00:00:00",
 "updatedby":0,
 "whereclause":null}, "children" : []},
 {"tablename" : "ad_reportview", "data" : {"ad_reportview_id":113,
 "name":"RV_C_Invoice_Week",
 "ad_client_id":0,
 "ad_org_id":0,
 "ad_table_id":374,
 "created":"2001-02-01T13:44:46",
 "createdby":0,
 "description":null,
 "entitytype":"Quote-to-Invoice",
 "isactive":"Y",
 "orderbyclause":null,
 "updated":"2000-01-02T00:00:00",
 "updatedby":0,
 "whereclause":null}, "children" : []},
 {"tablename" : "ad_reportview", "data" : {"ad_reportview_id":114,
 "name":"RV_C_Invoice_CustomerProdQtr",
 "ad_client_id":0,
 "ad_org_id":0,
 "ad_table_id":387,
 "created":"2001-02-01T13:44:46",
 "createdby":0,
 "description":null,
 "entitytype":"Quote-to-Invoice",
 "isactive":"Y",
 "orderbyclause":null,
 "updated":"2000-01-02T00:00:00",
 "updatedby":0,
 "whereclause":null}, "children" : []},
 {"tablename" : "ad_reportview", "data" : {"ad_reportview_id":115,
 "name":"RV_C_Invoice_CustomerVendQtr",
 "ad_client_id":0,
 "ad_org_id":0,
 "ad_table_id":388,
 "created":"2001-02-01T13:44:46",
 "createdby":0,
 "description":null,
 "entitytype":"Quote-to-Invoice",
 "isactive":"Y",
 "orderbyclause":null,
 "updated":"2000-01-02T00:00:00",
 "updatedby":0,
 "whereclause":null}, "children" : []},
 {"tablename" : "ad_reportview", "data" : {"ad_reportview_id":116,
 "name":"RV_Allocation",
 "ad_client_id":0,
 "ad_org_id":0,
 "ad_table_id":736,
 "created":"2001-02-01T13:44:46",
 "createdby":0,
 "description":null,
 "entitytype":"Open Items",
 "isactive":"Y",
 "orderbyclause":null,
 "updated":"2000-01-02T00:00:00",
 "updatedby":0,
 "whereclause":null}, "children" : []},
 {"tablename" : "ad_reportview", "data" : {"ad_reportview_id":117,
 "name":"RV_OpenItem",
 "ad_client_id":0,
 "ad_org_id":0,
 "ad_table_id":413,
 "created":"2001-02-01T13:44:46",
 "createdby":0,
 "description":null,
 "entitytype":"Partner Relations",
 "isactive":"Y",
 "orderbyclause":null,
 "updated":"2000-01-02T00:00:00",
 "updatedby":0,
 "whereclause":null}, "children" : []},
 {"tablename" : "ad_reportview", "data" : {"ad_reportview_id":118,
 "name":"RV_C_Invoice",
 "ad_client_id":0,
 "ad_org_id":0,
 "ad_table_id":423,
 "created":"2001-02-01T13:44:46",
 "createdby":0,
 "description":null,
 "entitytype":"Quote-to-Invoice",
 "isactive":"Y",
 "orderbyclause":null,
 "updated":"2000-01-02T00:00:00",
 "updatedby":0,
 "whereclause":null}, "children" : []},
 {"tablename" : "ad_reportview", "data" : {"ad_reportview_id":119,
 "name":"RV_C_InvoiceLine",
 "ad_client_id":0,
 "ad_org_id":0,
 "ad_table_id":424,
 "created":"2001-02-01T13:44:46",
 "createdby":0,
 "description":null,
 "entitytype":"Quote-to-Invoice",
 "isactive":"Y",
 "orderbyclause":null,
 "updated":"2000-01-02T00:00:00",
 "updatedby":0,
 "whereclause":null}, "children" : []},
 {"tablename" : "ad_reportview", "data" : {"ad_reportview_id":120,
 "name":"X_DunningLetter",
 "ad_client_id":0,
 "ad_org_id":0,
 "ad_table_id":318,
 "created":"2001-02-25T21:18:49",
 "createdby":0,
 "description":null,
 "entitytype":"D",
 "isactive":"Y",
 "orderbyclause":null,
 "updated":"2000-01-02T00:00:00",
 "updatedby":0,
 "whereclause":null}, "children" : []},
 {"tablename" : "ad_reportview", "data" : {"ad_reportview_id":122,
 "name":"RV_M_Transaction",
 "ad_client_id":0,
 "ad_org_id":0,
 "ad_table_id":425,
 "created":"2001-02-25T22:41:54",
 "createdby":0,
 "description":null,
 "entitytype":"Material Management",
 "isactive":"Y",
 "orderbyclause":null,
 "updated":"2000-01-02T00:00:00",
 "updatedby":0,
 "whereclause":null}, "children" : []},
 {"tablename" : "ad_reportview", "data" : {"ad_reportview_id":124,
 "name":"RV_T_InventoryValueByLocator",
 "ad_client_id":0,
 "ad_org_id":0,
 "ad_table_id":478,
 "created":"2002-01-17T21:55:38",
 "createdby":0,
 "description":"Inventory valuation by Locator",
 "entitytype":"Material Management",
 "isactive":"Y",
 "orderbyclause":null,
 "updated":"2019-02-04T13:38:54",
 "updatedby":0,
 "whereclause":null}, "children" : []},
 {"tablename" : "ad_reportview", "data" : {"ad_reportview_id":126,
 "name":"T_Report",
 "ad_client_id":0,
 "ad_org_id":0,
 "ad_table_id":544,
 "created":"2003-02-14T15:02:47",
 "createdby":0,
 "description":null,
 "entitytype":"Financial Reporting",
 "isactive":"Y",
 "orderbyclause":null,
 "updated":"2000-01-02T00:00:00",
 "updatedby":0,
 "whereclause":null}, "children" : []},
 {"tablename" : "ad_reportview", "data" : {"ad_reportview_id":127,
 "name":"T_ReportStatement",
 "ad_client_id":0,
 "ad_org_id":0,
 "ad_table_id":545,
 "created":"2003-02-15T01:00:18",
 "createdby":0,
 "description":null,
 "entitytype":"Financial Reporting",
 "isactive":"Y",
 "orderbyclause":null,
 "updated":"2000-01-02T00:00:00",
 "updatedby":0,
 "whereclause":null}, "children" : []},
 {"tablename" : "ad_reportview", "data" : {"ad_reportview_id":128,
 "name":"RV_ProjectCycle",
 "ad_client_id":0,
 "ad_org_id":0,
 "ad_table_id":620,
 "created":"2003-08-17T16:51:56",
 "createdby":0,
 "description":null,
 "entitytype":"Project Management",
 "isactive":"Y",
 "orderbyclause":null,
 "updated":"2000-01-02T00:00:00",
 "updatedby":0,
 "whereclause":null}, "children" : []},
 {"tablename" : "ad_reportview", "data" : {"ad_reportview_id":129,
 "name":"RV_Asset_Customer",
 "ad_client_id":0,
 "ad_org_id":0,
 "ad_table_id":622,
 "created":"2003-08-28T16:58:00",
 "createdby":0,
 "description":null,
 "entitytype":"Assets",
 "isactive":"Y",
 "orderbyclause":null,
 "updated":"2008-05-30T16:38:11",
 "updatedby":100,
 "whereclause":null}, "children" : []},
 {"tablename" : "ad_reportview", "data" : {"ad_reportview_id":130,
 "name":"RV_Asset_Delivery",
 "ad_client_id":0,
 "ad_org_id":0,
 "ad_table_id":621,
 "created":"2003-08-28T16:58:39",
 "createdby":0,
 "description":null,
 "entitytype":"Assets",
 "isactive":"Y",
 "orderbyclause":null,
 "updated":"2008-05-30T16:38:11",
 "updatedby":100,
 "whereclause":null}, "children" : []},
 {"tablename" : "ad_reportview", "data" : {"ad_reportview_id":131,
 "name":"RV_Fact_Acct",
 "ad_client_id":0,
 "ad_org_id":0,
 "ad_table_id":657,
 "created":"2003-09-02T20:54:27",
 "createdby":0,
 "description":null,
 "entitytype":"Project Management",
 "isactive":"Y",
 "orderbyclause":null,
 "updated":"2000-01-02T00:00:00",
 "updatedby":0,
 "whereclause":null}, "children" : []},
 {"tablename" : "ad_reportview", "data" : {"ad_reportview_id":132,
 "name":"C_ProjectLine Not Received POs",
 "ad_client_id":0,
 "ad_org_id":0,
 "ad_table_id":434,
 "created":"2003-09-04T16:07:19",
 "createdby":0,
 "description":"ProjectLine - PO exists but no Issue",
 "entitytype":"Project Management",
 "isactive":"Y",
 "orderbyclause":null,
 "updated":"2000-01-02T00:00:00",
 "updatedby":0,
 "whereclause":"C_ProjectLine.C_OrderPO_ID IS NOT NULL AND C_ProjectLine.C_ProjectIssue_ID IS NULL"}, "children" : []},
 {"tablename" : "ad_reportview", "data" : {"ad_reportview_id":133,
 "name":"C_ProjectLine Not Issued",
 "ad_client_id":0,
 "ad_org_id":0,
 "ad_table_id":434,
 "created":"2003-09-04T16:07:48",
 "createdby":0,
 "description":"ProjectLine - No Issue",
 "entitytype":"Project Management",
 "isactive":"Y",
 "orderbyclause":null,
 "updated":"2000-01-02T00:00:00",
 "updatedby":0,
 "whereclause":"C_ProjectLine.C_ProjectIssue_ID IS NULL"}, "children" : []},
 {"tablename" : "ad_reportview", "data" : {"ad_reportview_id":134,
 "name":"RV_ProjectLineIssue",
 "ad_client_id":0,
 "ad_org_id":0,
 "ad_table_id":628,
 "created":"2003-10-12T23:30:52",
 "createdby":0,
 "description":null,
 "entitytype":"Project Management",
 "isactive":"Y",
 "orderbyclause":null,
 "updated":"2000-01-02T00:00:00",
 "updatedby":0,
 "whereclause":null}, "children" : []},
 {"tablename" : "ad_reportview", "data" : {"ad_reportview_id":135,
 "name":"RV_Storage",
 "ad_client_id":0,
 "ad_org_id":0,
 "ad_table_id":630,
 "created":"2003-12-04T23:45:44",
 "createdby":0,
 "description":null,
 "entitytype":"Material Management",
 "isactive":"Y",
 "orderbyclause":null,
 "updated":"2000-01-02T00:00:00",
 "updatedby":0,
 "whereclause":null}, "children" : []},
 {"tablename" : "ad_reportview", "data" : {"ad_reportview_id":136,
 "name":"RV_Transaction",
 "ad_client_id":0,
 "ad_org_id":0,
 "ad_table_id":629,
 "created":"2003-12-04T23:46:19",
 "createdby":0,
 "description":null,
 "entitytype":"Material Management",
 "isactive":"Y",
 "orderbyclause":null,
 "updated":"2000-01-02T00:00:00",
 "updatedby":0,
 "whereclause":null}, "children" : []},
 {"tablename" : "ad_reportview", "data" : {"ad_reportview_id":137,
 "name":"T_Aging",
 "ad_client_id":0,
 "ad_org_id":0,
 "ad_table_id":631,
 "created":"2003-12-05T13:49:56",
 "createdby":0,
 "description":null,
 "entitytype":"Open Items",
 "isactive":"Y",
 "orderbyclause":null,
 "updated":"2000-01-02T00:00:00",
 "updatedby":0,
 "whereclause":null}, "children" : []},
 {"tablename" : "ad_reportview", "data" : {"ad_reportview_id":138,
 "name":"RV_Click_Month",
 "ad_client_id":0,
 "ad_org_id":0,
 "ad_table_id":634,
 "created":"2003-12-11T20:33:58",
 "createdby":0,
 "description":null,
 "entitytype":"Web",
 "isactive":"Y",
 "orderbyclause":null,
 "updated":"2000-01-02T00:00:00",
 "updatedby":0,
 "whereclause":null}, "children" : []},
 {"tablename" : "ad_reportview", "data" : {"ad_reportview_id":139,
 "name":"RV_Click_Unprocessed",
 "ad_client_id":0,
 "ad_org_id":0,
 "ad_table_id":633,
 "created":"2003-12-11T20:34:42",
 "createdby":0,
 "description":null,
 "entitytype":"Web",
 "isactive":"Y",
 "orderbyclause":null,
 "updated":"2000-01-02T00:00:00",
 "updatedby":0,
 "whereclause":null}, "children" : []},
 {"tablename" : "ad_reportview", "data" : {"ad_reportview_id":140,
 "name":"RV_C_InvoiceTax",
 "ad_client_id":0,
 "ad_org_id":0,
 "ad_table_id":654,
 "created":"2004-01-09T14:28:44",
 "createdby":0,
 "description":null,
 "entitytype":"Open Items",
 "isactive":"Y",
 "orderbyclause":null,
 "updated":"2000-01-02T00:00:00",
 "updatedby":0,
 "whereclause":null}, "children" : []},
 {"tablename" : "ad_reportview", "data" : {"ad_reportview_id":142,
 "name":"RV_Fact_Acct_Day",
 "ad_client_id":0,
 "ad_org_id":0,
 "ad_table_id":656,
 "created":"2004-01-09T15:30:23",
 "createdby":0,
 "description":null,
 "entitytype":"Performance Analysis",
 "isactive":"Y",
 "orderbyclause":null,
 "updated":"2000-01-02T00:00:00",
 "updatedby":0,
 "whereclause":null}, "children" : []},
 {"tablename" : "ad_reportview", "data" : {"ad_reportview_id":143,
 "name":"RV_Fact_Acct_Period",
 "ad_client_id":0,
 "ad_org_id":0,
 "ad_table_id":655,
 "created":"2004-01-09T15:30:55",
 "createdby":0,
 "description":null,
 "entitytype":"Performance Analysis",
 "isactive":"Y",
 "orderbyclause":null,
 "updated":"2000-01-02T00:00:00",
 "updatedby":0,
 "whereclause":null}, "children" : []},
 {"tablename" : "ad_reportview", "data" : {"ad_reportview_id":144,
 "name":"RV_C_RfQ_UnAnswered",
 "ad_client_id":0,
 "ad_org_id":0,
 "ad_table_id":709,
 "created":"2004-03-24T01:25:16",
 "createdby":0,
 "description":null,
 "entitytype":"Requisition-to-Invoice",
 "isactive":"Y",
 "orderbyclause":null,
 "updated":"2000-01-02T00:00:00",
 "updatedby":0,
 "whereclause":null}, "children" : []},
 {"tablename" : "ad_reportview", "data" : {"ad_reportview_id":145,
 "name":"RV_C_RfQResponse",
 "ad_client_id":0,
 "ad_org_id":0,
 "ad_table_id":710,
 "created":"2004-03-24T01:29:44",
 "createdby":0,
 "description":null,
 "entitytype":"Requisition-to-Invoice",
 "isactive":"Y",
 "orderbyclause":null,
 "updated":"2000-01-02T00:00:00",
 "updatedby":0,
 "whereclause":null}, "children" : []},
 {"tablename" : "ad_reportview", "data" : {"ad_reportview_id":146,
 "name":"RV_M_Requisition Open",
 "ad_client_id":0,
 "ad_org_id":0,
 "ad_table_id":711,
 "created":"2004-03-25T15:36:58",
 "createdby":0,
 "description":null,
 "entitytype":"Requisition-to-Invoice",
 "isactive":"Y",
 "orderbyclause":null,
 "updated":"2009-08-24T15:50:36",
 "updatedby":0,
 "whereclause":"Qty<>QtyOrdered"}, "children" : []},
 {"tablename" : "ad_reportview", "data" : {"ad_reportview_id":147,
 "name":"RV_Asset_SumMonth",
 "ad_client_id":0,
 "ad_org_id":0,
 "ad_table_id":716,
 "created":"2004-04-13T11:18:24",
 "createdby":0,
 "description":null,
 "entitytype":"Assets",
 "isactive":"Y",
 "orderbyclause":null,
 "updated":"2008-05-30T16:38:11",
 "updatedby":100,
 "whereclause":null}, "children" : []},
 {"tablename" : "ad_reportview", "data" : {"ad_reportview_id":148,
 "name":"RV_InOutConfirm Open",
 "ad_client_id":0,
 "ad_org_id":0,
 "ad_table_id":730,
 "created":"2004-05-18T21:04:02",
 "createdby":0,
 "description":null,
 "entitytype":"Material Management",
 "isactive":"Y",
 "orderbyclause":null,
 "updated":"2000-01-02T00:00:00",
 "updatedby":0,
 "whereclause":"RV_InOutConfirm.Processed='N'"}, "children" : []},
 {"tablename" : "ad_reportview", "data" : {"ad_reportview_id":149,
 "name":"RV_InOutLineConfirm Open",
 "ad_client_id":0,
 "ad_org_id":0,
 "ad_table_id":731,
 "created":"2004-05-18T21:05:04",
 "createdby":0,
 "description":null,
 "entitytype":"Material Management",
 "isactive":"Y",
 "orderbyclause":null,
 "updated":"2000-01-02T00:00:00",
 "updatedby":0,
 "whereclause":"RV_InOutLineConfirm.Processed='N'"}, "children" : []},
 {"tablename" : "ad_reportview", "data" : {"ad_reportview_id":150,
 "name":"RV_PrintFormatDetail",
 "ad_client_id":0,
 "ad_org_id":0,
 "ad_table_id":739,
 "created":"2004-06-18T16:02:03",
 "createdby":0,
 "description":null,
 "entitytype":"System Admin",
 "isactive":"Y",
 "orderbyclause":null,
 "updated":"2000-01-02T00:00:00",
 "updatedby":0,
 "whereclause":null}, "children" : []},
 {"tablename" : "ad_reportview", "data" : {"ad_reportview_id":151,
 "name":"RV_InOutDetails Ship",
 "ad_client_id":0,
 "ad_org_id":0,
 "ad_table_id":751,
 "created":"2004-07-20T21:25:02",
 "createdby":0,
 "description":null,
 "entitytype":"Quote-to-Invoice",
 "isactive":"Y",
 "orderbyclause":null,
 "updated":"2000-01-02T00:00:00",
 "updatedby":0,
 "whereclause":"IsSOTrx='Y'"}, "children" : []},
 {"tablename" : "ad_reportview", "data" : {"ad_reportview_id":152,
 "name":"RV_InOutDetails Receive",
 "ad_client_id":0,
 "ad_org_id":0,
 "ad_table_id":751,
 "created":"2004-07-20T21:25:02",
 "createdby":0,
 "description":null,
 "entitytype":"Requisition-to-Invoice",
 "isactive":"Y",
 "orderbyclause":null,
 "updated":"2000-01-02T00:00:00",
 "updatedby":0,
 "whereclause":"IsSOTrx='N'"}, "children" : []},
 {"tablename" : "ad_reportview", "data" : {"ad_reportview_id":153,
 "name":"T_TrialBalance",
 "ad_client_id":0,
 "ad_org_id":0,
 "ad_table_id":753,
 "created":"2004-10-08T01:50:56",
 "createdby":0,
 "description":null,
 "entitytype":"Partner Relations",
 "isactive":"Y",
 "orderbyclause":null,
 "updated":"2000-01-02T00:00:00",
 "updatedby":0,
 "whereclause":null}, "children" : []},
 {"tablename" : "ad_reportview", "data" : {"ad_reportview_id":154,
 "name":"RV_C_Invoice NotAllocated",
 "ad_client_id":0,
 "ad_org_id":0,
 "ad_table_id":423,
 "created":"2005-01-27T23:33:19",
 "createdby":100,
 "description":null,
 "entitytype":"Open Items",
 "isactive":"Y",
 "orderbyclause":null,
 "updated":"2005-05-05T20:41:11",
 "updatedby":100,
 "whereclause":"NOT EXISTS (SELECT * FROM C_AllocationLine al WHERE al.C_Invoice_ID=RV_C_Invoice.C_Invoice_ID) AND DocStatus IN ('CO','CL')"}, "children" : []},
 {"tablename" : "ad_reportview", "data" : {"ad_reportview_id":155,
 "name":"C_Payment_v UnAllocated",
 "ad_client_id":0,
 "ad_org_id":0,
 "ad_table_id":554,
 "created":"2005-01-27T23:45:52",
 "createdby":100,
 "description":"payments where there is an allocation and no charge",
 "entitytype":"Open Items",
 "isactive":"Y",
 "orderbyclause":null,
 "updated":"2005-10-28T10:17:33",
 "updatedby":100,
 "whereclause":"DocStatus IN ('CO','CL') AND IsAllocated='N'"}, "children" : []},
 {"tablename" : "ad_reportview", "data" : {"ad_reportview_id":156,
 "name":"RV_Payment",
 "ad_client_id":0,
 "ad_org_id":0,
 "ad_table_id":755,
 "created":"2005-02-07T22:20:26",
 "createdby":100,
 "description":null,
 "entitytype":"Partner Relations",
 "isactive":"Y",
 "orderbyclause":null,
 "updated":"2005-02-08T02:20:12",
 "updatedby":100,
 "whereclause":null}, "children" : []},
 {"tablename" : "ad_reportview", "data" : {"ad_reportview_id":157,
 "name":"RV_BPartnerOpen",
 "ad_client_id":0,
 "ad_org_id":0,
 "ad_table_id":756,
 "created":"2005-02-11T23:48:01",
 "createdby":100,
 "description":null,
 "entitytype":"Partner Relations",
 "isactive":"Y",
 "orderbyclause":null,
 "updated":"2005-02-11T23:48:01",
 "updatedby":100,
 "whereclause":null}, "children" : []},
 {"tablename" : "ad_reportview", "data" : {"ad_reportview_id":158,
 "name":"RV_CommissionRunDetail",
 "ad_client_id":0,
 "ad_org_id":0,
 "ad_table_id":757,
 "created":"2005-02-25T16:45:07",
 "createdby":100,
 "description":null,
 "entitytype":"Sales and Marketing",
 "isactive":"Y",
 "orderbyclause":null,
 "updated":"2005-02-25T16:45:07",
 "updatedby":100,
 "whereclause":null}, "children" : []},
 {"tablename" : "ad_reportview", "data" : {"ad_reportview_id":159,
 "name":"T_Transaction",
 "ad_client_id":0,
 "ad_org_id":0,
 "ad_table_id":758,
 "created":"2005-03-30T01:12:34",
 "createdby":100,
 "description":null,
 "entitytype":"Material Management",
 "isactive":"Y",
 "orderbyclause":null,
 "updated":"2005-03-30T01:12:34",
 "updatedby":100,
 "whereclause":null}, "children" : []},
 {"tablename" : "ad_reportview", "data" : {"ad_reportview_id":160,
 "name":"T_InvoiceGL",
 "ad_client_id":0,
 "ad_org_id":0,
 "ad_table_id":804,
 "created":"2005-05-30T13:37:16",
 "createdby":100,
 "description":null,
 "entitytype":"Open Items",
 "isactive":"Y",
 "orderbyclause":null,
 "updated":"2005-05-30T13:37:16",
 "updatedby":100,
 "whereclause":null}, "children" : []},
 {"tablename" : "ad_reportview", "data" : {"ad_reportview_id":161,
 "name":"RV_Cost",
 "ad_client_id":0,
 "ad_org_id":0,
 "ad_table_id":805,
 "created":"2005-07-25T13:24:06",
 "createdby":0,
 "description":null,
 "entitytype":"Costing",
 "isactive":"Y",
 "orderbyclause":null,
 "updated":"2005-07-26T14:14:58",
 "updatedby":0,
 "whereclause":null}, "children" : []},
 {"tablename" : "ad_reportview", "data" : {"ad_reportview_id":162,
 "name":"RV_CostSummary",
 "ad_client_id":0,
 "ad_org_id":0,
 "ad_table_id":806,
 "created":"2005-07-25T14:03:45",
 "createdby":0,
 "description":null,
 "entitytype":"Costing",
 "isactive":"Y",
 "orderbyclause":null,
 "updated":"2005-07-26T14:13:58",
 "updatedby":0,
 "whereclause":null}, "children" : []},
 {"tablename" : "ad_reportview", "data" : {"ad_reportview_id":164,
 "name":"RV_OrderDetail",
 "ad_client_id":0,
 "ad_org_id":0,
 "ad_table_id":360,
 "created":"2005-08-27T08:51:09",
 "createdby":100,
 "description":null,
 "entitytype":"Quote-to-Invoice",
 "isactive":"Y",
 "orderbyclause":null,
 "updated":"2005-08-27T08:51:18",
 "updatedby":100,
 "whereclause":null}, "children" : []},
 {"tablename" : "ad_reportview", "data" : {"ad_reportview_id":165,
 "name":"RV_BPartner",
 "ad_client_id":0,
 "ad_org_id":0,
 "ad_table_id":520,
 "created":"2005-08-27T09:39:33",
 "createdby":100,
 "description":null,
 "entitytype":"Partner Relations",
 "isactive":"Y",
 "orderbyclause":null,
 "updated":"2005-08-27T09:39:33",
 "updatedby":100,
 "whereclause":null}, "children" : []},
 {"tablename" : "ad_reportview", "data" : {"ad_reportview_id":166,
 "name":"RV_C_Invoice_ProductMonth",
 "ad_client_id":0,
 "ad_org_id":0,
 "ad_table_id":830,
 "created":"2005-12-15T14:49:18",
 "createdby":100,
 "description":null,
 "entitytype":"Quote-to-Invoice",
 "isactive":"Y",
 "orderbyclause":null,
 "updated":"2005-12-15T14:49:18",
 "updatedby":100,
 "whereclause":null}, "children" : []},
 {"tablename" : "ad_reportview", "data" : {"ad_reportview_id":167,
 "name":"RV_C_Invoice_ProductQtr",
 "ad_client_id":0,
 "ad_org_id":0,
 "ad_table_id":829,
 "created":"2005-12-15T14:49:43",
 "createdby":100,
 "description":null,
 "entitytype":"Quote-to-Invoice",
 "isactive":"Y",
 "orderbyclause":null,
 "updated":"2005-12-15T14:49:43",
 "updatedby":100,
 "whereclause":null}, "children" : []},
 {"tablename" : "ad_reportview", "data" : {"ad_reportview_id":53008,
 "name":"RV_Asset_Disposal_Entry",
 "ad_client_id":0,
 "ad_org_id":0,
 "ad_table_id":53115,
 "created":"2008-05-30T16:40:58",
 "createdby":100,
 "description":"View of Asset Disposal Entry",
 "entitytype":"Assets",
 "isactive":"Y",
 "orderbyclause":null,
 "updated":"2008-05-30T16:40:58",
 "updatedby":100,
 "whereclause":"A_Depreciation_Exp.A_Entry_Type='DIS'"}, "children" : []},
 {"tablename" : "ad_reportview", "data" : {"ad_reportview_id":53009,
 "name":"RV_Asset_Transfer_Entry",
 "ad_client_id":0,
 "ad_org_id":0,
 "ad_table_id":53115,
 "created":"2008-05-30T16:41:26",
 "createdby":100,
 "description":"View of Asset Transfer Entry",
 "entitytype":"Assets",
 "isactive":"Y",
 "orderbyclause":null,
 "updated":"2008-05-30T16:41:26",
 "updatedby":100,
 "whereclause":"A_Depreciation_Exp.A_Entry_Type='TRN'"}, "children" : []},
 {"tablename" : "ad_reportview", "data" : {"ad_reportview_id":53010,
 "name":"RV_Asset_Split_Entry",
 "ad_client_id":0,
 "ad_org_id":0,
 "ad_table_id":53115,
 "created":"2008-05-30T16:48:23",
 "createdby":100,
 "description":"View of Asset Split Entry",
 "entitytype":"Assets",
 "isactive":"Y",
 "orderbyclause":null,
 "updated":"2008-05-30T16:48:23",
 "updatedby":100,
 "whereclause":"A_Depreciation_Exp.A_Entry_Type='SPL'"}, "children" : []},
 {"tablename" : "ad_reportview", "data" : {"ad_reportview_id":53011,
 "name":"RV_Asset_Depreciation_Entry",
 "ad_client_id":0,
 "ad_org_id":0,
 "ad_table_id":53115,
 "created":"2008-05-30T16:48:51",
 "createdby":100,
 "description":"View of Depreciation Expense Entry",
 "entitytype":"Assets",
 "isactive":"Y",
 "orderbyclause":null,
 "updated":"2008-05-30T16:48:51",
 "updatedby":100,
 "whereclause":"A_Depreciation_Exp.A_Entry_Type='DEP'"}, "children" : []},
 {"tablename" : "ad_reportview", "data" : {"ad_reportview_id":53012,
 "name":"RV_Asset_Depreciation_Forecast",
 "ad_client_id":0,
 "ad_org_id":0,
 "ad_table_id":53115,
 "created":"2008-05-30T16:50:03",
 "createdby":100,
 "description":"Report of Depreciation Forecast by Asset",
 "entitytype":"Assets",
 "isactive":"Y",
 "orderbyclause":null,
 "updated":"2008-05-30T16:50:03",
 "updatedby":100,
 "whereclause":"A_Depreciation_Exp.A_Entry_Type = 'FOR'"}, "children" : []},
 {"tablename" : "ad_reportview", "data" : {"ad_reportview_id":53013,
 "name":"RV_Asset_Parent_Report",
 "ad_client_id":0,
 "ad_org_id":0,
 "ad_table_id":539,
 "created":"2008-05-30T16:50:32",
 "createdby":100,
 "description":"Asset Parent Report",
 "entitytype":"Assets",
 "isactive":"Y",
 "orderbyclause":null,
 "updated":"2008-05-30T16:50:32",
 "updatedby":100,
 "whereclause":null}, "children" : []},
 {"tablename" : "ad_reportview", "data" : {"ad_reportview_id":53014,
 "name":"RV_Depreciation_Tables",
 "ad_client_id":0,
 "ad_org_id":0,
 "ad_table_id":53114,
 "created":"2008-05-30T16:51:00",
 "createdby":100,
 "description":"List of Depreciation Tables",
 "entitytype":"Assets",
 "isactive":"Y",
 "orderbyclause":null,
 "updated":"2008-05-30T16:51:00",
 "updatedby":100,
 "whereclause":null}, "children" : []},
 {"tablename" : "ad_reportview", "data" : {"ad_reportview_id":53015,
 "name":"RV_Asset_Spread_Rpt",
 "ad_client_id":0,
 "ad_org_id":0,
 "ad_table_id":53126,
 "created":"2008-05-30T16:51:08",
 "createdby":100,
 "description":"Depreciation Spread Report",
 "entitytype":"Assets",
 "isactive":"Y",
 "orderbyclause":null,
 "updated":"2008-05-30T16:51:08",
 "updatedby":100,
 "whereclause":null}, "children" : []},
 {"tablename" : "ad_reportview", "data" : {"ad_reportview_id":53016,
 "name":"RV_Asset_Depreciation_Method",
 "ad_client_id":0,
 "ad_org_id":0,
 "ad_table_id":53112,
 "created":"2008-05-30T16:51:56",
 "createdby":100,
 "description":"Depreciation Methods",
 "entitytype":"Assets",
 "isactive":"Y",
 "orderbyclause":null,
 "updated":"2008-05-30T16:51:56",
 "updatedby":100,
 "whereclause":null}, "children" : []},
 {"tablename" : "ad_reportview", "data" : {"ad_reportview_id":53017,
 "name":"RV_Asset_Convention",
 "ad_client_id":0,
 "ad_org_id":0,
 "ad_table_id":53125,
 "created":"2008-05-30T16:52:04",
 "createdby":100,
 "description":"Asset Convention Rpt",
 "entitytype":"Assets",
 "isactive":"Y",
 "orderbyclause":null,
 "updated":"2008-05-30T16:52:04",
 "updatedby":100,
 "whereclause":null}, "children" : []},
 {"tablename" : "ad_reportview", "data" : {"ad_reportview_id":53018,
 "name":"RV_Depreciation_Calculation_Methods",
 "ad_client_id":0,
 "ad_org_id":0,
 "ad_table_id":53124,
 "created":"2008-05-30T16:52:30",
 "createdby":100,
 "description":"List Depreciation_Calaculation_Methods",
 "entitytype":"Assets",
 "isactive":"Y",
 "orderbyclause":null,
 "updated":"2008-05-30T16:52:30",
 "updatedby":100,
 "whereclause":null}, "children" : []},
 {"tablename" : "ad_reportview", "data" : {"ad_reportview_id":53019,
 "name":"RV_Asset_Group_Defaults",
 "ad_client_id":0,
 "ad_org_id":0,
 "ad_table_id":53130,
 "created":"2008-05-30T16:52:52",
 "createdby":100,
 "description":"List Asset Group Setting",
 "entitytype":"Assets",
 "isactive":"Y",
 "orderbyclause":null,
 "updated":"2008-05-30T16:52:52",
 "updatedby":100,
 "whereclause":null}, "children" : []},
 {"tablename" : "ad_reportview", "data" : {"ad_reportview_id":53020,
 "name":"RV_Asset_Inbound_Asset_Entry",
 "ad_client_id":0,
 "ad_org_id":0,
 "ad_table_id":53115,
 "created":"2008-05-30T17:01:28",
 "createdby":100,
 "description":"View of Asset Split Entry",
 "entitytype":"Assets",
 "isactive":"Y",
 "orderbyclause":null,
 "updated":"2008-05-30T17:01:28",
 "updatedby":100,
 "whereclause":"A_Depreciation_Exp.A_Entry_Type='NEW'"}, "children" : []},
 {"tablename" : "ad_reportview", "data" : {"ad_reportview_id":53021,
 "name":"RV_M_Forecast",
 "ad_client_id":0,
 "ad_org_id":0,
 "ad_table_id":53142,
 "created":"2008-06-25T22:51:33",
 "createdby":0,
 "description":"Forecast View",
 "entitytype":"Manufacturing Management",
 "isactive":"Y",
 "orderbyclause":null,
 "updated":"2008-06-25T22:51:33",
 "updatedby":0,
 "whereclause":null}, "children" : []},
 {"tablename" : "ad_reportview", "data" : {"ad_reportview_id":53022,
 "name":"RV_M_Forecast_Period",
 "ad_client_id":0,
 "ad_org_id":0,
 "ad_table_id":53143,
 "created":"2008-06-25T22:52:05",
 "createdby":0,
 "description":"Forecast for Period View",
 "entitytype":"Manufacturing Management",
 "isactive":"Y",
 "orderbyclause":null,
 "updated":"2008-06-25T22:52:05",
 "updatedby":0,
 "whereclause":null}, "children" : []},
 {"tablename" : "ad_reportview", "data" : {"ad_reportview_id":53031,
 "name":"RV_Storage_Per_Product",
 "ad_client_id":0,
 "ad_org_id":0,
 "ad_table_id":53247,
 "created":"2009-12-01T17:01:18",
 "createdby":100,
 "description":null,
 "entitytype":"Material Management",
 "isactive":"Y",
 "orderbyclause":null,
 "updated":"2009-12-01T17:01:18",
 "updatedby":100,
 "whereclause":null}, "children" : []},
 {"tablename" : "ad_reportview", "data" : {"ad_reportview_id":53032,
 "name":"RV_Reconciliation",
 "ad_client_id":0,
 "ad_org_id":0,
 "ad_table_id":53285,
 "created":"2010-09-02T17:53:12",
 "createdby":100,
 "description":null,
 "entitytype":"Performance Analysis",
 "isactive":"Y",
 "orderbyclause":null,
 "updated":"2010-09-02T17:53:12",
 "updatedby":100,
 "whereclause":null}, "children" : []},
 {"tablename" : "ad_reportview", "data" : {"ad_reportview_id":53034,
 "name":"T_CashFlow",
 "ad_client_id":0,
 "ad_org_id":0,
 "ad_table_id":53299,
 "created":"2010-12-08T21:23:41",
 "createdby":100,
 "description":null,
 "entitytype":"Open Items",
 "isactive":"Y",
 "orderbyclause":"DateTrx, CashFlowSource, IsSOTrx DESC",
 "updated":"2010-12-08T21:23:41",
 "updatedby":100,
 "whereclause":null}, "children" : []},
 {"tablename" : "ad_reportview", "data" : {"ad_reportview_id":53035,
 "name":"T_CombinedAging",
 "ad_client_id":0,
 "ad_org_id":0,
 "ad_table_id":53323,
 "created":"2011-07-01T16:48:02",
 "createdby":100,
 "description":null,
 "entitytype":"Open Items",
 "isactive":"Y",
 "orderbyclause":null,
 "updated":"2011-07-01T16:48:02",
 "updatedby":100,
 "whereclause":null}, "children" : []},
 {"tablename" : "ad_reportview", "data" : {"ad_reportview_id":53038,
 "name":"M_Production",
 "ad_client_id":0,
 "ad_org_id":0,
 "ad_table_id":325,
 "created":"2011-07-27T15:14:55",
 "createdby":100,
 "description":"Production Plan",
 "entitytype":"Material Management",
 "isactive":"Y",
 "orderbyclause":null,
 "updated":"2011-07-27T15:14:55",
 "updatedby":100,
 "whereclause":null}, "children" : []},
 {"tablename" : "ad_reportview", "data" : {"ad_reportview_id":53039,
 "name":"T_BOM_Indented",
 "ad_client_id":0,
 "ad_org_id":0,
 "ad_table_id":53335,
 "created":"2011-07-27T15:22:01",
 "createdby":100,
 "description":null,
 "entitytype":"Manufacturing Light",
 "isactive":"Y",
 "orderbyclause":null,
 "updated":"2011-07-27T15:22:01",
 "updatedby":100,
 "whereclause":null}, "children" : []},
 {"tablename" : "ad_reportview", "data" : {"ad_reportview_id":53040,
 "name":"Fact_Acct_Summary",
 "ad_client_id":0,
 "ad_org_id":0,
 "ad_table_id":53203,
 "created":"2011-08-11T15:53:58",
 "createdby":100,
 "description":null,
 "entitytype":"D",
 "isactive":"Y",
 "orderbyclause":null,
 "updated":"2011-08-11T15:53:58",
 "updatedby":100,
 "whereclause":null}, "children" : []},
 {"tablename" : "ad_reportview", "data" : {"ad_reportview_id":53060,
 "name":"RV_Fact_Acct_FA",
 "ad_client_id":0,
 "ad_org_id":0,
 "ad_table_id":53826,
 "created":"2014-07-14T15:05:39",
 "createdby":100,
 "description":"accounting Facts for Fixed Asset System related accounts  RV_Fact_Acct.Account_ID IN (SELECT C_ElementValue_FA.C_ElementValue_ID FROM C_ElementValue_FA)",
 "entitytype":"Asset Management",
 "isactive":"Y",
 "orderbyclause":null,
 "updated":"2016-04-11T16:36:20",
 "updatedby":0,
 "whereclause":null}, "children" : []},
 {"tablename" : "ad_reportview", "data" : {"ad_reportview_id":53067,
 "name":"T_Aged_Inventory",
 "ad_client_id":0,
 "ad_org_id":0,
 "ad_table_id":53603,
 "created":"2013-09-28T15:15:19",
 "createdby":100,
 "description":null,
 "entitytype":"Manufacturing Processes",
 "isactive":"Y",
 "orderbyclause":null,
 "updated":"2013-09-28T15:15:19",
 "updatedby":100,
 "whereclause":null}, "children" : []},
 {"tablename" : "ad_reportview", "data" : {"ad_reportview_id":53093,
 "name":"T_CombinedArApRevalue",
 "ad_client_id":0,
 "ad_org_id":0,
 "ad_table_id":53669,
 "created":"2013-11-20T17:22:29",
 "createdby":100,
 "description":null,
 "entitytype":"Open Items",
 "isactive":"Y",
 "orderbyclause":null,
 "updated":"2013-11-20T17:22:29",
 "updatedby":100,
 "whereclause":null}, "children" : []},
 {"tablename" : "ad_reportview", "data" : {"ad_reportview_id":53124,
 "name":"T_ProjectReport",
 "ad_client_id":0,
 "ad_org_id":0,
 "ad_table_id":53790,
 "created":"2014-04-10T20:15:16",
 "createdby":100,
 "description":null,
 "entitytype":"Project Management",
 "isactive":"Y",
 "orderbyclause":null,
 "updated":"2014-04-10T20:15:16",
 "updatedby":100,
 "whereclause":null}, "children" : []},
 {"tablename" : "ad_reportview", "data" : {"ad_reportview_id":53132,
 "name":"I_Imp_Invoice_Payment_V",
 "ad_client_id":0,
 "ad_org_id":0,
 "ad_table_id":53818,
 "created":"2014-07-04T14:09:28",
 "createdby":100,
 "description":null,
 "entitytype":"Data Import",
 "isactive":"Y",
 "orderbyclause":null,
 "updated":"2014-07-04T14:09:28",
 "updatedby":100,
 "whereclause":null}, "children" : []},
 {"tablename" : "ad_reportview", "data" : {"ad_reportview_id":53136,
 "name":"MRP_RunLine Report View",
 "ad_client_id":0,
 "ad_org_id":0,
 "ad_table_id":53975,
 "created":"2014-08-02T11:23:50",
 "createdby":100,
 "description":"MRP Run Line Report VIew",
 "entitytype":"Manufacturing Processes",
 "isactive":"Y",
 "orderbyclause":null,
 "updated":"2016-07-01T00:51:37",
 "updatedby":0,
 "whereclause":null}, "children" : []},
 {"tablename" : "ad_reportview", "data" : {"ad_reportview_id":53156,
 "name":"RV_Storage_Locator",
 "ad_client_id":0,
 "ad_org_id":0,
 "ad_table_id":53941,
 "created":"2015-02-12T15:31:38",
 "createdby":0,
 "description":null,
 "entitytype":"Material Management",
 "isactive":"Y",
 "orderbyclause":null,
 "updated":"2015-02-12T15:31:38",
 "updatedby":0,
 "whereclause":null}, "children" : []},
 {"tablename" : "ad_reportview", "data" : {"ad_reportview_id":53165,
 "name":"M_Package_Header_RV",
 "ad_client_id":0,
 "ad_org_id":0,
 "ad_table_id":53962,
 "created":"2015-04-10T16:49:36",
 "createdby":100,
 "description":null,
 "entitytype":"Quote-to-Invoice",
 "isactive":"Y",
 "orderbyclause":null,
 "updated":"2015-04-10T16:49:36",
 "updatedby":100,
 "whereclause":null}, "children" : []},
 {"tablename" : "ad_reportview", "data" : {"ad_reportview_id":53166,
 "name":"RV_Fact_Acct_Proj",
 "ad_client_id":0,
 "ad_org_id":0,
 "ad_table_id":54020,
 "created":"2015-08-03T13:40:38",
 "createdby":100,
 "description":null,
 "entitytype":"Financial Reporting",
 "isactive":"Y",
 "orderbyclause":null,
 "updated":"2015-08-03T13:40:38",
 "updatedby":100,
 "whereclause":null}, "children" : []},
 {"tablename" : "ad_reportview", "data" : {"ad_reportview_id":53184,
 "name":"RV_Fact_Acct_Summary",
 "ad_client_id":0,
 "ad_org_id":0,
 "ad_table_id":54042,
 "created":"2015-08-30T20:00:38",
 "createdby":0,
 "description":null,
 "entitytype":"Financial Reporting",
 "isactive":"Y",
 "orderbyclause":null,
 "updated":"2015-08-30T20:00:38",
 "updatedby":0,
 "whereclause":null}, "children" : []},
 {"tablename" : "ad_reportview", "data" : {"ad_reportview_id":53186,
 "name":"RV_MiniMRP_Production",
 "ad_client_id":0,
 "ad_org_id":0,
 "ad_table_id":54054,
 "created":"2016-01-06T15:19:14",
 "createdby":100,
 "description":"Report View of MiniMRP planned Production",
 "entitytype":"Manufacturing Processes",
 "isactive":"Y",
 "orderbyclause":null,
 "updated":"2016-01-06T15:19:14",
 "updatedby":100,
 "whereclause":null}, "children" : []},
 {"tablename" : "ad_reportview", "data" : {"ad_reportview_id":53187,
 "name":"RV_MiniMRP_Requisition",
 "ad_client_id":0,
 "ad_org_id":0,
 "ad_table_id":54055,
 "created":"2016-01-06T15:21:20",
 "createdby":100,
 "description":"Report View of MiniMRP Suggested Requisition",
 "entitytype":"Manufacturing Processes",
 "isactive":"Y",
 "orderbyclause":null,
 "updated":"2016-01-06T15:21:20",
 "updatedby":100,
 "whereclause":null}, "children" : []},
 {"tablename" : "ad_reportview", "data" : {"ad_reportview_id":53188,
 "name":"RV_ProductionLine",
 "ad_client_id":0,
 "ad_org_id":0,
 "ad_table_id":54056,
 "created":"2016-01-15T18:34:19",
 "createdby":100,
 "description":null,
 "entitytype":"D",
 "isactive":"Y",
 "orderbyclause":null,
 "updated":"2016-01-15T18:34:19",
 "updatedby":100,
 "whereclause":null}, "children" : []},
 {"tablename" : "ad_reportview", "data" : {"ad_reportview_id":53189,
 "name":"RV_ProductionLine_Items",
 "ad_client_id":0,
 "ad_org_id":0,
 "ad_table_id":54056,
 "created":"2016-01-15T18:36:18",
 "createdby":100,
 "description":null,
 "entitytype":"D",
 "isactive":"Y",
 "orderbyclause":null,
 "updated":"2016-04-12T09:51:15",
 "updatedby":0,
 "whereclause":"RV_ProductionLine.ProductType = 'I'"}, "children" : []},
 {"tablename" : "ad_reportview", "data" : {"ad_reportview_id":53208,
 "name":"M_InOut_Manifest_RV",
 "ad_client_id":0,
 "ad_org_id":0,
 "ad_table_id":54128,
 "created":"2016-06-17T14:48:27",
 "createdby":100,
 "description":null,
 "entitytype":"Quote-to-Invoice",
 "isactive":"Y",
 "orderbyclause":null,
 "updated":"2016-07-01T00:52:11",
 "updatedby":0,
 "whereclause":null}, "children" : []},
 {"tablename" : "ad_reportview", "data" : {"ad_reportview_id":53212,
 "name":"RV_T_InventoryValueByWarehouse",
 "ad_client_id":0,
 "ad_org_id":0,
 "ad_table_id":54170,
 "created":"2016-10-31T16:57:33",
 "createdby":100,
 "description":"Inventory valuation grouped by warehouse",
 "entitytype":"Material Management",
 "isactive":"Y",
 "orderbyclause":null,
 "updated":"2019-02-04T13:38:54",
 "updatedby":0,
 "whereclause":null}, "children" : []},
 {"tablename" : "ad_reportview", "data" : {"ad_reportview_id":53220,
 "name":"MRP Work Capacity Report View",
 "ad_client_id":0,
 "ad_org_id":0,
 "ad_table_id":54221,
 "created":"2017-04-13T10:22:31",
 "createdby":100,
 "description":null,
 "entitytype":"Manufacturing Processes",
 "isactive":"Y",
 "orderbyclause":null,
 "updated":"2017-04-13T10:22:31",
 "updatedby":100,
 "whereclause":null}, "children" : []},
 {"tablename" : "ad_reportview", "data" : {"ad_reportview_id":53221,
 "name":"T_Product_BOMLine ReportView",
 "ad_client_id":0,
 "ad_org_id":0,
 "ad_table_id":54222,
 "created":"2017-04-18T10:30:57",
 "createdby":100,
 "description":null,
 "entitytype":"D",
 "isactive":"Y",
 "orderbyclause":"SeqNo",
 "updated":"2017-04-18T10:30:57",
 "updatedby":100,
 "whereclause":null}, "children" : []}]