[{"tablename" : "ad_relationtype", "data" : {"ad_relationtype_id":50001,
 "name":"Order (Sales) <->Invoice (Customer)",
 "ad_client_id":0,
 "ad_org_id":0,
 "ad_reference_source_id":53333,
 "ad_reference_target_id":53334,
 "created":"2009-11-13T15:31:33",
 "createdby":100,
 "description":null,
 "isactive":"Y",
 "isdirected":"N",
 "role_source":null,
 "role_target":null,
 "type":"I",
 "updated":"2010-04-08T18:20:24",
 "updatedby":100}, "children" : []},
 {"tablename" : "ad_relationtype", "data" : {"ad_relationtype_id":50002,
 "name":"Order (Sales) <->InOut (Shipment)",
 "ad_client_id":0,
 "ad_org_id":0,
 "ad_reference_source_id":53349,
 "ad_reference_target_id":53347,
 "created":"2010-03-20T17:18:21",
 "createdby":100,
 "description":null,
 "isactive":"Y",
 "isdirected":"N",
 "role_source":null,
 "role_target":null,
 "type":"I",
 "updated":"2010-04-08T18:18:08",
 "updatedby":100}, "children" : []},
 {"tablename" : "ad_relationtype", "data" : {"ad_relationtype_id":50003,
 "name":"Invoice (Customer) <->InOut (Shipment)",
 "ad_client_id":0,
 "ad_org_id":0,
 "ad_reference_source_id":53348,
 "ad_reference_target_id":53345,
 "created":"2010-03-20T17:19:17",
 "createdby":100,
 "description":null,
 "isactive":"Y",
 "isdirected":"N",
 "role_source":null,
 "role_target":null,
 "type":"I",
 "updated":"2010-04-08T18:21:09",
 "updatedby":100}, "children" : []},
 {"tablename" : "ad_relationtype", "data" : {"ad_relationtype_id":50004,
 "name":"BPartner<->VendorReturn",
 "ad_client_id":0,
 "ad_org_id":0,
 "ad_reference_source_id":53352,
 "ad_reference_target_id":53354,
 "created":"2010-03-22T08:00:22",
 "createdby":100,
 "description":null,
 "isactive":"Y",
 "isdirected":"N",
 "role_source":null,
 "role_target":null,
 "type":"I",
 "updated":"2010-03-22T13:36:03",
 "updatedby":100}, "children" : []},
 {"tablename" : "ad_relationtype", "data" : {"ad_relationtype_id":50005,
 "name":"BPartner<->Customer Return",
 "ad_client_id":0,
 "ad_org_id":0,
 "ad_reference_source_id":53352,
 "ad_reference_target_id":53353,
 "created":"2010-03-22T08:00:50",
 "createdby":100,
 "description":null,
 "isactive":"Y",
 "isdirected":"N",
 "role_source":null,
 "role_target":null,
 "type":"I",
 "updated":"2010-03-22T13:39:54",
 "updatedby":100}, "children" : []}]