[{"tablename" : "ad_scheduler", "data" : {"ad_scheduler_id":100,
 "name":"Delete Old Notes",
 "ad_client_id":0,
 "ad_org_id":0,
 "ad_printformat_id":null,
 "ad_process_id":241,
 "ad_table_id":null,
 "created":"2004-03-06T00:39:02",
 "createdby":0,
 "cronpattern":null,
 "datelastrun":"2019-03-05T02:16:35",
 "datenextrun":"2019-03-12T02:16:35",
 "description":null,
 "frequency":7,
 "frequencytype":"D",
 "isactive":"Y",
 "isignoreprocessingtime":"N",
 "keeplogdays":7,
 "monthday":null,
 "processing":"N",
 "record_id":null,
 "reporttype":"P",
 "scheduletype":"F",
 "supervisor_id":0,
 "updated":"2019-03-05T02:16:35",
 "updatedby":0,
 "weekday":null}, "children" : [{"tablename" : "ad_scheduler_para", "data" : {"ad_client_id":0,
 "ad_org_id":0,
 "ad_process_para_id":405,
 "ad_scheduler_id":100,
 "created":"2004-03-06T00:39:23",
 "createdby":0,
 "description":null,
 "isactive":"Y",
 "parameterdefault":null,
 "updated":"2000-01-02T00:00:00",
 "updatedby":0}, "children" : []},{"tablename" : "ad_scheduler_para", "data" : {"ad_client_id":0,
 "ad_org_id":0,
 "ad_process_para_id":53130,
 "ad_scheduler_id":100,
 "created":"2008-02-14T23:57:39",
 "createdby":100,
 "description":null,
 "isactive":"Y",
 "parameterdefault":"7",
 "updated":"2008-02-14T23:57:39",
 "updatedby":100}, "children" : []}]}]