[{"tablename" : "ad_tab_customization", "data" : {"ad_tab_customization_id":1000000,
 "ad_client_id":0,
 "ad_infowindow_id":null,
 "ad_org_id":0,
 "ad_tab_id":100,
 "ad_user_id":100,
 "created":"2019-11-29T01:01:07",
 "createdby":100,
 "custom":"251,2004,149,143,5125,144,145,246,4874,249,6554,7530,147,7531,253,3207,5126,50157,58844",
 "includedtabheight":null,
 "isactive":"Y",
 "isdisplayedgrid":null,
 "isquickentry":"N",
 "isrefreshgridtimer":"N",
 "refreshinterval":0,
 "updated":"2019-11-29T01:01:07",
 "updatedby":100}, "children" : []},
 {"tablename" : "ad_tab_customization", "data" : {"ad_tab_customization_id":1000001,
 "ad_client_id":0,
 "ad_infowindow_id":null,
 "ad_org_id":0,
 "ad_tab_id":831,
 "ad_user_id":100,
 "created":"2019-11-30T23:38:29",
 "createdby":100,
 "custom":"13499,13506,13503,13508,13505,13501,13500,13497,13504",
 "includedtabheight":null,
 "isactive":"Y",
 "isdisplayedgrid":null,
 "isquickentry":"N",
 "isrefreshgridtimer":"N",
 "refreshinterval":0,
 "updated":"2019-11-30T23:38:29",
 "updatedby":100}, "children" : []}]