[{"tablename" : "ad_user_roles", "data" : {"ad_client_id":0,
 "ad_org_id":0,
 "ad_role_id":0,
 "ad_user_id":0,
 "created":"1999-11-14T16:17:08",
 "createdby":0,
 "isactive":"Y",
 "updated":"2000-01-02T00:00:00",
 "updatedby":0}, "children" : []},
 {"tablename" : "ad_user_roles", "data" : {"ad_client_id":0,
 "ad_org_id":0,
 "ad_role_id":0,
 "ad_user_id":100,
 "created":"1999-12-09T21:18:41",
 "createdby":0,
 "isactive":"Y",
 "updated":"2000-01-02T00:00:00",
 "updatedby":0}, "children" : []}]