[{"tablename" : "c_currency", "data" : {"c_currency_id":100,
 "iso_code":"USD",
 "ad_client_id":0,
 "ad_org_id":0,
 "costingprecision":4,
 "created":"1999-12-05T23:02:28",
 "createdby":0,
 "cursymbol":"$",
 "description":"US Dollar",
 "emuentrydate":null,
 "emurate":0,
 "isactive":"Y",
 "isemumember":"N",
 "iseuro":"N",
 "roundofffactor":null,
 "stdprecision":2,
 "updated":"2000-01-02T00:00:00",
 "updatedby":0}, "children" : []},
 {"tablename" : "c_currency", "data" : {"c_currency_id":102,
 "iso_code":"EUR",
 "ad_client_id":0,
 "ad_org_id":0,
 "costingprecision":4,
 "created":"1999-12-05T23:03:52",
 "createdby":0,
 "cursymbol":"E",
 "description":"Euro",
 "emuentrydate":null,
 "emurate":0,
 "isactive":"Y",
 "isemumember":"N",
 "iseuro":"Y",
 "roundofffactor":null,
 "stdprecision":2,
 "updated":"2000-01-02T00:00:00",
 "updatedby":0}, "children" : []},
 {"tablename" : "c_currency", "data" : {"c_currency_id":103,
 "iso_code":"DEM",
 "ad_client_id":0,
 "ad_org_id":0,
 "costingprecision":4,
 "created":"1999-12-05T23:05:55",
 "createdby":0,
 "cursymbol":"DM",
 "description":"Deutsche Mark",
 "emuentrydate":"1999-01-01T00:00:00",
 "emurate":1.95583,
 "isactive":"N",
 "isemumember":"Y",
 "iseuro":"N",
 "roundofffactor":null,
 "stdprecision":2,
 "updated":"2000-01-02T00:00:00",
 "updatedby":0}, "children" : []},
 {"tablename" : "c_currency", "data" : {"c_currency_id":104,
 "iso_code":"ATS",
 "ad_client_id":0,
 "ad_org_id":0,
 "costingprecision":4,
 "created":"1999-12-09T13:40:51",
 "createdby":0,
 "cursymbol":"Sch",
 "description":"Austrian Schilling",
 "emuentrydate":"1999-01-01T00:00:00",
 "emurate":13.7603,
 "isactive":"N",
 "isemumember":"Y",
 "iseuro":"N",
 "roundofffactor":null,
 "stdprecision":2,
 "updated":"2000-01-02T00:00:00",
 "updatedby":0}, "children" : []},
 {"tablename" : "c_currency", "data" : {"c_currency_id":105,
 "iso_code":"BEF",
 "ad_client_id":0,
 "ad_org_id":0,
 "costingprecision":0,
 "created":"1999-12-09T13:43:31",
 "createdby":0,
 "cursymbol":"BFr",
 "description":"Belgian Franc",
 "emuentrydate":"1999-01-01T00:00:00",
 "emurate":40.3399,
 "isactive":"N",
 "isemumember":"Y",
 "iseuro":"N",
 "roundofffactor":null,
 "stdprecision":0,
 "updated":"2000-01-02T00:00:00",
 "updatedby":0}, "children" : []},
 {"tablename" : "c_currency", "data" : {"c_currency_id":106,
 "iso_code":"FIM",
 "ad_client_id":0,
 "ad_org_id":0,
 "costingprecision":4,
 "created":"1999-12-09T13:44:29",
 "createdby":0,
 "cursymbol":"FM",
 "description":"Finish Mark",
 "emuentrydate":"1999-01-01T00:00:00",
 "emurate":5.94573,
 "isactive":"N",
 "isemumember":"Y",
 "iseuro":"N",
 "roundofffactor":null,
 "stdprecision":2,
 "updated":"2000-01-02T00:00:00",
 "updatedby":0}, "children" : []},
 {"tablename" : "c_currency", "data" : {"c_currency_id":107,
 "iso_code":"IEP",
 "ad_client_id":0,
 "ad_org_id":0,
 "costingprecision":4,
 "created":"1999-12-09T13:46:22",
 "createdby":0,
 "cursymbol":"I£",
 "description":"Irish Pound",
 "emuentrydate":"1999-01-01T00:00:00",
 "emurate":0.787564,
 "isactive":"N",
 "isemumember":"Y",
 "iseuro":"N",
 "roundofffactor":null,
 "stdprecision":2,
 "updated":"2000-01-02T00:00:00",
 "updatedby":0}, "children" : []},
 {"tablename" : "c_currency", "data" : {"c_currency_id":108,
 "iso_code":"ITL",
 "ad_client_id":0,
 "ad_org_id":0,
 "costingprecision":0,
 "created":"1999-12-09T13:48:04",
 "createdby":0,
 "cursymbol":"L",
 "description":"Italian Lira",
 "emuentrydate":"1999-01-01T00:00:00",
 "emurate":1936.27,
 "isactive":"N",
 "isemumember":"Y",
 "iseuro":"N",
 "roundofffactor":null,
 "stdprecision":0,
 "updated":"2000-01-02T00:00:00",
 "updatedby":0}, "children" : []},
 {"tablename" : "c_currency", "data" : {"c_currency_id":109,
 "iso_code":"NLF",
 "ad_client_id":0,
 "ad_org_id":0,
 "costingprecision":4,
 "created":"1999-12-09T13:49:03",
 "createdby":0,
 "cursymbol":"Fl",
 "description":"Dutch Gilder",
 "emuentrydate":"1999-01-01T00:00:00",
 "emurate":2.20371,
 "isactive":"N",
 "isemumember":"Y",
 "iseuro":"N",
 "roundofffactor":null,
 "stdprecision":2,
 "updated":"2000-01-02T00:00:00",
 "updatedby":0}, "children" : []},
 {"tablename" : "c_currency", "data" : {"c_currency_id":110,
 "iso_code":"PTE",
 "ad_client_id":0,
 "ad_org_id":0,
 "costingprecision":0,
 "created":"1999-12-09T13:50:01",
 "createdby":0,
 "cursymbol":"Es",
 "description":"Portugese Escudo",
 "emuentrydate":"1999-01-01T00:00:00",
 "emurate":200.482,
 "isactive":"N",
 "isemumember":"Y",
 "iseuro":"N",
 "roundofffactor":null,
 "stdprecision":0,
 "updated":"2000-01-02T00:00:00",
 "updatedby":0}, "children" : []},
 {"tablename" : "c_currency", "data" : {"c_currency_id":111,
 "iso_code":"ESP",
 "ad_client_id":0,
 "ad_org_id":0,
 "costingprecision":0,
 "created":"1999-12-09T13:54:14",
 "createdby":0,
 "cursymbol":"Pts",
 "description":"Spannish Peseto",
 "emuentrydate":"1999-01-01T00:00:00",
 "emurate":166.386,
 "isactive":"N",
 "isemumember":"Y",
 "iseuro":"N",
 "roundofffactor":null,
 "stdprecision":0,
 "updated":"2000-01-02T00:00:00",
 "updatedby":0}, "children" : []},
 {"tablename" : "c_currency", "data" : {"c_currency_id":112,
 "iso_code":"FRF",
 "ad_client_id":0,
 "ad_org_id":0,
 "costingprecision":4,
 "created":"1999-12-09T14:01:19",
 "createdby":0,
 "cursymbol":"Fr",
 "description":"French Franc",
 "emuentrydate":"1999-01-01T00:00:00",
 "emurate":6.55957,
 "isactive":"N",
 "isemumember":"Y",
 "iseuro":"N",
 "roundofffactor":null,
 "stdprecision":2,
 "updated":"2000-01-02T00:00:00",
 "updatedby":0}, "children" : []},
 {"tablename" : "c_currency", "data" : {"c_currency_id":113,
 "iso_code":"JPY",
 "ad_client_id":0,
 "ad_org_id":0,
 "costingprecision":0,
 "created":"1999-12-09T14:04:07",
 "createdby":0,
 "cursymbol":"¥",
 "description":"Japanese Yen",
 "emuentrydate":null,
 "emurate":0,
 "isactive":"Y",
 "isemumember":"N",
 "iseuro":"N",
 "roundofffactor":null,
 "stdprecision":0,
 "updated":"2000-01-02T00:00:00",
 "updatedby":0}, "children" : []},
 {"tablename" : "c_currency", "data" : {"c_currency_id":114,
 "iso_code":"GBP",
 "ad_client_id":0,
 "ad_org_id":0,
 "costingprecision":4,
 "created":"1999-12-09T14:05:37",
 "createdby":0,
 "cursymbol":"£",
 "description":"British Pound",
 "emuentrydate":null,
 "emurate":0,
 "isactive":"Y",
 "isemumember":"N",
 "iseuro":"N",
 "roundofffactor":null,
 "stdprecision":2,
 "updated":"2000-01-02T00:00:00",
 "updatedby":0}, "children" : []},
 {"tablename" : "c_currency", "data" : {"c_currency_id":115,
 "iso_code":"SFR",
 "ad_client_id":0,
 "ad_org_id":0,
 "costingprecision":4,
 "created":"1999-12-09T14:06:05",
 "createdby":0,
 "cursymbol":"SFr",
 "description":"Swiss Franc (invalid currency code - use CHF)",
 "emuentrydate":null,
 "emurate":0,
 "isactive":"N",
 "isemumember":"N",
 "iseuro":"N",
 "roundofffactor":null,
 "stdprecision":2,
 "updated":"2000-01-02T00:00:00",
 "updatedby":0}, "children" : []},
 {"tablename" : "c_currency", "data" : {"c_currency_id":116,
 "iso_code":"CAD",
 "ad_client_id":0,
 "ad_org_id":0,
 "costingprecision":4,
 "created":"2001-05-09T22:27:35",
 "createdby":0,
 "cursymbol":"C$",
 "description":"Canadian Dollar",
 "emuentrydate":null,
 "emurate":0,
 "isactive":"Y",
 "isemumember":"N",
 "iseuro":"N",
 "roundofffactor":null,
 "stdprecision":2,
 "updated":"2000-01-02T00:00:00",
 "updatedby":0}, "children" : []},
 {"tablename" : "c_currency", "data" : {"c_currency_id":118,
 "iso_code":"ARS",
 "ad_client_id":0,
 "ad_org_id":0,
 "costingprecision":4,
 "created":"2003-08-06T17:05:21",
 "createdby":0,
 "cursymbol":"$",
 "description":"Argentine Peso",
 "emuentrydate":null,
 "emurate":0,
 "isactive":"Y",
 "isemumember":"N",
 "iseuro":"N",
 "roundofffactor":null,
 "stdprecision":2,
 "updated":"2000-01-02T00:00:00",
 "updatedby":0}, "children" : []},
 {"tablename" : "c_currency", "data" : {"c_currency_id":120,
 "iso_code":"AUD",
 "ad_client_id":0,
 "ad_org_id":0,
 "costingprecision":4,
 "created":"2003-08-06T17:05:21",
 "createdby":0,
 "cursymbol":"$",
 "description":"Australian Dollar",
 "emuentrydate":null,
 "emurate":0,
 "isactive":"Y",
 "isemumember":"N",
 "iseuro":"N",
 "roundofffactor":null,
 "stdprecision":2,
 "updated":"2000-01-02T00:00:00",
 "updatedby":0}, "children" : []},
 {"tablename" : "c_currency", "data" : {"c_currency_id":121,
 "iso_code":"NZD",
 "ad_client_id":0,
 "ad_org_id":0,
 "costingprecision":4,
 "created":"2003-08-06T17:05:21",
 "createdby":0,
 "cursymbol":"$",
 "description":"New Zealand Dollar",
 "emuentrydate":null,
 "emurate":0,
 "isactive":"Y",
 "isemumember":"N",
 "iseuro":"N",
 "roundofffactor":null,
 "stdprecision":2,
 "updated":"2000-01-02T00:00:00",
 "updatedby":0}, "children" : []},
 {"tablename" : "c_currency", "data" : {"c_currency_id":127,
 "iso_code":"LRD",
 "ad_client_id":0,
 "ad_org_id":0,
 "costingprecision":4,
 "created":"2003-08-06T17:05:22",
 "createdby":0,
 "cursymbol":"$",
 "description":"Liberian Dollar",
 "emuentrydate":null,
 "emurate":0,
 "isactive":"Y",
 "isemumember":"N",
 "iseuro":"N",
 "roundofffactor":null,
 "stdprecision":2,
 "updated":"2000-01-02T00:00:00",
 "updatedby":0}, "children" : []},
 {"tablename" : "c_currency", "data" : {"c_currency_id":130,
 "iso_code":"MXN",
 "ad_client_id":0,
 "ad_org_id":0,
 "costingprecision":4,
 "created":"2003-08-06T17:05:22",
 "createdby":0,
 "cursymbol":"$",
 "description":"Mexican Peso",
 "emuentrydate":null,
 "emurate":0,
 "isactive":"Y",
 "isemumember":"N",
 "iseuro":"N",
 "roundofffactor":null,
 "stdprecision":2,
 "updated":"2000-01-02T00:00:00",
 "updatedby":0}, "children" : []},
 {"tablename" : "c_currency", "data" : {"c_currency_id":142,
 "iso_code":"UYU",
 "ad_client_id":0,
 "ad_org_id":0,
 "costingprecision":4,
 "created":"2003-08-06T17:05:24",
 "createdby":0,
 "cursymbol":"$U",
 "description":"Peso Uruguayo",
 "emuentrydate":null,
 "emurate":0,
 "isactive":"Y",
 "isemumember":"N",
 "iseuro":"N",
 "roundofffactor":null,
 "stdprecision":2,
 "updated":"2000-01-02T00:00:00",
 "updatedby":0}, "children" : []},
 {"tablename" : "c_currency", "data" : {"c_currency_id":143,
 "iso_code":"AMD",
 "ad_client_id":0,
 "ad_org_id":0,
 "costingprecision":4,
 "created":"2003-08-06T17:05:24",
 "createdby":0,
 "cursymbol":null,
 "description":"Armenian Dram",
 "emuentrydate":null,
 "emurate":0,
 "isactive":"Y",
 "isemumember":"N",
 "iseuro":"N",
 "roundofffactor":null,
 "stdprecision":2,
 "updated":"2000-01-02T00:00:00",
 "updatedby":0}, "children" : []},
 {"tablename" : "c_currency", "data" : {"c_currency_id":144,
 "iso_code":"AOA",
 "ad_client_id":0,
 "ad_org_id":0,
 "costingprecision":4,
 "created":"2003-08-06T17:05:24",
 "createdby":0,
 "cursymbol":null,
 "description":"Kwanza",
 "emuentrydate":null,
 "emurate":0,
 "isactive":"Y",
 "isemumember":"N",
 "iseuro":"N",
 "roundofffactor":null,
 "stdprecision":2,
 "updated":"2000-01-02T00:00:00",
 "updatedby":0}, "children" : []},
 {"tablename" : "c_currency", "data" : {"c_currency_id":145,
 "iso_code":"AZN",
 "ad_client_id":0,
 "ad_org_id":0,
 "costingprecision":4,
 "created":"2003-08-06T17:05:25",
 "createdby":0,
 "cursymbol":null,
 "description":"Azerbaijanian Manat (new)",
 "emuentrydate":null,
 "emurate":0,
 "isactive":"Y",
 "isemumember":"N",
 "iseuro":"N",
 "roundofffactor":null,
 "stdprecision":2,
 "updated":"2006-04-18T14:42:00",
 "updatedby":100}, "children" : []},
 {"tablename" : "c_currency", "data" : {"c_currency_id":146,
 "iso_code":"BOB",
 "ad_client_id":0,
 "ad_org_id":0,
 "costingprecision":4,
 "created":"2003-08-06T17:05:25",
 "createdby":0,
 "cursymbol":null,
 "description":"Boliviano",
 "emuentrydate":null,
 "emurate":0,
 "isactive":"Y",
 "isemumember":"N",
 "iseuro":"N",
 "roundofffactor":null,
 "stdprecision":2,
 "updated":"2000-01-02T00:00:00",
 "updatedby":0}, "children" : []},
 {"tablename" : "c_currency", "data" : {"c_currency_id":147,
 "iso_code":"CDF",
 "ad_client_id":0,
 "ad_org_id":0,
 "costingprecision":4,
 "created":"2003-08-06T17:05:25",
 "createdby":0,
 "cursymbol":null,
 "description":"Franc Congolais",
 "emuentrydate":null,
 "emurate":0,
 "isactive":"Y",
 "isemumember":"N",
 "iseuro":"N",
 "roundofffactor":null,
 "stdprecision":2,
 "updated":"2000-01-02T00:00:00",
 "updatedby":0}, "children" : []},
 {"tablename" : "c_currency", "data" : {"c_currency_id":148,
 "iso_code":"CZK",
 "ad_client_id":0,
 "ad_org_id":0,
 "costingprecision":4,
 "created":"2003-08-06T17:05:25",
 "createdby":0,
 "cursymbol":null,
 "description":"Czech Koruna",
 "emuentrydate":null,
 "emurate":0,
 "isactive":"Y",
 "isemumember":"N",
 "iseuro":"N",
 "roundofffactor":null,
 "stdprecision":2,
 "updated":"2000-01-02T00:00:00",
 "updatedby":0}, "children" : []},
 {"tablename" : "c_currency", "data" : {"c_currency_id":149,
 "iso_code":"GEL",
 "ad_client_id":0,
 "ad_org_id":0,
 "costingprecision":4,
 "created":"2003-08-06T17:05:25",
 "createdby":0,
 "cursymbol":null,
 "description":"Lari",
 "emuentrydate":null,
 "emurate":0,
 "isactive":"Y",
 "isemumember":"N",
 "iseuro":"N",
 "roundofffactor":null,
 "stdprecision":2,
 "updated":"2000-01-02T00:00:00",
 "updatedby":0}, "children" : []},
 {"tablename" : "c_currency", "data" : {"c_currency_id":150,
 "iso_code":"IRR",
 "ad_client_id":0,
 "ad_org_id":0,
 "costingprecision":4,
 "created":"2003-08-06T17:05:25",
 "createdby":0,
 "cursymbol":null,
 "description":"Iranian Rial",
 "emuentrydate":null,
 "emurate":0,
 "isactive":"Y",
 "isemumember":"N",
 "iseuro":"N",
 "roundofffactor":null,
 "stdprecision":2,
 "updated":"2000-01-02T00:00:00",
 "updatedby":0}, "children" : []},
 {"tablename" : "c_currency", "data" : {"c_currency_id":151,
 "iso_code":"LTL",
 "ad_client_id":0,
 "ad_org_id":0,
 "costingprecision":4,
 "created":"2003-08-06T17:05:25",
 "createdby":0,
 "cursymbol":null,
 "description":"Lithuanian Litus",
 "emuentrydate":null,
 "emurate":0,
 "isactive":"Y",
 "isemumember":"N",
 "iseuro":"N",
 "roundofffactor":null,
 "stdprecision":2,
 "updated":"2000-01-02T00:00:00",
 "updatedby":0}, "children" : []},
 {"tablename" : "c_currency", "data" : {"c_currency_id":152,
 "iso_code":"MDL",
 "ad_client_id":0,
 "ad_org_id":0,
 "costingprecision":4,
 "created":"2003-08-06T17:05:25",
 "createdby":0,
 "cursymbol":null,
 "description":"Moldovan Leu",
 "emuentrydate":null,
 "emurate":0,
 "isactive":"Y",
 "isemumember":"N",
 "iseuro":"N",
 "roundofffactor":null,
 "stdprecision":2,
 "updated":"2000-01-02T00:00:00",
 "updatedby":0}, "children" : []},
 {"tablename" : "c_currency", "data" : {"c_currency_id":153,
 "iso_code":"PHP",
 "ad_client_id":0,
 "ad_org_id":0,
 "costingprecision":4,
 "created":"2003-08-06T17:05:26",
 "createdby":0,
 "cursymbol":null,
 "description":"Philippine Peso",
 "emuentrydate":null,
 "emurate":0,
 "isactive":"Y",
 "isemumember":"N",
 "iseuro":"N",
 "roundofffactor":null,
 "stdprecision":2,
 "updated":"2000-01-02T00:00:00",
 "updatedby":0}, "children" : []},
 {"tablename" : "c_currency", "data" : {"c_currency_id":154,
 "iso_code":"PLN",
 "ad_client_id":0,
 "ad_org_id":0,
 "costingprecision":4,
 "created":"2003-08-06T17:05:26",
 "createdby":0,
 "cursymbol":null,
 "description":"Zloty",
 "emuentrydate":null,
 "emurate":0,
 "isactive":"Y",
 "isemumember":"N",
 "iseuro":"N",
 "roundofffactor":null,
 "stdprecision":2,
 "updated":"2000-01-02T00:00:00",
 "updatedby":0}, "children" : []},
 {"tablename" : "c_currency", "data" : {"c_currency_id":155,
 "iso_code":"RUR",
 "ad_client_id":0,
 "ad_org_id":0,
 "costingprecision":4,
 "created":"2003-08-06T17:05:26",
 "createdby":0,
 "cursymbol":null,
 "description":"Russian Ruble",
 "emuentrydate":null,
 "emurate":0,
 "isactive":"Y",
 "isemumember":"N",
 "iseuro":"N",
 "roundofffactor":null,
 "stdprecision":2,
 "updated":"2000-01-02T00:00:00",
 "updatedby":0}, "children" : []},
 {"tablename" : "c_currency", "data" : {"c_currency_id":156,
 "iso_code":"SDD",
 "ad_client_id":0,
 "ad_org_id":0,
 "costingprecision":4,
 "created":"2003-08-06T17:05:26",
 "createdby":0,
 "cursymbol":null,
 "description":"Sudanese Dinar",
 "emuentrydate":null,
 "emurate":0,
 "isactive":"Y",
 "isemumember":"N",
 "iseuro":"N",
 "roundofffactor":null,
 "stdprecision":2,
 "updated":"2000-01-02T00:00:00",
 "updatedby":0}, "children" : []},
 {"tablename" : "c_currency", "data" : {"c_currency_id":157,
 "iso_code":"TJS",
 "ad_client_id":0,
 "ad_org_id":0,
 "costingprecision":4,
 "created":"2003-08-06T17:05:26",
 "createdby":0,
 "cursymbol":null,
 "description":"Somoni",
 "emuentrydate":null,
 "emurate":0,
 "isactive":"Y",
 "isemumember":"N",
 "iseuro":"N",
 "roundofffactor":null,
 "stdprecision":2,
 "updated":"2000-01-02T00:00:00",
 "updatedby":0}, "children" : []},
 {"tablename" : "c_currency", "data" : {"c_currency_id":158,
 "iso_code":"TMM",
 "ad_client_id":0,
 "ad_org_id":0,
 "costingprecision":4,
 "created":"2003-08-06T17:05:26",
 "createdby":0,
 "cursymbol":null,
 "description":"Manat",
 "emuentrydate":null,
 "emurate":0,
 "isactive":"Y",
 "isemumember":"N",
 "iseuro":"N",
 "roundofffactor":null,
 "stdprecision":2,
 "updated":"2000-01-02T00:00:00",
 "updatedby":0}, "children" : []},
 {"tablename" : "c_currency", "data" : {"c_currency_id":159,
 "iso_code":"TPE",
 "ad_client_id":0,
 "ad_org_id":0,
 "costingprecision":2,
 "created":"2003-08-06T17:05:26",
 "createdby":0,
 "cursymbol":null,
 "description":"Timor Escudo",
 "emuentrydate":null,
 "emurate":0,
 "isactive":"Y",
 "isemumember":"N",
 "iseuro":"N",
 "roundofffactor":null,
 "stdprecision":0,
 "updated":"2000-01-02T00:00:00",
 "updatedby":0}, "children" : []},
 {"tablename" : "c_currency", "data" : {"c_currency_id":160,
 "iso_code":"UAH",
 "ad_client_id":0,
 "ad_org_id":0,
 "costingprecision":4,
 "created":"2003-08-06T17:05:26",
 "createdby":0,
 "cursymbol":null,
 "description":"Hryvnia",
 "emuentrydate":null,
 "emurate":0,
 "isactive":"Y",
 "isemumember":"N",
 "iseuro":"N",
 "roundofffactor":null,
 "stdprecision":2,
 "updated":"2000-01-02T00:00:00",
 "updatedby":0}, "children" : []},
 {"tablename" : "c_currency", "data" : {"c_currency_id":161,
 "iso_code":"UZS",
 "ad_client_id":0,
 "ad_org_id":0,
 "costingprecision":4,
 "created":"2003-08-06T17:05:26",
 "createdby":0,
 "cursymbol":null,
 "description":"Uzbekistan Sum",
 "emuentrydate":null,
 "emurate":0,
 "isactive":"Y",
 "isemumember":"N",
 "iseuro":"N",
 "roundofffactor":null,
 "stdprecision":2,
 "updated":"2000-01-02T00:00:00",
 "updatedby":0}, "children" : []},
 {"tablename" : "c_currency", "data" : {"c_currency_id":163,
 "iso_code":"CYP",
 "ad_client_id":0,
 "ad_org_id":0,
 "costingprecision":4,
 "created":"2003-08-06T17:05:27",
 "createdby":0,
 "cursymbol":"£C",
 "description":"Cyprus Pound",
 "emuentrydate":null,
 "emurate":0,
 "isactive":"Y",
 "isemumember":"N",
 "iseuro":"N",
 "roundofffactor":null,
 "stdprecision":2,
 "updated":"2000-01-02T00:00:00",
 "updatedby":0}, "children" : []},
 {"tablename" : "c_currency", "data" : {"c_currency_id":164,
 "iso_code":"EGP",
 "ad_client_id":0,
 "ad_org_id":0,
 "costingprecision":4,
 "created":"2003-08-06T17:05:27",
 "createdby":0,
 "cursymbol":"£E",
 "description":"Egyptian Pound",
 "emuentrydate":null,
 "emurate":0,
 "isactive":"Y",
 "isemumember":"N",
 "iseuro":"N",
 "roundofffactor":null,
 "stdprecision":2,
 "updated":"2000-01-02T00:00:00",
 "updatedby":0}, "children" : []},
 {"tablename" : "c_currency", "data" : {"c_currency_id":165,
 "iso_code":"FKP",
 "ad_client_id":0,
 "ad_org_id":0,
 "costingprecision":4,
 "created":"2003-08-06T17:05:27",
 "createdby":0,
 "cursymbol":"£F",
 "description":"Falkland Islands Pound",
 "emuentrydate":null,
 "emurate":0,
 "isactive":"Y",
 "isemumember":"N",
 "iseuro":"N",
 "roundofffactor":null,
 "stdprecision":2,
 "updated":"2000-01-02T00:00:00",
 "updatedby":0}, "children" : []},
 {"tablename" : "c_currency", "data" : {"c_currency_id":166,
 "iso_code":"GIP",
 "ad_client_id":0,
 "ad_org_id":0,
 "costingprecision":4,
 "created":"2003-08-06T17:05:27",
 "createdby":0,
 "cursymbol":"£G",
 "description":"Gibraltar Pound",
 "emuentrydate":null,
 "emurate":0,
 "isactive":"Y",
 "isemumember":"N",
 "iseuro":"N",
 "roundofffactor":null,
 "stdprecision":2,
 "updated":"2000-01-02T00:00:00",
 "updatedby":0}, "children" : []},
 {"tablename" : "c_currency", "data" : {"c_currency_id":167,
 "iso_code":"SHP",
 "ad_client_id":0,
 "ad_org_id":0,
 "costingprecision":4,
 "created":"2003-08-06T17:05:27",
 "createdby":0,
 "cursymbol":"£S",
 "description":"Saint Helena Pound",
 "emuentrydate":null,
 "emurate":0,
 "isactive":"Y",
 "isemumember":"N",
 "iseuro":"N",
 "roundofffactor":null,
 "stdprecision":2,
 "updated":"2000-01-02T00:00:00",
 "updatedby":0}, "children" : []},
 {"tablename" : "c_currency", "data" : {"c_currency_id":168,
 "iso_code":"SYP",
 "ad_client_id":0,
 "ad_org_id":0,
 "costingprecision":4,
 "created":"2003-08-06T17:05:27",
 "createdby":0,
 "cursymbol":"£S",
 "description":"Syrian Pound",
 "emuentrydate":null,
 "emurate":0,
 "isactive":"Y",
 "isemumember":"N",
 "iseuro":"N",
 "roundofffactor":null,
 "stdprecision":2,
 "updated":"2000-01-02T00:00:00",
 "updatedby":0}, "children" : []},
 {"tablename" : "c_currency", "data" : {"c_currency_id":170,
 "iso_code":"GHC",
 "ad_client_id":0,
 "ad_org_id":0,
 "costingprecision":4,
 "created":"2003-08-06T17:05:27",
 "createdby":0,
 "cursymbol":"¢",
 "description":"Cedi",
 "emuentrydate":null,
 "emurate":0,
 "isactive":"Y",
 "isemumember":"N",
 "iseuro":"N",
 "roundofffactor":null,
 "stdprecision":2,
 "updated":"2000-01-02T00:00:00",
 "updatedby":0}, "children" : []},
 {"tablename" : "c_currency", "data" : {"c_currency_id":171,
 "iso_code":"SVC",
 "ad_client_id":0,
 "ad_org_id":0,
 "costingprecision":4,
 "created":"2003-08-06T17:05:28",
 "createdby":0,
 "cursymbol":"¢",
 "description":"El Salvador Colon",
 "emuentrydate":null,
 "emurate":0,
 "isactive":"Y",
 "isemumember":"N",
 "iseuro":"N",
 "roundofffactor":null,
 "stdprecision":2,
 "updated":"2000-01-02T00:00:00",
 "updatedby":0}, "children" : []},
 {"tablename" : "c_currency", "data" : {"c_currency_id":195,
 "iso_code":"AFA",
 "ad_client_id":0,
 "ad_org_id":0,
 "costingprecision":4,
 "created":"2003-08-06T17:05:31",
 "createdby":0,
 "cursymbol":"Af",
 "description":"Afghani",
 "emuentrydate":null,
 "emurate":0,
 "isactive":"Y",
 "isemumember":"N",
 "iseuro":"N",
 "roundofffactor":null,
 "stdprecision":2,
 "updated":"2000-01-02T00:00:00",
 "updatedby":0}, "children" : []},
 {"tablename" : "c_currency", "data" : {"c_currency_id":196,
 "iso_code":"AWG",
 "ad_client_id":0,
 "ad_org_id":0,
 "costingprecision":4,
 "created":"2003-08-06T17:05:31",
 "createdby":0,
 "cursymbol":"Af.",
 "description":"Aruban Guilder",
 "emuentrydate":null,
 "emurate":0,
 "isactive":"Y",
 "isemumember":"N",
 "iseuro":"N",
 "roundofffactor":null,
 "stdprecision":2,
 "updated":"2000-01-02T00:00:00",
 "updatedby":0}, "children" : []},
 {"tablename" : "c_currency", "data" : {"c_currency_id":197,
 "iso_code":"PAB",
 "ad_client_id":0,
 "ad_org_id":0,
 "costingprecision":4,
 "created":"2003-08-06T17:05:31",
 "createdby":0,
 "cursymbol":"B",
 "description":"Balboa",
 "emuentrydate":null,
 "emurate":0,
 "isactive":"Y",
 "isemumember":"N",
 "iseuro":"N",
 "roundofffactor":null,
 "stdprecision":2,
 "updated":"2000-01-02T00:00:00",
 "updatedby":0}, "children" : []},
 {"tablename" : "c_currency", "data" : {"c_currency_id":198,
 "iso_code":"BND",
 "ad_client_id":0,
 "ad_org_id":0,
 "costingprecision":4,
 "created":"2003-08-06T17:05:31",
 "createdby":0,
 "cursymbol":"B$",
 "description":"Brunei Dollar",
 "emuentrydate":null,
 "emurate":0,
 "isactive":"Y",
 "isemumember":"N",
 "iseuro":"N",
 "roundofffactor":null,
 "stdprecision":2,
 "updated":"2000-01-02T00:00:00",
 "updatedby":0}, "children" : []},
 {"tablename" : "c_currency", "data" : {"c_currency_id":199,
 "iso_code":"BSD",
 "ad_client_id":0,
 "ad_org_id":0,
 "costingprecision":4,
 "created":"2003-08-06T17:05:31",
 "createdby":0,
 "cursymbol":"B$",
 "description":"Bahamian Dollar",
 "emuentrydate":null,
 "emurate":0,
 "isactive":"Y",
 "isemumember":"N",
 "iseuro":"N",
 "roundofffactor":null,
 "stdprecision":2,
 "updated":"2000-01-02T00:00:00",
 "updatedby":0}, "children" : []},
 {"tablename" : "c_currency", "data" : {"c_currency_id":200,
 "iso_code":"BHD",
 "ad_client_id":0,
 "ad_org_id":0,
 "costingprecision":5,
 "created":"2003-08-06T17:05:31",
 "createdby":0,
 "cursymbol":"BD",
 "description":"Bahraini Dinar",
 "emuentrydate":null,
 "emurate":0,
 "isactive":"Y",
 "isemumember":"N",
 "iseuro":"N",
 "roundofffactor":null,
 "stdprecision":3,
 "updated":"2000-01-02T00:00:00",
 "updatedby":0}, "children" : []},
 {"tablename" : "c_currency", "data" : {"c_currency_id":201,
 "iso_code":"BMD",
 "ad_client_id":0,
 "ad_org_id":0,
 "costingprecision":4,
 "created":"2003-08-06T17:05:32",
 "createdby":0,
 "cursymbol":"Bd$",
 "description":"Bermudian Dollar",
 "emuentrydate":null,
 "emurate":0,
 "isactive":"Y",
 "isemumember":"N",
 "iseuro":"N",
 "roundofffactor":null,
 "stdprecision":2,
 "updated":"2000-01-02T00:00:00",
 "updatedby":0}, "children" : []},
 {"tablename" : "c_currency", "data" : {"c_currency_id":202,
 "iso_code":"BBD",
 "ad_client_id":0,
 "ad_org_id":0,
 "costingprecision":4,
 "created":"2003-08-06T17:05:32",
 "createdby":0,
 "cursymbol":"Bds$",
 "description":"Barbados Dollar",
 "emuentrydate":null,
 "emurate":0,
 "isactive":"Y",
 "isemumember":"N",
 "iseuro":"N",
 "roundofffactor":null,
 "stdprecision":2,
 "updated":"2000-01-02T00:00:00",
 "updatedby":0}, "children" : []},
 {"tablename" : "c_currency", "data" : {"c_currency_id":203,
 "iso_code":"BYR",
 "ad_client_id":0,
 "ad_org_id":0,
 "costingprecision":2,
 "created":"2003-08-06T17:05:32",
 "createdby":0,
 "cursymbol":"BR",
 "description":"Belarussian Ruble",
 "emuentrydate":null,
 "emurate":0,
 "isactive":"Y",
 "isemumember":"N",
 "iseuro":"N",
 "roundofffactor":null,
 "stdprecision":0,
 "updated":"2000-01-02T00:00:00",
 "updatedby":0}, "children" : []},
 {"tablename" : "c_currency", "data" : {"c_currency_id":204,
 "iso_code":"ETB",
 "ad_client_id":0,
 "ad_org_id":0,
 "costingprecision":4,
 "created":"2003-08-06T17:05:32",
 "createdby":0,
 "cursymbol":"Br",
 "description":"Ethiopian Birr",
 "emuentrydate":null,
 "emurate":0,
 "isactive":"Y",
 "isemumember":"N",
 "iseuro":"N",
 "roundofffactor":null,
 "stdprecision":2,
 "updated":"2000-01-02T00:00:00",
 "updatedby":0}, "children" : []},
 {"tablename" : "c_currency", "data" : {"c_currency_id":205,
 "iso_code":"VEB",
 "ad_client_id":0,
 "ad_org_id":0,
 "costingprecision":4,
 "created":"2003-08-06T17:05:32",
 "createdby":0,
 "cursymbol":"Bs",
 "description":"Bolivar",
 "emuentrydate":null,
 "emurate":0,
 "isactive":"Y",
 "isemumember":"N",
 "iseuro":"N",
 "roundofffactor":null,
 "stdprecision":2,
 "updated":"2000-01-02T00:00:00",
 "updatedby":0}, "children" : []},
 {"tablename" : "c_currency", "data" : {"c_currency_id":206,
 "iso_code":"THB",
 "ad_client_id":0,
 "ad_org_id":0,
 "costingprecision":4,
 "created":"2003-08-06T17:05:32",
 "createdby":0,
 "cursymbol":"Bt",
 "description":"Baht",
 "emuentrydate":null,
 "emurate":0,
 "isactive":"Y",
 "isemumember":"N",
 "iseuro":"N",
 "roundofffactor":null,
 "stdprecision":2,
 "updated":"2000-01-02T00:00:00",
 "updatedby":0}, "children" : []},
 {"tablename" : "c_currency", "data" : {"c_currency_id":207,
 "iso_code":"BZD",
 "ad_client_id":0,
 "ad_org_id":0,
 "costingprecision":4,
 "created":"2003-08-06T17:05:32",
 "createdby":0,
 "cursymbol":"BZ$",
 "description":"Belize Dollar",
 "emuentrydate":null,
 "emurate":0,
 "isactive":"Y",
 "isemumember":"N",
 "iseuro":"N",
 "roundofffactor":null,
 "stdprecision":2,
 "updated":"2000-01-02T00:00:00",
 "updatedby":0}, "children" : []},
 {"tablename" : "c_currency", "data" : {"c_currency_id":209,
 "iso_code":"NIO",
 "ad_client_id":0,
 "ad_org_id":0,
 "costingprecision":4,
 "created":"2003-08-06T17:05:32",
 "createdby":0,
 "cursymbol":"C$",
 "description":"Cordoba Oro",
 "emuentrydate":null,
 "emurate":0,
 "isactive":"Y",
 "isemumember":"N",
 "iseuro":"N",
 "roundofffactor":null,
 "stdprecision":2,
 "updated":"2000-01-02T00:00:00",
 "updatedby":0}, "children" : []},
 {"tablename" : "c_currency", "data" : {"c_currency_id":210,
 "iso_code":"CVE",
 "ad_client_id":0,
 "ad_org_id":0,
 "costingprecision":4,
 "created":"2003-08-06T17:05:33",
 "createdby":0,
 "cursymbol":"C.V.Esc.",
 "description":"Cape Verde Escudo",
 "emuentrydate":null,
 "emurate":0,
 "isactive":"Y",
 "isemumember":"N",
 "iseuro":"N",
 "roundofffactor":null,
 "stdprecision":2,
 "updated":"2000-01-02T00:00:00",
 "updatedby":0}, "children" : []},
 {"tablename" : "c_currency", "data" : {"c_currency_id":211,
 "iso_code":"KMF",
 "ad_client_id":0,
 "ad_org_id":0,
 "costingprecision":2,
 "created":"2003-08-06T17:05:33",
 "createdby":0,
 "cursymbol":"CF",
 "description":"Comoro Franc",
 "emuentrydate":null,
 "emurate":0,
 "isactive":"Y",
 "isemumember":"N",
 "iseuro":"N",
 "roundofffactor":null,
 "stdprecision":0,
 "updated":"2000-01-02T00:00:00",
 "updatedby":0}, "children" : []},
 {"tablename" : "c_currency", "data" : {"c_currency_id":212,
 "iso_code":"XOF",
 "ad_client_id":0,
 "ad_org_id":0,
 "costingprecision":2,
 "created":"2003-08-06T17:05:33",
 "createdby":0,
 "cursymbol":"CFAF",
 "description":"CFA Franc BCEAO",
 "emuentrydate":null,
 "emurate":0,
 "isactive":"Y",
 "isemumember":"N",
 "iseuro":"N",
 "roundofffactor":null,
 "stdprecision":0,
 "updated":"2000-01-02T00:00:00",
 "updatedby":0}, "children" : []},
 {"tablename" : "c_currency", "data" : {"c_currency_id":214,
 "iso_code":"XAF",
 "ad_client_id":0,
 "ad_org_id":0,
 "costingprecision":2,
 "created":"2003-08-06T17:05:33",
 "createdby":0,
 "cursymbol":"CFAF",
 "description":"CFA Franc BEAC",
 "emuentrydate":null,
 "emurate":0,
 "isactive":"Y",
 "isemumember":"N",
 "iseuro":"N",
 "roundofffactor":null,
 "stdprecision":0,
 "updated":"2000-01-02T00:00:00",
 "updatedby":0}, "children" : []},
 {"tablename" : "c_currency", "data" : {"c_currency_id":225,
 "iso_code":"XPF",
 "ad_client_id":0,
 "ad_org_id":0,
 "costingprecision":2,
 "created":"2003-08-06T17:05:35",
 "createdby":0,
 "cursymbol":"CFPF",
 "description":"CFP Franc",
 "emuentrydate":null,
 "emurate":0,
 "isactive":"Y",
 "isemumember":"N",
 "iseuro":"N",
 "roundofffactor":null,
 "stdprecision":0,
 "updated":"2000-01-02T00:00:00",
 "updatedby":0}, "children" : []},
 {"tablename" : "c_currency", "data" : {"c_currency_id":228,
 "iso_code":"CLP",
 "ad_client_id":0,
 "ad_org_id":0,
 "costingprecision":2,
 "created":"2003-08-06T17:05:35",
 "createdby":0,
 "cursymbol":"Ch$",
 "description":"Chilean Peso",
 "emuentrydate":null,
 "emurate":0,
 "isactive":"Y",
 "isemumember":"N",
 "iseuro":"N",
 "roundofffactor":null,
 "stdprecision":0,
 "updated":"2000-01-02T00:00:00",
 "updatedby":0}, "children" : []},
 {"tablename" : "c_currency", "data" : {"c_currency_id":229,
 "iso_code":"KYD",
 "ad_client_id":0,
 "ad_org_id":0,
 "costingprecision":4,
 "created":"2003-08-06T17:05:35",
 "createdby":0,
 "cursymbol":"CI$",
 "description":"Cayman Islands Dollar",
 "emuentrydate":null,
 "emurate":0,
 "isactive":"Y",
 "isemumember":"N",
 "iseuro":"N",
 "roundofffactor":null,
 "stdprecision":2,
 "updated":"2000-01-02T00:00:00",
 "updatedby":0}, "children" : []},
 {"tablename" : "c_currency", "data" : {"c_currency_id":230,
 "iso_code":"COP",
 "ad_client_id":0,
 "ad_org_id":0,
 "costingprecision":4,
 "created":"2003-08-06T17:05:36",
 "createdby":0,
 "cursymbol":"Col$",
 "description":"Colombian Peso",
 "emuentrydate":null,
 "emurate":0,
 "isactive":"Y",
 "isemumember":"N",
 "iseuro":"N",
 "roundofffactor":null,
 "stdprecision":2,
 "updated":"2000-01-02T00:00:00",
 "updatedby":0}, "children" : []},
 {"tablename" : "c_currency", "data" : {"c_currency_id":231,
 "iso_code":"KHR",
 "ad_client_id":0,
 "ad_org_id":0,
 "costingprecision":4,
 "created":"2003-08-06T17:05:36",
 "createdby":0,
 "cursymbol":"CR",
 "description":"Riel",
 "emuentrydate":null,
 "emurate":0,
 "isactive":"Y",
 "isemumember":"N",
 "iseuro":"N",
 "roundofffactor":null,
 "stdprecision":2,
 "updated":"2000-01-02T00:00:00",
 "updatedby":0}, "children" : []},
 {"tablename" : "c_currency", "data" : {"c_currency_id":232,
 "iso_code":"CUP",
 "ad_client_id":0,
 "ad_org_id":0,
 "costingprecision":4,
 "created":"2003-08-06T17:05:36",
 "createdby":0,
 "cursymbol":"Cu$",
 "description":"Cuban Peso",
 "emuentrydate":null,
 "emurate":0,
 "isactive":"Y",
 "isemumember":"N",
 "iseuro":"N",
 "roundofffactor":null,
 "stdprecision":2,
 "updated":"2000-01-02T00:00:00",
 "updatedby":0}, "children" : []},
 {"tablename" : "c_currency", "data" : {"c_currency_id":233,
 "iso_code":"GMD",
 "ad_client_id":0,
 "ad_org_id":0,
 "costingprecision":4,
 "created":"2003-08-06T17:05:36",
 "createdby":0,
 "cursymbol":"D",
 "description":"Dalasi",
 "emuentrydate":null,
 "emurate":0,
 "isactive":"Y",
 "isemumember":"N",
 "iseuro":"N",
 "roundofffactor":null,
 "stdprecision":2,
 "updated":"2000-01-02T00:00:00",
 "updatedby":0}, "children" : []},
 {"tablename" : "c_currency", "data" : {"c_currency_id":234,
 "iso_code":"VND",
 "ad_client_id":0,
 "ad_org_id":0,
 "costingprecision":4,
 "created":"2003-08-06T17:05:36",
 "createdby":0,
 "cursymbol":"D",
 "description":"Dong",
 "emuentrydate":null,
 "emurate":0,
 "isactive":"Y",
 "isemumember":"N",
 "iseuro":"N",
 "roundofffactor":null,
 "stdprecision":2,
 "updated":"2000-01-02T00:00:00",
 "updatedby":0}, "children" : []},
 {"tablename" : "c_currency", "data" : {"c_currency_id":235,
 "iso_code":"DZD",
 "ad_client_id":0,
 "ad_org_id":0,
 "costingprecision":4,
 "created":"2003-08-06T17:05:36",
 "createdby":0,
 "cursymbol":"DA",
 "description":"Algerian Dinar",
 "emuentrydate":null,
 "emurate":0,
 "isactive":"Y",
 "isemumember":"N",
 "iseuro":"N",
 "roundofffactor":null,
 "stdprecision":2,
 "updated":"2000-01-02T00:00:00",
 "updatedby":0}, "children" : []},
 {"tablename" : "c_currency", "data" : {"c_currency_id":236,
 "iso_code":"STD",
 "ad_client_id":0,
 "ad_org_id":0,
 "costingprecision":4,
 "created":"2003-08-06T17:05:36",
 "createdby":0,
 "cursymbol":"Db",
 "description":"Dobra",
 "emuentrydate":null,
 "emurate":0,
 "isactive":"Y",
 "isemumember":"N",
 "iseuro":"N",
 "roundofffactor":null,
 "stdprecision":2,
 "updated":"2000-01-02T00:00:00",
 "updatedby":0}, "children" : []},
 {"tablename" : "c_currency", "data" : {"c_currency_id":237,
 "iso_code":"DJF",
 "ad_client_id":0,
 "ad_org_id":0,
 "costingprecision":2,
 "created":"2003-08-06T17:05:36",
 "createdby":0,
 "cursymbol":"DF",
 "description":"Djibouti Franc",
 "emuentrydate":null,
 "emurate":0,
 "isactive":"Y",
 "isemumember":"N",
 "iseuro":"N",
 "roundofffactor":null,
 "stdprecision":0,
 "updated":"2000-01-02T00:00:00",
 "updatedby":0}, "children" : []},
 {"tablename" : "c_currency", "data" : {"c_currency_id":238,
 "iso_code":"AED",
 "ad_client_id":0,
 "ad_org_id":0,
 "costingprecision":4,
 "created":"2003-08-06T17:05:36",
 "createdby":0,
 "cursymbol":"Dh",
 "description":"UAE Dirham",
 "emuentrydate":null,
 "emurate":0,
 "isactive":"Y",
 "isemumember":"N",
 "iseuro":"N",
 "roundofffactor":null,
 "stdprecision":2,
 "updated":"2000-01-02T00:00:00",
 "updatedby":0}, "children" : []},
 {"tablename" : "c_currency", "data" : {"c_currency_id":239,
 "iso_code":"MAD",
 "ad_client_id":0,
 "ad_org_id":0,
 "costingprecision":4,
 "created":"2003-08-06T17:05:36",
 "createdby":0,
 "cursymbol":"DH",
 "description":"Moroccan Dirham",
 "emuentrydate":null,
 "emurate":0,
 "isactive":"Y",
 "isemumember":"N",
 "iseuro":"N",
 "roundofffactor":null,
 "stdprecision":2,
 "updated":"2000-01-02T00:00:00",
 "updatedby":0}, "children" : []},
 {"tablename" : "c_currency", "data" : {"c_currency_id":240,
 "iso_code":"YUM",
 "ad_client_id":0,
 "ad_org_id":0,
 "costingprecision":4,
 "created":"2003-08-06T17:05:37",
 "createdby":0,
 "cursymbol":"Din",
 "description":"Yugoslavian Dinar",
 "emuentrydate":null,
 "emurate":0,
 "isactive":"Y",
 "isemumember":"N",
 "iseuro":"N",
 "roundofffactor":null,
 "stdprecision":2,
 "updated":"2000-01-02T00:00:00",
 "updatedby":0}, "children" : []},
 {"tablename" : "c_currency", "data" : {"c_currency_id":241,
 "iso_code":"DKK",
 "ad_client_id":0,
 "ad_org_id":0,
 "costingprecision":4,
 "created":"2003-08-06T17:05:37",
 "createdby":0,
 "cursymbol":"Dkr",
 "description":"Danish Krone",
 "emuentrydate":null,
 "emurate":0,
 "isactive":"Y",
 "isemumember":"N",
 "iseuro":"N",
 "roundofffactor":null,
 "stdprecision":2,
 "updated":"2000-01-02T00:00:00",
 "updatedby":0}, "children" : []},
 {"tablename" : "c_currency", "data" : {"c_currency_id":244,
 "iso_code":"XCD",
 "ad_client_id":0,
 "ad_org_id":0,
 "costingprecision":4,
 "created":"2003-08-06T17:05:37",
 "createdby":0,
 "cursymbol":"EC$",
 "description":"East Caribbean Dollar",
 "emuentrydate":null,
 "emurate":0,
 "isactive":"Y",
 "isemumember":"N",
 "iseuro":"N",
 "roundofffactor":null,
 "stdprecision":2,
 "updated":"2000-01-02T00:00:00",
 "updatedby":0}, "children" : []},
 {"tablename" : "c_currency", "data" : {"c_currency_id":252,
 "iso_code":"FJD",
 "ad_client_id":0,
 "ad_org_id":0,
 "costingprecision":4,
 "created":"2003-08-06T17:05:38",
 "createdby":0,
 "cursymbol":"F$",
 "description":"Fiji Dollar",
 "emuentrydate":null,
 "emurate":0,
 "isactive":"Y",
 "isemumember":"N",
 "iseuro":"N",
 "roundofffactor":null,
 "stdprecision":2,
 "updated":"2000-01-02T00:00:00",
 "updatedby":0}, "children" : []},
 {"tablename" : "c_currency", "data" : {"c_currency_id":253,
 "iso_code":"BIF",
 "ad_client_id":0,
 "ad_org_id":0,
 "costingprecision":2,
 "created":"2003-08-06T17:05:38",
 "createdby":0,
 "cursymbol":"FBu",
 "description":"Burundi Franc",
 "emuentrydate":null,
 "emurate":0,
 "isactive":"Y",
 "isemumember":"N",
 "iseuro":"N",
 "roundofffactor":null,
 "stdprecision":0,
 "updated":"2000-01-02T00:00:00",
 "updatedby":0}, "children" : []},
 {"tablename" : "c_currency", "data" : {"c_currency_id":254,
 "iso_code":"MGF",
 "ad_client_id":0,
 "ad_org_id":0,
 "costingprecision":2,
 "created":"2003-08-06T17:05:38",
 "createdby":0,
 "cursymbol":"FMG",
 "description":"Malagasy Franc",
 "emuentrydate":null,
 "emurate":0,
 "isactive":"Y",
 "isemumember":"N",
 "iseuro":"N",
 "roundofffactor":null,
 "stdprecision":0,
 "updated":"2000-01-02T00:00:00",
 "updatedby":0}, "children" : []},
 {"tablename" : "c_currency", "data" : {"c_currency_id":255,
 "iso_code":"HUF",
 "ad_client_id":0,
 "ad_org_id":0,
 "costingprecision":4,
 "created":"2003-08-06T17:05:39",
 "createdby":0,
 "cursymbol":"Ft",
 "description":"Forint",
 "emuentrydate":null,
 "emurate":0,
 "isactive":"Y",
 "isemumember":"N",
 "iseuro":"N",
 "roundofffactor":null,
 "stdprecision":2,
 "updated":"2000-01-02T00:00:00",
 "updatedby":0}, "children" : []},
 {"tablename" : "c_currency", "data" : {"c_currency_id":256,
 "iso_code":"HTG",
 "ad_client_id":0,
 "ad_org_id":0,
 "costingprecision":4,
 "created":"2003-08-06T17:05:39",
 "createdby":0,
 "cursymbol":"G",
 "description":"Gourde",
 "emuentrydate":null,
 "emurate":0,
 "isactive":"Y",
 "isemumember":"N",
 "iseuro":"N",
 "roundofffactor":null,
 "stdprecision":2,
 "updated":"2000-01-02T00:00:00",
 "updatedby":0}, "children" : []},
 {"tablename" : "c_currency", "data" : {"c_currency_id":257,
 "iso_code":"GYD",
 "ad_client_id":0,
 "ad_org_id":0,
 "costingprecision":4,
 "created":"2003-08-06T17:05:39",
 "createdby":0,
 "cursymbol":"G$",
 "description":"Guyana Dollar",
 "emuentrydate":null,
 "emurate":0,
 "isactive":"Y",
 "isemumember":"N",
 "iseuro":"N",
 "roundofffactor":null,
 "stdprecision":2,
 "updated":"2000-01-02T00:00:00",
 "updatedby":0}, "children" : []},
 {"tablename" : "c_currency", "data" : {"c_currency_id":258,
 "iso_code":"HKD",
 "ad_client_id":0,
 "ad_org_id":0,
 "costingprecision":4,
 "created":"2003-08-06T17:05:39",
 "createdby":0,
 "cursymbol":"HK$",
 "description":"Hong Kong Dollar",
 "emuentrydate":null,
 "emurate":0,
 "isactive":"Y",
 "isemumember":"N",
 "iseuro":"N",
 "roundofffactor":null,
 "stdprecision":2,
 "updated":"2000-01-02T00:00:00",
 "updatedby":0}, "children" : []},
 {"tablename" : "c_currency", "data" : {"c_currency_id":259,
 "iso_code":"HRK",
 "ad_client_id":0,
 "ad_org_id":0,
 "costingprecision":4,
 "created":"2003-08-06T17:05:39",
 "createdby":0,
 "cursymbol":"HRK",
 "description":"Croatian Kuna",
 "emuentrydate":null,
 "emurate":0,
 "isactive":"Y",
 "isemumember":"N",
 "iseuro":"N",
 "roundofffactor":null,
 "stdprecision":2,
 "updated":"2000-01-02T00:00:00",
 "updatedby":0}, "children" : []},
 {"tablename" : "c_currency", "data" : {"c_currency_id":260,
 "iso_code":"IQD",
 "ad_client_id":0,
 "ad_org_id":0,
 "costingprecision":5,
 "created":"2003-08-06T17:05:39",
 "createdby":0,
 "cursymbol":"ID",
 "description":"Iraqi Dinar",
 "emuentrydate":null,
 "emurate":0,
 "isactive":"Y",
 "isemumember":"N",
 "iseuro":"N",
 "roundofffactor":null,
 "stdprecision":3,
 "updated":"2000-01-02T00:00:00",
 "updatedby":0}, "children" : []},
 {"tablename" : "c_currency", "data" : {"c_currency_id":261,
 "iso_code":"ISK",
 "ad_client_id":0,
 "ad_org_id":0,
 "costingprecision":4,
 "created":"2003-08-06T17:05:39",
 "createdby":0,
 "cursymbol":"IKr",
 "description":"Iceland Krona",
 "emuentrydate":null,
 "emurate":0,
 "isactive":"Y",
 "isemumember":"N",
 "iseuro":"N",
 "roundofffactor":null,
 "stdprecision":2,
 "updated":"2000-01-02T00:00:00",
 "updatedby":0}, "children" : []},
 {"tablename" : "c_currency", "data" : {"c_currency_id":262,
 "iso_code":"JMD",
 "ad_client_id":0,
 "ad_org_id":0,
 "costingprecision":4,
 "created":"2003-08-06T17:05:39",
 "createdby":0,
 "cursymbol":"J$",
 "description":"Jamaican Dollar",
 "emuentrydate":null,
 "emurate":0,
 "isactive":"Y",
 "isemumember":"N",
 "iseuro":"N",
 "roundofffactor":null,
 "stdprecision":2,
 "updated":"2000-01-02T00:00:00",
 "updatedby":0}, "children" : []},
 {"tablename" : "c_currency", "data" : {"c_currency_id":263,
 "iso_code":"JOD",
 "ad_client_id":0,
 "ad_org_id":0,
 "costingprecision":5,
 "created":"2003-08-06T17:05:39",
 "createdby":0,
 "cursymbol":"JD",
 "description":"Jordanian Dinar",
 "emuentrydate":null,
 "emurate":0,
 "isactive":"Y",
 "isemumember":"N",
 "iseuro":"N",
 "roundofffactor":null,
 "stdprecision":3,
 "updated":"2000-01-02T00:00:00",
 "updatedby":0}, "children" : []},
 {"tablename" : "c_currency", "data" : {"c_currency_id":264,
 "iso_code":"MMK",
 "ad_client_id":0,
 "ad_org_id":0,
 "costingprecision":4,
 "created":"2003-08-06T17:05:40",
 "createdby":0,
 "cursymbol":"K",
 "description":"Kyat",
 "emuentrydate":null,
 "emurate":0,
 "isactive":"Y",
 "isemumember":"N",
 "iseuro":"N",
 "roundofffactor":null,
 "stdprecision":2,
 "updated":"2000-01-02T00:00:00",
 "updatedby":0}, "children" : []},
 {"tablename" : "c_currency", "data" : {"c_currency_id":265,
 "iso_code":"PGK",
 "ad_client_id":0,
 "ad_org_id":0,
 "costingprecision":4,
 "created":"2003-08-06T17:05:40",
 "createdby":0,
 "cursymbol":"K",
 "description":"Kina",
 "emuentrydate":null,
 "emurate":0,
 "isactive":"Y",
 "isemumember":"N",
 "iseuro":"N",
 "roundofffactor":null,
 "stdprecision":2,
 "updated":"2000-01-02T00:00:00",
 "updatedby":0}, "children" : []},
 {"tablename" : "c_currency", "data" : {"c_currency_id":266,
 "iso_code":"KES",
 "ad_client_id":0,
 "ad_org_id":0,
 "costingprecision":4,
 "created":"2003-08-06T17:05:40",
 "createdby":0,
 "cursymbol":"K Sh",
 "description":"Kenyan Shilling",
 "emuentrydate":null,
 "emurate":0,
 "isactive":"Y",
 "isemumember":"N",
 "iseuro":"N",
 "roundofffactor":null,
 "stdprecision":2,
 "updated":"2000-01-02T00:00:00",
 "updatedby":0}, "children" : []},
 {"tablename" : "c_currency", "data" : {"c_currency_id":267,
 "iso_code":"KWD",
 "ad_client_id":0,
 "ad_org_id":0,
 "costingprecision":5,
 "created":"2003-08-06T17:05:40",
 "createdby":0,
 "cursymbol":"KD",
 "description":"Kuwaiti Dinar",
 "emuentrydate":null,
 "emurate":0,
 "isactive":"Y",
 "isemumember":"N",
 "iseuro":"N",
 "roundofffactor":null,
 "stdprecision":3,
 "updated":"2000-01-02T00:00:00",
 "updatedby":0}, "children" : []},
 {"tablename" : "c_currency", "data" : {"c_currency_id":268,
 "iso_code":"BAM",
 "ad_client_id":0,
 "ad_org_id":0,
 "costingprecision":4,
 "created":"2003-08-06T17:05:40",
 "createdby":0,
 "cursymbol":"KM",
 "description":"Convertible Marks",
 "emuentrydate":null,
 "emurate":0,
 "isactive":"Y",
 "isemumember":"N",
 "iseuro":"N",
 "roundofffactor":null,
 "stdprecision":2,
 "updated":"2000-01-02T00:00:00",
 "updatedby":0}, "children" : []},
 {"tablename" : "c_currency", "data" : {"c_currency_id":269,
 "iso_code":"LAK",
 "ad_client_id":0,
 "ad_org_id":0,
 "costingprecision":4,
 "created":"2003-08-06T17:05:40",
 "createdby":0,
 "cursymbol":"KN",
 "description":"Kip",
 "emuentrydate":null,
 "emurate":0,
 "isactive":"Y",
 "isemumember":"N",
 "iseuro":"N",
 "roundofffactor":null,
 "stdprecision":2,
 "updated":"2000-01-02T00:00:00",
 "updatedby":0}, "children" : []},
 {"tablename" : "c_currency", "data" : {"c_currency_id":270,
 "iso_code":"ERN",
 "ad_client_id":0,
 "ad_org_id":0,
 "costingprecision":4,
 "created":"2003-08-06T17:05:40",
 "createdby":0,
 "cursymbol":"KR",
 "description":"Nakfa",
 "emuentrydate":null,
 "emurate":0,
 "isactive":"Y",
 "isemumember":"N",
 "iseuro":"N",
 "roundofffactor":null,
 "stdprecision":2,
 "updated":"2000-01-02T00:00:00",
 "updatedby":0}, "children" : []},
 {"tablename" : "c_currency", "data" : {"c_currency_id":271,
 "iso_code":"ALL",
 "ad_client_id":0,
 "ad_org_id":0,
 "costingprecision":4,
 "created":"2003-08-06T17:05:40",
 "createdby":0,
 "cursymbol":"L",
 "description":"Lek",
 "emuentrydate":null,
 "emurate":0,
 "isactive":"Y",
 "isemumember":"N",
 "iseuro":"N",
 "roundofffactor":null,
 "stdprecision":2,
 "updated":"2000-01-02T00:00:00",
 "updatedby":0}, "children" : []},
 {"tablename" : "c_currency", "data" : {"c_currency_id":272,
 "iso_code":"HNL",
 "ad_client_id":0,
 "ad_org_id":0,
 "costingprecision":4,
 "created":"2003-08-06T17:05:40",
 "createdby":0,
 "cursymbol":"L",
 "description":"Lempira",
 "emuentrydate":null,
 "emurate":0,
 "isactive":"Y",
 "isemumember":"N",
 "iseuro":"N",
 "roundofffactor":null,
 "stdprecision":2,
 "updated":"2000-01-02T00:00:00",
 "updatedby":0}, "children" : []},
 {"tablename" : "c_currency", "data" : {"c_currency_id":273,
 "iso_code":"ROL",
 "ad_client_id":0,
 "ad_org_id":0,
 "costingprecision":4,
 "created":"2003-08-06T17:05:40",
 "createdby":0,
 "cursymbol":"L",
 "description":"Leu (old)",
 "emuentrydate":null,
 "emurate":0,
 "isactive":"Y",
 "isemumember":"N",
 "iseuro":"N",
 "roundofffactor":null,
 "stdprecision":2,
 "updated":"2005-04-17T21:23:54",
 "updatedby":100}, "children" : []},
 {"tablename" : "c_currency", "data" : {"c_currency_id":274,
 "iso_code":"SZL",
 "ad_client_id":0,
 "ad_org_id":0,
 "costingprecision":4,
 "created":"2003-08-06T17:05:41",
 "createdby":0,
 "cursymbol":"L",
 "description":"Lilangeni",
 "emuentrydate":null,
 "emurate":0,
 "isactive":"Y",
 "isemumember":"N",
 "iseuro":"N",
 "roundofffactor":null,
 "stdprecision":2,
 "updated":"2000-01-02T00:00:00",
 "updatedby":0}, "children" : []},
 {"tablename" : "c_currency", "data" : {"c_currency_id":275,
 "iso_code":"LYD",
 "ad_client_id":0,
 "ad_org_id":0,
 "costingprecision":5,
 "created":"2003-08-06T17:05:41",
 "createdby":0,
 "cursymbol":"LD",
 "description":"Libyan Dinar",
 "emuentrydate":null,
 "emurate":0,
 "isactive":"Y",
 "isemumember":"N",
 "iseuro":"N",
 "roundofffactor":null,
 "stdprecision":3,
 "updated":"2000-01-02T00:00:00",
 "updatedby":0}, "children" : []},
 {"tablename" : "c_currency", "data" : {"c_currency_id":276,
 "iso_code":"SLL",
 "ad_client_id":0,
 "ad_org_id":0,
 "costingprecision":4,
 "created":"2003-08-06T17:05:41",
 "createdby":0,
 "cursymbol":"Le",
 "description":"Leone",
 "emuentrydate":null,
 "emurate":0,
 "isactive":"Y",
 "isemumember":"N",
 "iseuro":"N",
 "roundofffactor":null,
 "stdprecision":2,
 "updated":"2000-01-02T00:00:00",
 "updatedby":0}, "children" : []},
 {"tablename" : "c_currency", "data" : {"c_currency_id":277,
 "iso_code":"MTL",
 "ad_client_id":0,
 "ad_org_id":0,
 "costingprecision":4,
 "created":"2003-08-06T17:05:41",
 "createdby":0,
 "cursymbol":"Lm",
 "description":"Maltese Lira",
 "emuentrydate":null,
 "emurate":0,
 "isactive":"Y",
 "isemumember":"N",
 "iseuro":"N",
 "roundofffactor":null,
 "stdprecision":2,
 "updated":"2000-01-02T00:00:00",
 "updatedby":0}, "children" : []},
 {"tablename" : "c_currency", "data" : {"c_currency_id":278,
 "iso_code":"LVL",
 "ad_client_id":0,
 "ad_org_id":0,
 "costingprecision":4,
 "created":"2003-08-06T17:05:41",
 "createdby":0,
 "cursymbol":"Ls",
 "description":"Latvian Lats",
 "emuentrydate":null,
 "emurate":0,
 "isactive":"Y",
 "isemumember":"N",
 "iseuro":"N",
 "roundofffactor":null,
 "stdprecision":2,
 "updated":"2000-01-02T00:00:00",
 "updatedby":0}, "children" : []},
 {"tablename" : "c_currency", "data" : {"c_currency_id":279,
 "iso_code":"BGL",
 "ad_client_id":0,
 "ad_org_id":0,
 "costingprecision":4,
 "created":"2003-08-06T17:05:41",
 "createdby":0,
 "cursymbol":"Lv",
 "description":"Lev",
 "emuentrydate":null,
 "emurate":0,
 "isactive":"Y",
 "isemumember":"N",
 "iseuro":"N",
 "roundofffactor":null,
 "stdprecision":2,
 "updated":"2000-01-02T00:00:00",
 "updatedby":0}, "children" : []},
 {"tablename" : "c_currency", "data" : {"c_currency_id":280,
 "iso_code":"MUR",
 "ad_client_id":0,
 "ad_org_id":0,
 "costingprecision":4,
 "created":"2003-08-06T17:05:41",
 "createdby":0,
 "cursymbol":"Mau Rs",
 "description":"Mauritius Rupee",
 "emuentrydate":null,
 "emurate":0,
 "isactive":"Y",
 "isemumember":"N",
 "iseuro":"N",
 "roundofffactor":null,
 "stdprecision":2,
 "updated":"2000-01-02T00:00:00",
 "updatedby":0}, "children" : []},
 {"tablename" : "c_currency", "data" : {"c_currency_id":281,
 "iso_code":"MWK",
 "ad_client_id":0,
 "ad_org_id":0,
 "costingprecision":4,
 "created":"2003-08-06T17:05:41",
 "createdby":0,
 "cursymbol":"MK",
 "description":"Kwacha",
 "emuentrydate":null,
 "emurate":0,
 "isactive":"Y",
 "isemumember":"N",
 "iseuro":"N",
 "roundofffactor":null,
 "stdprecision":2,
 "updated":"2000-01-02T00:00:00",
 "updatedby":0}, "children" : []},
 {"tablename" : "c_currency", "data" : {"c_currency_id":282,
 "iso_code":"MKD",
 "ad_client_id":0,
 "ad_org_id":0,
 "costingprecision":4,
 "created":"2003-08-06T17:05:41",
 "createdby":0,
 "cursymbol":"MKD",
 "description":"Denar",
 "emuentrydate":null,
 "emurate":0,
 "isactive":"Y",
 "isemumember":"N",
 "iseuro":"N",
 "roundofffactor":null,
 "stdprecision":2,
 "updated":"2000-01-02T00:00:00",
 "updatedby":0}, "children" : []},
 {"tablename" : "c_currency", "data" : {"c_currency_id":283,
 "iso_code":"MZM",
 "ad_client_id":0,
 "ad_org_id":0,
 "costingprecision":4,
 "created":"2003-08-06T17:05:42",
 "createdby":0,
 "cursymbol":"Mt",
 "description":"Metical",
 "emuentrydate":null,
 "emurate":0,
 "isactive":"Y",
 "isemumember":"N",
 "iseuro":"N",
 "roundofffactor":null,
 "stdprecision":2,
 "updated":"2000-01-02T00:00:00",
 "updatedby":0}, "children" : []},
 {"tablename" : "c_currency", "data" : {"c_currency_id":284,
 "iso_code":"ANG",
 "ad_client_id":0,
 "ad_org_id":0,
 "costingprecision":4,
 "created":"2003-08-06T17:05:42",
 "createdby":0,
 "cursymbol":"NAf.",
 "description":"Netherlands Antillian Guilder",
 "emuentrydate":null,
 "emurate":0,
 "isactive":"Y",
 "isemumember":"N",
 "iseuro":"N",
 "roundofffactor":null,
 "stdprecision":2,
 "updated":"2000-01-02T00:00:00",
 "updatedby":0}, "children" : []},
 {"tablename" : "c_currency", "data" : {"c_currency_id":285,
 "iso_code":"EEK",
 "ad_client_id":0,
 "ad_org_id":0,
 "costingprecision":4,
 "created":"2003-08-06T17:05:42",
 "createdby":0,
 "cursymbol":"KR",
 "description":"Estonian Kroon",
 "emuentrydate":null,
 "emurate":0,
 "isactive":"Y",
 "isemumember":"N",
 "iseuro":"N",
 "roundofffactor":null,
 "stdprecision":2,
 "updated":"2000-01-02T00:00:00",
 "updatedby":0}, "children" : []},
 {"tablename" : "c_currency", "data" : {"c_currency_id":286,
 "iso_code":"ILS",
 "ad_client_id":0,
 "ad_org_id":0,
 "costingprecision":4,
 "created":"2003-08-06T17:05:42",
 "createdby":0,
 "cursymbol":"NIS",
 "description":"New Israeli Sheqel",
 "emuentrydate":null,
 "emurate":0,
 "isactive":"Y",
 "isemumember":"N",
 "iseuro":"N",
 "roundofffactor":null,
 "stdprecision":2,
 "updated":"2000-01-02T00:00:00",
 "updatedby":0}, "children" : []},
 {"tablename" : "c_currency", "data" : {"c_currency_id":287,
 "iso_code":"NOK",
 "ad_client_id":0,
 "ad_org_id":0,
 "costingprecision":4,
 "created":"2003-08-06T17:05:42",
 "createdby":0,
 "cursymbol":"NKr",
 "description":"Norwegian Krone",
 "emuentrydate":null,
 "emurate":0,
 "isactive":"Y",
 "isemumember":"N",
 "iseuro":"N",
 "roundofffactor":null,
 "stdprecision":2,
 "updated":"2000-01-02T00:00:00",
 "updatedby":0}, "children" : []},
 {"tablename" : "c_currency", "data" : {"c_currency_id":288,
 "iso_code":"NPR",
 "ad_client_id":0,
 "ad_org_id":0,
 "costingprecision":4,
 "created":"2003-08-06T17:05:42",
 "createdby":0,
 "cursymbol":"NRs",
 "description":"Nepalese Rupee",
 "emuentrydate":null,
 "emurate":0,
 "isactive":"Y",
 "isemumember":"N",
 "iseuro":"N",
 "roundofffactor":null,
 "stdprecision":2,
 "updated":"2000-01-02T00:00:00",
 "updatedby":0}, "children" : []},
 {"tablename" : "c_currency", "data" : {"c_currency_id":289,
 "iso_code":"TWD",
 "ad_client_id":0,
 "ad_org_id":0,
 "costingprecision":4,
 "created":"2003-08-06T17:05:42",
 "createdby":0,
 "cursymbol":"NT$",
 "description":"New Taiwan Dollar",
 "emuentrydate":null,
 "emurate":0,
 "isactive":"Y",
 "isemumember":"N",
 "iseuro":"N",
 "roundofffactor":null,
 "stdprecision":2,
 "updated":"2000-01-02T00:00:00",
 "updatedby":0}, "children" : []},
 {"tablename" : "c_currency", "data" : {"c_currency_id":290,
 "iso_code":"BWP",
 "ad_client_id":0,
 "ad_org_id":0,
 "costingprecision":4,
 "created":"2003-08-06T17:05:42",
 "createdby":0,
 "cursymbol":"P",
 "description":"Pula",
 "emuentrydate":null,
 "emurate":0,
 "isactive":"Y",
 "isemumember":"N",
 "iseuro":"N",
 "roundofffactor":null,
 "stdprecision":2,
 "updated":"2000-01-02T00:00:00",
 "updatedby":0}, "children" : []},
 {"tablename" : "c_currency", "data" : {"c_currency_id":291,
 "iso_code":"MOP",
 "ad_client_id":0,
 "ad_org_id":0,
 "costingprecision":4,
 "created":"2003-08-06T17:05:42",
 "createdby":0,
 "cursymbol":"P",
 "description":"Pataca",
 "emuentrydate":null,
 "emurate":0,
 "isactive":"Y",
 "isemumember":"N",
 "iseuro":"N",
 "roundofffactor":null,
 "stdprecision":2,
 "updated":"2000-01-02T00:00:00",
 "updatedby":0}, "children" : []},
 {"tablename" : "c_currency", "data" : {"c_currency_id":292,
 "iso_code":"GTQ",
 "ad_client_id":0,
 "ad_org_id":0,
 "costingprecision":4,
 "created":"2003-08-06T17:05:43",
 "createdby":0,
 "cursymbol":"Q",
 "description":"Quetzal",
 "emuentrydate":null,
 "emurate":0,
 "isactive":"Y",
 "isemumember":"N",
 "iseuro":"N",
 "roundofffactor":null,
 "stdprecision":2,
 "updated":"2000-01-02T00:00:00",
 "updatedby":0}, "children" : []},
 {"tablename" : "c_currency", "data" : {"c_currency_id":293,
 "iso_code":"QAR",
 "ad_client_id":0,
 "ad_org_id":0,
 "costingprecision":4,
 "created":"2003-08-06T17:05:43",
 "createdby":0,
 "cursymbol":"QR",
 "description":"Qatari Rial",
 "emuentrydate":null,
 "emurate":0,
 "isactive":"Y",
 "isemumember":"N",
 "iseuro":"N",
 "roundofffactor":null,
 "stdprecision":2,
 "updated":"2000-01-02T00:00:00",
 "updatedby":0}, "children" : []},
 {"tablename" : "c_currency", "data" : {"c_currency_id":294,
 "iso_code":"ZAR",
 "ad_client_id":0,
 "ad_org_id":0,
 "costingprecision":4,
 "created":"2003-08-06T17:05:43",
 "createdby":0,
 "cursymbol":"R",
 "description":"Rand",
 "emuentrydate":null,
 "emurate":0,
 "isactive":"Y",
 "isemumember":"N",
 "iseuro":"N",
 "roundofffactor":null,
 "stdprecision":2,
 "updated":"2000-01-02T00:00:00",
 "updatedby":0}, "children" : []},
 {"tablename" : "c_currency", "data" : {"c_currency_id":297,
 "iso_code":"BRL",
 "ad_client_id":0,
 "ad_org_id":0,
 "costingprecision":4,
 "created":"2003-08-06T17:05:43",
 "createdby":0,
 "cursymbol":"R$",
 "description":"Brazilian Real",
 "emuentrydate":null,
 "emurate":0,
 "isactive":"Y",
 "isemumember":"N",
 "iseuro":"N",
 "roundofffactor":null,
 "stdprecision":2,
 "updated":"2000-01-02T00:00:00",
 "updatedby":0}, "children" : []},
 {"tablename" : "c_currency", "data" : {"c_currency_id":298,
 "iso_code":"DOP",
 "ad_client_id":0,
 "ad_org_id":0,
 "costingprecision":4,
 "created":"2003-08-06T17:05:43",
 "createdby":0,
 "cursymbol":"RD$",
 "description":"Dominican Peso",
 "emuentrydate":null,
 "emurate":0,
 "isactive":"Y",
 "isemumember":"N",
 "iseuro":"N",
 "roundofffactor":null,
 "stdprecision":2,
 "updated":"2000-01-02T00:00:00",
 "updatedby":0}, "children" : []},
 {"tablename" : "c_currency", "data" : {"c_currency_id":299,
 "iso_code":"MVR",
 "ad_client_id":0,
 "ad_org_id":0,
 "costingprecision":4,
 "created":"2003-08-06T17:05:43",
 "createdby":0,
 "cursymbol":"Rf",
 "description":"Rufiyaa",
 "emuentrydate":null,
 "emurate":0,
 "isactive":"Y",
 "isemumember":"N",
 "iseuro":"N",
 "roundofffactor":null,
 "stdprecision":2,
 "updated":"2000-01-02T00:00:00",
 "updatedby":0}, "children" : []},
 {"tablename" : "c_currency", "data" : {"c_currency_id":300,
 "iso_code":"RWF",
 "ad_client_id":0,
 "ad_org_id":0,
 "costingprecision":2,
 "created":"2003-08-06T17:05:44",
 "createdby":0,
 "cursymbol":"RF",
 "description":"Rwanda Franc",
 "emuentrydate":null,
 "emurate":0,
 "isactive":"Y",
 "isemumember":"N",
 "iseuro":"N",
 "roundofffactor":null,
 "stdprecision":0,
 "updated":"2000-01-02T00:00:00",
 "updatedby":0}, "children" : []},
 {"tablename" : "c_currency", "data" : {"c_currency_id":301,
 "iso_code":"MYR",
 "ad_client_id":0,
 "ad_org_id":0,
 "costingprecision":4,
 "created":"2003-08-06T17:05:44",
 "createdby":0,
 "cursymbol":"RM",
 "description":"Malaysian Ringgit",
 "emuentrydate":null,
 "emurate":0,
 "isactive":"Y",
 "isemumember":"N",
 "iseuro":"N",
 "roundofffactor":null,
 "stdprecision":2,
 "updated":"2000-01-02T00:00:00",
 "updatedby":0}, "children" : []},
 {"tablename" : "c_currency", "data" : {"c_currency_id":302,
 "iso_code":"OMR",
 "ad_client_id":0,
 "ad_org_id":0,
 "costingprecision":5,
 "created":"2003-08-06T17:05:44",
 "createdby":0,
 "cursymbol":"RO",
 "description":"Rial Omani",
 "emuentrydate":null,
 "emurate":0,
 "isactive":"Y",
 "isemumember":"N",
 "iseuro":"N",
 "roundofffactor":null,
 "stdprecision":3,
 "updated":"2000-01-02T00:00:00",
 "updatedby":0}, "children" : []},
 {"tablename" : "c_currency", "data" : {"c_currency_id":303,
 "iso_code":"IDR",
 "ad_client_id":0,
 "ad_org_id":0,
 "costingprecision":4,
 "created":"2003-08-06T17:05:44",
 "createdby":0,
 "cursymbol":"Rp",
 "description":"Rupiah",
 "emuentrydate":null,
 "emurate":0,
 "isactive":"Y",
 "isemumember":"N",
 "iseuro":"N",
 "roundofffactor":null,
 "stdprecision":2,
 "updated":"2000-01-02T00:00:00",
 "updatedby":0}, "children" : []},
 {"tablename" : "c_currency", "data" : {"c_currency_id":304,
 "iso_code":"INR",
 "ad_client_id":0,
 "ad_org_id":0,
 "costingprecision":4,
 "created":"2003-08-06T17:05:44",
 "createdby":0,
 "cursymbol":"Rs",
 "description":"Indian Rupee",
 "emuentrydate":null,
 "emurate":0,
 "isactive":"Y",
 "isemumember":"N",
 "iseuro":"N",
 "roundofffactor":null,
 "stdprecision":2,
 "updated":"2000-01-02T00:00:00",
 "updatedby":0}, "children" : []},
 {"tablename" : "c_currency", "data" : {"c_currency_id":306,
 "iso_code":"PKR",
 "ad_client_id":0,
 "ad_org_id":0,
 "costingprecision":4,
 "created":"2003-08-06T17:05:44",
 "createdby":0,
 "cursymbol":"Rs",
 "description":"Pakistan Rupee",
 "emuentrydate":null,
 "emurate":0,
 "isactive":"Y",
 "isemumember":"N",
 "iseuro":"N",
 "roundofffactor":null,
 "stdprecision":2,
 "updated":"2000-01-02T00:00:00",
 "updatedby":0}, "children" : []},
 {"tablename" : "c_currency", "data" : {"c_currency_id":307,
 "iso_code":"SGD",
 "ad_client_id":0,
 "ad_org_id":0,
 "costingprecision":4,
 "created":"2003-08-06T17:05:44",
 "createdby":0,
 "cursymbol":"S$",
 "description":"Singapore Dollar",
 "emuentrydate":null,
 "emurate":0,
 "isactive":"Y",
 "isemumember":"N",
 "iseuro":"N",
 "roundofffactor":null,
 "stdprecision":2,
 "updated":"2000-01-02T00:00:00",
 "updatedby":0}, "children" : []},
 {"tablename" : "c_currency", "data" : {"c_currency_id":308,
 "iso_code":"PEN",
 "ad_client_id":0,
 "ad_org_id":0,
 "costingprecision":4,
 "created":"2003-08-06T17:05:44",
 "createdby":0,
 "cursymbol":"S/.",
 "description":"Nuevo Sol",
 "emuentrydate":null,
 "emurate":0,
 "isactive":"Y",
 "isemumember":"N",
 "iseuro":"N",
 "roundofffactor":null,
 "stdprecision":2,
 "updated":"2000-01-02T00:00:00",
 "updatedby":0}, "children" : []},
 {"tablename" : "c_currency", "data" : {"c_currency_id":309,
 "iso_code":"SRG",
 "ad_client_id":0,
 "ad_org_id":0,
 "costingprecision":4,
 "created":"2003-08-06T17:05:45",
 "createdby":0,
 "cursymbol":"Sf.",
 "description":"Suriname Guilder",
 "emuentrydate":null,
 "emurate":0,
 "isactive":"Y",
 "isemumember":"N",
 "iseuro":"N",
 "roundofffactor":null,
 "stdprecision":2,
 "updated":"2000-01-02T00:00:00",
 "updatedby":0}, "children" : []},
 {"tablename" : "c_currency", "data" : {"c_currency_id":310,
 "iso_code":"SBD",
 "ad_client_id":0,
 "ad_org_id":0,
 "costingprecision":4,
 "created":"2003-08-06T17:05:45",
 "createdby":0,
 "cursymbol":"SI$",
 "description":"Solomon Islands Dollar",
 "emuentrydate":null,
 "emurate":0,
 "isactive":"Y",
 "isemumember":"N",
 "iseuro":"N",
 "roundofffactor":null,
 "stdprecision":2,
 "updated":"2000-01-02T00:00:00",
 "updatedby":0}, "children" : []},
 {"tablename" : "c_currency", "data" : {"c_currency_id":311,
 "iso_code":"SEK",
 "ad_client_id":0,
 "ad_org_id":0,
 "costingprecision":4,
 "created":"2003-08-06T17:05:45",
 "createdby":0,
 "cursymbol":"Sk",
 "description":"Swedish Krona",
 "emuentrydate":null,
 "emurate":0,
 "isactive":"Y",
 "isemumember":"N",
 "iseuro":"N",
 "roundofffactor":null,
 "stdprecision":2,
 "updated":"2000-01-02T00:00:00",
 "updatedby":0}, "children" : []},
 {"tablename" : "c_currency", "data" : {"c_currency_id":312,
 "iso_code":"SKK",
 "ad_client_id":0,
 "ad_org_id":0,
 "costingprecision":4,
 "created":"2003-08-06T17:05:45",
 "createdby":0,
 "cursymbol":"Sk",
 "description":"Slovak Koruna",
 "emuentrydate":null,
 "emurate":0,
 "isactive":"Y",
 "isemumember":"N",
 "iseuro":"N",
 "roundofffactor":null,
 "stdprecision":2,
 "updated":"2000-01-02T00:00:00",
 "updatedby":0}, "children" : []},
 {"tablename" : "c_currency", "data" : {"c_currency_id":313,
 "iso_code":"LKR",
 "ad_client_id":0,
 "ad_org_id":0,
 "costingprecision":4,
 "created":"2003-08-06T17:05:45",
 "createdby":0,
 "cursymbol":"SLRs",
 "description":"Sri Lanka Rupee",
 "emuentrydate":null,
 "emurate":0,
 "isactive":"Y",
 "isemumember":"N",
 "iseuro":"N",
 "roundofffactor":null,
 "stdprecision":2,
 "updated":"2000-01-02T00:00:00",
 "updatedby":0}, "children" : []},
 {"tablename" : "c_currency", "data" : {"c_currency_id":314,
 "iso_code":"SIT",
 "ad_client_id":0,
 "ad_org_id":0,
 "costingprecision":4,
 "created":"2003-08-06T17:05:45",
 "createdby":0,
 "cursymbol":"SlT",
 "description":"Tolar",
 "emuentrydate":null,
 "emurate":0,
 "isactive":"N",
 "isemumember":"N",
 "iseuro":"N",
 "roundofffactor":null,
 "stdprecision":2,
 "updated":"2000-01-02T00:00:00",
 "updatedby":0}, "children" : []},
 {"tablename" : "c_currency", "data" : {"c_currency_id":315,
 "iso_code":"SOS",
 "ad_client_id":0,
 "ad_org_id":0,
 "costingprecision":4,
 "created":"2003-08-06T17:05:45",
 "createdby":0,
 "cursymbol":"So. Sh.",
 "description":"Somali Shilling",
 "emuentrydate":null,
 "emurate":0,
 "isactive":"Y",
 "isemumember":"N",
 "iseuro":"N",
 "roundofffactor":null,
 "stdprecision":2,
 "updated":"2000-01-02T00:00:00",
 "updatedby":0}, "children" : []},
 {"tablename" : "c_currency", "data" : {"c_currency_id":316,
 "iso_code":"SCR",
 "ad_client_id":0,
 "ad_org_id":0,
 "costingprecision":4,
 "created":"2003-08-06T17:05:45",
 "createdby":0,
 "cursymbol":"SR",
 "description":"Seychelles Rupee",
 "emuentrydate":null,
 "emurate":0,
 "isactive":"Y",
 "isemumember":"N",
 "iseuro":"N",
 "roundofffactor":null,
 "stdprecision":2,
 "updated":"2000-01-02T00:00:00",
 "updatedby":0}, "children" : []},
 {"tablename" : "c_currency", "data" : {"c_currency_id":317,
 "iso_code":"SAR",
 "ad_client_id":0,
 "ad_org_id":0,
 "costingprecision":4,
 "created":"2003-08-06T17:05:45",
 "createdby":0,
 "cursymbol":"SRls",
 "description":"Saudi Riyal",
 "emuentrydate":null,
 "emurate":0,
 "isactive":"Y",
 "isemumember":"N",
 "iseuro":"N",
 "roundofffactor":null,
 "stdprecision":2,
 "updated":"2000-01-02T00:00:00",
 "updatedby":0}, "children" : []},
 {"tablename" : "c_currency", "data" : {"c_currency_id":318,
 "iso_code":"CHF",
 "ad_client_id":0,
 "ad_org_id":0,
 "costingprecision":4,
 "created":"2003-08-06T17:05:46",
 "createdby":0,
 "cursymbol":"SFr",
 "description":"Swiss Franc",
 "emuentrydate":null,
 "emurate":0,
 "isactive":"Y",
 "isemumember":"N",
 "iseuro":"N",
 "roundofffactor":null,
 "stdprecision":2,
 "updated":"2000-01-02T00:00:00",
 "updatedby":0}, "children" : []},
 {"tablename" : "c_currency", "data" : {"c_currency_id":320,
 "iso_code":"TOP",
 "ad_client_id":0,
 "ad_org_id":0,
 "costingprecision":4,
 "created":"2003-08-06T17:05:46",
 "createdby":0,
 "cursymbol":"T$",
 "description":"Pa’anga",
 "emuentrydate":null,
 "emurate":0,
 "isactive":"Y",
 "isemumember":"N",
 "iseuro":"N",
 "roundofffactor":null,
 "stdprecision":2,
 "updated":"2000-01-02T00:00:00",
 "updatedby":0}, "children" : []},
 {"tablename" : "c_currency", "data" : {"c_currency_id":321,
 "iso_code":"TND",
 "ad_client_id":0,
 "ad_org_id":0,
 "costingprecision":5,
 "created":"2003-08-06T17:05:46",
 "createdby":0,
 "cursymbol":"TD",
 "description":"Tunisian Dinar",
 "emuentrydate":null,
 "emurate":0,
 "isactive":"Y",
 "isemumember":"N",
 "iseuro":"N",
 "roundofffactor":null,
 "stdprecision":3,
 "updated":"2000-01-02T00:00:00",
 "updatedby":0}, "children" : []},
 {"tablename" : "c_currency", "data" : {"c_currency_id":322,
 "iso_code":"BDT",
 "ad_client_id":0,
 "ad_org_id":0,
 "costingprecision":4,
 "created":"2003-08-06T17:05:46",
 "createdby":0,
 "cursymbol":"Tk",
 "description":"Taka",
 "emuentrydate":null,
 "emurate":0,
 "isactive":"Y",
 "isemumember":"N",
 "iseuro":"N",
 "roundofffactor":null,
 "stdprecision":2,
 "updated":"2000-01-02T00:00:00",
 "updatedby":0}, "children" : []},
 {"tablename" : "c_currency", "data" : {"c_currency_id":323,
 "iso_code":"TRL",
 "ad_client_id":0,
 "ad_org_id":0,
 "costingprecision":2,
 "created":"2003-08-06T17:05:46",
 "createdby":0,
 "cursymbol":"TL",
 "description":"Turkish Lira",
 "emuentrydate":null,
 "emurate":0,
 "isactive":"Y",
 "isemumember":"N",
 "iseuro":"N",
 "roundofffactor":null,
 "stdprecision":0,
 "updated":"2000-01-02T00:00:00",
 "updatedby":0}, "children" : []},
 {"tablename" : "c_currency", "data" : {"c_currency_id":324,
 "iso_code":"TZS",
 "ad_client_id":0,
 "ad_org_id":0,
 "costingprecision":4,
 "created":"2003-08-06T17:05:46",
 "createdby":0,
 "cursymbol":"TSh",
 "description":"Tanzanian Shilling",
 "emuentrydate":null,
 "emurate":0,
 "isactive":"Y",
 "isemumember":"N",
 "iseuro":"N",
 "roundofffactor":null,
 "stdprecision":2,
 "updated":"2000-01-02T00:00:00",
 "updatedby":0}, "children" : []},
 {"tablename" : "c_currency", "data" : {"c_currency_id":325,
 "iso_code":"TTD",
 "ad_client_id":0,
 "ad_org_id":0,
 "costingprecision":4,
 "created":"2003-08-06T17:05:46",
 "createdby":0,
 "cursymbol":"TT$",
 "description":"Trinidad and Tobago Dollar",
 "emuentrydate":null,
 "emurate":0,
 "isactive":"Y",
 "isemumember":"N",
 "iseuro":"N",
 "roundofffactor":null,
 "stdprecision":2,
 "updated":"2000-01-02T00:00:00",
 "updatedby":0}, "children" : []},
 {"tablename" : "c_currency", "data" : {"c_currency_id":326,
 "iso_code":"MNT",
 "ad_client_id":0,
 "ad_org_id":0,
 "costingprecision":4,
 "created":"2003-08-06T17:05:46",
 "createdby":0,
 "cursymbol":"Tug",
 "description":"Tugrik",
 "emuentrydate":null,
 "emurate":0,
 "isactive":"Y",
 "isemumember":"N",
 "iseuro":"N",
 "roundofffactor":null,
 "stdprecision":2,
 "updated":"2000-01-02T00:00:00",
 "updatedby":0}, "children" : []},
 {"tablename" : "c_currency", "data" : {"c_currency_id":327,
 "iso_code":"MRO",
 "ad_client_id":0,
 "ad_org_id":0,
 "costingprecision":4,
 "created":"2003-08-06T17:05:47",
 "createdby":0,
 "cursymbol":"UM",
 "description":"Ouguiya",
 "emuentrydate":null,
 "emurate":0,
 "isactive":"Y",
 "isemumember":"N",
 "iseuro":"N",
 "roundofffactor":null,
 "stdprecision":2,
 "updated":"2000-01-02T00:00:00",
 "updatedby":0}, "children" : []},
 {"tablename" : "c_currency", "data" : {"c_currency_id":328,
 "iso_code":"UGX",
 "ad_client_id":0,
 "ad_org_id":0,
 "costingprecision":4,
 "created":"2003-08-06T17:05:47",
 "createdby":0,
 "cursymbol":"USh",
 "description":"Uganda Shilling",
 "emuentrydate":null,
 "emurate":0,
 "isactive":"Y",
 "isemumember":"N",
 "iseuro":"N",
 "roundofffactor":null,
 "stdprecision":2,
 "updated":"2000-01-02T00:00:00",
 "updatedby":0}, "children" : []},
 {"tablename" : "c_currency", "data" : {"c_currency_id":329,
 "iso_code":"VUV",
 "ad_client_id":0,
 "ad_org_id":0,
 "costingprecision":2,
 "created":"2003-08-06T17:05:47",
 "createdby":0,
 "cursymbol":"VT",
 "description":"Vatu",
 "emuentrydate":null,
 "emurate":0,
 "isactive":"Y",
 "isemumember":"N",
 "iseuro":"N",
 "roundofffactor":null,
 "stdprecision":0,
 "updated":"2000-01-02T00:00:00",
 "updatedby":0}, "children" : []},
 {"tablename" : "c_currency", "data" : {"c_currency_id":330,
 "iso_code":"KRW",
 "ad_client_id":0,
 "ad_org_id":0,
 "costingprecision":2,
 "created":"2003-08-06T17:05:47",
 "createdby":0,
 "cursymbol":"W",
 "description":"Won",
 "emuentrydate":null,
 "emurate":0,
 "isactive":"Y",
 "isemumember":"N",
 "iseuro":"N",
 "roundofffactor":null,
 "stdprecision":0,
 "updated":"2000-01-02T00:00:00",
 "updatedby":0}, "children" : []},
 {"tablename" : "c_currency", "data" : {"c_currency_id":331,
 "iso_code":"WST",
 "ad_client_id":0,
 "ad_org_id":0,
 "costingprecision":4,
 "created":"2003-08-06T17:05:47",
 "createdby":0,
 "cursymbol":"WS$",
 "description":"Tala",
 "emuentrydate":null,
 "emurate":0,
 "isactive":"Y",
 "isemumember":"N",
 "iseuro":"N",
 "roundofffactor":null,
 "stdprecision":2,
 "updated":"2000-01-02T00:00:00",
 "updatedby":0}, "children" : []},
 {"tablename" : "c_currency", "data" : {"c_currency_id":332,
 "iso_code":"CNY",
 "ad_client_id":0,
 "ad_org_id":0,
 "costingprecision":4,
 "created":"2003-08-06T17:05:47",
 "createdby":0,
 "cursymbol":"Y",
 "description":"Yuan Renminbi",
 "emuentrydate":null,
 "emurate":0,
 "isactive":"Y",
 "isemumember":"N",
 "iseuro":"N",
 "roundofffactor":null,
 "stdprecision":2,
 "updated":"2000-01-02T00:00:00",
 "updatedby":0}, "children" : []},
 {"tablename" : "c_currency", "data" : {"c_currency_id":333,
 "iso_code":"YER",
 "ad_client_id":0,
 "ad_org_id":0,
 "costingprecision":4,
 "created":"2003-08-06T17:05:47",
 "createdby":0,
 "cursymbol":"YRls",
 "description":"Yemeni Rial",
 "emuentrydate":null,
 "emurate":0,
 "isactive":"Y",
 "isemumember":"N",
 "iseuro":"N",
 "roundofffactor":null,
 "stdprecision":2,
 "updated":"2000-01-02T00:00:00",
 "updatedby":0}, "children" : []},
 {"tablename" : "c_currency", "data" : {"c_currency_id":334,
 "iso_code":"ZWD",
 "ad_client_id":0,
 "ad_org_id":0,
 "costingprecision":4,
 "created":"2003-08-06T17:05:47",
 "createdby":0,
 "cursymbol":"Z$",
 "description":"Zimbabwe Dollar",
 "emuentrydate":null,
 "emurate":0,
 "isactive":"Y",
 "isemumember":"N",
 "iseuro":"N",
 "roundofffactor":null,
 "stdprecision":2,
 "updated":"2000-01-02T00:00:00",
 "updatedby":0}, "children" : []},
 {"tablename" : "c_currency", "data" : {"c_currency_id":335,
 "iso_code":"ZMK",
 "ad_client_id":0,
 "ad_org_id":0,
 "costingprecision":4,
 "created":"2003-08-06T17:05:48",
 "createdby":0,
 "cursymbol":"ZK",
 "description":"Kwacha",
 "emuentrydate":null,
 "emurate":0,
 "isactive":"Y",
 "isemumember":"N",
 "iseuro":"N",
 "roundofffactor":null,
 "stdprecision":2,
 "updated":"2000-01-02T00:00:00",
 "updatedby":0}, "children" : []},
 {"tablename" : "c_currency", "data" : {"c_currency_id":336,
 "iso_code":"CRC",
 "ad_client_id":0,
 "ad_org_id":0,
 "costingprecision":4,
 "created":"2003-08-06T17:05:48",
 "createdby":0,
 "cursymbol":null,
 "description":"Costa Rican Colon",
 "emuentrydate":null,
 "emurate":0,
 "isactive":"Y",
 "isemumember":"N",
 "iseuro":"N",
 "roundofffactor":null,
 "stdprecision":2,
 "updated":"2000-01-02T00:00:00",
 "updatedby":0}, "children" : []},
 {"tablename" : "c_currency", "data" : {"c_currency_id":337,
 "iso_code":"GNF",
 "ad_client_id":0,
 "ad_org_id":0,
 "costingprecision":2,
 "created":"2003-08-06T17:05:48",
 "createdby":0,
 "cursymbol":null,
 "description":"Guinea Franc",
 "emuentrydate":null,
 "emurate":0,
 "isactive":"Y",
 "isemumember":"N",
 "iseuro":"N",
 "roundofffactor":null,
 "stdprecision":0,
 "updated":"2000-01-02T00:00:00",
 "updatedby":0}, "children" : []},
 {"tablename" : "c_currency", "data" : {"c_currency_id":338,
 "iso_code":"GWP",
 "ad_client_id":0,
 "ad_org_id":0,
 "costingprecision":4,
 "created":"2003-08-06T17:05:48",
 "createdby":0,
 "cursymbol":null,
 "description":"Guinea-Bissau Peso",
 "emuentrydate":null,
 "emurate":0,
 "isactive":"Y",
 "isemumember":"N",
 "iseuro":"N",
 "roundofffactor":null,
 "stdprecision":2,
 "updated":"2000-01-02T00:00:00",
 "updatedby":0}, "children" : []},
 {"tablename" : "c_currency", "data" : {"c_currency_id":339,
 "iso_code":"KGS",
 "ad_client_id":0,
 "ad_org_id":0,
 "costingprecision":4,
 "created":"2003-08-06T17:05:48",
 "createdby":0,
 "cursymbol":null,
 "description":"Som",
 "emuentrydate":null,
 "emurate":0,
 "isactive":"Y",
 "isemumember":"N",
 "iseuro":"N",
 "roundofffactor":null,
 "stdprecision":2,
 "updated":"2000-01-02T00:00:00",
 "updatedby":0}, "children" : []},
 {"tablename" : "c_currency", "data" : {"c_currency_id":340,
 "iso_code":"KPW",
 "ad_client_id":0,
 "ad_org_id":0,
 "costingprecision":4,
 "created":"2003-08-06T17:05:48",
 "createdby":0,
 "cursymbol":null,
 "description":"North Korean Won",
 "emuentrydate":null,
 "emurate":0,
 "isactive":"Y",
 "isemumember":"N",
 "iseuro":"N",
 "roundofffactor":null,
 "stdprecision":2,
 "updated":"2000-01-02T00:00:00",
 "updatedby":0}, "children" : []},
 {"tablename" : "c_currency", "data" : {"c_currency_id":341,
 "iso_code":"KZT",
 "ad_client_id":0,
 "ad_org_id":0,
 "costingprecision":4,
 "created":"2003-08-06T17:05:48",
 "createdby":0,
 "cursymbol":null,
 "description":"Tenge",
 "emuentrydate":null,
 "emurate":0,
 "isactive":"Y",
 "isemumember":"N",
 "iseuro":"N",
 "roundofffactor":null,
 "stdprecision":2,
 "updated":"2000-01-02T00:00:00",
 "updatedby":0}, "children" : []},
 {"tablename" : "c_currency", "data" : {"c_currency_id":342,
 "iso_code":"LBP",
 "ad_client_id":0,
 "ad_org_id":0,
 "costingprecision":4,
 "created":"2003-08-06T17:05:48",
 "createdby":0,
 "cursymbol":null,
 "description":"Lebanese Pound",
 "emuentrydate":null,
 "emurate":0,
 "isactive":"Y",
 "isemumember":"N",
 "iseuro":"N",
 "roundofffactor":null,
 "stdprecision":2,
 "updated":"2000-01-02T00:00:00",
 "updatedby":0}, "children" : []},
 {"tablename" : "c_currency", "data" : {"c_currency_id":343,
 "iso_code":"NGN",
 "ad_client_id":0,
 "ad_org_id":0,
 "costingprecision":4,
 "created":"2003-08-06T17:05:48",
 "createdby":0,
 "cursymbol":null,
 "description":"Naira",
 "emuentrydate":null,
 "emurate":0,
 "isactive":"Y",
 "isemumember":"N",
 "iseuro":"N",
 "roundofffactor":null,
 "stdprecision":2,
 "updated":"2000-01-02T00:00:00",
 "updatedby":0}, "children" : []},
 {"tablename" : "c_currency", "data" : {"c_currency_id":344,
 "iso_code":"PYG",
 "ad_client_id":0,
 "ad_org_id":0,
 "costingprecision":2,
 "created":"2003-08-06T17:05:48",
 "createdby":0,
 "cursymbol":null,
 "description":"Guarani",
 "emuentrydate":null,
 "emurate":0,
 "isactive":"Y",
 "isemumember":"N",
 "iseuro":"N",
 "roundofffactor":null,
 "stdprecision":0,
 "updated":"2000-01-02T00:00:00",
 "updatedby":0}, "children" : []},
 {"tablename" : "c_currency", "data" : {"c_currency_id":346,
 "iso_code":"RON",
 "ad_client_id":0,
 "ad_org_id":0,
 "costingprecision":4,
 "created":"2005-04-17T21:24:58",
 "createdby":100,
 "cursymbol":"L",
 "description":"Leu (new)",
 "emuentrydate":null,
 "emurate":0,
 "isactive":"Y",
 "isemumember":"N",
 "iseuro":"N",
 "roundofffactor":null,
 "stdprecision":2,
 "updated":"2005-04-17T21:24:58",
 "updatedby":100}, "children" : []},
 {"tablename" : "c_currency", "data" : {"c_currency_id":347,
 "iso_code":"RSD",
 "ad_client_id":0,
 "ad_org_id":0,
 "costingprecision":4,
 "created":"2003-08-06T00:00:00",
 "createdby":0,
 "cursymbol":"RSD",
 "description":"Serbian Dinar",
 "emuentrydate":null,
 "emurate":0,
 "isactive":"Y",
 "isemumember":"N",
 "iseuro":"N",
 "roundofffactor":null,
 "stdprecision":2,
 "updated":"2000-01-02T00:00:00",
 "updatedby":0}, "children" : []}]