[{"tablename" : "c_doctype", "data" : {"c_doctype_id":0,
 "name":"** New **",
 "ad_client_id":0,
 "ad_org_id":0,
 "ad_printformat_id":null,
 "c_doctypedifference_id":null,
 "c_doctypeinvoice_id":null,
 "c_doctypeproforma_id":null,
 "c_doctypeshipment_id":null,
 "created":"2000-02-05T15:07:46",
 "createdby":0,
 "definitesequence_id":null,
 "description":null,
 "docbasetype":"   ",
 "docnosequence_id":null,
 "docsubtypeso":null,
 "documentcopies":1,
 "documentnote":"** NO INVOICE **",
 "gl_category_id":0,
 "hascharges":"N",
 "hasproforma":"N",
 "isaccrualexpenses":null,
 "isactive":"Y",
 "isallowgenerateshipment":"Y",
 "isautoclosebackorder":"N",
 "ischargeorproductmandatory":"N",
 "iscompleteinvoice":"N",
 "iscompleteshipment":"N",
 "iscreatecounter":"Y",
 "iscreateinvoice":"N",
 "iscreateshipment":"N",
 "isdefault":"N",
 "isdefaultcounterdoc":"N",
 "isdocnocontrolled":"N",
 "isindexed":"Y",
 "isintransit":"N",
 "isoverridedoccontrol":"N",
 "isoverwritedateoncomplete":"N",
 "isoverwriteseqoncomplete":"N",
 "ispickqaconfirm":"N",
 "ispreparesplitdocument":"Y",
 "isshipconfirm":"N",
 "issotrx":"Y",
 "issplitwhendifference":"N",
 "isusestdcost":"N",
 "printdocument":null,
 "printname":"** New **",
 "updated":"2000-01-02T00:00:00",
 "updatedby":0,
 "x_authoritytype_id":null}, "children" : []}]