[{"tablename" : "pa_colorschema", "data" : {"pa_colorschema_id":100,
 "name":"Red (50) - Yellow (100) - Green",
 "ad_client_id":0,
 "ad_org_id":0,
 "ad_printcolor1_id":102,
 "ad_printcolor2_id":113,
 "ad_printcolor3_id":103,
 "ad_printcolor4_id":null,
 "created":"2005-12-23T18:39:32",
 "createdby":100,
 "description":">= 100% is the goal",
 "entitytype":"D",
 "isactive":"Y",
 "mark1percent":50,
 "mark2percent":100,
 "mark3percent":9999,
 "mark4percent":0,
 "updated":"2005-12-31T10:19:48",
 "updatedby":100}, "children" : []},
 {"tablename" : "pa_colorschema", "data" : {"pa_colorschema_id":101,
 "name":"Green (50) - Yellow (100) - Red",
 "ad_client_id":0,
 "ad_org_id":0,
 "ad_printcolor1_id":103,
 "ad_printcolor2_id":113,
 "ad_printcolor3_id":102,
 "ad_printcolor4_id":null,
 "created":"2005-12-31T10:20:50",
 "createdby":100,
 "description":"< 100% is the goal",
 "entitytype":"D",
 "isactive":"Y",
 "mark1percent":50,
 "mark2percent":100,
 "mark3percent":9999,
 "mark4percent":0,
 "updated":"2005-12-31T10:20:50",
 "updatedby":100}, "children" : []}]