[{"tablename" : "pa_dashboardcontent", "data" : {"pa_dashboardcontent_id":50000,
 "name":"Activities",
 "ad_client_id":0,
 "ad_org_id":0,
 "ad_window_id":null,
 "columnno":0,
 "created":"2008-11-19T16:57:08",
 "createdby":100,
 "description":"Workflow activities, notices and requests",
 "goaldisplay":"T",
 "html":null,
 "isactive":"Y",
 "iscollapsible":"Y",
 "line":0,
 "pa_goal_id":null,
 "updated":"2008-11-19T16:57:08",
 "updatedby":100,
 "zulfilepath":"/zul/activities.zul"}, "children" : []},
 {"tablename" : "pa_dashboardcontent", "data" : {"pa_dashboardcontent_id":50001,
 "name":"Favourites",
 "ad_client_id":0,
 "ad_org_id":0,
 "ad_window_id":null,
 "columnno":0,
 "created":"2008-11-19T16:58:24",
 "createdby":100,
 "description":"User favourities",
 "goaldisplay":"T",
 "html":null,
 "isactive":"N",
 "iscollapsible":"Y",
 "line":1.000000000000,
 "pa_goal_id":null,
 "updated":"2016-04-11T16:52:27",
 "updatedby":0,
 "zulfilepath":"/zul/favourites.zul"}, "children" : []},
 {"tablename" : "pa_dashboardcontent", "data" : {"pa_dashboardcontent_id":50002,
 "name":"Views",
 "ad_client_id":0,
 "ad_org_id":0,
 "ad_window_id":null,
 "columnno":0,
 "created":"2008-11-19T16:58:50",
 "createdby":100,
 "description":"Info views",
 "goaldisplay":"T",
 "html":null,
 "isactive":"Y",
 "iscollapsible":"Y",
 "line":2.000000000000,
 "pa_goal_id":null,
 "updated":"2008-11-19T16:58:50",
 "updatedby":100,
 "zulfilepath":"/zul/views.zul"}, "children" : []},
 {"tablename" : "pa_dashboardcontent", "data" : {"pa_dashboardcontent_id":50003,
 "name":"Performance",
 "ad_client_id":0,
 "ad_org_id":0,
 "ad_window_id":null,
 "columnno":2,
 "created":"2008-11-19T17:00:26",
 "createdby":100,
 "description":"Performance meters",
 "goaldisplay":"T",
 "html":null,
 "isactive":"N",
 "iscollapsible":"Y",
 "line":0,
 "pa_goal_id":null,
 "updated":"2019-02-04T13:38:57",
 "updatedby":0,
 "zulfilepath":"/zul/performance.zul"}, "children" : []},
 {"tablename" : "pa_dashboardcontent", "data" : {"pa_dashboardcontent_id":50009,
 "name":"User Favorites",
 "ad_client_id":0,
 "ad_org_id":0,
 "ad_window_id":null,
 "columnno":0,
 "created":"2014-08-05T16:38:44",
 "createdby":100,
 "description":"User's Favorites Menu Display",
 "goaldisplay":"T",
 "html":null,
 "isactive":"Y",
 "iscollapsible":"Y",
 "line":1,
 "pa_goal_id":null,
 "updated":"2014-08-05T16:38:44",
 "updatedby":100,
 "zulfilepath":"/zul/userfavorites.zul"}, "children" : []},
 {"tablename" : "pa_dashboardcontent", "data" : {"pa_dashboardcontent_id":50013,
 "name":"Document Status",
 "ad_client_id":0,
 "ad_org_id":0,
 "ad_window_id":null,
 "columnno":2,
 "created":"2016-10-11T11:40:55",
 "createdby":100,
 "description":null,
 "goaldisplay":"T",
 "html":null,
 "isactive":"Y",
 "iscollapsible":"Y",
 "line":0,
 "pa_goal_id":null,
 "updated":"2016-10-11T11:40:55",
 "updatedby":100,
 "zulfilepath":"/zul/docstatus.zul"}, "children" : []},
 {"tablename" : "pa_dashboardcontent", "data" : {"pa_dashboardcontent_id":200000,
 "name":"Recent Items",
 "ad_client_id":0,
 "ad_org_id":0,
 "ad_window_id":null,
 "columnno":1,
 "created":"2012-01-27T15:34:34",
 "createdby":100,
 "description":"Recent items",
 "goaldisplay":"T",
 "html":null,
 "isactive":"Y",
 "iscollapsible":"Y",
 "line":0,
 "pa_goal_id":null,
 "updated":"2012-01-27T15:34:34",
 "updatedby":100,
 "zulfilepath":"/zul/recentItems.zul"}, "children" : []}]