[{"tablename" : "ad_element", "data" : {"ad_element_id":1260,
 "columnname":"C_BP_EDI_ID",
 "ad_client_id":0,
 "ad_org_id":0,
 "ad_reference_id":13,
 "ad_reference_value_id":null,
 "created":"2000-06-01T14:33:41",
 "createdby":0,
 "description":"Electronic Data Interchange",
 "entitytype":"EDI",
 "fieldlength":22,
 "help":null,
 "isactive":"Y",
 "name":"EDI Definition",
 "po_description":null,
 "po_help":null,
 "po_name":null,
 "po_printname":null,
 "printname":"EDI Definition",
 "updated":"2000-01-02T00:00:00",
 "updatedby":0}, "children" : []},
 {"tablename" : "ad_element", "data" : {"ad_element_id":1261,
 "columnname":"CustomerNo",
 "ad_client_id":0,
 "ad_org_id":0,
 "ad_reference_id":10,
 "ad_reference_value_id":null,
 "created":"2000-06-01T14:33:42",
 "createdby":0,
 "description":"EDI Identification Number ",
 "entitytype":"EDI",
 "fieldlength":20,
 "help":null,
 "isactive":"Y",
 "name":"Customer No",
 "po_description":null,
 "po_help":null,
 "po_name":null,
 "po_printname":null,
 "printname":"Customer No",
 "updated":"2000-01-02T00:00:00",
 "updatedby":0}, "children" : []},
 {"tablename" : "ad_element", "data" : {"ad_element_id":1262,
 "columnname":"EDIStatus",
 "ad_client_id":0,
 "ad_org_id":0,
 "ad_reference_id":17,
 "ad_reference_value_id":202,
 "created":"2000-06-01T14:33:42",
 "createdby":0,
 "description":null,
 "entitytype":"EDI",
 "fieldlength":1,
 "help":null,
 "isactive":"Y",
 "name":"EDI Status",
 "po_description":null,
 "po_help":null,
 "po_name":null,
 "po_printname":null,
 "printname":"EDI Status",
 "updated":"2000-01-02T00:00:00",
 "updatedby":0}, "children" : []},
 {"tablename" : "ad_element", "data" : {"ad_element_id":1263,
 "columnname":"EDIType",
 "ad_client_id":0,
 "ad_org_id":0,
 "ad_reference_id":17,
 "ad_reference_value_id":201,
 "created":"2000-06-01T14:33:42",
 "createdby":0,
 "description":null,
 "entitytype":"EDI",
 "fieldlength":1,
 "help":null,
 "isactive":"Y",
 "name":"EDI Type",
 "po_description":null,
 "po_help":null,
 "po_name":null,
 "po_printname":null,
 "printname":"EDI Type",
 "updated":"2000-01-02T00:00:00",
 "updatedby":0}, "children" : []},
 {"tablename" : "ad_element", "data" : {"ad_element_id":1264,
 "columnname":"EMail_Error_To",
 "ad_client_id":0,
 "ad_org_id":0,
 "ad_reference_id":10,
 "ad_reference_value_id":null,
 "created":"2000-06-01T14:33:42",
 "createdby":0,
 "description":"Email address to send error messages to",
 "entitytype":"EDI",
 "fieldlength":60,
 "help":null,
 "isactive":"Y",
 "name":"Error EMail",
 "po_description":null,
 "po_help":null,
 "po_name":null,
 "po_printname":null,
 "printname":"Error EMail",
 "updated":"2005-04-30T01:10:25",
 "updatedby":100}, "children" : []},
 {"tablename" : "ad_element", "data" : {"ad_element_id":1265,
 "columnname":"EMail_From",
 "ad_client_id":0,
 "ad_org_id":0,
 "ad_reference_id":10,
 "ad_reference_value_id":null,
 "created":"2000-06-01T14:33:42",
 "createdby":0,
 "description":"Full EMail address used to send requests - e.g. edi@organization.com",
 "entitytype":"EDI",
 "fieldlength":60,
 "help":null,
 "isactive":"Y",
 "name":"From EMail",
 "po_description":null,
 "po_help":null,
 "po_name":null,
 "po_printname":null,
 "printname":"From EMail",
 "updated":"2005-04-30T01:10:45",
 "updatedby":100}, "children" : []},
 {"tablename" : "ad_element", "data" : {"ad_element_id":1266,
 "columnname":"EMail_From_Pwd",
 "ad_client_id":0,
 "ad_org_id":0,
 "ad_reference_id":10,
 "ad_reference_value_id":null,
 "created":"2000-06-01T14:33:42",
 "createdby":0,
 "description":"Password of the sending EMail address",
 "entitytype":"EDI",
 "fieldlength":20,
 "help":null,
 "isactive":"Y",
 "name":"From EMail Password",
 "po_description":null,
 "po_help":null,
 "po_name":null,
 "po_printname":null,
 "printname":"From EMail Pwd",
 "updated":"2005-04-30T01:11:04",
 "updatedby":100}, "children" : []},
 {"tablename" : "ad_element", "data" : {"ad_element_id":1267,
 "columnname":"EMail_From_Uid",
 "ad_client_id":0,
 "ad_org_id":0,
 "ad_reference_id":10,
 "ad_reference_value_id":null,
 "created":"2000-06-01T14:33:42",
 "createdby":0,
 "description":"User ID of the sending EMail address (on default SMTP Host) - e.g. edi",
 "entitytype":"EDI",
 "fieldlength":20,
 "help":null,
 "isactive":"Y",
 "name":"From EMail User ID",
 "po_description":null,
 "po_help":null,
 "po_name":null,
 "po_printname":null,
 "printname":"From EMail User",
 "updated":"2005-04-30T01:11:27",
 "updatedby":100}, "children" : []},
 {"tablename" : "ad_element", "data" : {"ad_element_id":1268,
 "columnname":"EMail_Info_To",
 "ad_client_id":0,
 "ad_org_id":0,
 "ad_reference_id":10,
 "ad_reference_value_id":null,
 "created":"2000-06-01T14:33:42",
 "createdby":0,
 "description":"EMail address to send informational messages and copies",
 "entitytype":"EDI",
 "fieldlength":60,
 "help":"The Info EMail address indicates the address to use when sending informational messages or copies of other messages.",
 "isactive":"Y",
 "name":"Info EMail",
 "po_description":null,
 "po_help":null,
 "po_name":null,
 "po_printname":null,
 "printname":"Info EMail",
 "updated":"2005-04-30T01:11:51",
 "updatedby":100}, "children" : []},
 {"tablename" : "ad_element", "data" : {"ad_element_id":1269,
 "columnname":"EMail_To",
 "ad_client_id":0,
 "ad_org_id":0,
 "ad_reference_id":10,
 "ad_reference_value_id":null,
 "created":"2000-06-01T14:33:42",
 "createdby":0,
 "description":"EMail address to send requests to - e.g. edi@manufacturer.com ",
 "entitytype":"EDI",
 "fieldlength":60,
 "help":null,
 "isactive":"Y",
 "name":"To EMail",
 "po_description":null,
 "po_help":null,
 "po_name":null,
 "po_printname":null,
 "printname":"To EMail",
 "updated":"2005-04-30T01:12:10",
 "updatedby":100}, "children" : []},
 {"tablename" : "ad_element", "data" : {"ad_element_id":1271,
 "columnname":"IsInfoSent",
 "ad_client_id":0,
 "ad_org_id":0,
 "ad_reference_id":20,
 "ad_reference_value_id":null,
 "created":"2000-06-01T14:33:42",
 "createdby":0,
 "description":"Send informational messages and copies",
 "entitytype":"EDI",
 "fieldlength":1,
 "help":null,
 "isactive":"Y",
 "name":"Send Info",
 "po_description":null,
 "po_help":null,
 "po_name":null,
 "po_printname":null,
 "printname":"Send Info",
 "updated":"2000-01-02T00:00:00",
 "updatedby":0}, "children" : []},
 {"tablename" : "ad_element", "data" : {"ad_element_id":1278,
 "columnname":"M_EDI_ID",
 "ad_client_id":0,
 "ad_org_id":0,
 "ad_reference_id":13,
 "ad_reference_value_id":null,
 "created":"2000-06-01T14:33:42",
 "createdby":0,
 "description":null,
 "entitytype":"EDI",
 "fieldlength":22,
 "help":null,
 "isactive":"Y",
 "name":"EDI Transaction",
 "po_description":null,
 "po_help":null,
 "po_name":null,
 "po_printname":null,
 "printname":"EDI Trx",
 "updated":"2000-01-02T00:00:00",
 "updatedby":0}, "children" : []},
 {"tablename" : "ad_element", "data" : {"ad_element_id":1279,
 "columnname":"M_EDI_Info_ID",
 "ad_client_id":0,
 "ad_org_id":0,
 "ad_reference_id":13,
 "ad_reference_value_id":null,
 "created":"2000-06-01T14:33:42",
 "createdby":0,
 "description":null,
 "entitytype":"EDI",
 "fieldlength":22,
 "help":null,
 "isactive":"Y",
 "name":"EDI Log",
 "po_description":null,
 "po_help":null,
 "po_name":null,
 "po_printname":null,
 "printname":"EDI Log",
 "updated":"2000-01-02T00:00:00",
 "updatedby":0}, "children" : []},
 {"tablename" : "ad_element", "data" : {"ad_element_id":1280,
 "columnname":"ReceiveInquiryReply",
 "ad_client_id":0,
 "ad_org_id":0,
 "ad_reference_id":20,
 "ad_reference_value_id":null,
 "created":"2000-06-01T14:33:42",
 "createdby":0,
 "description":null,
 "entitytype":"EDI",
 "fieldlength":1,
 "help":null,
 "isactive":"Y",
 "name":"Received Inquiry Reply",
 "po_description":null,
 "po_help":null,
 "po_name":null,
 "po_printname":null,
 "printname":"Inquiry reply",
 "updated":"2000-01-02T00:00:00",
 "updatedby":0}, "children" : []},
 {"tablename" : "ad_element", "data" : {"ad_element_id":1281,
 "columnname":"ReceiveOrderReply",
 "ad_client_id":0,
 "ad_org_id":0,
 "ad_reference_id":20,
 "ad_reference_value_id":null,
 "created":"2000-06-01T14:33:42",
 "createdby":0,
 "description":null,
 "entitytype":"EDI",
 "fieldlength":1,
 "help":null,
 "isactive":"Y",
 "name":"Receive Order Reply",
 "po_description":null,
 "po_help":null,
 "po_name":null,
 "po_printname":null,
 "printname":"Order reply",
 "updated":"2000-01-02T00:00:00",
 "updatedby":0}, "children" : []},
 {"tablename" : "ad_element", "data" : {"ad_element_id":1282,
 "columnname":"Reply_Price",
 "ad_client_id":0,
 "ad_org_id":0,
 "ad_reference_id":37,
 "ad_reference_value_id":null,
 "created":"2000-06-01T14:33:42",
 "createdby":0,
 "description":"Confirmed Price from EDI Partner",
 "entitytype":"EDI",
 "fieldlength":22,
 "help":null,
 "isactive":"Y",
 "name":"Reply Price",
 "po_description":null,
 "po_help":null,
 "po_name":null,
 "po_printname":null,
 "printname":"Reply Price",
 "updated":"2000-01-02T00:00:00",
 "updatedby":0}, "children" : []},
 {"tablename" : "ad_element", "data" : {"ad_element_id":1283,
 "columnname":"Reply_QtyAvailable",
 "ad_client_id":0,
 "ad_org_id":0,
 "ad_reference_id":29,
 "ad_reference_value_id":null,
 "created":"2000-06-01T14:33:42",
 "createdby":0,
 "description":null,
 "entitytype":"EDI",
 "fieldlength":22,
 "help":null,
 "isactive":"Y",
 "name":"Reply Qty Available",
 "po_description":null,
 "po_help":null,
 "po_name":null,
 "po_printname":null,
 "printname":"Qty Available",
 "updated":"2000-01-02T00:00:00",
 "updatedby":0}, "children" : []},
 {"tablename" : "ad_element", "data" : {"ad_element_id":1284,
 "columnname":"Reply_QtyConfirmed",
 "ad_client_id":0,
 "ad_org_id":0,
 "ad_reference_id":29,
 "ad_reference_value_id":null,
 "created":"2000-06-01T14:33:42",
 "createdby":0,
 "description":null,
 "entitytype":"EDI",
 "fieldlength":22,
 "help":null,
 "isactive":"Y",
 "name":"Reply Qty Confirmed",
 "po_description":null,
 "po_help":null,
 "po_name":null,
 "po_printname":null,
 "printname":"Qty Confirmed",
 "updated":"2000-01-02T00:00:00",
 "updatedby":0}, "children" : []},
 {"tablename" : "ad_element", "data" : {"ad_element_id":1285,
 "columnname":"Reply_Received",
 "ad_client_id":0,
 "ad_org_id":0,
 "ad_reference_id":16,
 "ad_reference_value_id":null,
 "created":"2000-06-01T14:33:42",
 "createdby":0,
 "description":null,
 "entitytype":"EDI",
 "fieldlength":7,
 "help":null,
 "isactive":"Y",
 "name":"Reply Received",
 "po_description":null,
 "po_help":null,
 "po_name":null,
 "po_printname":null,
 "printname":"Reply",
 "updated":"2000-01-02T00:00:00",
 "updatedby":0}, "children" : []},
 {"tablename" : "ad_element", "data" : {"ad_element_id":1286,
 "columnname":"Reply_Remarks",
 "ad_client_id":0,
 "ad_org_id":0,
 "ad_reference_id":14,
 "ad_reference_value_id":null,
 "created":"2000-06-01T14:33:42",
 "createdby":0,
 "description":null,
 "entitytype":"EDI",
 "fieldlength":2000,
 "help":null,
 "isactive":"Y",
 "name":"Reply Remarks",
 "po_description":null,
 "po_help":null,
 "po_name":null,
 "po_printname":null,
 "printname":"Remarks",
 "updated":"2000-01-02T00:00:00",
 "updatedby":0}, "children" : []},
 {"tablename" : "ad_element", "data" : {"ad_element_id":1287,
 "columnname":"Reply_ShipDate",
 "ad_client_id":0,
 "ad_org_id":0,
 "ad_reference_id":15,
 "ad_reference_value_id":null,
 "created":"2000-06-01T14:33:42",
 "createdby":0,
 "description":null,
 "entitytype":"EDI",
 "fieldlength":7,
 "help":null,
 "isactive":"Y",
 "name":"Reply Ship date",
 "po_description":null,
 "po_help":null,
 "po_name":null,
 "po_printname":null,
 "printname":"Ship date",
 "updated":"2000-01-02T00:00:00",
 "updatedby":0}, "children" : []},
 {"tablename" : "ad_element", "data" : {"ad_element_id":1288,
 "columnname":"Request_Price",
 "ad_client_id":0,
 "ad_org_id":0,
 "ad_reference_id":37,
 "ad_reference_value_id":null,
 "created":"2000-06-01T14:33:42",
 "createdby":0,
 "description":null,
 "entitytype":"EDI",
 "fieldlength":22,
 "help":null,
 "isactive":"Y",
 "name":"Request Price",
 "po_description":null,
 "po_help":null,
 "po_name":null,
 "po_printname":null,
 "printname":"Request Price",
 "updated":"2000-01-02T00:00:00",
 "updatedby":0}, "children" : []},
 {"tablename" : "ad_element", "data" : {"ad_element_id":1289,
 "columnname":"Request_Qty",
 "ad_client_id":0,
 "ad_org_id":0,
 "ad_reference_id":29,
 "ad_reference_value_id":null,
 "created":"2000-06-01T14:33:42",
 "createdby":0,
 "description":null,
 "entitytype":"EDI",
 "fieldlength":22,
 "help":null,
 "isactive":"Y",
 "name":"Request Qty",
 "po_description":null,
 "po_help":null,
 "po_name":null,
 "po_printname":null,
 "printname":"Request Qty",
 "updated":"2000-01-02T00:00:00",
 "updatedby":0}, "children" : []},
 {"tablename" : "ad_element", "data" : {"ad_element_id":1290,
 "columnname":"Request_Shipdate",
 "ad_client_id":0,
 "ad_org_id":0,
 "ad_reference_id":15,
 "ad_reference_value_id":null,
 "created":"2000-06-01T14:33:42",
 "createdby":0,
 "description":null,
 "entitytype":"EDI",
 "fieldlength":7,
 "help":null,
 "isactive":"Y",
 "name":"Request Ship date",
 "po_description":null,
 "po_help":null,
 "po_name":null,
 "po_printname":null,
 "printname":"Request Ship date",
 "updated":"2000-01-02T00:00:00",
 "updatedby":0}, "children" : []},
 {"tablename" : "ad_element", "data" : {"ad_element_id":1291,
 "columnname":"SendInquiry",
 "ad_client_id":0,
 "ad_org_id":0,
 "ad_reference_id":20,
 "ad_reference_value_id":null,
 "created":"2000-06-01T14:33:42",
 "createdby":0,
 "description":"Quantity Availability Inquiry",
 "entitytype":"EDI",
 "fieldlength":1,
 "help":null,
 "isactive":"Y",
 "name":"Send Inquiry",
 "po_description":null,
 "po_help":null,
 "po_name":null,
 "po_printname":null,
 "printname":"Send Inquiry",
 "updated":"2000-01-02T00:00:00",
 "updatedby":0}, "children" : []},
 {"tablename" : "ad_element", "data" : {"ad_element_id":1292,
 "columnname":"SendOrder",
 "ad_client_id":0,
 "ad_org_id":0,
 "ad_reference_id":20,
 "ad_reference_value_id":null,
 "created":"2000-06-01T14:33:42",
 "createdby":0,
 "description":null,
 "entitytype":"EDI",
 "fieldlength":1,
 "help":null,
 "isactive":"Y",
 "name":"Send Order",
 "po_description":null,
 "po_help":null,
 "po_name":null,
 "po_printname":null,
 "printname":"Send Order",
 "updated":"2000-01-02T00:00:00",
 "updatedby":0}, "children" : []},
 {"tablename" : "ad_element", "data" : {"ad_element_id":1293,
 "columnname":"TrxReceived",
 "ad_client_id":0,
 "ad_org_id":0,
 "ad_reference_id":16,
 "ad_reference_value_id":null,
 "created":"2000-06-01T14:33:42",
 "createdby":0,
 "description":null,
 "entitytype":"EDI",
 "fieldlength":7,
 "help":null,
 "isactive":"Y",
 "name":"Transaction received",
 "po_description":null,
 "po_help":null,
 "po_name":null,
 "po_printname":null,
 "printname":"Trx received",
 "updated":"2000-01-02T00:00:00",
 "updatedby":0}, "children" : []},
 {"tablename" : "ad_element", "data" : {"ad_element_id":1294,
 "columnname":"TrxSent",
 "ad_client_id":0,
 "ad_org_id":0,
 "ad_reference_id":16,
 "ad_reference_value_id":null,
 "created":"2000-06-01T14:33:42",
 "createdby":0,
 "description":null,
 "entitytype":"EDI",
 "fieldlength":7,
 "help":null,
 "isactive":"Y",
 "name":"Transaction sent",
 "po_description":null,
 "po_help":null,
 "po_name":null,
 "po_printname":null,
 "printname":"Trx sent",
 "updated":"2000-01-02T00:00:00",
 "updatedby":0}, "children" : []},
 {"tablename" : "ad_element", "data" : {"ad_element_id":53374,
 "columnname":"Host",
 "ad_client_id":0,
 "ad_org_id":0,
 "ad_reference_id":10,
 "ad_reference_value_id":null,
 "created":"2008-03-05T00:53:22",
 "createdby":0,
 "description":null,
 "entitytype":"EDI",
 "fieldlength":255,
 "help":null,
 "isactive":"Y",
 "name":"Host",
 "po_description":null,
 "po_help":null,
 "po_name":null,
 "po_printname":null,
 "printname":"Host",
 "updated":"2008-03-05T00:53:22",
 "updatedby":0}, "children" : []},
 {"tablename" : "ad_element", "data" : {"ad_element_id":53375,
 "columnname":"Port",
 "ad_client_id":0,
 "ad_org_id":0,
 "ad_reference_id":11,
 "ad_reference_value_id":null,
 "created":"2008-03-05T00:53:23",
 "createdby":0,
 "description":null,
 "entitytype":"EDI",
 "fieldlength":14,
 "help":null,
 "isactive":"Y",
 "name":"Port",
 "po_description":null,
 "po_help":null,
 "po_name":null,
 "po_printname":null,
 "printname":"Port",
 "updated":"2008-03-05T00:53:23",
 "updatedby":0}, "children" : []},
 {"tablename" : "ad_element", "data" : {"ad_element_id":53377,
 "columnname":"PasswordInfo",
 "ad_client_id":0,
 "ad_org_id":0,
 "ad_reference_id":10,
 "ad_reference_value_id":null,
 "created":"2008-03-05T00:53:26",
 "createdby":0,
 "description":null,
 "entitytype":"EDI",
 "fieldlength":255,
 "help":null,
 "isactive":"Y",
 "name":"Password Info",
 "po_description":null,
 "po_help":null,
 "po_name":null,
 "po_printname":null,
 "printname":"Password Info",
 "updated":"2008-08-05T12:26:36",
 "updatedby":0}, "children" : []},
 {"tablename" : "ad_element", "data" : {"ad_element_id":53379,
 "columnname":"ParameterValue",
 "ad_client_id":0,
 "ad_org_id":0,
 "ad_reference_id":10,
 "ad_reference_value_id":null,
 "created":"2008-03-05T00:53:48",
 "createdby":0,
 "description":null,
 "entitytype":"EDI",
 "fieldlength":60,
 "help":null,
 "isactive":"Y",
 "name":"Parameter Value",
 "po_description":null,
 "po_help":null,
 "po_name":null,
 "po_printname":null,
 "printname":"Parameter Value",
 "updated":"2008-08-05T12:26:33",
 "updatedby":0}, "children" : []},
 {"tablename" : "ad_element", "data" : {"ad_element_id":53380,
 "columnname":"JavaClass",
 "ad_client_id":0,
 "ad_org_id":0,
 "ad_reference_id":10,
 "ad_reference_value_id":null,
 "created":"2008-03-05T00:54:06",
 "createdby":0,
 "description":null,
 "entitytype":"EDI",
 "fieldlength":255,
 "help":null,
 "isactive":"Y",
 "name":"Java Class",
 "po_description":null,
 "po_help":null,
 "po_name":null,
 "po_printname":null,
 "printname":"Java Class",
 "updated":"2008-08-05T12:26:28",
 "updatedby":0}, "children" : []},
 {"tablename" : "ad_element", "data" : {"ad_element_id":55566,
 "columnname":"C_EDIProcessor_ID",
 "ad_client_id":0,
 "ad_org_id":0,
 "ad_reference_id":null,
 "ad_reference_value_id":null,
 "created":"2012-08-17T16:56:52",
 "createdby":100,
 "description":null,
 "entitytype":"EDI",
 "fieldlength":null,
 "help":null,
 "isactive":"Y",
 "name":"EDI Processor",
 "po_description":null,
 "po_help":null,
 "po_name":null,
 "po_printname":null,
 "printname":"EDI Processor",
 "updated":"2016-04-11T16:22:47",
 "updatedby":0}, "children" : []},
 {"tablename" : "ad_element", "data" : {"ad_element_id":55567,
 "columnname":"C_EDIProcessorType_ID",
 "ad_client_id":0,
 "ad_org_id":0,
 "ad_reference_id":null,
 "ad_reference_value_id":null,
 "created":"2012-08-17T16:57:28",
 "createdby":100,
 "description":null,
 "entitytype":"EDI",
 "fieldlength":null,
 "help":null,
 "isactive":"Y",
 "name":"EDI Processor Type",
 "po_description":null,
 "po_help":null,
 "po_name":null,
 "po_printname":null,
 "printname":"EDI Processor Type",
 "updated":"2012-08-17T16:57:28",
 "updatedby":100}, "children" : []},
 {"tablename" : "ad_element", "data" : {"ad_element_id":55568,
 "columnname":"C_EDIProcessor_Parameter_ID",
 "ad_client_id":0,
 "ad_org_id":0,
 "ad_reference_id":null,
 "ad_reference_value_id":null,
 "created":"2012-08-17T16:58:02",
 "createdby":100,
 "description":null,
 "entitytype":"EDI",
 "fieldlength":null,
 "help":null,
 "isactive":"Y",
 "name":"C_EDIProcessor_Parameter_ID",
 "po_description":null,
 "po_help":null,
 "po_name":null,
 "po_printname":null,
 "printname":"C_EDIProcessor_Parameter_ID",
 "updated":"2016-04-11T16:22:53",
 "updatedby":0}, "children" : []},
 {"tablename" : "ad_element", "data" : {"ad_element_id":55569,
 "columnname":"AD_Table_EDI_ID",
 "ad_client_id":0,
 "ad_org_id":0,
 "ad_reference_id":null,
 "ad_reference_value_id":null,
 "created":"2012-08-17T17:01:01",
 "createdby":100,
 "description":null,
 "entitytype":"EDI",
 "fieldlength":null,
 "help":null,
 "isactive":"Y",
 "name":"AD_Table_EDI_ID",
 "po_description":null,
 "po_help":null,
 "po_name":null,
 "po_printname":null,
 "printname":"AD_Table_EDI_ID",
 "updated":"2016-04-11T16:22:58",
 "updatedby":0}, "children" : []},
 {"tablename" : "ad_element", "data" : {"ad_element_id":55570,
 "columnname":"C_EDIFormat_ID",
 "ad_client_id":0,
 "ad_org_id":0,
 "ad_reference_id":null,
 "ad_reference_value_id":null,
 "created":"2012-08-17T17:01:19",
 "createdby":100,
 "description":null,
 "entitytype":"EDI",
 "fieldlength":null,
 "help":null,
 "isactive":"Y",
 "name":"EDI Format",
 "po_description":null,
 "po_help":null,
 "po_name":null,
 "po_printname":null,
 "printname":"EDI Format",
 "updated":"2012-08-17T17:01:19",
 "updatedby":100}, "children" : []},
 {"tablename" : "ad_element", "data" : {"ad_element_id":55571,
 "columnname":"Inbound",
 "ad_client_id":0,
 "ad_org_id":0,
 "ad_reference_id":null,
 "ad_reference_value_id":null,
 "created":"2012-08-17T17:01:22",
 "createdby":100,
 "description":null,
 "entitytype":"EDI",
 "fieldlength":null,
 "help":null,
 "isactive":"Y",
 "name":"Inbound",
 "po_description":null,
 "po_help":null,
 "po_name":null,
 "po_printname":null,
 "printname":"Inbound",
 "updated":"2012-08-17T17:01:22",
 "updatedby":100}, "children" : []},
 {"tablename" : "ad_element", "data" : {"ad_element_id":55572,
 "columnname":"C_BPartner_EDI_ID",
 "ad_client_id":0,
 "ad_org_id":0,
 "ad_reference_id":null,
 "ad_reference_value_id":null,
 "created":"2012-08-17T17:01:55",
 "createdby":100,
 "description":null,
 "entitytype":"EDI",
 "fieldlength":null,
 "help":null,
 "isactive":"Y",
 "name":"BPartner EDI",
 "po_description":null,
 "po_help":null,
 "po_name":null,
 "po_printname":null,
 "printname":"BPartner EDI",
 "updated":"2016-04-11T16:23:03",
 "updatedby":0}, "children" : []},
 {"tablename" : "ad_element", "data" : {"ad_element_id":55573,
 "columnname":"C_EDI_DocType_ID",
 "ad_client_id":0,
 "ad_org_id":0,
 "ad_reference_id":null,
 "ad_reference_value_id":null,
 "created":"2012-08-17T17:02:15",
 "createdby":100,
 "description":null,
 "entitytype":"EDI",
 "fieldlength":null,
 "help":null,
 "isactive":"Y",
 "name":"EDI Doc Type",
 "po_description":null,
 "po_help":null,
 "po_name":null,
 "po_printname":null,
 "printname":"EDI Doc Type",
 "updated":"2012-08-17T17:02:15",
 "updatedby":100}, "children" : []},
 {"tablename" : "ad_element", "data" : {"ad_element_id":55574,
 "columnname":"EDIEventListener",
 "ad_client_id":0,
 "ad_org_id":0,
 "ad_reference_id":null,
 "ad_reference_value_id":null,
 "created":"2012-08-17T17:02:24",
 "createdby":100,
 "description":null,
 "entitytype":"EDI",
 "fieldlength":null,
 "help":null,
 "isactive":"Y",
 "name":"EDI Event Listener",
 "po_description":null,
 "po_help":null,
 "po_name":null,
 "po_printname":null,
 "printname":"EDI Event Listener",
 "updated":"2012-08-17T17:02:24",
 "updatedby":100}, "children" : []},
 {"tablename" : "ad_element", "data" : {"ad_element_id":55575,
 "columnname":"C_EDI_DocCode",
 "ad_client_id":0,
 "ad_org_id":0,
 "ad_reference_id":null,
 "ad_reference_value_id":null,
 "created":"2012-08-17T17:03:04",
 "createdby":100,
 "description":null,
 "entitytype":"EDI",
 "fieldlength":null,
 "help":null,
 "isactive":"Y",
 "name":"C_EDI_DocCode",
 "po_description":null,
 "po_help":null,
 "po_name":null,
 "po_printname":null,
 "printname":"C_EDI_DocCode",
 "updated":"2012-08-17T17:03:04",
 "updatedby":100}, "children" : []},
 {"tablename" : "ad_element", "data" : {"ad_element_id":55576,
 "columnname":"SegmentSeparator",
 "ad_client_id":0,
 "ad_org_id":0,
 "ad_reference_id":null,
 "ad_reference_value_id":null,
 "created":"2012-08-17T17:04:02",
 "createdby":100,
 "description":null,
 "entitytype":"EDI",
 "fieldlength":null,
 "help":null,
 "isactive":"Y",
 "name":"SegmentSeparator",
 "po_description":null,
 "po_help":null,
 "po_name":null,
 "po_printname":null,
 "printname":"SegmentSeparator",
 "updated":"2012-08-17T17:04:02",
 "updatedby":100}, "children" : []},
 {"tablename" : "ad_element", "data" : {"ad_element_id":55577,
 "columnname":"FieldSeparator",
 "ad_client_id":0,
 "ad_org_id":0,
 "ad_reference_id":null,
 "ad_reference_value_id":null,
 "created":"2012-08-17T17:04:05",
 "createdby":100,
 "description":null,
 "entitytype":"EDI",
 "fieldlength":null,
 "help":null,
 "isactive":"Y",
 "name":"FieldSeparator",
 "po_description":null,
 "po_help":null,
 "po_name":null,
 "po_printname":null,
 "printname":"FieldSeparator",
 "updated":"2012-08-17T17:04:05",
 "updatedby":100}, "children" : []},
 {"tablename" : "ad_element", "data" : {"ad_element_id":55578,
 "columnname":"Header_Table_ID",
 "ad_client_id":0,
 "ad_org_id":0,
 "ad_reference_id":null,
 "ad_reference_value_id":null,
 "created":"2012-08-17T17:04:07",
 "createdby":100,
 "description":null,
 "entitytype":"EDI",
 "fieldlength":null,
 "help":null,
 "isactive":"Y",
 "name":"Header Table",
 "po_description":null,
 "po_help":null,
 "po_name":null,
 "po_printname":null,
 "printname":"Header Table",
 "updated":"2012-08-17T17:04:07",
 "updatedby":100}, "children" : []},
 {"tablename" : "ad_element", "data" : {"ad_element_id":55579,
 "columnname":"Real_Table_ID",
 "ad_client_id":0,
 "ad_org_id":0,
 "ad_reference_id":null,
 "ad_reference_value_id":null,
 "created":"2012-08-17T17:04:11",
 "createdby":100,
 "description":null,
 "entitytype":"EDI",
 "fieldlength":null,
 "help":null,
 "isactive":"Y",
 "name":"Table",
 "po_description":null,
 "po_help":null,
 "po_name":null,
 "po_printname":null,
 "printname":"Table",
 "updated":"2012-08-17T17:04:11",
 "updatedby":100}, "children" : []},
 {"tablename" : "ad_element", "data" : {"ad_element_id":55580,
 "columnname":"IsAcknowledgement",
 "ad_client_id":0,
 "ad_org_id":0,
 "ad_reference_id":null,
 "ad_reference_value_id":null,
 "created":"2012-08-17T17:04:14",
 "createdby":100,
 "description":null,
 "entitytype":"EDI",
 "fieldlength":null,
 "help":null,
 "isactive":"Y",
 "name":"IsAcknowledgement",
 "po_description":null,
 "po_help":null,
 "po_name":null,
 "po_printname":null,
 "printname":"IsAcknowledgement",
 "updated":"2012-08-17T17:04:14",
 "updatedby":100}, "children" : []},
 {"tablename" : "ad_element", "data" : {"ad_element_id":55581,
 "columnname":"FunctionalIdentifier",
 "ad_client_id":0,
 "ad_org_id":0,
 "ad_reference_id":null,
 "ad_reference_value_id":null,
 "created":"2012-08-17T17:04:17",
 "createdby":100,
 "description":null,
 "entitytype":"EDI",
 "fieldlength":null,
 "help":null,
 "isactive":"Y",
 "name":"Functional Identifier",
 "po_description":null,
 "po_help":null,
 "po_name":null,
 "po_printname":null,
 "printname":"Functional Identifier",
 "updated":"2012-08-17T17:04:17",
 "updatedby":100}, "children" : []},
 {"tablename" : "ad_element", "data" : {"ad_element_id":55582,
 "columnname":"LineSeparator",
 "ad_client_id":0,
 "ad_org_id":0,
 "ad_reference_id":null,
 "ad_reference_value_id":null,
 "created":"2012-08-17T17:04:26",
 "createdby":100,
 "description":null,
 "entitytype":"EDI",
 "fieldlength":null,
 "help":null,
 "isactive":"Y",
 "name":"Line Separator",
 "po_description":null,
 "po_help":null,
 "po_name":null,
 "po_printname":null,
 "printname":"Line Separator",
 "updated":"2012-08-17T17:04:26",
 "updatedby":100}, "children" : []},
 {"tablename" : "ad_element", "data" : {"ad_element_id":55583,
 "columnname":"C_EDIFormat_Line_ID",
 "ad_client_id":0,
 "ad_org_id":0,
 "ad_reference_id":null,
 "ad_reference_value_id":null,
 "created":"2012-08-17T17:05:12",
 "createdby":100,
 "description":null,
 "entitytype":"EDI",
 "fieldlength":null,
 "help":null,
 "isactive":"Y",
 "name":"EDI Format Line",
 "po_description":null,
 "po_help":null,
 "po_name":null,
 "po_printname":null,
 "printname":"EDI Format Line",
 "updated":"2016-04-11T16:23:22",
 "updatedby":0}, "children" : []},
 {"tablename" : "ad_element", "data" : {"ad_element_id":55584,
 "columnname":"IsReset",
 "ad_client_id":0,
 "ad_org_id":0,
 "ad_reference_id":null,
 "ad_reference_value_id":null,
 "created":"2012-08-17T17:05:17",
 "createdby":100,
 "description":null,
 "entitytype":"EDI",
 "fieldlength":null,
 "help":null,
 "isactive":"Y",
 "name":"IsReset",
 "po_description":null,
 "po_help":null,
 "po_name":null,
 "po_printname":null,
 "printname":"IsReset",
 "updated":"2012-08-17T17:05:17",
 "updatedby":100}, "children" : []},
 {"tablename" : "ad_element", "data" : {"ad_element_id":55585,
 "columnname":"EDIName",
 "ad_client_id":0,
 "ad_org_id":0,
 "ad_reference_id":null,
 "ad_reference_value_id":null,
 "created":"2012-08-17T17:05:19",
 "createdby":100,
 "description":null,
 "entitytype":"EDI",
 "fieldlength":null,
 "help":null,
 "isactive":"Y",
 "name":"EDIName",
 "po_description":null,
 "po_help":null,
 "po_name":null,
 "po_printname":null,
 "printname":"EDIName",
 "updated":"2012-08-17T17:05:19",
 "updatedby":100}, "children" : []},
 {"tablename" : "ad_element", "data" : {"ad_element_id":55586,
 "columnname":"VariableName",
 "ad_client_id":0,
 "ad_org_id":0,
 "ad_reference_id":null,
 "ad_reference_value_id":null,
 "created":"2012-08-17T17:05:22",
 "createdby":100,
 "description":null,
 "entitytype":"EDI",
 "fieldlength":null,
 "help":null,
 "isactive":"Y",
 "name":"VariableName",
 "po_description":null,
 "po_help":null,
 "po_name":null,
 "po_printname":null,
 "printname":"VariableName",
 "updated":"2012-08-17T17:05:22",
 "updatedby":100}, "children" : []},
 {"tablename" : "ad_element", "data" : {"ad_element_id":55587,
 "columnname":"C_EmbeddedEDIFormat_ID",
 "ad_client_id":0,
 "ad_org_id":0,
 "ad_reference_id":null,
 "ad_reference_value_id":null,
 "created":"2012-08-17T17:05:48",
 "createdby":100,
 "description":null,
 "entitytype":"EDI",
 "fieldlength":null,
 "help":null,
 "isactive":"Y",
 "name":"Embedded EDI Format",
 "po_description":null,
 "po_help":null,
 "po_name":null,
 "po_printname":null,
 "printname":"Embedded EDI Format",
 "updated":"2012-08-17T17:05:48",
 "updatedby":100}, "children" : []},
 {"tablename" : "ad_element", "data" : {"ad_element_id":55588,
 "columnname":"IsOneToMany",
 "ad_client_id":0,
 "ad_org_id":0,
 "ad_reference_id":null,
 "ad_reference_value_id":null,
 "created":"2012-08-17T17:05:51",
 "createdby":100,
 "description":"Line might repeat one or more time in the source document",
 "entitytype":"EDI",
 "fieldlength":null,
 "help":null,
 "isactive":"Y",
 "name":"Repeating Line",
 "po_description":null,
 "po_help":null,
 "po_name":null,
 "po_printname":null,
 "printname":"Repeating Line",
 "updated":"2012-08-17T17:05:51",
 "updatedby":100}, "children" : []},
 {"tablename" : "ad_element", "data" : {"ad_element_id":55589,
 "columnname":"IsAckLine",
 "ad_client_id":0,
 "ad_org_id":0,
 "ad_reference_id":null,
 "ad_reference_value_id":null,
 "created":"2012-08-17T17:05:54",
 "createdby":100,
 "description":null,
 "entitytype":"EDI",
 "fieldlength":null,
 "help":null,
 "isactive":"Y",
 "name":"Acknowledgement Line",
 "po_description":null,
 "po_help":null,
 "po_name":null,
 "po_printname":null,
 "printname":"Acknowledgement Line",
 "updated":"2012-08-17T17:05:54",
 "updatedby":100}, "children" : []},
 {"tablename" : "ad_element", "data" : {"ad_element_id":55590,
 "columnname":"C_EDIFormat_LineElement_ID",
 "ad_client_id":0,
 "ad_org_id":0,
 "ad_reference_id":null,
 "ad_reference_value_id":null,
 "created":"2012-08-17T17:06:35",
 "createdby":100,
 "description":null,
 "entitytype":"EDI",
 "fieldlength":null,
 "help":null,
 "isactive":"Y",
 "name":"EDI Format Line Element",
 "po_description":null,
 "po_help":null,
 "po_name":null,
 "po_printname":null,
 "printname":"EDI Format Line Element",
 "updated":"2016-04-11T16:23:31",
 "updatedby":0}, "children" : []},
 {"tablename" : "ad_element", "data" : {"ad_element_id":55591,
 "columnname":"MinFieldLength",
 "ad_client_id":0,
 "ad_org_id":0,
 "ad_reference_id":null,
 "ad_reference_value_id":null,
 "created":"2012-08-17T17:06:40",
 "createdby":100,
 "description":null,
 "entitytype":"EDI",
 "fieldlength":null,
 "help":null,
 "isactive":"Y",
 "name":"MinFieldLength",
 "po_description":null,
 "po_help":null,
 "po_name":null,
 "po_printname":null,
 "printname":"MinFieldLength",
 "updated":"2012-08-17T17:06:40",
 "updatedby":100}, "children" : []},
 {"tablename" : "ad_element", "data" : {"ad_element_id":55592,
 "columnname":"VariableValue",
 "ad_client_id":0,
 "ad_org_id":0,
 "ad_reference_id":null,
 "ad_reference_value_id":null,
 "created":"2012-08-17T17:06:48",
 "createdby":100,
 "description":null,
 "entitytype":"EDI",
 "fieldlength":null,
 "help":null,
 "isactive":"Y",
 "name":"VariableValue",
 "po_description":null,
 "po_help":null,
 "po_name":null,
 "po_printname":null,
 "printname":"VariableValue",
 "updated":"2012-08-17T17:06:48",
 "updatedby":100}, "children" : []},
 {"tablename" : "ad_element", "data" : {"ad_element_id":55593,
 "columnname":"ConstValue",
 "ad_client_id":0,
 "ad_org_id":0,
 "ad_reference_id":null,
 "ad_reference_value_id":null,
 "created":"2012-08-17T17:07:14",
 "createdby":100,
 "description":null,
 "entitytype":"EDI",
 "fieldlength":null,
 "help":null,
 "isactive":"Y",
 "name":"Const Value",
 "po_description":null,
 "po_help":null,
 "po_name":null,
 "po_printname":null,
 "printname":"Const Value",
 "updated":"2012-08-17T17:07:14",
 "updatedby":100}, "children" : []},
 {"tablename" : "ad_element", "data" : {"ad_element_id":55594,
 "columnname":"LookupColumn",
 "ad_client_id":0,
 "ad_org_id":0,
 "ad_reference_id":null,
 "ad_reference_value_id":null,
 "created":"2012-08-17T17:07:17",
 "createdby":100,
 "description":null,
 "entitytype":"EDI",
 "fieldlength":null,
 "help":null,
 "isactive":"Y",
 "name":"Lookup Column",
 "po_description":null,
 "po_help":null,
 "po_name":null,
 "po_printname":null,
 "printname":"Lookup Column",
 "updated":"2012-08-17T17:07:17",
 "updatedby":100}, "children" : []},
 {"tablename" : "ad_element", "data" : {"ad_element_id":55595,
 "columnname":"Header_Column_ID",
 "ad_client_id":0,
 "ad_org_id":0,
 "ad_reference_id":null,
 "ad_reference_value_id":null,
 "created":"2012-08-17T17:07:19",
 "createdby":100,
 "description":null,
 "entitytype":"EDI",
 "fieldlength":null,
 "help":null,
 "isactive":"Y",
 "name":"Header Column",
 "po_description":null,
 "po_help":null,
 "po_name":null,
 "po_printname":null,
 "printname":"Header Column",
 "updated":"2012-08-17T17:07:19",
 "updatedby":100}, "children" : []},
 {"tablename" : "ad_element", "data" : {"ad_element_id":55596,
 "columnname":"C_EDIFormat_LineElementComp_ID",
 "ad_client_id":0,
 "ad_org_id":0,
 "ad_reference_id":null,
 "ad_reference_value_id":null,
 "created":"2012-08-17T17:08:03",
 "createdby":100,
 "description":null,
 "entitytype":"EDI",
 "fieldlength":null,
 "help":null,
 "isactive":"Y",
 "name":"EDI Format Line Element Component",
 "po_description":null,
 "po_help":null,
 "po_name":null,
 "po_printname":null,
 "printname":"EDI Format Line Element Component",
 "updated":"2016-04-11T16:23:41",
 "updatedby":0}, "children" : []},
 {"tablename" : "ad_element", "data" : {"ad_element_id":55597,
 "columnname":"C_EDI_Ack_ID",
 "ad_client_id":0,
 "ad_org_id":0,
 "ad_reference_id":null,
 "ad_reference_value_id":null,
 "created":"2012-08-17T17:10:00",
 "createdby":100,
 "description":null,
 "entitytype":"EDI",
 "fieldlength":null,
 "help":null,
 "isactive":"Y",
 "name":"EDI Acknowledgement",
 "po_description":null,
 "po_help":null,
 "po_name":null,
 "po_printname":null,
 "printname":"EDI Acknowledgement",
 "updated":"2016-04-11T16:23:53",
 "updatedby":0}, "children" : []},
 {"tablename" : "ad_element", "data" : {"ad_element_id":55598,
 "columnname":"InterchangeControlNo",
 "ad_client_id":0,
 "ad_org_id":0,
 "ad_reference_id":null,
 "ad_reference_value_id":null,
 "created":"2012-08-17T17:10:10",
 "createdby":100,
 "description":null,
 "entitytype":"EDI",
 "fieldlength":null,
 "help":null,
 "isactive":"Y",
 "name":"Interchange Control Number",
 "po_description":null,
 "po_help":null,
 "po_name":null,
 "po_printname":null,
 "printname":"Interchange Control Number",
 "updated":"2012-08-17T17:10:10",
 "updatedby":100}, "children" : []},
 {"tablename" : "ad_element", "data" : {"ad_element_id":55599,
 "columnname":"InterchangeSender",
 "ad_client_id":0,
 "ad_org_id":0,
 "ad_reference_id":null,
 "ad_reference_value_id":null,
 "created":"2012-08-17T17:10:12",
 "createdby":100,
 "description":null,
 "entitytype":"EDI",
 "fieldlength":null,
 "help":null,
 "isactive":"Y",
 "name":"Interchange Sender ID",
 "po_description":null,
 "po_help":null,
 "po_name":null,
 "po_printname":null,
 "printname":"Interchange Sender ID",
 "updated":"2012-08-17T17:10:12",
 "updatedby":100}, "children" : []},
 {"tablename" : "ad_element", "data" : {"ad_element_id":55600,
 "columnname":"InterchangeSenderQualifier",
 "ad_client_id":0,
 "ad_org_id":0,
 "ad_reference_id":null,
 "ad_reference_value_id":null,
 "created":"2012-08-17T17:10:15",
 "createdby":100,
 "description":null,
 "entitytype":"EDI",
 "fieldlength":null,
 "help":null,
 "isactive":"Y",
 "name":"InterchangeSenderQualifier",
 "po_description":null,
 "po_help":null,
 "po_name":null,
 "po_printname":null,
 "printname":"InterchangeSenderQualifier",
 "updated":"2012-08-17T17:10:15",
 "updatedby":100}, "children" : []},
 {"tablename" : "ad_element", "data" : {"ad_element_id":55601,
 "columnname":"IsSubmitted",
 "ad_client_id":0,
 "ad_org_id":0,
 "ad_reference_id":null,
 "ad_reference_value_id":null,
 "created":"2012-08-17T17:10:18",
 "createdby":100,
 "description":null,
 "entitytype":"EDI",
 "fieldlength":null,
 "help":null,
 "isactive":"Y",
 "name":"Submitted",
 "po_description":null,
 "po_help":null,
 "po_name":null,
 "po_printname":null,
 "printname":"Submitted",
 "updated":"2012-08-17T17:10:18",
 "updatedby":100}, "children" : []},
 {"tablename" : "ad_element", "data" : {"ad_element_id":55602,
 "columnname":"LinesAccepted",
 "ad_client_id":0,
 "ad_org_id":0,
 "ad_reference_id":null,
 "ad_reference_value_id":null,
 "created":"2012-08-17T17:10:21",
 "createdby":100,
 "description":null,
 "entitytype":"EDI",
 "fieldlength":null,
 "help":null,
 "isactive":"Y",
 "name":"Lines Accepted",
 "po_description":null,
 "po_help":null,
 "po_name":null,
 "po_printname":null,
 "printname":"Lines Accepted",
 "updated":"2012-08-17T17:10:21",
 "updatedby":100}, "children" : []},
 {"tablename" : "ad_element", "data" : {"ad_element_id":55603,
 "columnname":"LinesIncluded",
 "ad_client_id":0,
 "ad_org_id":0,
 "ad_reference_id":null,
 "ad_reference_value_id":null,
 "created":"2012-08-17T17:10:24",
 "createdby":100,
 "description":null,
 "entitytype":"EDI",
 "fieldlength":null,
 "help":null,
 "isactive":"Y",
 "name":"Lines Included",
 "po_description":null,
 "po_help":null,
 "po_name":null,
 "po_printname":null,
 "printname":"Lines Included",
 "updated":"2012-08-17T17:10:24",
 "updatedby":100}, "children" : []},
 {"tablename" : "ad_element", "data" : {"ad_element_id":55604,
 "columnname":"LinesReceived",
 "ad_client_id":0,
 "ad_org_id":0,
 "ad_reference_id":null,
 "ad_reference_value_id":null,
 "created":"2012-08-17T17:10:26",
 "createdby":100,
 "description":null,
 "entitytype":"EDI",
 "fieldlength":null,
 "help":null,
 "isactive":"Y",
 "name":"Lines Received",
 "po_description":null,
 "po_help":null,
 "po_name":null,
 "po_printname":null,
 "printname":"Lines Received",
 "updated":"2012-08-17T17:10:26",
 "updatedby":100}, "children" : []},
 {"tablename" : "ad_element", "data" : {"ad_element_id":55605,
 "columnname":"SenderGroupControlNo",
 "ad_client_id":0,
 "ad_org_id":0,
 "ad_reference_id":null,
 "ad_reference_value_id":null,
 "created":"2012-08-17T17:10:30",
 "createdby":100,
 "description":null,
 "entitytype":"EDI",
 "fieldlength":null,
 "help":null,
 "isactive":"Y",
 "name":"Sender Group Control Number",
 "po_description":null,
 "po_help":null,
 "po_name":null,
 "po_printname":null,
 "printname":"Sender Group Control Number",
 "updated":"2012-08-17T17:10:30",
 "updatedby":100}, "children" : []},
 {"tablename" : "ad_element", "data" : {"ad_element_id":55606,
 "columnname":"C_EDI_Interchange_ID",
 "ad_client_id":0,
 "ad_org_id":0,
 "ad_reference_id":null,
 "ad_reference_value_id":null,
 "created":"2012-08-17T17:10:33",
 "createdby":100,
 "description":null,
 "entitytype":"EDI",
 "fieldlength":null,
 "help":null,
 "isactive":"Y",
 "name":"EDI Interchange",
 "po_description":null,
 "po_help":null,
 "po_name":null,
 "po_printname":null,
 "printname":"EDI Interchange",
 "updated":"2012-08-17T17:10:33",
 "updatedby":100}, "children" : []},
 {"tablename" : "ad_element", "data" : {"ad_element_id":55607,
 "columnname":"C_EDI_AckLine_ID",
 "ad_client_id":0,
 "ad_org_id":0,
 "ad_reference_id":null,
 "ad_reference_value_id":null,
 "created":"2012-08-17T17:11:07",
 "createdby":100,
 "description":null,
 "entitytype":"EDI",
 "fieldlength":null,
 "help":null,
 "isactive":"Y",
 "name":"EDI Acknowledgement Line",
 "po_description":null,
 "po_help":null,
 "po_name":null,
 "po_printname":null,
 "printname":"EDI Acknowledgement Line",
 "updated":"2016-04-11T16:24:00",
 "updatedby":0}, "children" : []},
 {"tablename" : "ad_element", "data" : {"ad_element_id":55608,
 "columnname":"TransactionIdentifier",
 "ad_client_id":0,
 "ad_org_id":0,
 "ad_reference_id":null,
 "ad_reference_value_id":null,
 "created":"2012-08-17T17:11:19",
 "createdby":100,
 "description":null,
 "entitytype":"EDI",
 "fieldlength":null,
 "help":null,
 "isactive":"Y",
 "name":"Transaction Set Identifier",
 "po_description":null,
 "po_help":null,
 "po_name":null,
 "po_printname":null,
 "printname":"Transaction Set Identifier",
 "updated":"2012-08-17T17:11:19",
 "updatedby":100}, "children" : []},
 {"tablename" : "ad_element", "data" : {"ad_element_id":55609,
 "columnname":"C_EDI_Message_ID",
 "ad_client_id":0,
 "ad_org_id":0,
 "ad_reference_id":null,
 "ad_reference_value_id":null,
 "created":"2012-08-17T17:12:47",
 "createdby":100,
 "description":null,
 "entitytype":"EDI",
 "fieldlength":null,
 "help":null,
 "isactive":"Y",
 "name":"EDI Message",
 "po_description":null,
 "po_help":null,
 "po_name":null,
 "po_printname":null,
 "printname":"EDI Message",
 "updated":"2016-04-11T16:24:09",
 "updatedby":0}, "children" : []},
 {"tablename" : "ad_element", "data" : {"ad_element_id":55610,
 "columnname":"MessageReferenceNo",
 "ad_client_id":0,
 "ad_org_id":0,
 "ad_reference_id":null,
 "ad_reference_value_id":null,
 "created":"2012-08-17T17:13:00",
 "createdby":100,
 "description":null,
 "entitytype":"EDI",
 "fieldlength":null,
 "help":null,
 "isactive":"Y",
 "name":"MessageReferenceNo",
 "po_description":null,
 "po_help":null,
 "po_name":null,
 "po_printname":null,
 "printname":"MessageReferenceNo",
 "updated":"2012-08-17T17:13:00",
 "updatedby":100}, "children" : []},
 {"tablename" : "ad_element", "data" : {"ad_element_id":55611,
 "columnname":"MessageType",
 "ad_client_id":0,
 "ad_org_id":0,
 "ad_reference_id":null,
 "ad_reference_value_id":null,
 "created":"2012-08-17T17:13:08",
 "createdby":100,
 "description":null,
 "entitytype":"EDI",
 "fieldlength":null,
 "help":null,
 "isactive":"Y",
 "name":"Message Type",
 "po_description":null,
 "po_help":null,
 "po_name":null,
 "po_printname":null,
 "printname":"Message Type",
 "updated":"2012-08-17T17:13:08",
 "updatedby":100}, "children" : []},
 {"tablename" : "ad_element", "data" : {"ad_element_id":55612,
 "columnname":"X_INOUTCONS_ID",
 "ad_client_id":0,
 "ad_org_id":0,
 "ad_reference_id":null,
 "ad_reference_value_id":null,
 "created":"2012-08-17T17:13:39",
 "createdby":100,
 "description":null,
 "entitytype":"EDI",
 "fieldlength":null,
 "help":null,
 "isactive":"Y",
 "name":"EDI Shipments",
 "po_description":null,
 "po_help":null,
 "po_name":null,
 "po_printname":null,
 "printname":"EDI Shipments",
 "updated":"2016-04-11T16:24:15",
 "updatedby":0}, "children" : []},
 {"tablename" : "ad_element", "data" : {"ad_element_id":55613,
 "columnname":"CreateUCC128",
 "ad_client_id":0,
 "ad_org_id":0,
 "ad_reference_id":null,
 "ad_reference_value_id":null,
 "created":"2012-08-17T17:13:55",
 "createdby":100,
 "description":null,
 "entitytype":"EDI",
 "fieldlength":null,
 "help":null,
 "isactive":"Y",
 "name":"CreateUCC128",
 "po_description":null,
 "po_help":null,
 "po_name":null,
 "po_printname":null,
 "printname":"Create UCC 128",
 "updated":"2012-08-17T17:13:55",
 "updatedby":100}, "children" : []},
 {"tablename" : "ad_element", "data" : {"ad_element_id":55614,
 "columnname":"EDIAcknowledged",
 "ad_client_id":0,
 "ad_org_id":0,
 "ad_reference_id":null,
 "ad_reference_value_id":null,
 "created":"2012-08-17T17:14:04",
 "createdby":100,
 "description":null,
 "entitytype":"EDI",
 "fieldlength":null,
 "help":null,
 "isactive":"Y",
 "name":"EDI Acknowledged",
 "po_description":null,
 "po_help":null,
 "po_name":null,
 "po_printname":null,
 "printname":"EDI Acknowledged",
 "updated":"2012-08-17T17:14:04",
 "updatedby":100}, "children" : []},
 {"tablename" : "ad_element", "data" : {"ad_element_id":55615,
 "columnname":"IsEDISubmitted",
 "ad_client_id":0,
 "ad_org_id":0,
 "ad_reference_id":null,
 "ad_reference_value_id":null,
 "created":"2012-08-17T17:14:08",
 "createdby":100,
 "description":null,
 "entitytype":"EDI",
 "fieldlength":null,
 "help":null,
 "isactive":"Y",
 "name":"Submitted via EDI",
 "po_description":null,
 "po_help":null,
 "po_name":null,
 "po_printname":null,
 "printname":"Submitted via EDI",
 "updated":"2012-08-17T17:14:08",
 "updatedby":100}, "children" : []},
 {"tablename" : "ad_element", "data" : {"ad_element_id":55616,
 "columnname":"SubmitEDI",
 "ad_client_id":0,
 "ad_org_id":0,
 "ad_reference_id":null,
 "ad_reference_value_id":null,
 "created":"2012-08-17T17:14:16",
 "createdby":100,
 "description":null,
 "entitytype":"EDI",
 "fieldlength":null,
 "help":null,
 "isactive":"Y",
 "name":"Submit EDI",
 "po_description":null,
 "po_help":null,
 "po_name":null,
 "po_printname":null,
 "printname":"Submit EDI",
 "updated":"2012-08-17T17:14:16",
 "updatedby":100}, "children" : []},
 {"tablename" : "ad_element", "data" : {"ad_element_id":55617,
 "columnname":"X_LABELBOL",
 "ad_client_id":0,
 "ad_org_id":0,
 "ad_reference_id":null,
 "ad_reference_value_id":null,
 "created":"2012-08-17T17:14:26",
 "createdby":100,
 "description":null,
 "entitytype":"EDI",
 "fieldlength":null,
 "help":null,
 "isactive":"Y",
 "name":"BOL #",
 "po_description":null,
 "po_help":null,
 "po_name":null,
 "po_printname":null,
 "printname":"BOL #",
 "updated":"2012-08-17T17:14:26",
 "updatedby":100}, "children" : []},
 {"tablename" : "ad_element", "data" : {"ad_element_id":55627,
 "columnname":"EDI_Sender",
 "ad_client_id":0,
 "ad_org_id":0,
 "ad_reference_id":null,
 "ad_reference_value_id":null,
 "created":"2012-08-24T11:19:39",
 "createdby":100,
 "description":"EDI Sender Identification",
 "entitytype":"EDI",
 "fieldlength":null,
 "help":null,
 "isactive":"Y",
 "name":"EDI Sender Id",
 "po_description":null,
 "po_help":null,
 "po_name":null,
 "po_printname":null,
 "printname":"EDI Sender Id",
 "updated":"2012-08-24T11:19:39",
 "updatedby":100}, "children" : []},
 {"tablename" : "ad_element", "data" : {"ad_element_id":55628,
 "columnname":"EDI_Sequence_ID",
 "ad_client_id":0,
 "ad_org_id":0,
 "ad_reference_id":null,
 "ad_reference_value_id":null,
 "created":"2012-08-24T11:22:16",
 "createdby":100,
 "description":"EDI Interchange Sequence",
 "entitytype":"EDI",
 "fieldlength":null,
 "help":null,
 "isactive":"Y",
 "name":"EDI Interchange Sequence",
 "po_description":null,
 "po_help":null,
 "po_name":null,
 "po_printname":null,
 "printname":"EDI Interchange Sequence",
 "updated":"2012-08-24T11:22:16",
 "updatedby":100}, "children" : []}]