[{"tablename" : "ad_process", "data" : {"ad_process_id":162,
 "value":"R_ProjectStatus",
 "name":"Project Status Summary",
 "accesslevel":"3",
 "ad_client_id":0,
 "ad_form_id":null,
 "ad_org_id":0,
 "ad_printformat_id":null,
 "ad_reportview_id":null,
 "ad_tableselection_id":null,
 "ad_workflow_id":null,
 "classname":"org.compiere.report.ProjectStatus",
 "copyfromprocess":null,
 "created":"2001-03-27T13:55:50",
 "createdby":0,
 "description":"Project Status of Project Cycle",
 "entitytype":"Project Management",
 "help":null,
 "isactive":"N",
 "isbetafunctionality":"N",
 "isdirectprint":"N",
 "isreport":"Y",
 "isserverprocess":"N",
 "jasperreport":null,
 "procedurename":null,
 "showhelp":"Y",
 "statistic_count":0,
 "statistic_seconds":0,
 "updated":"2000-01-02T00:00:00",
 "updatedby":0,
 "workflowvalue":null}, "children" : [{"tablename" : "ad_process_para", "data" : {"ad_process_para_id":192,
 "name":"Project Cycle",
 "ad_client_id":0,
 "ad_element_id":null,
 "ad_org_id":0,
 "ad_process_id":162,
 "ad_reference_id":19,
 "ad_reference_value_id":null,
 "ad_val_rule_id":null,
 "columnname":"C_Cycle_ID",
 "created":"2001-03-27T13:57:29",
 "createdby":0,
 "defaultvalue":null,
 "defaultvalue2":null,
 "description":"Identifier for this Project Reporting Cycle",
 "displaylogic":null,
 "entitytype":"Project Management",
 "fieldlength":0,
 "help":"Identifies a Project Cycle which can be made up of one or more cycle steps and cycle phases.",
 "isactive":"Y",
 "iscentrallymaintained":"Y",
 "ismandatory":"Y",
 "isrange":"N",
 "readonlylogic":null,
 "seqno":10,
 "updated":"2000-01-02T00:00:00",
 "updatedby":0,
 "valuemax":null,
 "valuemin":null,
 "vformat":null}, "children" : []},{"tablename" : "ad_process_para", "data" : {"ad_process_para_id":193,
 "name":"User/Contact",
 "ad_client_id":0,
 "ad_element_id":null,
 "ad_org_id":0,
 "ad_process_id":162,
 "ad_reference_id":19,
 "ad_reference_value_id":null,
 "ad_val_rule_id":null,
 "columnname":"AD_User_ID",
 "created":"2001-03-27T13:58:28",
 "createdby":0,
 "defaultvalue":"-1",
 "defaultvalue2":null,
 "description":"User within the system - Internal or Business Partner Contact",
 "displaylogic":null,
 "entitytype":"Project Management",
 "fieldlength":0,
 "help":"The User identifies a unique user in the system. This could be an internal user or a business partner contact",
 "isactive":"Y",
 "iscentrallymaintained":"Y",
 "ismandatory":"N",
 "isrange":"N",
 "readonlylogic":null,
 "seqno":20,
 "updated":"2000-01-02T00:00:00",
 "updatedby":0,
 "valuemax":null,
 "valuemin":null,
 "vformat":null}, "children" : []},{"tablename" : "ad_process_para", "data" : {"ad_process_para_id":194,
 "name":"Business Partner Group",
 "ad_client_id":0,
 "ad_element_id":null,
 "ad_org_id":0,
 "ad_process_id":162,
 "ad_reference_id":19,
 "ad_reference_value_id":null,
 "ad_val_rule_id":null,
 "columnname":"C_BP_Group_ID",
 "created":"2001-03-27T13:59:27",
 "createdby":0,
 "defaultvalue":"-1",
 "defaultvalue2":null,
 "description":"Business Partner Group",
 "displaylogic":null,
 "entitytype":"Project Management",
 "fieldlength":0,
 "help":"The Business Partner Group provides a method of defining defaults to be used for individual Business Partners.",
 "isactive":"Y",
 "iscentrallymaintained":"Y",
 "ismandatory":"N",
 "isrange":"N",
 "readonlylogic":null,
 "seqno":30,
 "updated":"2000-01-02T00:00:00",
 "updatedby":0,
 "valuemax":null,
 "valuemin":null,
 "vformat":null}, "children" : []},{"tablename" : "ad_process_para", "data" : {"ad_process_para_id":195,
 "name":"Business Partner ",
 "ad_client_id":0,
 "ad_element_id":null,
 "ad_org_id":0,
 "ad_process_id":162,
 "ad_reference_id":30,
 "ad_reference_value_id":null,
 "ad_val_rule_id":null,
 "columnname":"C_BPartner_ID",
 "created":"2001-03-27T13:59:58",
 "createdby":0,
 "defaultvalue":null,
 "defaultvalue2":null,
 "description":"Identifies a Business Partner",
 "displaylogic":null,
 "entitytype":"Project Management",
 "fieldlength":0,
 "help":"A Business Partner is anyone with whom you transact.  This can include Vendor, Customer, Employee or Salesperson",
 "isactive":"Y",
 "iscentrallymaintained":"Y",
 "ismandatory":"N",
 "isrange":"N",
 "readonlylogic":null,
 "seqno":40,
 "updated":"2000-01-02T00:00:00",
 "updatedby":0,
 "valuemax":null,
 "valuemin":null,
 "vformat":null}, "children" : []},{"tablename" : "ad_process_para", "data" : {"ad_process_para_id":196,
 "name":"Product Category",
 "ad_client_id":0,
 "ad_element_id":null,
 "ad_org_id":0,
 "ad_process_id":162,
 "ad_reference_id":19,
 "ad_reference_value_id":null,
 "ad_val_rule_id":null,
 "columnname":"M_Product_Category_ID",
 "created":"2001-03-27T14:00:38",
 "createdby":0,
 "defaultvalue":"-1",
 "defaultvalue2":null,
 "description":"Category of a Product",
 "displaylogic":null,
 "entitytype":"Project Management",
 "fieldlength":0,
 "help":"Identifies the category which this product belongs to.  Product categories are used for pricing and selection.",
 "isactive":"Y",
 "iscentrallymaintained":"Y",
 "ismandatory":"N",
 "isrange":"N",
 "readonlylogic":null,
 "seqno":50,
 "updated":"2000-01-02T00:00:00",
 "updatedby":0,
 "valuemax":null,
 "valuemin":null,
 "vformat":null}, "children" : []},{"tablename" : "ad_process_para", "data" : {"ad_process_para_id":197,
 "name":"Product",
 "ad_client_id":0,
 "ad_element_id":null,
 "ad_org_id":0,
 "ad_process_id":162,
 "ad_reference_id":30,
 "ad_reference_value_id":null,
 "ad_val_rule_id":null,
 "columnname":"M_Product_ID",
 "created":"2001-03-27T14:01:06",
 "createdby":0,
 "defaultvalue":null,
 "defaultvalue2":null,
 "description":"Product, Service, Item",
 "displaylogic":null,
 "entitytype":"Project Management",
 "fieldlength":0,
 "help":"Identifies an item which is either purchased or sold in this organization.",
 "isactive":"Y",
 "iscentrallymaintained":"Y",
 "ismandatory":"N",
 "isrange":"N",
 "readonlylogic":null,
 "seqno":60,
 "updated":"2000-01-02T00:00:00",
 "updatedby":0,
 "valuemax":null,
 "valuemin":null,
 "vformat":null}, "children" : []},{"tablename" : "ad_process_para", "data" : {"ad_process_para_id":198,
 "name":"Contract Date",
 "ad_client_id":0,
 "ad_element_id":null,
 "ad_org_id":0,
 "ad_process_id":162,
 "ad_reference_id":15,
 "ad_reference_value_id":null,
 "ad_val_rule_id":null,
 "columnname":"DateContract",
 "created":"2001-03-27T14:02:30",
 "createdby":0,
 "defaultvalue":null,
 "defaultvalue2":null,
 "description":"The (planned) effective date of this document.",
 "displaylogic":null,
 "entitytype":"Project Management",
 "fieldlength":0,
 "help":"The contract date is used to determine when the document becomes effective. This is usually the contract date.  The contract date is used in reports and report parameters.",
 "isactive":"Y",
 "iscentrallymaintained":"Y",
 "ismandatory":"N",
 "isrange":"Y",
 "readonlylogic":null,
 "seqno":70,
 "updated":"2000-01-02T00:00:00",
 "updatedby":0,
 "valuemax":null,
 "valuemin":null,
 "vformat":null}, "children" : []},{"tablename" : "ad_process_para", "data" : {"ad_process_para_id":199,
 "name":"Finish Date",
 "ad_client_id":0,
 "ad_element_id":null,
 "ad_org_id":0,
 "ad_process_id":162,
 "ad_reference_id":15,
 "ad_reference_value_id":null,
 "ad_val_rule_id":null,
 "columnname":"DateFinish",
 "created":"2001-03-27T14:03:15",
 "createdby":0,
 "defaultvalue":null,
 "defaultvalue2":null,
 "description":"Finish or (planned) completion date",
 "displaylogic":null,
 "entitytype":"Project Management",
 "fieldlength":0,
 "help":"The finish date is used to indicate when the project is expected to be completed or has been completed.",
 "isactive":"Y",
 "iscentrallymaintained":"Y",
 "ismandatory":"N",
 "isrange":"Y",
 "readonlylogic":null,
 "seqno":80,
 "updated":"2000-01-02T00:00:00",
 "updatedby":0,
 "valuemax":null,
 "valuemin":null,
 "vformat":null}, "children" : []},{"tablename" : "ad_process_para", "data" : {"ad_process_para_id":200,
 "name":"Detail Information",
 "ad_client_id":0,
 "ad_element_id":1670,
 "ad_org_id":0,
 "ad_process_id":162,
 "ad_reference_id":20,
 "ad_reference_value_id":null,
 "ad_val_rule_id":null,
 "columnname":"DetailInfo",
 "created":"2001-03-27T14:04:16",
 "createdby":0,
 "defaultvalue":"N",
 "defaultvalue2":null,
 "description":"Additional Detail Information",
 "displaylogic":null,
 "entitytype":"Project Management",
 "fieldlength":0,
 "help":null,
 "isactive":"Y",
 "iscentrallymaintained":"Y",
 "ismandatory":"Y",
 "isrange":"N",
 "readonlylogic":null,
 "seqno":200,
 "updated":"2000-01-02T00:00:00",
 "updatedby":0,
 "valuemax":null,
 "valuemin":null,
 "vformat":null}, "children" : []},{"tablename" : "ad_process_para", "data" : {"ad_process_para_id":201,
 "name":"Show Planned Amount",
 "ad_client_id":0,
 "ad_element_id":null,
 "ad_org_id":0,
 "ad_process_id":162,
 "ad_reference_id":20,
 "ad_reference_value_id":null,
 "ad_val_rule_id":null,
 "columnname":"ShowPlannedAmt",
 "created":"2001-03-27T14:05:26",
 "createdby":0,
 "defaultvalue":"Y",
 "defaultvalue2":null,
 "description":null,
 "displaylogic":null,
 "entitytype":"Project Management",
 "fieldlength":0,
 "help":null,
 "isactive":"Y",
 "iscentrallymaintained":"Y",
 "ismandatory":"Y",
 "isrange":"N",
 "readonlylogic":null,
 "seqno":100,
 "updated":"2000-01-02T00:00:00",
 "updatedby":0,
 "valuemax":null,
 "valuemin":null,
 "vformat":null}, "children" : []},{"tablename" : "ad_process_para", "data" : {"ad_process_para_id":202,
 "name":"Show Planned Quantity",
 "ad_client_id":0,
 "ad_element_id":null,
 "ad_org_id":0,
 "ad_process_id":162,
 "ad_reference_id":20,
 "ad_reference_value_id":null,
 "ad_val_rule_id":null,
 "columnname":"ShowPlannedQty",
 "created":"2001-03-27T14:06:09",
 "createdby":0,
 "defaultvalue":"N",
 "defaultvalue2":null,
 "description":null,
 "displaylogic":null,
 "entitytype":"Project Management",
 "fieldlength":0,
 "help":null,
 "isactive":"Y",
 "iscentrallymaintained":"Y",
 "ismandatory":"Y",
 "isrange":"N",
 "readonlylogic":null,
 "seqno":110,
 "updated":"2000-01-02T00:00:00",
 "updatedby":0,
 "valuemax":null,
 "valuemin":null,
 "vformat":null}, "children" : []},{"tablename" : "ad_process_para", "data" : {"ad_process_para_id":203,
 "name":"Show Planned Margin Amount",
 "ad_client_id":0,
 "ad_element_id":null,
 "ad_org_id":0,
 "ad_process_id":162,
 "ad_reference_id":20,
 "ad_reference_value_id":null,
 "ad_val_rule_id":null,
 "columnname":"ShowPlannedMarginAmt",
 "created":"2001-03-27T14:06:57",
 "createdby":0,
 "defaultvalue":"N",
 "defaultvalue2":null,
 "description":null,
 "displaylogic":null,
 "entitytype":"Project Management",
 "fieldlength":0,
 "help":null,
 "isactive":"Y",
 "iscentrallymaintained":"Y",
 "ismandatory":"Y",
 "isrange":"N",
 "readonlylogic":null,
 "seqno":120,
 "updated":"2000-01-02T00:00:00",
 "updatedby":0,
 "valuemax":null,
 "valuemin":null,
 "vformat":null}, "children" : []},{"tablename" : "ad_process_para", "data" : {"ad_process_para_id":204,
 "name":"Show Committed Amount",
 "ad_client_id":0,
 "ad_element_id":null,
 "ad_org_id":0,
 "ad_process_id":162,
 "ad_reference_id":20,
 "ad_reference_value_id":null,
 "ad_val_rule_id":null,
 "columnname":"ShowCommittedAmt",
 "created":"2001-03-27T14:08:21",
 "createdby":0,
 "defaultvalue":"N",
 "defaultvalue2":null,
 "description":null,
 "displaylogic":null,
 "entitytype":"Project Management",
 "fieldlength":0,
 "help":null,
 "isactive":"Y",
 "iscentrallymaintained":"Y",
 "ismandatory":"Y",
 "isrange":"N",
 "readonlylogic":null,
 "seqno":140,
 "updated":"2000-01-02T00:00:00",
 "updatedby":0,
 "valuemax":null,
 "valuemin":null,
 "vformat":null}, "children" : []},{"tablename" : "ad_process_para", "data" : {"ad_process_para_id":205,
 "name":"Show Actual Amount",
 "ad_client_id":0,
 "ad_element_id":null,
 "ad_org_id":0,
 "ad_process_id":162,
 "ad_reference_id":20,
 "ad_reference_value_id":null,
 "ad_val_rule_id":null,
 "columnname":"ShowActualAmt",
 "created":"2001-03-27T14:09:04",
 "createdby":0,
 "defaultvalue":"N",
 "defaultvalue2":null,
 "description":null,
 "displaylogic":null,
 "entitytype":"Project Management",
 "fieldlength":0,
 "help":null,
 "isactive":"Y",
 "iscentrallymaintained":"Y",
 "ismandatory":"Y",
 "isrange":"N",
 "readonlylogic":null,
 "seqno":150,
 "updated":"2000-01-02T00:00:00",
 "updatedby":0,
 "valuemax":null,
 "valuemin":null,
 "vformat":null}, "children" : []}]},
 {"tablename" : "ad_process", "data" : {"ad_process_id":218,
 "value":"RV_ProjectCycle",
 "name":"Project Cycle Report",
 "accesslevel":"3",
 "ad_client_id":0,
 "ad_form_id":null,
 "ad_org_id":0,
 "ad_printformat_id":null,
 "ad_reportview_id":128,
 "ad_tableselection_id":null,
 "ad_workflow_id":null,
 "classname":null,
 "copyfromprocess":null,
 "created":"2003-08-17T16:51:24",
 "createdby":0,
 "description":"Report Projects based on Project Cycle",
 "entitytype":"Project Management",
 "help":"The Project Cycle reports on common project phases of a Cycle Step/Phase. All Report information is weighted by the relative weight of the Cycle Step and converted to the currency of the Project Cycle (e.g. for Sales Funnel Reporting).<p>\nThe Projects must have a Project Type, Phase and Currency defined. The Phase must be assigned to a Cycle Step.",
 "isactive":"Y",
 "isbetafunctionality":"N",
 "isdirectprint":"N",
 "isreport":"Y",
 "isserverprocess":"N",
 "jasperreport":null,
 "procedurename":null,
 "showhelp":"Y",
 "statistic_count":0,
 "statistic_seconds":0,
 "updated":"2000-01-02T00:00:00",
 "updatedby":0,
 "workflowvalue":null}, "children" : [{"tablename" : "ad_process_para", "data" : {"ad_process_para_id":323,
 "name":"Project Cycle",
 "ad_client_id":0,
 "ad_element_id":1550,
 "ad_org_id":0,
 "ad_process_id":218,
 "ad_reference_id":19,
 "ad_reference_value_id":null,
 "ad_val_rule_id":null,
 "columnname":"C_Cycle_ID",
 "created":"2003-08-17T17:01:15",
 "createdby":0,
 "defaultvalue":null,
 "defaultvalue2":null,
 "description":"Identifier for this Project Reporting Cycle",
 "displaylogic":null,
 "entitytype":"Project Management",
 "fieldlength":0,
 "help":"Identifies a Project Cycle which can be made up of one or more cycle steps and cycle phases.",
 "isactive":"Y",
 "iscentrallymaintained":"Y",
 "ismandatory":"Y",
 "isrange":"N",
 "readonlylogic":null,
 "seqno":10,
 "updated":"2000-01-02T00:00:00",
 "updatedby":0,
 "valuemax":null,
 "valuemin":null,
 "vformat":null}, "children" : []}]},
 {"tablename" : "ad_process", "data" : {"ad_process_id":224,
 "value":"C_Project_Issue",
 "name":"Issue to Project",
 "accesslevel":"1",
 "ad_client_id":0,
 "ad_form_id":null,
 "ad_org_id":0,
 "ad_printformat_id":null,
 "ad_reportview_id":null,
 "ad_tableselection_id":null,
 "ad_workflow_id":null,
 "classname":"org.compiere.process.ProjectIssue",
 "copyfromprocess":null,
 "created":"2003-09-02T20:02:22",
 "createdby":0,
 "description":"Issue Material to Project from Receipt or manual Inventory Location",
 "entitytype":"Project Management",
 "help":"Select a Project and either\n<br>- Material Receipt\n<br>- Expense Report\n<br<- Inventory Location and Project Line not issued yet\n<br>- Inventory Location, Product and Quantity\nThe default Movement Date is today's date.",
 "isactive":"Y",
 "isbetafunctionality":"N",
 "isdirectprint":"N",
 "isreport":"N",
 "isserverprocess":"N",
 "jasperreport":null,
 "procedurename":null,
 "showhelp":"Y",
 "statistic_count":0,
 "statistic_seconds":0,
 "updated":"2000-01-02T00:00:00",
 "updatedby":0,
 "workflowvalue":null}, "children" : [{"tablename" : "ad_process_para", "data" : {"ad_process_para_id":355,
 "name":"Shipment/Receipt",
 "ad_client_id":0,
 "ad_element_id":1025,
 "ad_org_id":0,
 "ad_process_id":224,
 "ad_reference_id":30,
 "ad_reference_value_id":null,
 "ad_val_rule_id":178,
 "columnname":"M_InOut_ID",
 "created":"2003-09-02T20:10:44",
 "createdby":0,
 "defaultvalue":null,
 "defaultvalue2":null,
 "description":"Material Shipment Document",
 "displaylogic":null,
 "entitytype":"Project Management",
 "fieldlength":0,
 "help":"The Material Shipment / Receipt ",
 "isactive":"Y",
 "iscentrallymaintained":"Y",
 "ismandatory":"N",
 "isrange":"N",
 "readonlylogic":null,
 "seqno":20,
 "updated":"2000-01-02T00:00:00",
 "updatedby":0,
 "valuemax":null,
 "valuemin":null,
 "vformat":null}, "children" : []},{"tablename" : "ad_process_para", "data" : {"ad_process_para_id":356,
 "name":"Product",
 "ad_client_id":0,
 "ad_element_id":454,
 "ad_org_id":0,
 "ad_process_id":224,
 "ad_reference_id":30,
 "ad_reference_value_id":null,
 "ad_val_rule_id":null,
 "columnname":"M_Product_ID",
 "created":"2003-09-02T20:11:34",
 "createdby":0,
 "defaultvalue":null,
 "defaultvalue2":null,
 "description":"Product, Service, Item",
 "displaylogic":null,
 "entitytype":"Project Management",
 "fieldlength":0,
 "help":"Identifies an item which is either purchased or sold in this organization.",
 "isactive":"Y",
 "iscentrallymaintained":"Y",
 "ismandatory":"N",
 "isrange":"N",
 "readonlylogic":null,
 "seqno":60,
 "updated":"2000-01-02T00:00:00",
 "updatedby":0,
 "valuemax":null,
 "valuemin":null,
 "vformat":null}, "children" : []},{"tablename" : "ad_process_para", "data" : {"ad_process_para_id":357,
 "name":"Attribute Set Instance",
 "ad_client_id":0,
 "ad_element_id":2019,
 "ad_org_id":0,
 "ad_process_id":224,
 "ad_reference_id":35,
 "ad_reference_value_id":null,
 "ad_val_rule_id":null,
 "columnname":"M_AttributeSetInstance_ID",
 "created":"2003-09-02T20:12:46",
 "createdby":0,
 "defaultvalue":null,
 "defaultvalue2":null,
 "description":"Product Attribute Set Instance",
 "displaylogic":null,
 "entitytype":"Project Management",
 "fieldlength":0,
 "help":"The values of the actual Product Attribute Instances.  The product level attributes are defined on Product level.",
 "isactive":"Y",
 "iscentrallymaintained":"Y",
 "ismandatory":"N",
 "isrange":"N",
 "readonlylogic":null,
 "seqno":70,
 "updated":"2000-01-02T00:00:00",
 "updatedby":0,
 "valuemax":null,
 "valuemin":null,
 "vformat":null}, "children" : []},{"tablename" : "ad_process_para", "data" : {"ad_process_para_id":358,
 "name":"Locator",
 "ad_client_id":0,
 "ad_element_id":448,
 "ad_org_id":0,
 "ad_process_id":224,
 "ad_reference_id":31,
 "ad_reference_value_id":null,
 "ad_val_rule_id":null,
 "columnname":"M_Locator_ID",
 "created":"2003-09-02T20:13:40",
 "createdby":0,
 "defaultvalue":"0",
 "defaultvalue2":null,
 "description":"Warehouse Locator",
 "displaylogic":null,
 "entitytype":"Project Management",
 "fieldlength":0,
 "help":"The Locator indicates where in a Warehouse a product is located.",
 "isactive":"Y",
 "iscentrallymaintained":"Y",
 "ismandatory":"N",
 "isrange":"N",
 "readonlylogic":null,
 "seqno":40,
 "updated":"2000-01-02T00:00:00",
 "updatedby":0,
 "valuemax":null,
 "valuemin":null,
 "vformat":null}, "children" : []},{"tablename" : "ad_process_para", "data" : {"ad_process_para_id":359,
 "name":"Movement Quantity",
 "ad_client_id":0,
 "ad_element_id":1038,
 "ad_org_id":0,
 "ad_process_id":224,
 "ad_reference_id":29,
 "ad_reference_value_id":null,
 "ad_val_rule_id":null,
 "columnname":"MovementQty",
 "created":"2003-09-02T20:16:51",
 "createdby":0,
 "defaultvalue":"1",
 "defaultvalue2":null,
 "description":"Quantity of a product moved.",
 "displaylogic":null,
 "entitytype":"Project Management",
 "fieldlength":0,
 "help":"The Movement Quantity indicates the quantity of a product that has been moved.",
 "isactive":"Y",
 "iscentrallymaintained":"Y",
 "ismandatory":"N",
 "isrange":"N",
 "readonlylogic":null,
 "seqno":80,
 "updated":"2000-01-02T00:00:00",
 "updatedby":0,
 "valuemax":null,
 "valuemin":null,
 "vformat":null}, "children" : []},{"tablename" : "ad_process_para", "data" : {"ad_process_para_id":360,
 "name":"Movement Date",
 "ad_client_id":0,
 "ad_element_id":1037,
 "ad_org_id":0,
 "ad_process_id":224,
 "ad_reference_id":15,
 "ad_reference_value_id":null,
 "ad_val_rule_id":null,
 "columnname":"MovementDate",
 "created":"2003-09-02T20:17:24",
 "createdby":0,
 "defaultvalue":null,
 "defaultvalue2":null,
 "description":"Date a product was moved in or out of inventory",
 "displaylogic":null,
 "entitytype":"Project Management",
 "fieldlength":0,
 "help":"The Movement Date indicates the date that a product moved in or out of inventory.  This is the result of a shipment, receipt or inventory movement.",
 "isactive":"Y",
 "iscentrallymaintained":"Y",
 "ismandatory":"N",
 "isrange":"N",
 "readonlylogic":null,
 "seqno":90,
 "updated":"2000-01-02T00:00:00",
 "updatedby":0,
 "valuemax":null,
 "valuemin":null,
 "vformat":null}, "children" : []},{"tablename" : "ad_process_para", "data" : {"ad_process_para_id":361,
 "name":"Project",
 "ad_client_id":0,
 "ad_element_id":208,
 "ad_org_id":0,
 "ad_process_id":224,
 "ad_reference_id":19,
 "ad_reference_value_id":null,
 "ad_val_rule_id":177,
 "columnname":"C_Project_ID",
 "created":"2003-09-02T20:20:44",
 "createdby":0,
 "defaultvalue":null,
 "defaultvalue2":null,
 "description":"Financial Project",
 "displaylogic":null,
 "entitytype":"Project Management",
 "fieldlength":0,
 "help":"A Project allows you to track and control internal or external activities.",
 "isactive":"Y",
 "iscentrallymaintained":"Y",
 "ismandatory":"Y",
 "isrange":"N",
 "readonlylogic":null,
 "seqno":10,
 "updated":"2000-01-02T00:00:00",
 "updatedby":0,
 "valuemax":null,
 "valuemin":null,
 "vformat":null}, "children" : []},{"tablename" : "ad_process_para", "data" : {"ad_process_para_id":362,
 "name":"Description",
 "ad_client_id":0,
 "ad_element_id":275,
 "ad_org_id":0,
 "ad_process_id":224,
 "ad_reference_id":10,
 "ad_reference_value_id":null,
 "ad_val_rule_id":null,
 "columnname":"Description",
 "created":"2003-09-02T20:24:31",
 "createdby":0,
 "defaultvalue":null,
 "defaultvalue2":null,
 "description":"Optional short description of the record",
 "displaylogic":null,
 "entitytype":"Project Management",
 "fieldlength":20,
 "help":"A description is limited to 255 characters.",
 "isactive":"Y",
 "iscentrallymaintained":"Y",
 "ismandatory":"N",
 "isrange":"N",
 "readonlylogic":null,
 "seqno":100,
 "updated":"2000-01-02T00:00:00",
 "updatedby":0,
 "valuemax":null,
 "valuemin":null,
 "vformat":null}, "children" : []},{"tablename" : "ad_process_para", "data" : {"ad_process_para_id":365,
 "name":"Project Line",
 "ad_client_id":0,
 "ad_element_id":1552,
 "ad_org_id":0,
 "ad_process_id":224,
 "ad_reference_id":19,
 "ad_reference_value_id":null,
 "ad_val_rule_id":175,
 "columnname":"C_ProjectLine_ID",
 "created":"2003-09-02T21:50:55",
 "createdby":0,
 "defaultvalue":null,
 "defaultvalue2":null,
 "description":"Task or step in a project",
 "displaylogic":null,
 "entitytype":"Project Management",
 "fieldlength":0,
 "help":"The Project Line indicates a unique project line.",
 "isactive":"Y",
 "iscentrallymaintained":"Y",
 "ismandatory":"N",
 "isrange":"N",
 "readonlylogic":null,
 "seqno":50,
 "updated":"2000-01-02T00:00:00",
 "updatedby":0,
 "valuemax":null,
 "valuemin":null,
 "vformat":null}, "children" : []},{"tablename" : "ad_process_para", "data" : {"ad_process_para_id":366,
 "name":"Expense Report",
 "ad_client_id":0,
 "ad_element_id":1783,
 "ad_org_id":0,
 "ad_process_id":224,
 "ad_reference_id":19,
 "ad_reference_value_id":null,
 "ad_val_rule_id":null,
 "columnname":"S_TimeExpense_ID",
 "created":"2003-09-03T11:29:51",
 "createdby":0,
 "defaultvalue":null,
 "defaultvalue2":null,
 "description":"Time and Expense Report",
 "displaylogic":null,
 "entitytype":"Project Management",
 "fieldlength":0,
 "help":null,
 "isactive":"Y",
 "iscentrallymaintained":"Y",
 "ismandatory":"N",
 "isrange":"N",
 "readonlylogic":null,
 "seqno":30,
 "updated":"2000-01-02T00:00:00",
 "updatedby":0,
 "valuemax":null,
 "valuemin":null,
 "vformat":null}, "children" : []}]},
 {"tablename" : "ad_process", "data" : {"ad_process_id":225,
 "value":"C_Project_GeneratePO",
 "name":"Generate PO from Project",
 "accesslevel":"1",
 "ad_client_id":0,
 "ad_form_id":null,
 "ad_org_id":0,
 "ad_printformat_id":null,
 "ad_reportview_id":null,
 "ad_tableselection_id":null,
 "ad_workflow_id":null,
 "classname":"org.compiere.process.ProjectGenPO",
 "copyfromprocess":null,
 "created":"2003-09-02T20:06:01",
 "createdby":0,
 "description":"Generate PO from Project Line(s)",
 "entitytype":"Project Management",
 "help":"\n",
 "isactive":"Y",
 "isbetafunctionality":"N",
 "isdirectprint":"N",
 "isreport":"N",
 "isserverprocess":"N",
 "jasperreport":null,
 "procedurename":null,
 "showhelp":"Y",
 "statistic_count":0,
 "statistic_seconds":0,
 "updated":"2000-01-02T00:00:00",
 "updatedby":0,
 "workflowvalue":null}, "children" : [{"tablename" : "ad_process_para", "data" : {"ad_process_para_id":353,
 "name":"Project",
 "ad_client_id":0,
 "ad_element_id":208,
 "ad_org_id":0,
 "ad_process_id":225,
 "ad_reference_id":19,
 "ad_reference_value_id":null,
 "ad_val_rule_id":null,
 "columnname":"C_Project_ID",
 "created":"2003-09-02T20:07:15",
 "createdby":0,
 "defaultvalue":null,
 "defaultvalue2":null,
 "description":"Financial Project",
 "displaylogic":null,
 "entitytype":"Project Management",
 "fieldlength":0,
 "help":"A Project allows you to track and control internal or external activities.",
 "isactive":"Y",
 "iscentrallymaintained":"Y",
 "ismandatory":"Y",
 "isrange":"N",
 "readonlylogic":null,
 "seqno":10,
 "updated":"2000-01-02T00:00:00",
 "updatedby":0,
 "valuemax":null,
 "valuemin":null,
 "vformat":null}, "children" : []},{"tablename" : "ad_process_para", "data" : {"ad_process_para_id":354,
 "name":"Project Line",
 "ad_client_id":0,
 "ad_element_id":1552,
 "ad_org_id":0,
 "ad_process_id":225,
 "ad_reference_id":19,
 "ad_reference_value_id":null,
 "ad_val_rule_id":174,
 "columnname":"C_ProjectLine_ID",
 "created":"2003-09-02T20:08:53",
 "createdby":0,
 "defaultvalue":null,
 "defaultvalue2":null,
 "description":"Task or step in a project",
 "displaylogic":null,
 "entitytype":"Project Management",
 "fieldlength":0,
 "help":"The Project Line indicates a unique project line.",
 "isactive":"Y",
 "iscentrallymaintained":"Y",
 "ismandatory":"N",
 "isrange":"N",
 "readonlylogic":null,
 "seqno":20,
 "updated":"2000-01-02T00:00:00",
 "updatedby":0,
 "valuemax":null,
 "valuemin":null,
 "vformat":null}, "children" : []},{"tablename" : "ad_process_para", "data" : {"ad_process_para_id":367,
 "name":"Consolidate to one Document",
 "ad_client_id":0,
 "ad_element_id":2182,
 "ad_org_id":0,
 "ad_process_id":225,
 "ad_reference_id":20,
 "ad_reference_value_id":null,
 "ad_val_rule_id":null,
 "columnname":"ConsolidateDocument",
 "created":"2003-09-03T14:49:46",
 "createdby":0,
 "defaultvalue":"Y",
 "defaultvalue2":null,
 "description":"Consolidate Lines into one Document",
 "displaylogic":null,
 "entitytype":"Project Management",
 "fieldlength":0,
 "help":null,
 "isactive":"Y",
 "iscentrallymaintained":"Y",
 "ismandatory":"N",
 "isrange":"N",
 "readonlylogic":null,
 "seqno":30,
 "updated":"2000-01-02T00:00:00",
 "updatedby":0,
 "valuemax":null,
 "valuemin":null,
 "vformat":null}, "children" : []}]},
 {"tablename" : "ad_process", "data" : {"ad_process_id":226,
 "value":"RV_Project Accounting",
 "name":"Project Detail Accounting Report",
 "accesslevel":"3",
 "ad_client_id":0,
 "ad_form_id":null,
 "ad_org_id":0,
 "ad_printformat_id":null,
 "ad_reportview_id":131,
 "ad_tableselection_id":null,
 "ad_workflow_id":null,
 "classname":null,
 "copyfromprocess":null,
 "created":"2003-09-02T20:55:00",
 "createdby":0,
 "description":"Accounting Fact Details of Project",
 "entitytype":"Project Management",
 "help":null,
 "isactive":"Y",
 "isbetafunctionality":"N",
 "isdirectprint":"N",
 "isreport":"Y",
 "isserverprocess":"N",
 "jasperreport":null,
 "procedurename":null,
 "showhelp":"Y",
 "statistic_count":0,
 "statistic_seconds":0,
 "updated":"2000-01-02T00:00:00",
 "updatedby":0,
 "workflowvalue":null}, "children" : [{"tablename" : "ad_process_para", "data" : {"ad_process_para_id":363,
 "name":"Project",
 "ad_client_id":0,
 "ad_element_id":208,
 "ad_org_id":0,
 "ad_process_id":226,
 "ad_reference_id":30,
 "ad_reference_value_id":null,
 "ad_val_rule_id":null,
 "columnname":"C_Project_ID",
 "created":"2003-09-02T20:57:47",
 "createdby":0,
 "defaultvalue":null,
 "defaultvalue2":null,
 "description":"Financial Project",
 "displaylogic":null,
 "entitytype":"Project Management",
 "fieldlength":0,
 "help":"A Project allows you to track and control internal or external activities.",
 "isactive":"Y",
 "iscentrallymaintained":"Y",
 "ismandatory":"Y",
 "isrange":"N",
 "readonlylogic":null,
 "seqno":20,
 "updated":"2000-01-02T00:00:00",
 "updatedby":0,
 "valuemax":null,
 "valuemin":null,
 "vformat":null}, "children" : []},{"tablename" : "ad_process_para", "data" : {"ad_process_para_id":364,
 "name":"Accounting Schema",
 "ad_client_id":0,
 "ad_element_id":181,
 "ad_org_id":0,
 "ad_process_id":226,
 "ad_reference_id":19,
 "ad_reference_value_id":null,
 "ad_val_rule_id":null,
 "columnname":"C_AcctSchema_ID",
 "created":"2003-09-02T21:25:00",
 "createdby":0,
 "defaultvalue":null,
 "defaultvalue2":null,
 "description":"Rules for accounting",
 "displaylogic":null,
 "entitytype":"Project Management",
 "fieldlength":0,
 "help":"An Accounting Schema defines the rules used in accounting such as costing method, currency and calendar",
 "isactive":"Y",
 "iscentrallymaintained":"Y",
 "ismandatory":"Y",
 "isrange":"N",
 "readonlylogic":null,
 "seqno":10,
 "updated":"2000-01-02T00:00:00",
 "updatedby":0,
 "valuemax":null,
 "valuemin":null,
 "vformat":null}, "children" : []}]},
 {"tablename" : "ad_process", "data" : {"ad_process_id":228,
 "value":"RV_ProjectLine Not Issued",
 "name":"Project Lines not Issued",
 "accesslevel":"3",
 "ad_client_id":0,
 "ad_form_id":null,
 "ad_org_id":0,
 "ad_printformat_id":null,
 "ad_reportview_id":133,
 "ad_tableselection_id":null,
 "ad_workflow_id":null,
 "classname":null,
 "copyfromprocess":null,
 "created":"2003-09-04T16:10:51",
 "createdby":0,
 "description":"Lists Project Lines of a Work Order or Asset Project, which are not issued to the Project",
 "entitytype":"Project Management",
 "help":null,
 "isactive":"Y",
 "isbetafunctionality":"N",
 "isdirectprint":"N",
 "isreport":"Y",
 "isserverprocess":"N",
 "jasperreport":null,
 "procedurename":null,
 "showhelp":"Y",
 "statistic_count":0,
 "statistic_seconds":0,
 "updated":"2000-01-02T00:00:00",
 "updatedby":0,
 "workflowvalue":null}, "children" : [{"tablename" : "ad_process_para", "data" : {"ad_process_para_id":368,
 "name":"Project",
 "ad_client_id":0,
 "ad_element_id":208,
 "ad_org_id":0,
 "ad_process_id":228,
 "ad_reference_id":19,
 "ad_reference_value_id":null,
 "ad_val_rule_id":176,
 "columnname":"C_Project_ID",
 "created":"2003-09-04T16:16:51",
 "createdby":0,
 "defaultvalue":null,
 "defaultvalue2":null,
 "description":"Financial Project",
 "displaylogic":null,
 "entitytype":"Project Management",
 "fieldlength":0,
 "help":"A Project allows you to track and control internal or external activities.",
 "isactive":"Y",
 "iscentrallymaintained":"Y",
 "ismandatory":"Y",
 "isrange":"N",
 "readonlylogic":null,
 "seqno":10,
 "updated":"2000-01-02T00:00:00",
 "updatedby":0,
 "valuemax":null,
 "valuemin":null,
 "vformat":null}, "children" : []}]},
 {"tablename" : "ad_process", "data" : {"ad_process_id":229,
 "value":"RV_ProjectLine Not Received POs",
 "name":"Project POs not Issued",
 "accesslevel":"3",
 "ad_client_id":0,
 "ad_form_id":null,
 "ad_org_id":0,
 "ad_printformat_id":null,
 "ad_reportview_id":132,
 "ad_tableselection_id":null,
 "ad_workflow_id":null,
 "classname":null,
 "copyfromprocess":null,
 "created":"2003-09-04T16:12:17",
 "createdby":0,
 "description":"Lists Project Lines with generated Purchase Orders of a Work Order or Asset Project, which are not issued to the Project",
 "entitytype":"Project Management",
 "help":null,
 "isactive":"Y",
 "isbetafunctionality":"N",
 "isdirectprint":"N",
 "isreport":"Y",
 "isserverprocess":"N",
 "jasperreport":null,
 "procedurename":null,
 "showhelp":"Y",
 "statistic_count":0,
 "statistic_seconds":0,
 "updated":"2000-01-02T00:00:00",
 "updatedby":0,
 "workflowvalue":null}, "children" : [{"tablename" : "ad_process_para", "data" : {"ad_process_para_id":369,
 "name":"Project",
 "ad_client_id":0,
 "ad_element_id":208,
 "ad_org_id":0,
 "ad_process_id":229,
 "ad_reference_id":19,
 "ad_reference_value_id":null,
 "ad_val_rule_id":176,
 "columnname":"C_Project_ID",
 "created":"2003-09-04T16:20:51",
 "createdby":0,
 "defaultvalue":null,
 "defaultvalue2":null,
 "description":"Financial Project",
 "displaylogic":null,
 "entitytype":"Project Management",
 "fieldlength":0,
 "help":"A Project allows you to track and control internal or external activities.",
 "isactive":"Y",
 "iscentrallymaintained":"Y",
 "ismandatory":"Y",
 "isrange":"N",
 "readonlylogic":null,
 "seqno":10,
 "updated":"2000-01-02T00:00:00",
 "updatedby":0,
 "valuemax":null,
 "valuemin":null,
 "vformat":null}, "children" : []}]},
 {"tablename" : "ad_process", "data" : {"ad_process_id":234,
 "value":"RV_ProjectLineIssue",
 "name":"Project Margin (Work Order)",
 "accesslevel":"1",
 "ad_client_id":0,
 "ad_form_id":null,
 "ad_org_id":0,
 "ad_printformat_id":null,
 "ad_reportview_id":134,
 "ad_tableselection_id":null,
 "ad_workflow_id":null,
 "classname":null,
 "copyfromprocess":null,
 "created":"2003-10-12T23:31:11",
 "createdby":0,
 "description":"Work Order Project Lines (planned revenue) vs. Project Issues (costs)",
 "entitytype":"Project Management",
 "help":"The Project Margin Report for Work Orders compares the Project lines (planned revenue) against the Project issues (actual effort and costs). The margin amount is calculated by subtracting the costs (issue) from the revenue (line).\nThe costs are in the currency of the Accounting Schema - the lines are in the currency of the price list of the project.",
 "isactive":"Y",
 "isbetafunctionality":"N",
 "isdirectprint":"N",
 "isreport":"Y",
 "isserverprocess":"N",
 "jasperreport":null,
 "procedurename":null,
 "showhelp":"Y",
 "statistic_count":0,
 "statistic_seconds":0,
 "updated":"2000-01-02T00:00:00",
 "updatedby":0,
 "workflowvalue":null}, "children" : [{"tablename" : "ad_process_para", "data" : {"ad_process_para_id":380,
 "name":"Project",
 "ad_client_id":0,
 "ad_element_id":208,
 "ad_org_id":0,
 "ad_process_id":234,
 "ad_reference_id":30,
 "ad_reference_value_id":null,
 "ad_val_rule_id":null,
 "columnname":"C_Project_ID",
 "created":"2003-10-12T23:32:58",
 "createdby":0,
 "defaultvalue":null,
 "defaultvalue2":null,
 "description":"Financial Project",
 "displaylogic":null,
 "entitytype":"Project Management",
 "fieldlength":0,
 "help":"A Project allows you to track and control internal or external activities.",
 "isactive":"Y",
 "iscentrallymaintained":"Y",
 "ismandatory":"Y",
 "isrange":"N",
 "readonlylogic":null,
 "seqno":10,
 "updated":"2000-01-02T00:00:00",
 "updatedby":0,
 "valuemax":null,
 "valuemin":null,
 "vformat":null}, "children" : []},{"tablename" : "ad_process_para", "data" : {"ad_process_para_id":381,
 "name":"Accounting Schema",
 "ad_client_id":0,
 "ad_element_id":181,
 "ad_org_id":0,
 "ad_process_id":234,
 "ad_reference_id":19,
 "ad_reference_value_id":null,
 "ad_val_rule_id":null,
 "columnname":"C_AcctSchema_ID",
 "created":"2003-10-12T23:33:43",
 "createdby":0,
 "defaultvalue":null,
 "defaultvalue2":null,
 "description":"Rules for accounting",
 "displaylogic":null,
 "entitytype":"Project Management",
 "fieldlength":0,
 "help":"An Accounting Schema defines the rules used in accounting such as costing method, currency and calendar",
 "isactive":"Y",
 "iscentrallymaintained":"Y",
 "ismandatory":"Y",
 "isrange":"N",
 "readonlylogic":null,
 "seqno":20,
 "updated":"2000-01-02T00:00:00",
 "updatedby":0,
 "valuemax":null,
 "valuemin":null,
 "vformat":null}, "children" : []}]},
 {"tablename" : "ad_process", "data" : {"ad_process_id":53619,
 "value":"Project Report",
 "name":"Project Report",
 "accesslevel":"3",
 "ad_client_id":0,
 "ad_form_id":null,
 "ad_org_id":0,
 "ad_printformat_id":null,
 "ad_reportview_id":53124,
 "ad_tableselection_id":null,
 "ad_workflow_id":null,
 "classname":"org.compiere.process.ProjectReport",
 "copyfromprocess":"N",
 "created":"2014-04-10T20:22:28",
 "createdby":100,
 "description":null,
 "entitytype":"Project Management",
 "help":null,
 "isactive":"Y",
 "isbetafunctionality":"N",
 "isdirectprint":"N",
 "isreport":"Y",
 "isserverprocess":"N",
 "jasperreport":null,
 "procedurename":null,
 "showhelp":"Y",
 "statistic_count":0,
 "statistic_seconds":0,
 "updated":"2014-04-10T20:22:28",
 "updatedby":100,
 "workflowvalue":null}, "children" : [{"tablename" : "ad_process_para", "data" : {"ad_process_para_id":54712,
 "name":"Project",
 "ad_client_id":0,
 "ad_element_id":null,
 "ad_org_id":0,
 "ad_process_id":53619,
 "ad_reference_id":19,
 "ad_reference_value_id":53686,
 "ad_val_rule_id":null,
 "columnname":"C_Project_ID",
 "created":"2014-04-10T20:23:59",
 "createdby":100,
 "defaultvalue":null,
 "defaultvalue2":null,
 "description":"Financial Project",
 "displaylogic":null,
 "entitytype":"Project Management",
 "fieldlength":0,
 "help":"A Project allows you to track and control internal or external activities.",
 "isactive":"Y",
 "iscentrallymaintained":"Y",
 "ismandatory":"N",
 "isrange":"N",
 "readonlylogic":null,
 "seqno":10,
 "updated":"2016-04-12T09:52:23.093499",
 "updatedby":100,
 "valuemax":null,
 "valuemin":null,
 "vformat":null}, "children" : []},{"tablename" : "ad_process_para", "data" : {"ad_process_para_id":54713,
 "name":"Accounting Schema",
 "ad_client_id":0,
 "ad_element_id":181,
 "ad_org_id":0,
 "ad_process_id":53619,
 "ad_reference_id":19,
 "ad_reference_value_id":136,
 "ad_val_rule_id":null,
 "columnname":"C_AcctSchema_ID",
 "created":"2014-04-11T15:43:14",
 "createdby":100,
 "defaultvalue":null,
 "defaultvalue2":null,
 "description":"Rules for accounting",
 "displaylogic":null,
 "entitytype":"Project Management",
 "fieldlength":0,
 "help":"An Accounting Schema defines the rules used in accounting such as costing method, currency and calendar",
 "isactive":"Y",
 "iscentrallymaintained":"Y",
 "ismandatory":"Y",
 "isrange":"N",
 "readonlylogic":null,
 "seqno":20,
 "updated":"2016-04-12T09:52:23.093499",
 "updatedby":100,
 "valuemax":null,
 "valuemin":null,
 "vformat":null}, "children" : []}]}]