[{"tablename" : "ad_process", "data" : {"ad_process_id":113,
 "value":"AD_Window_Copy",
 "name":"Copy Window Tabs",
 "accesslevel":"4",
 "ad_client_id":0,
 "ad_form_id":null,
 "ad_org_id":0,
 "ad_printformat_id":null,
 "ad_reportview_id":null,
 "ad_tableselection_id":null,
 "ad_workflow_id":null,
 "classname":"org.compiere.process.WindowCopy",
 "copyfromprocess":null,
 "created":"2000-03-19T11:35:28",
 "createdby":0,
 "description":"Copy all Tabs and Fields from other Window",
 "entitytype":"Application Dictionary",
 "help":null,
 "isactive":"Y",
 "isbetafunctionality":"N",
 "isdirectprint":"N",
 "isreport":"N",
 "isserverprocess":"N",
 "jasperreport":null,
 "procedurename":null,
 "showhelp":"Y",
 "statistic_count":0,
 "statistic_seconds":0,
 "updated":"2000-01-02T00:00:00",
 "updatedby":0,
 "workflowvalue":null}, "children" : [{"tablename" : "ad_process_para", "data" : {"ad_process_para_id":141,
 "name":"Window",
 "ad_client_id":0,
 "ad_element_id":null,
 "ad_org_id":0,
 "ad_process_id":113,
 "ad_reference_id":19,
 "ad_reference_value_id":null,
 "ad_val_rule_id":null,
 "columnname":"AD_Window_ID",
 "created":"2000-05-22T21:32:45",
 "createdby":0,
 "defaultvalue":null,
 "defaultvalue2":null,
 "description":"Data entry or display window",
 "displaylogic":null,
 "entitytype":"Application Dictionary",
 "fieldlength":10,
 "help":"The Window field identifies a unique Window in the system.",
 "isactive":"Y",
 "iscentrallymaintained":"Y",
 "ismandatory":"Y",
 "isrange":"N",
 "readonlylogic":null,
 "seqno":0,
 "updated":"2000-01-02T00:00:00",
 "updatedby":0,
 "valuemax":null,
 "valuemin":null,
 "vformat":null}, "children" : []}]},
 {"tablename" : "ad_process", "data" : {"ad_process_id":114,
 "value":"AD_Tab_Copy",
 "name":"Copy Tab Fields",
 "accesslevel":"4",
 "ad_client_id":0,
 "ad_form_id":null,
 "ad_org_id":0,
 "ad_printformat_id":null,
 "ad_reportview_id":null,
 "ad_tableselection_id":null,
 "ad_workflow_id":null,
 "classname":"org.compiere.process.TabCopy",
 "copyfromprocess":null,
 "created":"2000-03-19T11:36:06",
 "createdby":0,
 "description":"Copy Fields from other Tab",
 "entitytype":"Application Dictionary",
 "help":null,
 "isactive":"Y",
 "isbetafunctionality":"N",
 "isdirectprint":"N",
 "isreport":"N",
 "isserverprocess":"N",
 "jasperreport":null,
 "procedurename":null,
 "showhelp":"Y",
 "statistic_count":0,
 "statistic_seconds":0,
 "updated":"2006-05-31T10:45:06",
 "updatedby":100,
 "workflowvalue":null}, "children" : [{"tablename" : "ad_process_para", "data" : {"ad_process_para_id":140,
 "name":"Tab",
 "ad_client_id":0,
 "ad_element_id":null,
 "ad_org_id":0,
 "ad_process_id":114,
 "ad_reference_id":19,
 "ad_reference_value_id":null,
 "ad_val_rule_id":211,
 "columnname":"AD_Tab_ID",
 "created":"2000-05-22T21:29:41",
 "createdby":0,
 "defaultvalue":null,
 "defaultvalue2":null,
 "description":"Tab within a Window",
 "displaylogic":null,
 "entitytype":"Application Dictionary",
 "fieldlength":1,
 "help":"The Tab indicates a tab that displays within a window.",
 "isactive":"Y",
 "iscentrallymaintained":"Y",
 "ismandatory":"Y",
 "isrange":"N",
 "readonlylogic":null,
 "seqno":10,
 "updated":"2000-01-02T00:00:00",
 "updatedby":0,
 "valuemax":null,
 "valuemin":null,
 "vformat":null}, "children" : []}]},
 {"tablename" : "ad_process", "data" : {"ad_process_id":173,
 "value":"AD_Table_CreateColumns",
 "name":"Create Columns from DB",
 "accesslevel":"4",
 "ad_client_id":0,
 "ad_form_id":null,
 "ad_org_id":0,
 "ad_printformat_id":null,
 "ad_reportview_id":null,
 "ad_tableselection_id":null,
 "ad_workflow_id":null,
 "classname":"org.compiere.process.TableCreateColumns",
 "copyfromprocess":null,
 "created":"2001-11-18T18:33:52",
 "createdby":0,
 "description":"Create Dictionary Columns of Table not existing as a Column but in the Database",
 "entitytype":"Application Dictionary",
 "help":"If you have added columns in the database to this table, this procedure creates the Column records in the Dictionary.  Please be aware, that they may deleted, if the entity type is not set to User.",
 "isactive":"Y",
 "isbetafunctionality":"N",
 "isdirectprint":"N",
 "isreport":"N",
 "isserverprocess":"N",
 "jasperreport":null,
 "procedurename":null,
 "showhelp":"Y",
 "statistic_count":0,
 "statistic_seconds":0,
 "updated":"2006-10-06T18:12:28",
 "updatedby":0,
 "workflowvalue":null}, "children" : [{"tablename" : "ad_process_para", "data" : {"ad_process_para_id":630,
 "name":"Entity Type",
 "ad_client_id":0,
 "ad_element_id":1682,
 "ad_org_id":0,
 "ad_process_id":173,
 "ad_reference_id":18,
 "ad_reference_value_id":389,
 "ad_val_rule_id":null,
 "columnname":"EntityType",
 "created":"2005-04-19T02:13:11",
 "createdby":100,
 "defaultvalue":"U",
 "defaultvalue2":null,
 "description":"Dictionary Entity Type; Determines ownership and synchronization",
 "displaylogic":null,
 "entitytype":"Application Dictionary",
 "fieldlength":0,
 "help":"The Entity Types \"Dictionary\", \"Adempiere\" and \"Application\" might be automatically synchronized and customizations deleted or overwritten.  \n\nFor customizations, copy the entity and select \"User\"!",
 "isactive":"Y",
 "iscentrallymaintained":"Y",
 "ismandatory":"Y",
 "isrange":"N",
 "readonlylogic":null,
 "seqno":10,
 "updated":"2006-06-11T16:16:07",
 "updatedby":100,
 "valuemax":null,
 "valuemin":null,
 "vformat":null}, "children" : []},{"tablename" : "ad_process_para", "data" : {"ad_process_para_id":631,
 "name":"Check all DB Tables",
 "ad_client_id":0,
 "ad_element_id":null,
 "ad_org_id":0,
 "ad_process_id":173,
 "ad_reference_id":20,
 "ad_reference_value_id":null,
 "ad_val_rule_id":null,
 "columnname":"AllTables",
 "created":"2005-04-21T21:31:41",
 "createdby":100,
 "defaultvalue":"N",
 "defaultvalue2":null,
 "description":"Check not just this table",
 "displaylogic":null,
 "entitytype":"Application Dictionary",
 "fieldlength":0,
 "help":null,
 "isactive":"Y",
 "iscentrallymaintained":"Y",
 "ismandatory":"Y",
 "isrange":"N",
 "readonlylogic":null,
 "seqno":20,
 "updated":"2005-04-21T21:31:41",
 "updatedby":100,
 "valuemax":null,
 "valuemin":null,
 "vformat":null}, "children" : []}]},
 {"tablename" : "ad_process", "data" : {"ad_process_id":174,
 "value":"AD_Tab_CreateFields",
 "name":"Create Fields",
 "accesslevel":"4",
 "ad_client_id":0,
 "ad_form_id":null,
 "ad_org_id":0,
 "ad_printformat_id":null,
 "ad_reportview_id":null,
 "ad_tableselection_id":null,
 "ad_workflow_id":null,
 "classname":"org.compiere.process.TabCreateFields",
 "copyfromprocess":null,
 "created":"2001-11-18T18:35:48",
 "createdby":0,
 "description":"Create Field from Table Column, which do not exist in the Tab yet",
 "entitytype":"Application Dictionary",
 "help":"Based on the table columns of this Tab, this procedure creates the missing Fields",
 "isactive":"Y",
 "isbetafunctionality":"N",
 "isdirectprint":"N",
 "isreport":"N",
 "isserverprocess":"N",
 "jasperreport":null,
 "procedurename":null,
 "showhelp":"Y",
 "statistic_count":0,
 "statistic_seconds":0,
 "updated":"2006-07-23T17:22:13",
 "updatedby":0,
 "workflowvalue":null}, "children" : []},
 {"tablename" : "ad_process", "data" : {"ad_process_id":181,
 "value":"AD_Column Sync",
 "name":"Synchronize Column",
 "accesslevel":"4",
 "ad_client_id":0,
 "ad_form_id":null,
 "ad_org_id":0,
 "ad_printformat_id":null,
 "ad_reportview_id":null,
 "ad_tableselection_id":null,
 "ad_workflow_id":null,
 "classname":"org.compiere.process.ColumnSync",
 "copyfromprocess":null,
 "created":"2002-01-25T20:01:33",
 "createdby":0,
 "description":"Change database table definition from application dictionary",
 "entitytype":"Application Dictionary",
 "help":"When selected, the database column definition is updated based on your entries in the Column definition of the Application Dictionary. Note that not all changes are supported by the database and may result in an error.",
 "isactive":"Y",
 "isbetafunctionality":"N",
 "isdirectprint":"N",
 "isreport":"N",
 "isserverprocess":"N",
 "jasperreport":null,
 "procedurename":null,
 "showhelp":"Y",
 "statistic_count":6,
 "statistic_seconds":6,
 "updated":"2020-10-19T23:02:50",
 "updatedby":100,
 "workflowvalue":null}, "children" : []},
 {"tablename" : "ad_process", "data" : {"ad_process_id":308,
 "value":"AD_ChangeLog_Custom",
 "name":"Reapply Customisations",
 "accesslevel":"4",
 "ad_client_id":0,
 "ad_form_id":null,
 "ad_org_id":0,
 "ad_printformat_id":null,
 "ad_reportview_id":null,
 "ad_tableselection_id":null,
 "ad_workflow_id":null,
 "classname":"org.compiere.process.ChangeLogProcess",
 "copyfromprocess":null,
 "created":"2004-09-24T21:33:35",
 "createdby":0,
 "description":"If you identified customisations in the Change Log, you can reapply them",
 "entitytype":"Application Dictionary",
 "help":"The migration \"resets\" the system to the current/original setting.  If selected in the Change Log, you can save the customisation and re-apply them.  Please note that you need to check, if your customisation has no negative side effect in the new release. <br>\nShut down the Application Server before running this process and set the Trace level (in Preference) higher or equals  WARNING.",
 "isactive":"Y",
 "isbetafunctionality":"N",
 "isdirectprint":"N",
 "isreport":"N",
 "isserverprocess":"N",
 "jasperreport":null,
 "procedurename":null,
 "showhelp":"Y",
 "statistic_count":0,
 "statistic_seconds":0,
 "updated":"2016-04-11T16:07:05",
 "updatedby":0,
 "workflowvalue":null}, "children" : [{"tablename" : "ad_process_para", "data" : {"ad_process_para_id":551,
 "name":"Validate current (old) Value",
 "ad_client_id":0,
 "ad_element_id":null,
 "ad_org_id":0,
 "ad_process_id":308,
 "ad_reference_id":20,
 "ad_reference_value_id":null,
 "ad_val_rule_id":null,
 "columnname":"CheckOldValue",
 "created":"2004-09-24T21:55:22",
 "createdby":0,
 "defaultvalue":"Y",
 "defaultvalue2":null,
 "description":"Ensure that the old value of the change is the current value in the system (i.e. original situation)",
 "displaylogic":null,
 "entitytype":"Application Dictionary",
 "fieldlength":0,
 "help":null,
 "isactive":"Y",
 "iscentrallymaintained":"Y",
 "ismandatory":"Y",
 "isrange":"N",
 "readonlylogic":null,
 "seqno":20,
 "updated":"2000-01-02T00:00:00",
 "updatedby":0,
 "valuemax":null,
 "valuemin":null,
 "vformat":null}, "children" : []},{"tablename" : "ad_process_para", "data" : {"ad_process_para_id":552,
 "name":"Only Set Customisation",
 "ad_client_id":0,
 "ad_element_id":2648,
 "ad_org_id":0,
 "ad_process_id":308,
 "ad_reference_id":20,
 "ad_reference_value_id":null,
 "ad_val_rule_id":null,
 "columnname":"SetCustomization",
 "created":"2004-09-25T22:53:18",
 "createdby":0,
 "defaultvalue":"N",
 "defaultvalue2":null,
 "description":"Set Customisation for change records records with Dictionary Entity Type",
 "displaylogic":null,
 "entitytype":"Application Dictionary",
 "fieldlength":0,
 "help":null,
 "isactive":"Y",
 "iscentrallymaintained":"Y",
 "ismandatory":"N",
 "isrange":"N",
 "readonlylogic":null,
 "seqno":10,
 "updated":"2000-01-02T00:00:00",
 "updatedby":0,
 "valuemax":null,
 "valuemin":null,
 "vformat":null}, "children" : []}]},
 {"tablename" : "ad_process", "data" : {"ad_process_id":328,
 "value":"AD_ColumnEncryption",
 "name":"Column Encryption",
 "accesslevel":"4",
 "ad_client_id":0,
 "ad_form_id":null,
 "ad_org_id":0,
 "ad_printformat_id":null,
 "ad_reportview_id":null,
 "ad_tableselection_id":null,
 "ad_workflow_id":null,
 "classname":"org.compiere.process.ColumnEncryption",
 "copyfromprocess":null,
 "created":"2005-07-20T08:02:57",
 "createdby":100,
 "description":"Test and enable Column Encryption",
 "entitytype":"Application Dictionary",
 "help":"To enable storage encryption or remove encryption is dangerous as you may loose data. You need to verify that the column is big enough to hold the encrypted value.  You can provide your own encryption method, but cannot change it once enabled.  <br>\nThe default implementation supports US ASCII String conversion (not Unicode, Numbers, Dates)<br>\nNote that support is restricted to setup and test, but not data recovery.",
 "isactive":"Y",
 "isbetafunctionality":"N",
 "isdirectprint":"N",
 "isreport":"N",
 "isserverprocess":"N",
 "jasperreport":null,
 "procedurename":null,
 "showhelp":"Y",
 "statistic_count":0,
 "statistic_seconds":0,
 "updated":"2005-07-20T09:28:48",
 "updatedby":100,
 "workflowvalue":null}, "children" : [{"tablename" : "ad_process_para", "data" : {"ad_process_para_id":645,
 "name":"Encrypted",
 "ad_client_id":0,
 "ad_element_id":374,
 "ad_org_id":0,
 "ad_process_id":328,
 "ad_reference_id":20,
 "ad_reference_value_id":null,
 "ad_val_rule_id":null,
 "columnname":"IsEncrypted",
 "created":"2005-07-20T08:04:50",
 "createdby":100,
 "defaultvalue":"N",
 "defaultvalue2":null,
 "description":"Display or Storage is encrypted",
 "displaylogic":null,
 "entitytype":"Application Dictionary",
 "fieldlength":0,
 "help":"Display encryption (in Window/Tab/Field) - all characters are displayed as '*' - in the database it is stored in clear text. You will not be able to report on these columns.<br>\nData storage encryption (in Table/Column) - data is stored encrypted in the database (dangerous!) and you will not be able to report on those columns. Independent from Display encryption.",
 "isactive":"Y",
 "iscentrallymaintained":"Y",
 "ismandatory":"N",
 "isrange":"N",
 "readonlylogic":null,
 "seqno":10,
 "updated":"2005-07-20T09:27:27",
 "updatedby":100,
 "valuemax":null,
 "valuemin":null,
 "vformat":null}, "children" : []},{"tablename" : "ad_process_para", "data" : {"ad_process_para_id":646,
 "name":"Change the current Setting",
 "ad_client_id":0,
 "ad_element_id":2811,
 "ad_org_id":0,
 "ad_process_id":328,
 "ad_reference_id":20,
 "ad_reference_value_id":null,
 "ad_val_rule_id":null,
 "columnname":"ChangeSetting",
 "created":"2005-07-20T08:06:50",
 "createdby":100,
 "defaultvalue":"N",
 "defaultvalue2":null,
 "description":"Confirm that you want to change the current setting",
 "displaylogic":null,
 "entitytype":"Application Dictionary",
 "fieldlength":0,
 "help":null,
 "isactive":"Y",
 "iscentrallymaintained":"Y",
 "ismandatory":"N",
 "isrange":"N",
 "readonlylogic":null,
 "seqno":20,
 "updated":"2005-07-20T09:27:27",
 "updatedby":100,
 "valuemax":null,
 "valuemin":null,
 "vformat":null}, "children" : []},{"tablename" : "ad_process_para", "data" : {"ad_process_para_id":647,
 "name":"Maximum Length",
 "ad_client_id":0,
 "ad_element_id":2812,
 "ad_org_id":0,
 "ad_process_id":328,
 "ad_reference_id":11,
 "ad_reference_value_id":null,
 "ad_val_rule_id":null,
 "columnname":"MaxLength",
 "created":"2005-07-20T08:10:13",
 "createdby":100,
 "defaultvalue":null,
 "defaultvalue2":null,
 "description":"Maximum Length of Data",
 "displaylogic":null,
 "entitytype":"Application Dictionary",
 "fieldlength":0,
 "help":null,
 "isactive":"Y",
 "iscentrallymaintained":"Y",
 "ismandatory":"N",
 "isrange":"N",
 "readonlylogic":null,
 "seqno":30,
 "updated":"2005-07-20T09:27:27",
 "updatedby":100,
 "valuemax":null,
 "valuemin":null,
 "vformat":null}, "children" : []},{"tablename" : "ad_process_para", "data" : {"ad_process_para_id":648,
 "name":"Test Value",
 "ad_client_id":0,
 "ad_element_id":2813,
 "ad_org_id":0,
 "ad_process_id":328,
 "ad_reference_id":10,
 "ad_reference_value_id":null,
 "ad_val_rule_id":null,
 "columnname":"TestValue",
 "created":"2005-07-20T08:25:55",
 "createdby":100,
 "defaultvalue":null,
 "defaultvalue2":null,
 "description":"Value to test",
 "displaylogic":null,
 "entitytype":"Application Dictionary",
 "fieldlength":60,
 "help":null,
 "isactive":"Y",
 "iscentrallymaintained":"Y",
 "ismandatory":"N",
 "isrange":"N",
 "readonlylogic":null,
 "seqno":40,
 "updated":"2005-07-20T09:27:27",
 "updatedby":100,
 "valuemax":null,
 "valuemin":null,
 "vformat":null}, "children" : []}]},
 {"tablename" : "ad_process", "data" : {"ad_process_id":348,
 "value":"AD_EntityType_Register",
 "name":"Register Extension",
 "accesslevel":"4",
 "ad_client_id":0,
 "ad_form_id":null,
 "ad_org_id":0,
 "ad_printformat_id":null,
 "ad_reportview_id":null,
 "ad_tableselection_id":null,
 "ad_workflow_id":null,
 "classname":"org.compiere.process.EntityTypeRegister",
 "copyfromprocess":null,
 "created":"2006-06-11T11:34:00",
 "createdby":100,
 "description":"Register your extension with Adempiere",
 "entitytype":"Application Dictionary",
 "help":"You can register the four character extension with Adempiere. This makes sure that your extension can be automatically distributed and implemented.  You will also be able to certify extensions.  Contact Adempiere for details.",
 "isactive":"Y",
 "isbetafunctionality":"N",
 "isdirectprint":"N",
 "isreport":"N",
 "isserverprocess":"N",
 "jasperreport":null,
 "procedurename":null,
 "showhelp":"Y",
 "statistic_count":0,
 "statistic_seconds":0,
 "updated":"2006-06-11T11:40:58",
 "updatedby":100,
 "workflowvalue":null}, "children" : []},
 {"tablename" : "ad_process", "data" : {"ad_process_id":349,
 "value":"AD_InfoWindow_Validate",
 "name":"Validate",
 "accesslevel":"4",
 "ad_client_id":0,
 "ad_form_id":null,
 "ad_org_id":0,
 "ad_printformat_id":null,
 "ad_reportview_id":null,
 "ad_tableselection_id":null,
 "ad_workflow_id":null,
 "classname":"org.compiere.process.InfoWindowValidate",
 "copyfromprocess":null,
 "created":"2006-06-17T17:57:32",
 "createdby":100,
 "description":"Validate Info Window SQL",
 "entitytype":"Application Dictionary",
 "help":"Validate generated Info Window SQL",
 "isactive":"Y",
 "isbetafunctionality":"N",
 "isdirectprint":"N",
 "isreport":"N",
 "isserverprocess":"N",
 "jasperreport":null,
 "procedurename":null,
 "showhelp":"Y",
 "statistic_count":0,
 "statistic_seconds":0,
 "updated":"2006-06-17T17:57:32",
 "updatedby":100,
 "workflowvalue":null}, "children" : []},
 {"tablename" : "ad_process", "data" : {"ad_process_id":50011,
 "value":"AD_Table_CopyColumnsFromTable",
 "name":"Copy Columns from Table",
 "accesslevel":"4",
 "ad_client_id":0,
 "ad_form_id":null,
 "ad_org_id":0,
 "ad_printformat_id":null,
 "ad_reportview_id":null,
 "ad_tableselection_id":null,
 "ad_workflow_id":null,
 "classname":"org.compiere.process.CopyColumnsFromTable",
 "copyfromprocess":null,
 "created":"2007-02-13T23:35:07",
 "createdby":100,
 "description":"Create Dictionary Columns for a Table taking another as base",
 "entitytype":"Application Dictionary",
 "help":null,
 "isactive":"Y",
 "isbetafunctionality":"N",
 "isdirectprint":"N",
 "isreport":"N",
 "isserverprocess":"N",
 "jasperreport":null,
 "procedurename":null,
 "showhelp":"Y",
 "statistic_count":2,
 "statistic_seconds":6,
 "updated":"2007-02-13T23:35:48",
 "updatedby":100,
 "workflowvalue":null}, "children" : [{"tablename" : "ad_process_para", "data" : {"ad_process_para_id":50005,
 "name":"Table",
 "ad_client_id":0,
 "ad_element_id":126,
 "ad_org_id":0,
 "ad_process_id":50011,
 "ad_reference_id":19,
 "ad_reference_value_id":null,
 "ad_val_rule_id":null,
 "columnname":"AD_Table_ID",
 "created":"2007-02-13T23:39:09",
 "createdby":100,
 "defaultvalue":null,
 "defaultvalue2":null,
 "description":"Database Table information",
 "displaylogic":null,
 "entitytype":"Application Dictionary",
 "fieldlength":0,
 "help":"The Database Table provides the information of the table definition",
 "isactive":"Y",
 "iscentrallymaintained":"Y",
 "ismandatory":"Y",
 "isrange":"N",
 "readonlylogic":null,
 "seqno":10,
 "updated":"2007-02-13T23:43:06",
 "updatedby":100,
 "valuemax":null,
 "valuemin":null,
 "vformat":null}, "children" : []}]},
 {"tablename" : "ad_process", "data" : {"ad_process_id":53179,
 "value":"CopyFromProcess",
 "name":"Copy From Report and Process",
 "accesslevel":"4",
 "ad_client_id":0,
 "ad_form_id":null,
 "ad_org_id":0,
 "ad_printformat_id":null,
 "ad_reportview_id":null,
 "ad_tableselection_id":null,
 "ad_workflow_id":null,
 "classname":"org.compiere.process.CopyReportProcess",
 "copyfromprocess":null,
 "created":"2009-07-09T11:24:07",
 "createdby":100,
 "description":"Copy settings from one report and process to another.",
 "entitytype":"Application Dictionary",
 "help":"Copy the settings from the selected report and process to the current one.  This overwrites existing settings and translations.",
 "isactive":"Y",
 "isbetafunctionality":"N",
 "isdirectprint":"N",
 "isreport":"N",
 "isserverprocess":"N",
 "jasperreport":null,
 "procedurename":null,
 "showhelp":"Y",
 "statistic_count":0,
 "statistic_seconds":0,
 "updated":"2009-07-09T11:24:07",
 "updatedby":100,
 "workflowvalue":null}, "children" : [{"tablename" : "ad_process_para", "data" : {"ad_process_para_id":53321,
 "name":"Process",
 "ad_client_id":0,
 "ad_element_id":117,
 "ad_org_id":0,
 "ad_process_id":53179,
 "ad_reference_id":19,
 "ad_reference_value_id":null,
 "ad_val_rule_id":null,
 "columnname":"AD_Process_ID",
 "created":"2009-07-09T11:25:04",
 "createdby":100,
 "defaultvalue":"-1",
 "defaultvalue2":null,
 "description":"Process or Report",
 "displaylogic":null,
 "entitytype":"Application Dictionary",
 "fieldlength":22,
 "help":"The Process field identifies a unique Process or Report in the system.",
 "isactive":"Y",
 "iscentrallymaintained":"Y",
 "ismandatory":"Y",
 "isrange":"N",
 "readonlylogic":null,
 "seqno":10,
 "updated":"2009-09-15T18:19:54.210614",
 "updatedby":100,
 "valuemax":null,
 "valuemin":null,
 "vformat":null}, "children" : []}]},
 {"tablename" : "ad_process", "data" : {"ad_process_id":53304,
 "value":"AD_TableSelection_Create",
 "name":"Selection Table Create Columns",
 "accesslevel":"6",
 "ad_client_id":0,
 "ad_form_id":null,
 "ad_org_id":0,
 "ad_printformat_id":null,
 "ad_reportview_id":null,
 "ad_tableselection_id":null,
 "ad_workflow_id":null,
 "classname":"org.compiere.process.CreateSelectionColumn",
 "copyfromprocess":null,
 "created":"2012-07-02T18:19:28",
 "createdby":100,
 "description":null,
 "entitytype":"Application Dictionary",
 "help":null,
 "isactive":"Y",
 "isbetafunctionality":"N",
 "isdirectprint":"N",
 "isreport":"N",
 "isserverprocess":"N",
 "jasperreport":null,
 "procedurename":null,
 "showhelp":"Y",
 "statistic_count":0,
 "statistic_seconds":0,
 "updated":"2012-07-02T18:19:28",
 "updatedby":100,
 "workflowvalue":null}, "children" : []}]