[{"tablename" : "ad_process", "data" : {"ad_process_id":50012,
 "value":"Request EMail Processor",
 "name":"Request EMail Processor",
 "accesslevel":"3",
 "ad_client_id":0,
 "ad_form_id":null,
 "ad_org_id":0,
 "ad_printformat_id":null,
 "ad_reportview_id":null,
 "ad_tableselection_id":null,
 "ad_workflow_id":null,
 "classname":"org.compiere.process.RequestEMailProcessor",
 "copyfromprocess":null,
 "created":"2007-02-28T02:57:59",
 "createdby":100,
 "description":null,
 "entitytype":"Server",
 "help":null,
 "isactive":"Y",
 "isbetafunctionality":"N",
 "isdirectprint":"N",
 "isreport":"N",
 "isserverprocess":"N",
 "jasperreport":null,
 "procedurename":null,
 "showhelp":"Y",
 "statistic_count":0,
 "statistic_seconds":0,
 "updated":"2007-02-28T02:57:59",
 "updatedby":100,
 "workflowvalue":null}, "children" : [{"tablename" : "ad_process_para", "data" : {"ad_process_para_id":50006,
 "name":"IMAP Host",
 "ad_client_id":0,
 "ad_element_id":null,
 "ad_org_id":0,
 "ad_process_id":50012,
 "ad_reference_id":10,
 "ad_reference_value_id":null,
 "ad_val_rule_id":null,
 "columnname":"p_IMAPHost",
 "created":"2007-02-28T02:59:01",
 "createdby":100,
 "defaultvalue":null,
 "defaultvalue2":null,
 "description":null,
 "displaylogic":null,
 "entitytype":"Server",
 "fieldlength":60,
 "help":null,
 "isactive":"Y",
 "iscentrallymaintained":"Y",
 "ismandatory":"Y",
 "isrange":"N",
 "readonlylogic":null,
 "seqno":10,
 "updated":"2007-02-28T03:11:16",
 "updatedby":100,
 "valuemax":null,
 "valuemin":null,
 "vformat":null}, "children" : []},{"tablename" : "ad_process_para", "data" : {"ad_process_para_id":50007,
 "name":"IMAP User",
 "ad_client_id":0,
 "ad_element_id":null,
 "ad_org_id":0,
 "ad_process_id":50012,
 "ad_reference_id":10,
 "ad_reference_value_id":null,
 "ad_val_rule_id":null,
 "columnname":"p_IMAPUser",
 "created":"2007-02-28T02:59:22",
 "createdby":100,
 "defaultvalue":null,
 "defaultvalue2":null,
 "description":null,
 "displaylogic":null,
 "entitytype":"Server",
 "fieldlength":60,
 "help":null,
 "isactive":"Y",
 "iscentrallymaintained":"Y",
 "ismandatory":"Y",
 "isrange":"N",
 "readonlylogic":null,
 "seqno":20,
 "updated":"2007-02-28T03:11:32",
 "updatedby":100,
 "valuemax":null,
 "valuemin":null,
 "vformat":null}, "children" : []},{"tablename" : "ad_process_para", "data" : {"ad_process_para_id":50008,
 "name":"IMAP Password",
 "ad_client_id":0,
 "ad_element_id":null,
 "ad_org_id":0,
 "ad_process_id":50012,
 "ad_reference_id":10,
 "ad_reference_value_id":null,
 "ad_val_rule_id":null,
 "columnname":"p_IMAPPwd",
 "created":"2007-02-28T02:59:34",
 "createdby":100,
 "defaultvalue":null,
 "defaultvalue2":null,
 "description":null,
 "displaylogic":null,
 "entitytype":"Server",
 "fieldlength":60,
 "help":null,
 "isactive":"Y",
 "iscentrallymaintained":"Y",
 "ismandatory":"Y",
 "isrange":"N",
 "readonlylogic":null,
 "seqno":30,
 "updated":"2007-02-28T03:11:41",
 "updatedby":100,
 "valuemax":null,
 "valuemin":null,
 "vformat":null}, "children" : []},{"tablename" : "ad_process_para", "data" : {"ad_process_para_id":50009,
 "name":"Request Folder",
 "ad_client_id":0,
 "ad_element_id":null,
 "ad_org_id":0,
 "ad_process_id":50012,
 "ad_reference_id":10,
 "ad_reference_value_id":null,
 "ad_val_rule_id":null,
 "columnname":"p_RequestFolder",
 "created":"2007-02-28T03:00:31",
 "createdby":100,
 "defaultvalue":null,
 "defaultvalue2":null,
 "description":null,
 "displaylogic":null,
 "entitytype":"Server",
 "fieldlength":60,
 "help":null,
 "isactive":"Y",
 "iscentrallymaintained":"Y",
 "ismandatory":"Y",
 "isrange":"N",
 "readonlylogic":null,
 "seqno":40,
 "updated":"2007-02-28T03:11:48",
 "updatedby":100,
 "valuemax":null,
 "valuemin":null,
 "vformat":null}, "children" : []},{"tablename" : "ad_process_para", "data" : {"ad_process_para_id":50010,
 "name":"Inbox Folder",
 "ad_client_id":0,
 "ad_element_id":null,
 "ad_org_id":0,
 "ad_process_id":50012,
 "ad_reference_id":10,
 "ad_reference_value_id":null,
 "ad_val_rule_id":null,
 "columnname":"p_InboxFolder",
 "created":"2007-02-28T03:01:02",
 "createdby":100,
 "defaultvalue":null,
 "defaultvalue2":null,
 "description":null,
 "displaylogic":null,
 "entitytype":"Server",
 "fieldlength":60,
 "help":null,
 "isactive":"Y",
 "iscentrallymaintained":"Y",
 "ismandatory":"Y",
 "isrange":"N",
 "readonlylogic":null,
 "seqno":50,
 "updated":"2007-02-28T03:11:56",
 "updatedby":100,
 "valuemax":null,
 "valuemin":null,
 "vformat":null}, "children" : []},{"tablename" : "ad_process_para", "data" : {"ad_process_para_id":50011,
 "name":"Error Folder",
 "ad_client_id":0,
 "ad_element_id":null,
 "ad_org_id":0,
 "ad_process_id":50012,
 "ad_reference_id":10,
 "ad_reference_value_id":null,
 "ad_val_rule_id":null,
 "columnname":"p_ErrorFolder",
 "created":"2007-02-28T03:01:20",
 "createdby":100,
 "defaultvalue":null,
 "defaultvalue2":null,
 "description":null,
 "displaylogic":null,
 "entitytype":"Server",
 "fieldlength":60,
 "help":null,
 "isactive":"Y",
 "iscentrallymaintained":"Y",
 "ismandatory":"Y",
 "isrange":"N",
 "readonlylogic":null,
 "seqno":60,
 "updated":"2007-02-28T03:12:02",
 "updatedby":100,
 "valuemax":null,
 "valuemin":null,
 "vformat":null}, "children" : []},{"tablename" : "ad_process_para", "data" : {"ad_process_para_id":50012,
 "name":"Business Partner ",
 "ad_client_id":0,
 "ad_element_id":null,
 "ad_org_id":0,
 "ad_process_id":50012,
 "ad_reference_id":30,
 "ad_reference_value_id":null,
 "ad_val_rule_id":null,
 "columnname":"C_BPartner_ID",
 "created":"2007-02-28T03:02:11",
 "createdby":100,
 "defaultvalue":null,
 "defaultvalue2":null,
 "description":"Identifies a Business Partner",
 "displaylogic":null,
 "entitytype":"Server",
 "fieldlength":10,
 "help":"A Business Partner is anyone with whom you transact.  This can include Vendor, Customer, Employee or Salesperson",
 "isactive":"Y",
 "iscentrallymaintained":"Y",
 "ismandatory":"N",
 "isrange":"N",
 "readonlylogic":null,
 "seqno":70,
 "updated":"2007-02-28T17:07:54",
 "updatedby":100,
 "valuemax":null,
 "valuemin":null,
 "vformat":null}, "children" : []},{"tablename" : "ad_process_para", "data" : {"ad_process_para_id":50013,
 "name":"User/Contact",
 "ad_client_id":0,
 "ad_element_id":null,
 "ad_org_id":0,
 "ad_process_id":50012,
 "ad_reference_id":19,
 "ad_reference_value_id":null,
 "ad_val_rule_id":123,
 "columnname":"AD_User_ID",
 "created":"2007-02-28T03:02:49",
 "createdby":100,
 "defaultvalue":"-1",
 "defaultvalue2":null,
 "description":"User within the system - Internal or Business Partner Contact",
 "displaylogic":null,
 "entitytype":"Server",
 "fieldlength":10,
 "help":"The User identifies a unique user in the system. This could be an internal user or a business partner contact",
 "isactive":"Y",
 "iscentrallymaintained":"Y",
 "ismandatory":"N",
 "isrange":"N",
 "readonlylogic":null,
 "seqno":80,
 "updated":"2007-02-28T03:12:20",
 "updatedby":100,
 "valuemax":null,
 "valuemin":null,
 "vformat":null}, "children" : []},{"tablename" : "ad_process_para", "data" : {"ad_process_para_id":50014,
 "name":"Role",
 "ad_client_id":0,
 "ad_element_id":null,
 "ad_org_id":0,
 "ad_process_id":50012,
 "ad_reference_id":19,
 "ad_reference_value_id":null,
 "ad_val_rule_id":null,
 "columnname":"AD_Role_ID",
 "created":"2007-02-28T03:03:31",
 "createdby":100,
 "defaultvalue":"-1",
 "defaultvalue2":null,
 "description":"Responsibility Role",
 "displaylogic":null,
 "entitytype":"Server",
 "fieldlength":10,
 "help":"The Role determines security and access a user who has this Role will have in the System.",
 "isactive":"Y",
 "iscentrallymaintained":"Y",
 "ismandatory":"N",
 "isrange":"N",
 "readonlylogic":null,
 "seqno":90,
 "updated":"2007-02-28T03:12:28",
 "updatedby":100,
 "valuemax":null,
 "valuemin":null,
 "vformat":null}, "children" : []},{"tablename" : "ad_process_para", "data" : {"ad_process_para_id":50015,
 "name":"Sales Representative",
 "ad_client_id":0,
 "ad_element_id":null,
 "ad_org_id":0,
 "ad_process_id":50012,
 "ad_reference_id":18,
 "ad_reference_value_id":286,
 "ad_val_rule_id":null,
 "columnname":"SalesRep_ID",
 "created":"2007-02-28T03:03:54",
 "createdby":100,
 "defaultvalue":"@AD_User_ID@",
 "defaultvalue2":null,
 "description":"Sales Representative or Company Agent",
 "displaylogic":null,
 "entitytype":"Server",
 "fieldlength":10,
 "help":"The Sales Representative indicates the Sales Rep for this Region.  Any Sales Rep must be a valid internal user.",
 "isactive":"Y",
 "iscentrallymaintained":"Y",
 "ismandatory":"N",
 "isrange":"N",
 "readonlylogic":null,
 "seqno":100,
 "updated":"2007-02-28T03:12:35",
 "updatedby":100,
 "valuemax":null,
 "valuemin":null,
 "vformat":null}, "children" : []},{"tablename" : "ad_process_para", "data" : {"ad_process_para_id":50016,
 "name":"Request Type",
 "ad_client_id":0,
 "ad_element_id":null,
 "ad_org_id":0,
 "ad_process_id":50012,
 "ad_reference_id":19,
 "ad_reference_value_id":null,
 "ad_val_rule_id":null,
 "columnname":"R_RequestType_ID",
 "created":"2007-02-28T03:06:47",
 "createdby":100,
 "defaultvalue":null,
 "defaultvalue2":null,
 "description":"Type of request (e.g. Inquiry, Complaint, ..)",
 "displaylogic":null,
 "entitytype":"Server",
 "fieldlength":10,
 "help":"Request Types are used for processing and categorizing requests. Options are Account Inquiry, Warranty Issue, etc.",
 "isactive":"Y",
 "iscentrallymaintained":"Y",
 "ismandatory":"N",
 "isrange":"N",
 "readonlylogic":null,
 "seqno":110,
 "updated":"2007-02-28T03:12:44",
 "updatedby":100,
 "valuemax":null,
 "valuemin":null,
 "vformat":null}, "children" : []},{"tablename" : "ad_process_para", "data" : {"ad_process_para_id":50017,
 "name":"User Importance",
 "ad_client_id":0,
 "ad_element_id":null,
 "ad_org_id":0,
 "ad_process_id":50012,
 "ad_reference_id":17,
 "ad_reference_value_id":154,
 "ad_val_rule_id":null,
 "columnname":"p_DefaultPriority",
 "created":"2007-02-28T03:09:52",
 "createdby":100,
 "defaultvalue":null,
 "defaultvalue2":null,
 "description":"Priority of the issue for the User",
 "displaylogic":null,
 "entitytype":"Server",
 "fieldlength":1,
 "help":null,
 "isactive":"Y",
 "iscentrallymaintained":"Y",
 "ismandatory":"N",
 "isrange":"N",
 "readonlylogic":null,
 "seqno":120,
 "updated":"2007-02-28T03:12:58",
 "updatedby":100,
 "valuemax":null,
 "valuemin":null,
 "vformat":null}, "children" : []},{"tablename" : "ad_process_para", "data" : {"ad_process_para_id":50018,
 "name":"Confidentiality",
 "ad_client_id":0,
 "ad_element_id":null,
 "ad_org_id":0,
 "ad_process_id":50012,
 "ad_reference_id":17,
 "ad_reference_value_id":340,
 "ad_val_rule_id":null,
 "columnname":"p_DefaultConfidentiality",
 "created":"2007-02-28T03:10:19",
 "createdby":100,
 "defaultvalue":null,
 "defaultvalue2":null,
 "description":"Type of Confidentiality",
 "displaylogic":null,
 "entitytype":"Server",
 "fieldlength":1,
 "help":null,
 "isactive":"Y",
 "iscentrallymaintained":"Y",
 "ismandatory":"N",
 "isrange":"N",
 "readonlylogic":null,
 "seqno":130,
 "updated":"2007-02-28T03:13:05",
 "updatedby":100,
 "valuemax":null,
 "valuemin":null,
 "vformat":null}, "children" : []}]},
 {"tablename" : "ad_process", "data" : {"ad_process_id":53154,
 "value":"HouseKeepingPara",
 "name":"HouseKeeping",
 "accesslevel":"4",
 "ad_client_id":0,
 "ad_form_id":null,
 "ad_org_id":0,
 "ad_printformat_id":null,
 "ad_reportview_id":null,
 "ad_tableselection_id":null,
 "ad_workflow_id":null,
 "classname":"org.adempiere.process.HouseKeeping",
 "copyfromprocess":null,
 "created":"2008-09-06T20:25:38",
 "createdby":100,
 "description":null,
 "entitytype":"Server",
 "help":null,
 "isactive":"Y",
 "isbetafunctionality":"N",
 "isdirectprint":"N",
 "isreport":"N",
 "isserverprocess":"N",
 "jasperreport":null,
 "procedurename":null,
 "showhelp":"Y",
 "statistic_count":0,
 "statistic_seconds":0,
 "updated":"2008-09-06T20:38:27",
 "updatedby":100,
 "workflowvalue":null}, "children" : [{"tablename" : "ad_process_para", "data" : {"ad_process_para_id":53257,
 "name":"House Keeping Configuration",
 "ad_client_id":0,
 "ad_element_id":53680,
 "ad_org_id":0,
 "ad_process_id":53154,
 "ad_reference_id":19,
 "ad_reference_value_id":null,
 "ad_val_rule_id":null,
 "columnname":"AD_HouseKeeping_ID",
 "created":"2008-09-06T20:26:28",
 "createdby":100,
 "defaultvalue":null,
 "defaultvalue2":null,
 "description":null,
 "displaylogic":null,
 "entitytype":"Server",
 "fieldlength":0,
 "help":null,
 "isactive":"Y",
 "iscentrallymaintained":"Y",
 "ismandatory":"Y",
 "isrange":"N",
 "readonlylogic":null,
 "seqno":10,
 "updated":"2008-12-21T04:02:14.754505",
 "updatedby":100,
 "valuemax":null,
 "valuemin":null,
 "vformat":null}, "children" : []}]},
 {"tablename" : "ad_process", "data" : {"ad_process_id":53155,
 "value":"HouseKeeping",
 "name":"House Keeping",
 "accesslevel":"4",
 "ad_client_id":0,
 "ad_form_id":null,
 "ad_org_id":0,
 "ad_printformat_id":null,
 "ad_reportview_id":null,
 "ad_tableselection_id":null,
 "ad_workflow_id":null,
 "classname":"org.adempiere.process.HouseKeeping",
 "copyfromprocess":null,
 "created":"2008-09-06T20:27:38",
 "createdby":100,
 "description":null,
 "entitytype":"Server",
 "help":null,
 "isactive":"Y",
 "isbetafunctionality":"N",
 "isdirectprint":"N",
 "isreport":"N",
 "isserverprocess":"N",
 "jasperreport":null,
 "procedurename":null,
 "showhelp":"Y",
 "statistic_count":0,
 "statistic_seconds":0,
 "updated":"2008-09-06T20:38:40",
 "updatedby":100,
 "workflowvalue":null}, "children" : []},
 {"tablename" : "ad_process", "data" : {"ad_process_id":53627,
 "value":"RunSchedule",
 "name":"Run Schedule",
 "accesslevel":"3",
 "ad_client_id":0,
 "ad_form_id":null,
 "ad_org_id":0,
 "ad_printformat_id":null,
 "ad_reportview_id":null,
 "ad_tableselection_id":null,
 "ad_workflow_id":null,
 "classname":"org.compiere.process.SchedulerRunNow",
 "copyfromprocess":"N",
 "created":"2014-05-12T17:02:16",
 "createdby":100,
 "description":null,
 "entitytype":"Server",
 "help":null,
 "isactive":"Y",
 "isbetafunctionality":"N",
 "isdirectprint":"N",
 "isreport":"N",
 "isserverprocess":"N",
 "jasperreport":null,
 "procedurename":null,
 "showhelp":"Y",
 "statistic_count":0,
 "statistic_seconds":0,
 "updated":"2014-05-12T17:02:16",
 "updatedby":100,
 "workflowvalue":null}, "children" : []}]