[{"tablename" : "ad_element", "data" : {"ad_element_id":2375,
 "columnname":"C_RfQ_ID",
 "ad_client_id":0,
 "ad_org_id":0,
 "ad_reference_id":19,
 "ad_reference_value_id":null,
 "created":"2004-02-19T10:36:37",
 "createdby":0,
 "description":"Request for Quotation",
 "entitytype":"Requisition-to-Invoice",
 "fieldlength":22,
 "help":"Request for Quotation to be sent out to vendors of a RfQ Topic. After Vendor selection, optionally create Sales Order or Quote for Customer as well as Purchase Order  for Vendor(s)",
 "isactive":"Y",
 "name":"RfQ",
 "po_description":null,
 "po_help":null,
 "po_name":null,
 "po_printname":null,
 "printname":"RfQ",
 "updated":"2000-01-02T00:00:00",
 "updatedby":0}, "children" : []},
 {"tablename" : "ad_element", "data" : {"ad_element_id":2376,
 "columnname":"C_RfQ_Topic_ID",
 "ad_client_id":0,
 "ad_org_id":0,
 "ad_reference_id":19,
 "ad_reference_value_id":null,
 "created":"2004-02-19T10:36:37",
 "createdby":0,
 "description":"Topic for Request for Quotations",
 "entitytype":"Requisition-to-Invoice",
 "fieldlength":22,
 "help":"A Request for Quotation Topic allows you to maintain a subscriber list of potential Vendors to respond to RfQs",
 "isactive":"Y",
 "name":"RfQ Topic",
 "po_description":null,
 "po_help":null,
 "po_name":null,
 "po_printname":null,
 "printname":"RfQ Topic",
 "updated":"2000-01-02T00:00:00",
 "updatedby":0}, "children" : []},
 {"tablename" : "ad_element", "data" : {"ad_element_id":2377,
 "columnname":"C_RfQ_TopicSubscriber_ID",
 "ad_client_id":0,
 "ad_org_id":0,
 "ad_reference_id":13,
 "ad_reference_value_id":null,
 "created":"2004-02-19T10:36:37",
 "createdby":0,
 "description":"Request for Quotation Topic Subscriber",
 "entitytype":"Requisition-to-Invoice",
 "fieldlength":22,
 "help":"Subscriber to invite to respond to RfQs",
 "isactive":"Y",
 "name":"RfQ Subscriber",
 "po_description":null,
 "po_help":null,
 "po_name":null,
 "po_printname":null,
 "printname":"RfQ Subscriber",
 "updated":"2010-01-13T10:38:15",
 "updatedby":0}, "children" : []},
 {"tablename" : "ad_element", "data" : {"ad_element_id":2378,
 "columnname":"C_RfQLine_ID",
 "ad_client_id":0,
 "ad_org_id":0,
 "ad_reference_id":19,
 "ad_reference_value_id":null,
 "created":"2004-02-19T10:36:37",
 "createdby":0,
 "description":"Request for Quotation Line",
 "entitytype":"Requisition-to-Invoice",
 "fieldlength":22,
 "help":"Request for Quotation Line",
 "isactive":"Y",
 "name":"RfQ Line",
 "po_description":null,
 "po_help":null,
 "po_name":null,
 "po_printname":null,
 "printname":"RfQ Line",
 "updated":"2000-01-02T00:00:00",
 "updatedby":0}, "children" : []},
 {"tablename" : "ad_element", "data" : {"ad_element_id":2379,
 "columnname":"C_RfQLineQty_ID",
 "ad_client_id":0,
 "ad_org_id":0,
 "ad_reference_id":19,
 "ad_reference_value_id":null,
 "created":"2004-02-19T10:36:37",
 "createdby":0,
 "description":"Request for Quotation Line Quantity",
 "entitytype":"Requisition-to-Invoice",
 "fieldlength":22,
 "help":"You may request a quotation for different quantities",
 "isactive":"Y",
 "name":"RfQ Line Quantity",
 "po_description":null,
 "po_help":null,
 "po_name":null,
 "po_printname":null,
 "printname":"RfQ Line Qty",
 "updated":"2000-01-02T00:00:00",
 "updatedby":0}, "children" : []},
 {"tablename" : "ad_element", "data" : {"ad_element_id":2381,
 "columnname":"C_RfQResponseLine_ID",
 "ad_client_id":0,
 "ad_org_id":0,
 "ad_reference_id":19,
 "ad_reference_value_id":null,
 "created":"2004-02-19T10:36:37",
 "createdby":0,
 "description":"Request for Quotation Response Line",
 "entitytype":"Requisition-to-Invoice",
 "fieldlength":22,
 "help":"Request for Quotation Response Line from a potential Vendor",
 "isactive":"Y",
 "name":"RfQ Response Line",
 "po_description":null,
 "po_help":null,
 "po_name":null,
 "po_printname":null,
 "printname":"RfQ Response Line",
 "updated":"2000-01-02T00:00:00",
 "updatedby":0}, "children" : []},
 {"tablename" : "ad_element", "data" : {"ad_element_id":2382,
 "columnname":"C_RfQResponseLineQty_ID",
 "ad_client_id":0,
 "ad_org_id":0,
 "ad_reference_id":13,
 "ad_reference_value_id":null,
 "created":"2004-02-19T10:36:37",
 "createdby":0,
 "description":"Request for Quotation Response Line Quantity",
 "entitytype":"Requisition-to-Invoice",
 "fieldlength":22,
 "help":"Request for Quotation Response Line Quantity from a potential Vendor",
 "isactive":"Y",
 "name":"RfQ Response Line Qty",
 "po_description":null,
 "po_help":null,
 "po_name":null,
 "po_printname":null,
 "printname":"RfQ Response Line Qty",
 "updated":"2000-01-02T00:00:00",
 "updatedby":0}, "children" : []},
 {"tablename" : "ad_element", "data" : {"ad_element_id":2388,
 "columnname":"CreateSO",
 "ad_client_id":0,
 "ad_org_id":0,
 "ad_reference_id":28,
 "ad_reference_value_id":null,
 "created":"2004-02-19T10:36:37",
 "createdby":0,
 "description":null,
 "entitytype":"Requisition-to-Invoice",
 "fieldlength":1,
 "help":null,
 "isactive":"Y",
 "name":"Create SO",
 "po_description":null,
 "po_help":null,
 "po_name":null,
 "po_printname":null,
 "printname":"Create SO",
 "updated":"2000-01-02T00:00:00",
 "updatedby":0}, "children" : []},
 {"tablename" : "ad_element", "data" : {"ad_element_id":2389,
 "columnname":"DateResponse",
 "ad_client_id":0,
 "ad_org_id":0,
 "ad_reference_id":15,
 "ad_reference_value_id":null,
 "created":"2004-02-19T10:36:37",
 "createdby":0,
 "description":"Date of the Response",
 "entitytype":"Requisition-to-Invoice",
 "fieldlength":7,
 "help":"Date of the Response",
 "isactive":"Y",
 "name":"Response Date",
 "po_description":null,
 "po_help":null,
 "po_name":null,
 "po_printname":null,
 "printname":"Response Date",
 "updated":"2000-01-02T00:00:00",
 "updatedby":0}, "children" : []},
 {"tablename" : "ad_element", "data" : {"ad_element_id":2390,
 "columnname":"DateWorkComplete",
 "ad_client_id":0,
 "ad_org_id":0,
 "ad_reference_id":15,
 "ad_reference_value_id":null,
 "created":"2004-02-19T10:36:37",
 "createdby":0,
 "description":"Date when work is (planned to be) complete",
 "entitytype":"Requisition-to-Invoice",
 "fieldlength":7,
 "help":null,
 "isactive":"Y",
 "name":"Work Complete",
 "po_description":null,
 "po_help":null,
 "po_name":null,
 "po_printname":null,
 "printname":"Work Complete",
 "updated":"2000-01-02T00:00:00",
 "updatedby":0}, "children" : []},
 {"tablename" : "ad_element", "data" : {"ad_element_id":2391,
 "columnname":"DateWorkStart",
 "ad_client_id":0,
 "ad_org_id":0,
 "ad_reference_id":15,
 "ad_reference_value_id":null,
 "created":"2004-02-19T10:36:37",
 "createdby":0,
 "description":"Date when work is (planned to be) started",
 "entitytype":"Requisition-to-Invoice",
 "fieldlength":7,
 "help":null,
 "isactive":"Y",
 "name":"Work Start",
 "po_description":null,
 "po_help":null,
 "po_name":null,
 "po_printname":null,
 "printname":"Work Start",
 "updated":"2000-01-02T00:00:00",
 "updatedby":0}, "children" : []},
 {"tablename" : "ad_element", "data" : {"ad_element_id":2392,
 "columnname":"DeliveryDays",
 "ad_client_id":0,
 "ad_org_id":0,
 "ad_reference_id":11,
 "ad_reference_value_id":null,
 "created":"2004-02-19T10:36:37",
 "createdby":0,
 "description":"Number of Days (planned) until Delivery",
 "entitytype":"Requisition-to-Invoice",
 "fieldlength":22,
 "help":null,
 "isactive":"Y",
 "name":"Delivery Days",
 "po_description":null,
 "po_help":null,
 "po_name":null,
 "po_printname":null,
 "printname":"Delivery Days",
 "updated":"2000-01-02T00:00:00",
 "updatedby":0}, "children" : []},
 {"tablename" : "ad_element", "data" : {"ad_element_id":2398,
 "columnname":"IsInvitedVendorsOnly",
 "ad_client_id":0,
 "ad_org_id":0,
 "ad_reference_id":20,
 "ad_reference_value_id":null,
 "created":"2004-02-19T10:36:37",
 "createdby":0,
 "description":"Only invited vendors can respond to an RfQ",
 "entitytype":"Requisition-to-Invoice",
 "fieldlength":1,
 "help":"The Request for Quotation is only visible to the invited vendors",
 "isactive":"Y",
 "name":"Invited Vendors Only",
 "po_description":null,
 "po_help":null,
 "po_name":null,
 "po_printname":null,
 "printname":"Invited Vendors",
 "updated":"2000-01-02T00:00:00",
 "updatedby":0}, "children" : []},
 {"tablename" : "ad_element", "data" : {"ad_element_id":2399,
 "columnname":"IsOfferQty",
 "ad_client_id":0,
 "ad_org_id":0,
 "ad_reference_id":20,
 "ad_reference_value_id":null,
 "created":"2004-02-19T10:36:37",
 "createdby":0,
 "description":"This quantity is used in the Offer to the Customer",
 "entitytype":"Requisition-to-Invoice",
 "fieldlength":1,
 "help":"When multiple quantities are used in an Request for Quotation, the selected Quantity is used for generating the offer.  If none selected the lowest number is used.",
 "isactive":"Y",
 "name":"Offer Quantity",
 "po_description":null,
 "po_help":null,
 "po_name":null,
 "po_printname":null,
 "printname":"Offer Qty",
 "updated":"2000-01-02T00:00:00",
 "updatedby":0}, "children" : []},
 {"tablename" : "ad_element", "data" : {"ad_element_id":2401,
 "columnname":"IsPurchaseQty",
 "ad_client_id":0,
 "ad_org_id":0,
 "ad_reference_id":20,
 "ad_reference_value_id":null,
 "created":"2004-02-19T10:36:37",
 "createdby":0,
 "description":"This quantity is used in the Purchase Order to the Supplier",
 "entitytype":"Requisition-to-Invoice",
 "fieldlength":1,
 "help":"When multiple quantities are used in an Request for Quotation, the selected Quantity is used for generating the purchase order.  If none selected the lowest number is used.",
 "isactive":"Y",
 "name":"Purchase Quantity",
 "po_description":null,
 "po_help":null,
 "po_name":null,
 "po_printname":null,
 "printname":"Purchase Qty",
 "updated":"2000-01-02T00:00:00",
 "updatedby":0}, "children" : []},
 {"tablename" : "ad_element", "data" : {"ad_element_id":2402,
 "columnname":"IsQuoteAllQty",
 "ad_client_id":0,
 "ad_org_id":0,
 "ad_reference_id":20,
 "ad_reference_value_id":null,
 "created":"2004-02-19T10:36:37",
 "createdby":0,
 "description":"Suppliers are requested to provide responses for all quantities",
 "entitytype":"Requisition-to-Invoice",
 "fieldlength":1,
 "help":"If selected, the response to the Request for Quotation needs to have a price for all Quantities",
 "isactive":"Y",
 "name":"Quote All Quantities",
 "po_description":null,
 "po_help":null,
 "po_name":null,
 "po_printname":null,
 "printname":"Quote All Qty",
 "updated":"2000-01-02T00:00:00",
 "updatedby":0}, "children" : []},
 {"tablename" : "ad_element", "data" : {"ad_element_id":2403,
 "columnname":"IsQuoteTotalAmt",
 "ad_client_id":0,
 "ad_org_id":0,
 "ad_reference_id":20,
 "ad_reference_value_id":null,
 "created":"2004-02-19T10:36:37",
 "createdby":0,
 "description":"The response can have just the total amount for the RfQ",
 "entitytype":"Requisition-to-Invoice",
 "fieldlength":1,
 "help":"If not selected, the response must be provided per line",
 "isactive":"Y",
 "name":"Quote Total Amt",
 "po_description":null,
 "po_help":null,
 "po_name":null,
 "po_printname":null,
 "printname":"Quote Total Amt",
 "updated":"2010-01-13T10:38:15",
 "updatedby":0}, "children" : []},
 {"tablename" : "ad_element", "data" : {"ad_element_id":2404,
 "columnname":"IsRfQResponseAccepted",
 "ad_client_id":0,
 "ad_org_id":0,
 "ad_reference_id":20,
 "ad_reference_value_id":null,
 "created":"2004-02-19T10:36:37",
 "createdby":0,
 "description":"Are Responses to the Request for Quotation accepted",
 "entitytype":"Requisition-to-Invoice",
 "fieldlength":1,
 "help":"If selected, responses for the RfQ are accepted",
 "isactive":"Y",
 "name":"Responses Accepted",
 "po_description":null,
 "po_help":null,
 "po_name":null,
 "po_printname":null,
 "printname":"Responses Accepted",
 "updated":"2010-01-13T10:38:15",
 "updatedby":0}, "children" : []},
 {"tablename" : "ad_element", "data" : {"ad_element_id":2405,
 "columnname":"IsSelectedWinner",
 "ad_client_id":0,
 "ad_org_id":0,
 "ad_reference_id":20,
 "ad_reference_value_id":null,
 "created":"2004-02-19T10:36:37",
 "createdby":0,
 "description":"The response is the selected winner",
 "entitytype":"Requisition-to-Invoice",
 "fieldlength":1,
 "help":"The response is the selected winner. If selected on Response level, the line selections are ignored.",
 "isactive":"Y",
 "name":"Selected Winner",
 "po_description":null,
 "po_help":null,
 "po_name":null,
 "po_printname":null,
 "printname":"Selected Winner",
 "updated":"2010-01-13T10:38:15",
 "updatedby":0}, "children" : []},
 {"tablename" : "ad_element", "data" : {"ad_element_id":2417,
 "columnname":"OfferAmt",
 "ad_client_id":0,
 "ad_org_id":0,
 "ad_reference_id":12,
 "ad_reference_value_id":null,
 "created":"2004-02-19T10:36:37",
 "createdby":0,
 "description":"Amount of the Offer",
 "entitytype":"Requisition-to-Invoice",
 "fieldlength":22,
 "help":null,
 "isactive":"Y",
 "name":"Offer Amount",
 "po_description":null,
 "po_help":null,
 "po_name":null,
 "po_printname":null,
 "printname":"Offer Amt",
 "updated":"2000-01-02T00:00:00",
 "updatedby":0}, "children" : []},
 {"tablename" : "ad_element", "data" : {"ad_element_id":2424,
 "columnname":"PublishRfQ",
 "ad_client_id":0,
 "ad_org_id":0,
 "ad_reference_id":28,
 "ad_reference_value_id":null,
 "created":"2004-02-19T10:36:37",
 "createdby":0,
 "description":null,
 "entitytype":"Requisition-to-Invoice",
 "fieldlength":1,
 "help":null,
 "isactive":"Y",
 "name":"Publish RfQ",
 "po_description":null,
 "po_help":null,
 "po_name":null,
 "po_printname":null,
 "printname":"Publish RfQ",
 "updated":"2000-01-02T00:00:00",
 "updatedby":0}, "children" : []},
 {"tablename" : "ad_element", "data" : {"ad_element_id":2425,
 "columnname":"QuoteType",
 "ad_client_id":0,
 "ad_org_id":0,
 "ad_reference_id":17,
 "ad_reference_value_id":314,
 "created":"2004-02-19T10:36:37",
 "createdby":0,
 "description":"Request for Quotation Type",
 "entitytype":"Requisition-to-Invoice",
 "fieldlength":1,
 "help":null,
 "isactive":"Y",
 "name":"RfQ Type",
 "po_description":null,
 "po_help":null,
 "po_name":null,
 "po_printname":null,
 "printname":"RfQ Type",
 "updated":"2000-01-02T00:00:00",
 "updatedby":0}, "children" : []},
 {"tablename" : "ad_element", "data" : {"ad_element_id":2446,
 "columnname":"C_RfQResponse_ID",
 "ad_client_id":0,
 "ad_org_id":0,
 "ad_reference_id":19,
 "ad_reference_value_id":null,
 "created":"2004-03-06T00:12:44",
 "createdby":0,
 "description":"Request for Quotation Response from a potential Vendor",
 "entitytype":"Requisition-to-Invoice",
 "fieldlength":22,
 "help":"Request for Quotation Response from a potential Vendor",
 "isactive":"Y",
 "name":"RfQ Response",
 "po_description":null,
 "po_help":null,
 "po_name":null,
 "po_printname":null,
 "printname":"RfQ Response",
 "updated":"2000-01-02T00:00:00",
 "updatedby":0}, "children" : []},
 {"tablename" : "ad_element", "data" : {"ad_element_id":2456,
 "columnname":"Ranking",
 "ad_client_id":0,
 "ad_org_id":0,
 "ad_reference_id":11,
 "ad_reference_value_id":null,
 "created":"2004-03-11T23:54:41",
 "createdby":0,
 "description":"Relative Rank Number",
 "entitytype":"Requisition-to-Invoice",
 "fieldlength":22,
 "help":"One is the highest Rank",
 "isactive":"Y",
 "name":"Ranking",
 "po_description":null,
 "po_help":null,
 "po_name":null,
 "po_printname":null,
 "printname":"Ranking",
 "updated":"2000-01-02T00:00:00",
 "updatedby":0}, "children" : []},
 {"tablename" : "ad_element", "data" : {"ad_element_id":2459,
 "columnname":"CopyLines",
 "ad_client_id":0,
 "ad_org_id":0,
 "ad_reference_id":28,
 "ad_reference_value_id":null,
 "created":"2004-03-12T01:37:45",
 "createdby":0,
 "description":null,
 "entitytype":"Requisition-to-Invoice",
 "fieldlength":1,
 "help":null,
 "isactive":"Y",
 "name":"Copy Lines",
 "po_description":null,
 "po_help":null,
 "po_name":null,
 "po_printname":null,
 "printname":"Copy Lines",
 "updated":"2000-01-02T00:00:00",
 "updatedby":0}, "children" : []},
 {"tablename" : "ad_element", "data" : {"ad_element_id":2475,
 "columnname":"DateInvited",
 "ad_client_id":0,
 "ad_org_id":0,
 "ad_reference_id":15,
 "ad_reference_value_id":null,
 "created":"2004-03-23T21:49:24",
 "createdby":0,
 "description":"Date when (last) invitation was sent",
 "entitytype":"Requisition-to-Invoice",
 "fieldlength":7,
 "help":null,
 "isactive":"Y",
 "name":"Invited",
 "po_description":null,
 "po_help":null,
 "po_name":null,
 "po_printname":null,
 "printname":"Invited",
 "updated":"2000-01-02T00:00:00",
 "updatedby":0}, "children" : []},
 {"tablename" : "ad_element", "data" : {"ad_element_id":2476,
 "columnname":"IsSendRfQ",
 "ad_client_id":0,
 "ad_org_id":0,
 "ad_reference_id":null,
 "ad_reference_value_id":null,
 "created":"2004-03-23T21:49:25",
 "createdby":0,
 "description":"Send the RfQ Invitation to the Vendors",
 "entitytype":"Requisition-to-Invoice",
 "fieldlength":null,
 "help":null,
 "isactive":"Y",
 "name":"Send RfQ Invitation to Vendors",
 "po_description":null,
 "po_help":null,
 "po_name":null,
 "po_printname":null,
 "printname":"Send RfQ to Vendor",
 "updated":"2000-01-02T00:00:00",
 "updatedby":0}, "children" : []},
 {"tablename" : "ad_element", "data" : {"ad_element_id":2477,
 "columnname":"LineDateWorkComplete",
 "ad_client_id":0,
 "ad_org_id":0,
 "ad_reference_id":15,
 "ad_reference_value_id":null,
 "created":"2004-03-24T01:26:06",
 "createdby":0,
 "description":"Date when line work is (planned to be) complete",
 "entitytype":"Requisition-to-Invoice",
 "fieldlength":7,
 "help":null,
 "isactive":"Y",
 "name":"Line Work Complete",
 "po_description":null,
 "po_help":null,
 "po_name":null,
 "po_printname":null,
 "printname":"Line Work Complete",
 "updated":"2000-01-02T00:00:00",
 "updatedby":0}, "children" : []},
 {"tablename" : "ad_element", "data" : {"ad_element_id":2478,
 "columnname":"LineDateWorkStart",
 "ad_client_id":0,
 "ad_org_id":0,
 "ad_reference_id":15,
 "ad_reference_value_id":null,
 "created":"2004-03-24T01:26:06",
 "createdby":0,
 "description":"Date when line work is (planned to be) started",
 "entitytype":"Requisition-to-Invoice",
 "fieldlength":7,
 "help":null,
 "isactive":"Y",
 "name":"Line Work Start",
 "po_description":null,
 "po_help":null,
 "po_name":null,
 "po_printname":null,
 "printname":"Line Work Start",
 "updated":"2000-01-02T00:00:00",
 "updatedby":0}, "children" : []},
 {"tablename" : "ad_element", "data" : {"ad_element_id":2479,
 "columnname":"LineDeliveryDays",
 "ad_client_id":0,
 "ad_org_id":0,
 "ad_reference_id":11,
 "ad_reference_value_id":null,
 "created":"2004-03-24T01:26:06",
 "createdby":0,
 "description":null,
 "entitytype":"Requisition-to-Invoice",
 "fieldlength":22,
 "help":null,
 "isactive":"Y",
 "name":"Line Delivery Days",
 "po_description":null,
 "po_help":null,
 "po_name":null,
 "po_printname":null,
 "printname":"Line Delivery Days",
 "updated":"2000-01-02T00:00:00",
 "updatedby":0}, "children" : []},
 {"tablename" : "ad_element", "data" : {"ad_element_id":2480,
 "columnname":"LineHelp",
 "ad_client_id":0,
 "ad_org_id":0,
 "ad_reference_id":10,
 "ad_reference_value_id":null,
 "created":"2004-03-24T01:26:06",
 "createdby":0,
 "description":null,
 "entitytype":"Requisition-to-Invoice",
 "fieldlength":2000,
 "help":null,
 "isactive":"Y",
 "name":"Line Help/Comment",
 "po_description":null,
 "po_help":null,
 "po_name":null,
 "po_printname":null,
 "printname":"Line Comment",
 "updated":"2000-01-02T00:00:00",
 "updatedby":0}, "children" : []},
 {"tablename" : "ad_element", "data" : {"ad_element_id":2481,
 "columnname":"QtyPrice",
 "ad_client_id":0,
 "ad_org_id":0,
 "ad_reference_id":37,
 "ad_reference_value_id":null,
 "created":"2004-03-24T01:26:06",
 "createdby":0,
 "description":null,
 "entitytype":"Requisition-to-Invoice",
 "fieldlength":22,
 "help":null,
 "isactive":"Y",
 "name":"Quantity Price",
 "po_description":null,
 "po_help":null,
 "po_name":null,
 "po_printname":null,
 "printname":"Qty Price",
 "updated":"2000-01-02T00:00:00",
 "updatedby":0}, "children" : []},
 {"tablename" : "ad_element", "data" : {"ad_element_id":2482,
 "columnname":"QtyRanking",
 "ad_client_id":0,
 "ad_org_id":0,
 "ad_reference_id":11,
 "ad_reference_value_id":null,
 "created":"2004-03-24T01:26:06",
 "createdby":0,
 "description":null,
 "entitytype":"Requisition-to-Invoice",
 "fieldlength":22,
 "help":null,
 "isactive":"Y",
 "name":"Quantity Ranking",
 "po_description":null,
 "po_help":null,
 "po_name":null,
 "po_printname":null,
 "printname":"Qty Ranking",
 "updated":"2000-01-02T00:00:00",
 "updatedby":0}, "children" : []},
 {"tablename" : "ad_element", "data" : {"ad_element_id":2483,
 "columnname":"RankRfQ",
 "ad_client_id":0,
 "ad_org_id":0,
 "ad_reference_id":28,
 "ad_reference_value_id":null,
 "created":"2004-03-24T15:32:46",
 "createdby":0,
 "description":null,
 "entitytype":"Requisition-to-Invoice",
 "fieldlength":1,
 "help":null,
 "isactive":"Y",
 "name":"Rank RfQ",
 "po_description":null,
 "po_help":null,
 "po_name":null,
 "po_printname":null,
 "printname":"Rank RfQ",
 "updated":"2000-01-02T00:00:00",
 "updatedby":0}, "children" : []},
 {"tablename" : "ad_element", "data" : {"ad_element_id":2512,
 "columnname":"BestResponseAmt",
 "ad_client_id":0,
 "ad_org_id":0,
 "ad_reference_id":12,
 "ad_reference_value_id":null,
 "created":"2004-04-23T17:25:44",
 "createdby":0,
 "description":"Best Response Amount",
 "entitytype":"Requisition-to-Invoice",
 "fieldlength":22,
 "help":"Filled by Rank Response Process",
 "isactive":"Y",
 "name":"Best Response Amount",
 "po_description":null,
 "po_help":null,
 "po_name":null,
 "po_printname":null,
 "printname":"Best Response",
 "updated":"2000-01-02T00:00:00",
 "updatedby":0}, "children" : []},
 {"tablename" : "ad_element", "data" : {"ad_element_id":2513,
 "columnname":"CheckComplete",
 "ad_client_id":0,
 "ad_org_id":0,
 "ad_reference_id":28,
 "ad_reference_value_id":null,
 "created":"2004-04-26T14:12:46",
 "createdby":0,
 "description":null,
 "entitytype":"Requisition-to-Invoice",
 "fieldlength":1,
 "help":null,
 "isactive":"Y",
 "name":"Check Complete",
 "po_description":null,
 "po_help":null,
 "po_name":null,
 "po_printname":null,
 "printname":"Check Complete",
 "updated":"2000-01-02T00:00:00",
 "updatedby":0}, "children" : []},
 {"tablename" : "ad_element", "data" : {"ad_element_id":2563,
 "columnname":"BenchmarkPrice",
 "ad_client_id":0,
 "ad_org_id":0,
 "ad_reference_id":37,
 "ad_reference_value_id":null,
 "created":"2004-07-04T00:40:28",
 "createdby":0,
 "description":"Price to compare responses to",
 "entitytype":"Requisition-to-Invoice",
 "fieldlength":22,
 "help":null,
 "isactive":"Y",
 "name":"Benchmark Price",
 "po_description":null,
 "po_help":null,
 "po_name":null,
 "po_printname":null,
 "printname":"Benchmark Price",
 "updated":"2000-01-02T00:00:00",
 "updatedby":0}, "children" : []},
 {"tablename" : "ad_element", "data" : {"ad_element_id":2566,
 "columnname":"BenchmarkDifference",
 "ad_client_id":0,
 "ad_org_id":0,
 "ad_reference_id":12,
 "ad_reference_value_id":null,
 "created":"2004-07-04T00:49:40",
 "createdby":0,
 "description":"Difference between Response Price and Benchmark Price",
 "entitytype":"Requisition-to-Invoice",
 "fieldlength":22,
 "help":null,
 "isactive":"Y",
 "name":"Benchmark Difference",
 "po_description":null,
 "po_help":null,
 "po_name":null,
 "po_printname":null,
 "printname":"Benchmark Difference",
 "updated":"2000-01-02T00:00:00",
 "updatedby":0}, "children" : []},
 {"tablename" : "ad_element", "data" : {"ad_element_id":2575,
 "columnname":"IsRfQQty",
 "ad_client_id":0,
 "ad_org_id":0,
 "ad_reference_id":20,
 "ad_reference_value_id":null,
 "created":"2004-07-07T17:42:41",
 "createdby":0,
 "description":"The quantity is used when generating RfQ Responses",
 "entitytype":"Requisition-to-Invoice",
 "fieldlength":1,
 "help":"When generating the RfQ Responses, this quantity is included",
 "isactive":"Y",
 "name":"RfQ Quantity",
 "po_description":null,
 "po_help":null,
 "po_name":null,
 "po_printname":null,
 "printname":"RfQ Quantity",
 "updated":"2000-01-02T00:00:00",
 "updatedby":0}, "children" : []},
 {"tablename" : "ad_element", "data" : {"ad_element_id":2580,
 "columnname":"C_RfQ_TopicSubscriberOnly_ID",
 "ad_client_id":0,
 "ad_org_id":0,
 "ad_reference_id":13,
 "ad_reference_value_id":null,
 "created":"2004-07-07T19:53:36",
 "createdby":0,
 "description":"Include Subscriber only for certain products or product categories",
 "entitytype":"Requisition-to-Invoice",
 "fieldlength":22,
 "help":"Products and/or  Product Categories for which the subscriber should be included.  If no product / category is entered, the subscriber is requested to answer requests for all lines in a RfQ",
 "isactive":"Y",
 "name":"RfQ Topic Subscriber Restriction",
 "po_description":null,
 "po_help":null,
 "po_name":null,
 "po_printname":null,
 "printname":"RfQ Topic Subscriber Only",
 "updated":"2000-01-02T00:00:00",
 "updatedby":0}, "children" : []},
 {"tablename" : "ad_element", "data" : {"ad_element_id":2690,
 "columnname":"C_InvoiceBatch_ID",
 "ad_client_id":0,
 "ad_org_id":0,
 "ad_reference_id":13,
 "ad_reference_value_id":null,
 "created":"2005-04-02T19:31:27",
 "createdby":0,
 "description":"Expense Invoice Batch Header",
 "entitytype":"Requisition-to-Invoice",
 "fieldlength":22,
 "help":null,
 "isactive":"Y",
 "name":"Invoice Batch",
 "po_description":null,
 "po_help":null,
 "po_name":null,
 "po_printname":null,
 "printname":"Invoice Batch",
 "updated":"2005-04-02T20:37:25",
 "updatedby":100}, "children" : []},
 {"tablename" : "ad_element", "data" : {"ad_element_id":2691,
 "columnname":"C_InvoiceBatchLine_ID",
 "ad_client_id":0,
 "ad_org_id":0,
 "ad_reference_id":13,
 "ad_reference_value_id":null,
 "created":"2005-04-02T19:31:27",
 "createdby":0,
 "description":"Expense Invoice Batch Line",
 "entitytype":"Requisition-to-Invoice",
 "fieldlength":22,
 "help":null,
 "isactive":"Y",
 "name":"Invoice Batch Line",
 "po_description":null,
 "po_help":null,
 "po_name":null,
 "po_printname":null,
 "printname":"Invoice Batch Line",
 "updated":"2005-04-02T20:38:32",
 "updatedby":100}, "children" : []},
 {"tablename" : "ad_element", "data" : {"ad_element_id":2692,
 "columnname":"DocumentAmt",
 "ad_client_id":0,
 "ad_org_id":0,
 "ad_reference_id":12,
 "ad_reference_value_id":null,
 "created":"2005-04-02T19:31:27",
 "createdby":0,
 "description":"Document Amount",
 "entitytype":"Requisition-to-Invoice",
 "fieldlength":22,
 "help":null,
 "isactive":"Y",
 "name":"Document Amt",
 "po_description":null,
 "po_help":null,
 "po_name":null,
 "po_printname":null,
 "printname":"Document Amt",
 "updated":"2005-04-02T19:39:53",
 "updatedby":100}, "children" : []}]