[{"tablename" : "ad_element", "data" : {"ad_element_id":1514,
 "columnname":"Priority",
 "ad_client_id":0,
 "ad_org_id":0,
 "ad_reference_id":17,
 "ad_reference_value_id":154,
 "created":"2001-01-11T17:05:05",
 "createdby":0,
 "description":"Indicates if this request is of a high, medium or low priority.",
 "entitytype":"Workflow",
 "fieldlength":1,
 "help":"The Priority indicates the importance of this request.",
 "isactive":"Y",
 "name":"Priority",
 "po_description":null,
 "po_help":null,
 "po_name":null,
 "po_printname":null,
 "printname":"Priority",
 "updated":"2000-01-02T00:00:00",
 "updatedby":0}, "children" : []},
 {"tablename" : "ad_element", "data" : {"ad_element_id":2312,
 "columnname":"AD_WF_Process_ID",
 "ad_client_id":0,
 "ad_org_id":0,
 "ad_reference_id":19,
 "ad_reference_value_id":null,
 "created":"2004-01-01T23:37:18",
 "createdby":0,
 "description":"Actual Workflow Process Instance",
 "entitytype":"Workflow",
 "fieldlength":22,
 "help":"Instance of a workflow execution",
 "isactive":"Y",
 "name":"Workflow Process",
 "po_description":null,
 "po_help":null,
 "po_name":null,
 "po_printname":null,
 "printname":"Wf Process",
 "updated":"2000-01-02T00:00:00",
 "updatedby":0}, "children" : []},
 {"tablename" : "ad_element", "data" : {"ad_element_id":2315,
 "columnname":"AttributeName",
 "ad_client_id":0,
 "ad_org_id":0,
 "ad_reference_id":10,
 "ad_reference_value_id":null,
 "created":"2004-01-01T23:37:18",
 "createdby":0,
 "description":"Name of the Attribute",
 "entitytype":"Workflow",
 "fieldlength":60,
 "help":"Identifier of the attribute",
 "isactive":"Y",
 "name":"Attribute Name",
 "po_description":null,
 "po_help":null,
 "po_name":null,
 "po_printname":null,
 "printname":"Attribute Name",
 "updated":"2000-01-02T00:00:00",
 "updatedby":0}, "children" : []},
 {"tablename" : "ad_element", "data" : {"ad_element_id":2317,
 "columnname":"AttributeValue",
 "ad_client_id":0,
 "ad_org_id":0,
 "ad_reference_id":10,
 "ad_reference_value_id":null,
 "created":"2004-01-01T23:37:18",
 "createdby":0,
 "description":"Value of the Attribute",
 "entitytype":"Workflow",
 "fieldlength":60,
 "help":"Adempiere converts the (string) field values to the attribute data type.  Booleans (Yes-No) may have the values \"true\" and \"false\", the date format is YYYY-MM-DD",
 "isactive":"Y",
 "name":"Attribute Value",
 "po_description":null,
 "po_help":null,
 "po_name":null,
 "po_printname":null,
 "printname":"Attribute Value",
 "updated":"2005-11-11T18:34:39",
 "updatedby":100}, "children" : []},
 {"tablename" : "ad_element", "data" : {"ad_element_id":2326,
 "columnname":"ResponsibleType",
 "ad_client_id":0,
 "ad_org_id":0,
 "ad_reference_id":17,
 "ad_reference_value_id":304,
 "created":"2004-01-01T23:37:18",
 "createdby":0,
 "description":"Type of the Responsibility for a workflow",
 "entitytype":"Workflow",
 "fieldlength":1,
 "help":"Type how the responsible user for the execution of a workflow is determined",
 "isactive":"Y",
 "name":"Responsible Type",
 "po_description":null,
 "po_help":null,
 "po_name":null,
 "po_printname":null,
 "printname":"Responsible Type",
 "updated":"2000-01-02T00:00:00",
 "updatedby":0}, "children" : []},
 {"tablename" : "ad_element", "data" : {"ad_element_id":2332,
 "columnname":"WFState",
 "ad_client_id":0,
 "ad_org_id":0,
 "ad_reference_id":17,
 "ad_reference_value_id":305,
 "created":"2004-01-01T23:37:18",
 "createdby":0,
 "description":"State of the execution of the workflow",
 "entitytype":"Workflow",
 "fieldlength":2,
 "help":null,
 "isactive":"Y",
 "name":"Workflow State",
 "po_description":null,
 "po_help":null,
 "po_name":null,
 "po_printname":null,
 "printname":"Wf State",
 "updated":"2000-01-02T00:00:00",
 "updatedby":0}, "children" : []},
 {"tablename" : "ad_element", "data" : {"ad_element_id":2474,
 "columnname":"ElapsedTimeMS",
 "ad_client_id":0,
 "ad_org_id":0,
 "ad_reference_id":22,
 "ad_reference_value_id":null,
 "created":"2004-03-22T15:56:19",
 "createdby":0,
 "description":"Elapsed Time in milli seconds",
 "entitytype":"Workflow",
 "fieldlength":22,
 "help":"Elapsed Time in milli seconds",
 "isactive":"Y",
 "name":"Elapsed Time ms",
 "po_description":null,
 "po_help":null,
 "po_name":null,
 "po_printname":null,
 "printname":"Elapsed Time",
 "updated":"2010-01-13T10:38:15",
 "updatedby":0}, "children" : []},
 {"tablename" : "ad_element", "data" : {"ad_element_id":2484,
 "columnname":"EndWaitTime",
 "ad_client_id":0,
 "ad_org_id":0,
 "ad_reference_id":16,
 "ad_reference_value_id":null,
 "created":"2004-03-25T22:49:26",
 "createdby":0,
 "description":"End of sleep time",
 "entitytype":"Workflow",
 "fieldlength":7,
 "help":"End of suspension (sleep)",
 "isactive":"Y",
 "name":"End Wait",
 "po_description":null,
 "po_help":null,
 "po_name":null,
 "po_printname":null,
 "printname":"End Wait",
 "updated":"2000-01-02T00:00:00",
 "updatedby":0}, "children" : []},
 {"tablename" : "ad_element", "data" : {"ad_element_id":2518,
 "columnname":"IsAbort",
 "ad_client_id":0,
 "ad_org_id":0,
 "ad_reference_id":null,
 "ad_reference_value_id":null,
 "created":"2004-05-07T23:07:01",
 "createdby":0,
 "description":"Aborts the current process",
 "entitytype":"Workflow",
 "fieldlength":null,
 "help":null,
 "isactive":"Y",
 "name":"Abort Process",
 "po_description":null,
 "po_help":null,
 "po_name":null,
 "po_printname":null,
 "printname":"Abort Process",
 "updated":"2000-01-02T00:00:00",
 "updatedby":0}, "children" : []},
 {"tablename" : "ad_element", "data" : {"ad_element_id":2629,
 "columnname":"DateLastAlert",
 "ad_client_id":0,
 "ad_org_id":0,
 "ad_reference_id":16,
 "ad_reference_value_id":null,
 "created":"2004-08-30T19:43:01",
 "createdby":0,
 "description":"Date when last alert were sent",
 "entitytype":"Workflow",
 "fieldlength":7,
 "help":"The last alert date is updated when a reminder email is sent",
 "isactive":"Y",
 "name":"Last Alert",
 "po_description":null,
 "po_help":null,
 "po_name":null,
 "po_printname":null,
 "printname":"Last Alert",
 "updated":"2000-01-02T00:00:00",
 "updatedby":0}, "children" : []},
 {"tablename" : "ad_element", "data" : {"ad_element_id":2637,
 "columnname":"DynPriorityStart",
 "ad_client_id":0,
 "ad_org_id":0,
 "ad_reference_id":11,
 "ad_reference_value_id":null,
 "created":"2004-09-01T23:37:00",
 "createdby":0,
 "description":"Starting priority before changed dynamically",
 "entitytype":"Workflow",
 "fieldlength":22,
 "help":null,
 "isactive":"Y",
 "name":"Dyn Priority Start",
 "po_description":null,
 "po_help":null,
 "po_name":null,
 "po_printname":null,
 "printname":"Dyn Priority Start",
 "updated":"2000-01-02T00:00:00",
 "updatedby":0}, "children" : []}]