[{"tablename" : "ad_window", "data" : {"ad_window_id":297,
 "name":"Workflow Process",
 "ad_client_id":0,
 "ad_color_id":null,
 "ad_image_id":104,
 "ad_org_id":0,
 "created":"2004-01-01T23:41:09",
 "createdby":0,
 "description":"Monitor workflow processes",
 "entitytype":"Workflow",
 "help":"View and Maintain Workflow Process Instance Information",
 "isactive":"Y",
 "isbetafunctionality":"N",
 "isdefault":"N",
 "issotrx":"Y",
 "processing":"N",
 "updated":"2005-02-09T22:16:14",
 "updatedby":100,
 "windowtype":"T",
 "winheight":null,
 "winwidth":null}, "children" : [{"tablename" : "ad_tab", "data" : {"ad_tab_id":574,
 "name":"Process",
 "ad_window_id":297,
 "ad_client_id":0,
 "ad_column_id":null,
 "ad_columnsortorder_id":null,
 "ad_columnsortyesno_id":null,
 "ad_image_id":null,
 "ad_org_id":0,
 "ad_process_id":null,
 "ad_table_id":645,
 "commitwarning":null,
 "created":"2004-01-01T23:41:39",
 "createdby":0,
 "description":"Actual Workflow Process Instance",
 "displaylogic":null,
 "entitytype":"Workflow",
 "hastree":"N",
 "help":"Instance of a workflow execution",
 "importfields":"N",
 "included_tab_id":null,
 "isactive":"Y",
 "isadvancedtab":"N",
 "isinfotab":"N",
 "isinheritfiltertoreports":"N",
 "isinsertrecord":"Y",
 "isreadonly":"N",
 "issinglerow":"Y",
 "issorttab":"N",
 "istranslationtab":"N",
 "orderbyclause":null,
 "parent_column_id":null,
 "processing":"N",
 "readonlylogic":null,
 "seqno":10,
 "tablevel":0,
 "updated":"2005-11-27T18:55:58",
 "updatedby":100,
 "whereclause":null}, "children" : [{"tablename" : "ad_field", "data" : {"ad_field_id":8800,
 "name":"Manage Process",
 "ad_client_id":0,
 "ad_column_id":10457,
 "ad_fieldgroup_id":null,
 "ad_org_id":0,
 "ad_reference_id":null,
 "ad_reference_value_id":null,
 "ad_tab_id":574,
 "ad_val_rule_id":null,
 "columnspan":2,
 "created":"2004-01-02T17:45:54",
 "createdby":0,
 "defaultvalue":null,
 "description":"Manage Workflow Process",
 "displaylength":23,
 "displaylogic":null,
 "entitytype":"Workflow",
 "help":"Update or stop Workflow Process",
 "included_tab_id":null,
 "infofactoryclass":null,
 "isactive":"Y",
 "isallowcopy":null,
 "isallownewattributeinstance":"N",
 "iscentrallymaintained":"Y",
 "isdisplayed":"Y",
 "isdisplayedgrid":"Y",
 "isencrypted":"N",
 "isfieldonly":"N",
 "isheading":"N",
 "ismandatory":null,
 "isquickentry":null,
 "isreadonly":"N",
 "issameline":"N",
 "numlines":1,
 "obscuretype":null,
 "seqno":150,
 "seqnogrid":null,
 "sortno":null,
 "updated":"2016-04-12T09:52:22.85521",
 "updatedby":0,
 "xposition":2}, "children" : []},{"tablename" : "ad_field", "data" : {"ad_field_id":8802,
 "name":"Processed",
 "ad_client_id":0,
 "ad_column_id":10460,
 "ad_fieldgroup_id":null,
 "ad_org_id":0,
 "ad_reference_id":null,
 "ad_reference_value_id":null,
 "ad_tab_id":574,
 "ad_val_rule_id":null,
 "columnspan":2,
 "created":"2004-01-02T17:45:54",
 "createdby":0,
 "defaultvalue":null,
 "description":"The document has been processed",
 "displaylength":1,
 "displaylogic":null,
 "entitytype":"Workflow",
 "help":"The Processed checkbox indicates that a document has been processed.",
 "included_tab_id":null,
 "infofactoryclass":null,
 "isactive":"Y",
 "isallowcopy":"N",
 "isallownewattributeinstance":"N",
 "iscentrallymaintained":"Y",
 "isdisplayed":"Y",
 "isdisplayedgrid":"Y",
 "isencrypted":"N",
 "isfieldonly":"N",
 "isheading":"N",
 "ismandatory":null,
 "isquickentry":null,
 "isreadonly":"Y",
 "issameline":"Y",
 "numlines":1,
 "obscuretype":null,
 "seqno":160,
 "seqnogrid":null,
 "sortno":null,
 "updated":"2000-01-02T00:00:00",
 "updatedby":0,
 "xposition":5}, "children" : []},{"tablename" : "ad_field", "data" : {"ad_field_id":8803,
 "name":"Active",
 "ad_client_id":0,
 "ad_column_id":10461,
 "ad_fieldgroup_id":null,
 "ad_org_id":0,
 "ad_reference_id":null,
 "ad_reference_value_id":null,
 "ad_tab_id":574,
 "ad_val_rule_id":null,
 "columnspan":2,
 "created":"2004-01-02T17:45:54",
 "createdby":0,
 "defaultvalue":null,
 "description":"The record is active in the system",
 "displaylength":1,
 "displaylogic":null,
 "entitytype":"Workflow",
 "help":"There are two methods of making records unavailable in the system: One is to delete the record, the other is to de-activate the record. A de-activated record is not available for selection, but available for reports.\nThere are two reasons for de-activating and not deleting records:\n(1) The system requires the record for audit purposes.\n(2) The record is referenced by other records. E.g., you cannot delete a Business Partner, if there are invoices for this partner record existing. You de-activate the Business Partner and prevent that this record is used for future entries.",
 "included_tab_id":null,
 "infofactoryclass":null,
 "isactive":"Y",
 "isallowcopy":null,
 "isallownewattributeinstance":"N",
 "iscentrallymaintained":"Y",
 "isdisplayed":"N",
 "isdisplayedgrid":"Y",
 "isencrypted":"N",
 "isfieldonly":"N",
 "isheading":"N",
 "ismandatory":null,
 "isquickentry":null,
 "isreadonly":"N",
 "issameline":"N",
 "numlines":1,
 "obscuretype":null,
 "seqno":10,
 "seqnogrid":null,
 "sortno":null,
 "updated":"2000-01-02T00:00:00",
 "updatedby":0,
 "xposition":2}, "children" : []},{"tablename" : "ad_field", "data" : {"ad_field_id":8804,
 "name":"Workflow",
 "ad_client_id":0,
 "ad_column_id":10462,
 "ad_fieldgroup_id":null,
 "ad_org_id":0,
 "ad_reference_id":null,
 "ad_reference_value_id":null,
 "ad_tab_id":574,
 "ad_val_rule_id":null,
 "columnspan":2,
 "created":"2004-01-02T17:45:54",
 "createdby":0,
 "defaultvalue":null,
 "description":"Workflow or combination of tasks",
 "displaylength":14,
 "displaylogic":null,
 "entitytype":"Workflow",
 "help":"The Workflow field identifies a unique Workflow in the system.",
 "included_tab_id":null,
 "infofactoryclass":null,
 "isactive":"Y",
 "isallowcopy":null,
 "isallownewattributeinstance":"N",
 "iscentrallymaintained":"Y",
 "isdisplayed":"Y",
 "isdisplayedgrid":"Y",
 "isencrypted":"N",
 "isfieldonly":"N",
 "isheading":"N",
 "ismandatory":null,
 "isquickentry":null,
 "isreadonly":"Y",
 "issameline":"N",
 "numlines":1,
 "obscuretype":null,
 "seqno":50,
 "seqnogrid":null,
 "sortno":null,
 "updated":"2000-01-02T00:00:00",
 "updatedby":0,
 "xposition":1}, "children" : []},{"tablename" : "ad_field", "data" : {"ad_field_id":8805,
 "name":"Client",
 "ad_client_id":0,
 "ad_column_id":10463,
 "ad_fieldgroup_id":null,
 "ad_org_id":0,
 "ad_reference_id":null,
 "ad_reference_value_id":null,
 "ad_tab_id":574,
 "ad_val_rule_id":null,
 "columnspan":2,
 "created":"2004-01-02T17:45:54",
 "createdby":0,
 "defaultvalue":null,
 "description":"Client/Tenant for this installation.",
 "displaylength":14,
 "displaylogic":null,
 "entitytype":"Workflow",
 "help":"A Client is a company or a legal entity. You cannot share data between Clients. Tenant is a synonym for Client.",
 "included_tab_id":null,
 "infofactoryclass":null,
 "isactive":"Y",
 "isallowcopy":null,
 "isallownewattributeinstance":"N",
 "iscentrallymaintained":"Y",
 "isdisplayed":"Y",
 "isdisplayedgrid":"Y",
 "isencrypted":"N",
 "isfieldonly":"N",
 "isheading":"N",
 "ismandatory":null,
 "isquickentry":null,
 "isreadonly":"Y",
 "issameline":"N",
 "numlines":1,
 "obscuretype":null,
 "seqno":30,
 "seqnogrid":null,
 "sortno":null,
 "updated":"2000-01-02T00:00:00",
 "updatedby":0,
 "xposition":1}, "children" : []},{"tablename" : "ad_field", "data" : {"ad_field_id":8806,
 "name":"Organisation",
 "ad_client_id":0,
 "ad_column_id":10465,
 "ad_fieldgroup_id":null,
 "ad_org_id":0,
 "ad_reference_id":null,
 "ad_reference_value_id":null,
 "ad_tab_id":574,
 "ad_val_rule_id":null,
 "columnspan":2,
 "created":"2004-01-02T17:45:54",
 "createdby":0,
 "defaultvalue":null,
 "description":"Organisational entity within client",
 "displaylength":14,
 "displaylogic":null,
 "entitytype":"Workflow",
 "help":"An organisation is a unit of your client or legal entity - examples are store, department. You can share data between organisations.",
 "included_tab_id":null,
 "infofactoryclass":null,
 "isactive":"Y",
 "isallowcopy":null,
 "isallownewattributeinstance":"N",
 "iscentrallymaintained":"Y",
 "isdisplayed":"Y",
 "isdisplayedgrid":"Y",
 "isencrypted":"N",
 "isfieldonly":"N",
 "isheading":"N",
 "ismandatory":null,
 "isquickentry":null,
 "isreadonly":"Y",
 "issameline":"Y",
 "numlines":1,
 "obscuretype":null,
 "seqno":40,
 "seqnogrid":null,
 "sortno":null,
 "updated":"2000-01-02T00:00:00",
 "updatedby":0,
 "xposition":4}, "children" : []},{"tablename" : "ad_field", "data" : {"ad_field_id":8807,
 "name":"Workflow State",
 "ad_client_id":0,
 "ad_column_id":10466,
 "ad_fieldgroup_id":null,
 "ad_org_id":0,
 "ad_reference_id":null,
 "ad_reference_value_id":null,
 "ad_tab_id":574,
 "ad_val_rule_id":null,
 "columnspan":2,
 "created":"2004-01-02T17:45:54",
 "createdby":0,
 "defaultvalue":null,
 "description":"State of the execution of the workflow",
 "displaylength":14,
 "displaylogic":null,
 "entitytype":"Workflow",
 "help":null,
 "included_tab_id":null,
 "infofactoryclass":null,
 "isactive":"Y",
 "isallowcopy":null,
 "isallownewattributeinstance":"N",
 "iscentrallymaintained":"Y",
 "isdisplayed":"Y",
 "isdisplayedgrid":"Y",
 "isencrypted":"N",
 "isfieldonly":"N",
 "isheading":"N",
 "ismandatory":null,
 "isquickentry":null,
 "isreadonly":"Y",
 "issameline":"N",
 "numlines":1,
 "obscuretype":null,
 "seqno":80,
 "seqnogrid":null,
 "sortno":null,
 "updated":"2000-01-02T00:00:00",
 "updatedby":0,
 "xposition":1}, "children" : []},{"tablename" : "ad_field", "data" : {"ad_field_id":8808,
 "name":"User/Contact",
 "ad_client_id":0,
 "ad_column_id":10467,
 "ad_fieldgroup_id":null,
 "ad_org_id":0,
 "ad_reference_id":null,
 "ad_reference_value_id":null,
 "ad_tab_id":574,
 "ad_val_rule_id":null,
 "columnspan":2,
 "created":"2004-01-02T17:45:54",
 "createdby":0,
 "defaultvalue":null,
 "description":"User within the system - Internal or Business Partner Contact",
 "displaylength":26,
 "displaylogic":null,
 "entitytype":"Workflow",
 "help":"The User identifies a unique user in the system. This could be an internal user or a business partner contact",
 "included_tab_id":null,
 "infofactoryclass":null,
 "isactive":"Y",
 "isallowcopy":null,
 "isallownewattributeinstance":"N",
 "iscentrallymaintained":"Y",
 "isdisplayed":"Y",
 "isdisplayedgrid":"Y",
 "isencrypted":"N",
 "isfieldonly":"N",
 "isheading":"N",
 "ismandatory":null,
 "isquickentry":null,
 "isreadonly":"Y",
 "issameline":"Y",
 "numlines":1,
 "obscuretype":null,
 "seqno":100,
 "seqnogrid":null,
 "sortno":null,
 "updated":"2000-01-02T00:00:00",
 "updatedby":0,
 "xposition":4}, "children" : []},{"tablename" : "ad_field", "data" : {"ad_field_id":8810,
 "name":"Workflow Process",
 "ad_client_id":0,
 "ad_column_id":10470,
 "ad_fieldgroup_id":null,
 "ad_org_id":0,
 "ad_reference_id":null,
 "ad_reference_value_id":null,
 "ad_tab_id":574,
 "ad_val_rule_id":null,
 "columnspan":2,
 "created":"2004-01-02T17:45:54",
 "createdby":0,
 "defaultvalue":null,
 "description":"Actual Workflow Process Instance",
 "displaylength":14,
 "displaylogic":null,
 "entitytype":"Workflow",
 "help":"Instance of a workflow execution",
 "included_tab_id":null,
 "infofactoryclass":null,
 "isactive":"Y",
 "isallowcopy":null,
 "isallownewattributeinstance":"N",
 "iscentrallymaintained":"Y",
 "isdisplayed":"N",
 "isdisplayedgrid":"Y",
 "isencrypted":"N",
 "isfieldonly":"N",
 "isheading":"N",
 "ismandatory":null,
 "isquickentry":null,
 "isreadonly":"N",
 "issameline":"N",
 "numlines":1,
 "obscuretype":null,
 "seqno":20,
 "seqnogrid":null,
 "sortno":null,
 "updated":"2000-01-02T00:00:00",
 "updatedby":0,
 "xposition":1}, "children" : []},{"tablename" : "ad_field", "data" : {"ad_field_id":8811,
 "name":"Message",
 "ad_client_id":0,
 "ad_column_id":10471,
 "ad_fieldgroup_id":null,
 "ad_org_id":0,
 "ad_reference_id":null,
 "ad_reference_value_id":null,
 "ad_tab_id":574,
 "ad_val_rule_id":null,
 "columnspan":2,
 "created":"2004-01-02T17:45:54",
 "createdby":0,
 "defaultvalue":null,
 "description":"System Message",
 "displaylength":14,
 "displaylogic":null,
 "entitytype":"Workflow",
 "help":"Information and Error messages",
 "included_tab_id":null,
 "infofactoryclass":null,
 "isactive":"Y",
 "isallowcopy":null,
 "isallownewattributeinstance":"N",
 "iscentrallymaintained":"Y",
 "isdisplayed":"Y",
 "isdisplayedgrid":"Y",
 "isencrypted":"N",
 "isfieldonly":"N",
 "isheading":"N",
 "ismandatory":null,
 "isquickentry":null,
 "isreadonly":"Y",
 "issameline":"N",
 "numlines":1,
 "obscuretype":null,
 "seqno":130,
 "seqnogrid":null,
 "sortno":null,
 "updated":"2000-01-02T00:00:00",
 "updatedby":0,
 "xposition":1}, "children" : []},{"tablename" : "ad_field", "data" : {"ad_field_id":9497,
 "name":"Text Message",
 "ad_client_id":0,
 "ad_column_id":10809,
 "ad_fieldgroup_id":null,
 "ad_org_id":0,
 "ad_reference_id":null,
 "ad_reference_value_id":null,
 "ad_tab_id":574,
 "ad_val_rule_id":null,
 "columnspan":5,
 "created":"2004-02-19T23:57:27",
 "createdby":0,
 "defaultvalue":null,
 "description":"Text Message",
 "displaylength":60,
 "displaylogic":null,
 "entitytype":"Workflow",
 "help":null,
 "included_tab_id":null,
 "infofactoryclass":null,
 "isactive":"Y",
 "isallowcopy":null,
 "isallownewattributeinstance":"N",
 "iscentrallymaintained":"Y",
 "isdisplayed":"Y",
 "isdisplayedgrid":"Y",
 "isencrypted":"N",
 "isfieldonly":"N",
 "isheading":"N",
 "ismandatory":null,
 "isquickentry":null,
 "isreadonly":"N",
 "issameline":"N",
 "numlines":3,
 "obscuretype":null,
 "seqno":140,
 "seqnogrid":null,
 "sortno":null,
 "updated":"2000-01-02T00:00:00",
 "updatedby":0,
 "xposition":1}, "children" : []},{"tablename" : "ad_field", "data" : {"ad_field_id":10110,
 "name":"Table",
 "ad_client_id":0,
 "ad_column_id":11547,
 "ad_fieldgroup_id":null,
 "ad_org_id":0,
 "ad_reference_id":null,
 "ad_reference_value_id":null,
 "ad_tab_id":574,
 "ad_val_rule_id":null,
 "columnspan":2,
 "created":"2004-03-17T18:11:07",
 "createdby":0,
 "defaultvalue":null,
 "description":"Database Table information",
 "displaylength":26,
 "displaylogic":null,
 "entitytype":"Workflow",
 "help":"The Database Table provides the information of the table definition",
 "included_tab_id":null,
 "infofactoryclass":null,
 "isactive":"Y",
 "isallowcopy":null,
 "isallownewattributeinstance":"N",
 "iscentrallymaintained":"Y",
 "isdisplayed":"Y",
 "isdisplayedgrid":"Y",
 "isencrypted":"N",
 "isfieldonly":"N",
 "isheading":"N",
 "ismandatory":null,
 "isquickentry":null,
 "isreadonly":"Y",
 "issameline":"N",
 "numlines":1,
 "obscuretype":null,
 "seqno":110,
 "seqnogrid":null,
 "sortno":null,
 "updated":"2000-01-02T00:00:00",
 "updatedby":0,
 "xposition":1}, "children" : []},{"tablename" : "ad_field", "data" : {"ad_field_id":10111,
 "name":"Priority",
 "ad_client_id":0,
 "ad_column_id":11548,
 "ad_fieldgroup_id":null,
 "ad_org_id":0,
 "ad_reference_id":null,
 "ad_reference_value_id":null,
 "ad_tab_id":574,
 "ad_val_rule_id":null,
 "columnspan":2,
 "created":"2004-03-17T18:11:07",
 "createdby":0,
 "defaultvalue":null,
 "description":"Indicates if this request is of a high, medium or low priority.",
 "displaylength":11,
 "displaylogic":null,
 "entitytype":"Workflow",
 "help":"The Priority indicates the importance of this request.",
 "included_tab_id":null,
 "infofactoryclass":null,
 "isactive":"Y",
 "isallowcopy":null,
 "isallownewattributeinstance":"N",
 "iscentrallymaintained":"Y",
 "isdisplayed":"Y",
 "isdisplayedgrid":"Y",
 "isencrypted":"N",
 "isfieldonly":"N",
 "isheading":"N",
 "ismandatory":null,
 "isquickentry":null,
 "isreadonly":"N",
 "issameline":"N",
 "numlines":1,
 "obscuretype":null,
 "seqno":60,
 "seqnogrid":null,
 "sortno":-1,
 "updated":"2000-01-02T00:00:00",
 "updatedby":0,
 "xposition":1}, "children" : []},{"tablename" : "ad_field", "data" : {"ad_field_id":10112,
 "name":"Record ID",
 "ad_client_id":0,
 "ad_column_id":11549,
 "ad_fieldgroup_id":null,
 "ad_org_id":0,
 "ad_reference_id":null,
 "ad_reference_value_id":null,
 "ad_tab_id":574,
 "ad_val_rule_id":null,
 "columnspan":2,
 "created":"2004-03-17T18:11:07",
 "createdby":0,
 "defaultvalue":null,
 "description":"Direct internal record ID",
 "displaylength":23,
 "displaylogic":null,
 "entitytype":"Workflow",
 "help":"The Record ID is the internal unique identifier of a record. Please note that zooming to the record may not be successful for Orders, Invoices and Shipment/Receipts as sometimes the Sales Order type is not known.",
 "included_tab_id":null,
 "infofactoryclass":null,
 "isactive":"Y",
 "isallowcopy":null,
 "isallownewattributeinstance":"N",
 "iscentrallymaintained":"Y",
 "isdisplayed":"Y",
 "isdisplayedgrid":"Y",
 "isencrypted":"N",
 "isfieldonly":"N",
 "isheading":"N",
 "ismandatory":null,
 "isquickentry":null,
 "isreadonly":"N",
 "issameline":"Y",
 "numlines":1,
 "obscuretype":null,
 "seqno":120,
 "seqnogrid":null,
 "sortno":null,
 "updated":"2000-01-02T00:00:00",
 "updatedby":0,
 "xposition":5}, "children" : []},{"tablename" : "ad_field", "data" : {"ad_field_id":10189,
 "name":"Created",
 "ad_client_id":0,
 "ad_column_id":10456,
 "ad_fieldgroup_id":null,
 "ad_org_id":0,
 "ad_reference_id":null,
 "ad_reference_value_id":null,
 "ad_tab_id":574,
 "ad_val_rule_id":null,
 "columnspan":2,
 "created":"2004-03-22T23:46:45",
 "createdby":0,
 "defaultvalue":null,
 "description":"Date this record was created",
 "displaylength":20,
 "displaylogic":null,
 "entitytype":"Workflow",
 "help":"The Created field indicates the date that this record was created.",
 "included_tab_id":null,
 "infofactoryclass":null,
 "isactive":"Y",
 "isallowcopy":null,
 "isallownewattributeinstance":"N",
 "iscentrallymaintained":"Y",
 "isdisplayed":"Y",
 "isdisplayedgrid":"Y",
 "isencrypted":"N",
 "isfieldonly":"N",
 "isheading":"N",
 "ismandatory":null,
 "isquickentry":null,
 "isreadonly":"Y",
 "issameline":"Y",
 "numlines":1,
 "obscuretype":null,
 "seqno":70,
 "seqnogrid":null,
 "sortno":-2,
 "updated":"2000-01-02T00:00:00",
 "updatedby":0,
 "xposition":4}, "children" : []}]}]}]