[{"tablename" : "ad_element", "data" : {"ad_element_id":243,
 "columnname":"Costs",
 "ad_client_id":0,
 "ad_org_id":0,
 "ad_reference_id":37,
 "ad_reference_value_id":null,
 "created":"1999-11-19T10:07:43",
 "createdby":0,
 "description":"Costs in accounting currency",
 "entitytype":"Sales and Marketing",
 "fieldlength":22,
 "help":"The Costs indicates the cost of a campaign in an Organizations accounting currency.",
 "isactive":"Y",
 "name":"Costs",
 "po_description":null,
 "po_help":null,
 "po_name":null,
 "po_printname":null,
 "printname":"Costs",
 "updated":"2000-01-02T00:00:00",
 "updatedby":0}, "children" : []},
 {"tablename" : "ad_element", "data" : {"ad_element_id":551,
 "columnname":"C_Channel_ID",
 "ad_client_id":0,
 "ad_org_id":0,
 "ad_reference_id":19,
 "ad_reference_value_id":null,
 "created":"1999-11-19T10:07:43",
 "createdby":0,
 "description":"Sales Channel",
 "entitytype":"Sales and Marketing",
 "fieldlength":22,
 "help":"The Sales Channel identifies a channel (or method) of sales generation.",
 "isactive":"Y",
 "name":"Channel",
 "po_description":null,
 "po_help":null,
 "po_name":null,
 "po_printname":null,
 "printname":"Channel",
 "updated":"2000-01-02T00:00:00",
 "updatedby":0}, "children" : []},
 {"tablename" : "ad_element", "data" : {"ad_element_id":1543,
 "columnname":"ActualAmt",
 "ad_client_id":0,
 "ad_org_id":0,
 "ad_reference_id":12,
 "ad_reference_value_id":null,
 "created":"2001-03-11T17:37:01",
 "createdby":0,
 "description":"The actual amount",
 "entitytype":"Sales and Marketing",
 "fieldlength":22,
 "help":"Actual amount indicates the agreed upon amount for a document.",
 "isactive":"Y",
 "name":"Actual Amount",
 "po_description":null,
 "po_help":null,
 "po_name":null,
 "po_printname":null,
 "printname":"Actual Amt",
 "updated":"2000-01-02T00:00:00",
 "updatedby":0}, "children" : []},
 {"tablename" : "ad_element", "data" : {"ad_element_id":1544,
 "columnname":"ActualQty",
 "ad_client_id":0,
 "ad_org_id":0,
 "ad_reference_id":29,
 "ad_reference_value_id":null,
 "created":"2001-03-11T17:37:01",
 "createdby":0,
 "description":"The actual quantity",
 "entitytype":"Sales and Marketing",
 "fieldlength":22,
 "help":"The Actual Quantity indicates the quantity as referenced on a document.",
 "isactive":"Y",
 "name":"Actual Quantity",
 "po_description":null,
 "po_help":null,
 "po_name":null,
 "po_printname":null,
 "printname":"Actual Qty",
 "updated":"2000-01-02T00:00:00",
 "updatedby":0}, "children" : []},
 {"tablename" : "ad_element", "data" : {"ad_element_id":1545,
 "columnname":"AmtMultiplier",
 "ad_client_id":0,
 "ad_org_id":0,
 "ad_reference_id":22,
 "ad_reference_value_id":null,
 "created":"2001-03-11T17:37:01",
 "createdby":0,
 "description":"Multiplier Amount for generating commissions",
 "entitytype":"Sales and Marketing",
 "fieldlength":22,
 "help":"The Multiplier Amount indicates the amount to multiply the total amount generated by this commission run by.",
 "isactive":"Y",
 "name":"Multiplier Amount",
 "po_description":null,
 "po_help":null,
 "po_name":null,
 "po_printname":null,
 "printname":"Multiplier Amt",
 "updated":"2000-01-02T00:00:00",
 "updatedby":0}, "children" : []},
 {"tablename" : "ad_element", "data" : {"ad_element_id":1546,
 "columnname":"AmtSubtract",
 "ad_client_id":0,
 "ad_org_id":0,
 "ad_reference_id":12,
 "ad_reference_value_id":null,
 "created":"2001-03-11T17:37:01",
 "createdby":0,
 "description":"Subtract Amount for generating commissions",
 "entitytype":"Sales and Marketing",
 "fieldlength":22,
 "help":"The Subtract Amount indicates the amount to subtract from the total amount prior to multiplication.",
 "isactive":"Y",
 "name":"Subtract Amount",
 "po_description":null,
 "po_help":null,
 "po_name":null,
 "po_printname":null,
 "printname":"Subtract Amt",
 "updated":"2000-01-02T00:00:00",
 "updatedby":0}, "children" : []},
 {"tablename" : "ad_element", "data" : {"ad_element_id":1547,
 "columnname":"C_Commission_ID",
 "ad_client_id":0,
 "ad_org_id":0,
 "ad_reference_id":13,
 "ad_reference_value_id":null,
 "created":"2001-03-11T17:37:01",
 "createdby":0,
 "description":"Commission",
 "entitytype":"Sales and Marketing",
 "fieldlength":22,
 "help":"The Commission Rules or internal or external company agents, sales reps or vendors.",
 "isactive":"Y",
 "name":"Commission",
 "po_description":null,
 "po_help":null,
 "po_name":null,
 "po_printname":null,
 "printname":"Commission",
 "updated":"2000-01-02T00:00:00",
 "updatedby":0}, "children" : []},
 {"tablename" : "ad_element", "data" : {"ad_element_id":1548,
 "columnname":"C_CommissionAmt_ID",
 "ad_client_id":0,
 "ad_org_id":0,
 "ad_reference_id":13,
 "ad_reference_value_id":null,
 "created":"2001-03-11T17:37:01",
 "createdby":0,
 "description":"Generated Commission Amount ",
 "entitytype":"Sales and Marketing",
 "fieldlength":22,
 "help":"The Commission Amount indicates the resulting amount from a Commission Run.",
 "isactive":"Y",
 "name":"Commission Amount",
 "po_description":null,
 "po_help":null,
 "po_name":null,
 "po_printname":null,
 "printname":"Comm Amt",
 "updated":"2005-02-25T16:27:01",
 "updatedby":100}, "children" : []},
 {"tablename" : "ad_element", "data" : {"ad_element_id":1549,
 "columnname":"C_CommissionLine_ID",
 "ad_client_id":0,
 "ad_org_id":0,
 "ad_reference_id":19,
 "ad_reference_value_id":null,
 "created":"2001-03-11T17:37:01",
 "createdby":0,
 "description":"Commission Line",
 "entitytype":"Sales and Marketing",
 "fieldlength":22,
 "help":"The Commission Line is a unique instance of a Commission Run.  If the commission run was done in summary mode then there will be a single line representing the selected documents totals.  If the commission run was done in detail mode then each document that was included in the run will have its own commission line.",
 "isactive":"Y",
 "name":"Commission Line",
 "po_description":null,
 "po_help":null,
 "po_name":null,
 "po_printname":null,
 "printname":"Comm Line",
 "updated":"2005-02-25T16:27:12",
 "updatedby":100}, "children" : []},
 {"tablename" : "ad_element", "data" : {"ad_element_id":1554,
 "columnname":"CommissionAmt",
 "ad_client_id":0,
 "ad_org_id":0,
 "ad_reference_id":12,
 "ad_reference_value_id":null,
 "created":"2001-03-11T17:37:01",
 "createdby":0,
 "description":"Commission Amount",
 "entitytype":"Sales and Marketing",
 "fieldlength":22,
 "help":"The Commission Amount is the total calculated commission.  It is based on the parameters as defined for this Commission Run.",
 "isactive":"Y",
 "name":"Commission Amount",
 "po_description":null,
 "po_help":null,
 "po_name":null,
 "po_printname":null,
 "printname":"Comm Amt",
 "updated":"2005-02-25T16:28:47",
 "updatedby":100}, "children" : []},
 {"tablename" : "ad_element", "data" : {"ad_element_id":1555,
 "columnname":"ConvertedAmt",
 "ad_client_id":0,
 "ad_org_id":0,
 "ad_reference_id":12,
 "ad_reference_value_id":null,
 "created":"2001-03-11T17:37:01",
 "createdby":0,
 "description":"Converted Amount",
 "entitytype":"Sales and Marketing",
 "fieldlength":22,
 "help":"The Converted Amount is the result of multiplying the Source Amount by the Conversion Rate for this target currency.",
 "isactive":"Y",
 "name":"Converted Amount",
 "po_description":null,
 "po_help":null,
 "po_name":null,
 "po_printname":null,
 "printname":"Converted",
 "updated":"2000-01-02T00:00:00",
 "updatedby":0}, "children" : []},
 {"tablename" : "ad_element", "data" : {"ad_element_id":1558,
 "columnname":"DocBasisType",
 "ad_client_id":0,
 "ad_org_id":0,
 "ad_reference_id":17,
 "ad_reference_value_id":224,
 "created":"2001-03-11T17:37:02",
 "createdby":0,
 "description":"Basis for the calculation the commission",
 "entitytype":"Sales and Marketing",
 "fieldlength":1,
 "help":"The Calculation Basis indicates the basis to be used for the commission calculation. ",
 "isactive":"Y",
 "name":"Calculation Basis",
 "po_description":null,
 "po_help":null,
 "po_name":null,
 "po_printname":null,
 "printname":"Calculation Basis",
 "updated":"2000-01-02T00:00:00",
 "updatedby":0}, "children" : []},
 {"tablename" : "ad_element", "data" : {"ad_element_id":1562,
 "columnname":"IsPositiveOnly",
 "ad_client_id":0,
 "ad_org_id":0,
 "ad_reference_id":20,
 "ad_reference_value_id":null,
 "created":"2001-03-11T17:37:02",
 "createdby":0,
 "description":"Do not generate negative commissions",
 "entitytype":"Sales and Marketing",
 "fieldlength":1,
 "help":"The Positive Only check box indicates that if the result of the subtraction is negative, it is ignored.  This would mean that negative commissions would not be generated.",
 "isactive":"Y",
 "name":"Positive only",
 "po_description":null,
 "po_help":null,
 "po_name":null,
 "po_printname":null,
 "printname":"Positive only",
 "updated":"2000-01-02T00:00:00",
 "updatedby":0}, "children" : []},
 {"tablename" : "ad_element", "data" : {"ad_element_id":1569,
 "columnname":"QtyMultiplier",
 "ad_client_id":0,
 "ad_org_id":0,
 "ad_reference_id":22,
 "ad_reference_value_id":null,
 "created":"2001-03-11T17:37:02",
 "createdby":0,
 "description":"Value to multiply quantities by for generating commissions.",
 "entitytype":"Sales and Marketing",
 "fieldlength":22,
 "help":"The Multiplier Quantity field indicates the amount to multiply the quantities accumulated for this commission run.",
 "isactive":"Y",
 "name":"Multiplier Quantity",
 "po_description":null,
 "po_help":null,
 "po_name":null,
 "po_printname":null,
 "printname":"Multiplier Qty",
 "updated":"2000-01-02T00:00:00",
 "updatedby":0}, "children" : []},
 {"tablename" : "ad_element", "data" : {"ad_element_id":1570,
 "columnname":"QtySubtract",
 "ad_client_id":0,
 "ad_org_id":0,
 "ad_reference_id":22,
 "ad_reference_value_id":null,
 "created":"2001-03-11T17:37:02",
 "createdby":0,
 "description":"Quantity to subtract when generating commissions",
 "entitytype":"Sales and Marketing",
 "fieldlength":22,
 "help":"The Quantity Subtract identifies the quantity to be subtracted before multiplication",
 "isactive":"Y",
 "name":"Subtract Quantity",
 "po_description":null,
 "po_help":null,
 "po_name":null,
 "po_printname":null,
 "printname":"Subtract Qty",
 "updated":"2000-01-02T00:00:00",
 "updatedby":0}, "children" : []},
 {"tablename" : "ad_element", "data" : {"ad_element_id":1572,
 "columnname":"C_CommissionRun_ID",
 "ad_client_id":0,
 "ad_org_id":0,
 "ad_reference_id":19,
 "ad_reference_value_id":null,
 "created":"2001-03-31T11:46:25",
 "createdby":0,
 "description":"Commission Run or Process",
 "entitytype":"Sales and Marketing",
 "fieldlength":22,
 "help":"The Commission Run is a unique system defined identifier of a specific run of commission.  When a Commission is processed on the Commission Screen, the Commission Run will display.",
 "isactive":"Y",
 "name":"Commission Run",
 "po_description":null,
 "po_help":null,
 "po_name":null,
 "po_printname":null,
 "printname":"Comm Run",
 "updated":"2005-02-25T16:27:18",
 "updatedby":100}, "children" : []},
 {"tablename" : "ad_element", "data" : {"ad_element_id":1573,
 "columnname":"CommissionOrders",
 "ad_client_id":0,
 "ad_org_id":0,
 "ad_reference_id":20,
 "ad_reference_value_id":null,
 "created":"2001-04-07T15:44:38",
 "createdby":0,
 "description":"Commission only Orders or Invoices, where this Sales Rep is entered",
 "entitytype":"Sales and Marketing",
 "fieldlength":1,
 "help":"Sales Reps are entered in Orders and Invoices. If selected, only Orders and Invoices for this Sales Reps are included in the calculation of the commission.",
 "isactive":"Y",
 "name":"Commission only specified Orders",
 "po_description":null,
 "po_help":null,
 "po_name":null,
 "po_printname":null,
 "printname":"Comm o Orders",
 "updated":"2005-02-25T16:28:39",
 "updatedby":100}, "children" : []},
 {"tablename" : "ad_element", "data" : {"ad_element_id":1574,
 "columnname":"ListDetails",
 "ad_client_id":0,
 "ad_org_id":0,
 "ad_reference_id":20,
 "ad_reference_value_id":null,
 "created":"2001-04-07T15:44:38",
 "createdby":0,
 "description":"List document details",
 "entitytype":"Sales and Marketing",
 "fieldlength":1,
 "help":"The List Details checkbox indicates that the details for each document line will be displayed.",
 "isactive":"Y",
 "name":"List Details",
 "po_description":null,
 "po_help":null,
 "po_name":null,
 "po_printname":null,
 "printname":"List Details",
 "updated":"2000-01-02T00:00:00",
 "updatedby":0}, "children" : []},
 {"tablename" : "ad_element", "data" : {"ad_element_id":1575,
 "columnname":"C_CommissionDetail_ID",
 "ad_client_id":0,
 "ad_org_id":0,
 "ad_reference_id":13,
 "ad_reference_value_id":null,
 "created":"2001-04-09T14:29:42",
 "createdby":0,
 "description":"Supporting information for Commission Amounts",
 "entitytype":"Sales and Marketing",
 "fieldlength":22,
 "help":"The Commission Detail provides supporting information on a Commission Run.  Each document line that was part of the Commission Run will be reflected here.",
 "isactive":"Y",
 "name":"Commission Detail",
 "po_description":null,
 "po_help":null,
 "po_name":null,
 "po_printname":null,
 "printname":"Comm Detail",
 "updated":"2005-02-25T16:27:07",
 "updatedby":100}, "children" : []},
 {"tablename" : "ad_element", "data" : {"ad_element_id":2680,
 "columnname":"Commission_BPartner_ID",
 "ad_client_id":0,
 "ad_org_id":0,
 "ad_reference_id":18,
 "ad_reference_value_id":232,
 "created":"2005-02-25T16:13:57",
 "createdby":0,
 "description":"Business Partner receiving the Commission",
 "entitytype":"Sales and Marketing",
 "fieldlength":22,
 "help":null,
 "isactive":"Y",
 "name":"Commissioned B.Partner",
 "po_description":null,
 "po_help":null,
 "po_name":null,
 "po_printname":null,
 "printname":"Comm B.Partner",
 "updated":"2005-02-25T16:24:07",
 "updatedby":100}, "children" : []},
 {"tablename" : "ad_element", "data" : {"ad_element_id":2681,
 "columnname":"CommissionConvertedAmt",
 "ad_client_id":0,
 "ad_org_id":0,
 "ad_reference_id":12,
 "ad_reference_value_id":null,
 "created":"2005-02-25T16:13:57",
 "createdby":0,
 "description":"Commission calculation basis Converted Amount",
 "entitytype":"Sales and Marketing",
 "fieldlength":22,
 "help":null,
 "isactive":"Y",
 "name":"Commission Converted Amount",
 "po_description":null,
 "po_help":null,
 "po_name":null,
 "po_printname":null,
 "printname":"Comm Conv Amt",
 "updated":"2005-02-25T16:29:10",
 "updatedby":100}, "children" : []},
 {"tablename" : "ad_element", "data" : {"ad_element_id":2682,
 "columnname":"CommissionQty",
 "ad_client_id":0,
 "ad_org_id":0,
 "ad_reference_id":29,
 "ad_reference_value_id":null,
 "created":"2005-02-25T16:13:57",
 "createdby":0,
 "description":"Commission calculation basis Quantity",
 "entitytype":"Sales and Marketing",
 "fieldlength":22,
 "help":null,
 "isactive":"Y",
 "name":"Commission Qty",
 "po_description":null,
 "po_help":null,
 "po_name":null,
 "po_printname":null,
 "printname":"Comm Qty",
 "updated":"2005-02-25T16:25:52",
 "updatedby":100}, "children" : []},
 {"tablename" : "ad_element", "data" : {"ad_element_id":2721,
 "columnname":"CloseDate",
 "ad_client_id":0,
 "ad_org_id":0,
 "ad_reference_id":16,
 "ad_reference_value_id":null,
 "created":"2005-04-26T23:51:00",
 "createdby":100,
 "description":"Close Date",
 "entitytype":"Sales and Marketing",
 "fieldlength":7,
 "help":"The Close Date indicates the last or final date",
 "isactive":"Y",
 "name":"Close Date",
 "po_description":null,
 "po_help":null,
 "po_name":null,
 "po_printname":null,
 "printname":"Close Date",
 "updated":"2012-06-08T15:15:20",
 "updatedby":0}, "children" : []},
 {"tablename" : "ad_element", "data" : {"ad_element_id":54396,
 "columnname":"Probability",
 "ad_client_id":0,
 "ad_org_id":0,
 "ad_reference_id":22,
 "ad_reference_value_id":null,
 "created":"2010-12-08T21:22:36",
 "createdby":100,
 "description":null,
 "entitytype":"Sales and Marketing",
 "fieldlength":10,
 "help":null,
 "isactive":"Y",
 "name":"Probability",
 "po_description":null,
 "po_help":null,
 "po_name":null,
 "po_printname":null,
 "printname":"Probability",
 "updated":"2010-12-08T21:23:20",
 "updatedby":100}, "children" : []},
 {"tablename" : "ad_element", "data" : {"ad_element_id":55293,
 "columnname":"WeightedAmt",
 "ad_client_id":0,
 "ad_org_id":0,
 "ad_reference_id":12,
 "ad_reference_value_id":null,
 "created":"2011-09-02T14:14:02",
 "createdby":100,
 "description":"The amount adjusted by the probability.",
 "entitytype":"Sales and Marketing",
 "fieldlength":22,
 "help":null,
 "isactive":"Y",
 "name":"Weighted Amount",
 "po_description":null,
 "po_help":null,
 "po_name":null,
 "po_printname":null,
 "printname":"Weighted Amount",
 "updated":"2011-09-02T14:14:02",
 "updatedby":100}, "children" : []},
 {"tablename" : "ad_element", "data" : {"ad_element_id":55353,
 "columnname":"C_ContactActivity_ID",
 "ad_client_id":0,
 "ad_org_id":0,
 "ad_reference_id":13,
 "ad_reference_value_id":null,
 "created":"2011-10-13T14:30:47",
 "createdby":100,
 "description":"Events, tasks, communications related to a contact",
 "entitytype":"Sales and Marketing",
 "fieldlength":22,
 "help":null,
 "isactive":"Y",
 "name":"Contact Activity",
 "po_description":null,
 "po_help":null,
 "po_name":null,
 "po_printname":null,
 "printname":"Contact Activity",
 "updated":"2012-06-08T15:16:03",
 "updatedby":0}, "children" : []},
 {"tablename" : "ad_element", "data" : {"ad_element_id":55354,
 "columnname":"ContactActivityType",
 "ad_client_id":0,
 "ad_org_id":0,
 "ad_reference_id":17,
 "ad_reference_value_id":53423,
 "created":"2011-10-13T14:40:42",
 "createdby":100,
 "description":"Type of activity, e.g. task, email, phone call",
 "entitytype":"Sales and Marketing",
 "fieldlength":10,
 "help":null,
 "isactive":"Y",
 "name":"Activity Type",
 "po_description":null,
 "po_help":null,
 "po_name":null,
 "po_printname":null,
 "printname":"Activity Type",
 "updated":"2011-10-13T14:40:42",
 "updatedby":100}, "children" : []}]