[{"tablename" : "ad_window", "data" : {"ad_window_id":351,
 "name":"Position",
 "ad_client_id":0,
 "ad_color_id":null,
 "ad_image_id":null,
 "ad_org_id":0,
 "created":"2005-05-15T01:54:15",
 "createdby":100,
 "description":"Maintain Job Positions",
 "entitytype":"Human Resource & Payroll",
 "help":"Maintain internal (employee) or external positions",
 "isactive":"Y",
 "isbetafunctionality":"Y",
 "isdefault":"N",
 "issotrx":"Y",
 "processing":"N",
 "updated":"2011-11-02T16:35:05",
 "updatedby":0,
 "windowtype":"M",
 "winheight":0,
 "winwidth":0}, "children" : [{"tablename" : "ad_tab", "data" : {"ad_tab_id":721,
 "name":"Position",
 "ad_window_id":351,
 "ad_client_id":0,
 "ad_column_id":null,
 "ad_columnsortorder_id":null,
 "ad_columnsortyesno_id":null,
 "ad_image_id":null,
 "ad_org_id":0,
 "ad_process_id":null,
 "ad_table_id":789,
 "commitwarning":null,
 "created":"2005-05-15T01:55:04",
 "createdby":100,
 "description":"Maintain Job Position",
 "displaylogic":null,
 "entitytype":"Human Resource & Payroll",
 "hastree":"N",
 "help":"Maintain internal (employee) or external positions",
 "importfields":"N",
 "included_tab_id":null,
 "isactive":"Y",
 "isadvancedtab":"N",
 "isinfotab":"N",
 "isinheritfiltertoreports":"N",
 "isinsertrecord":"Y",
 "isreadonly":"N",
 "issinglerow":"N",
 "issorttab":"N",
 "istranslationtab":"N",
 "orderbyclause":null,
 "parent_column_id":null,
 "processing":"N",
 "readonlylogic":null,
 "seqno":10,
 "tablevel":0,
 "updated":"2005-09-16T18:10:02",
 "updatedby":100,
 "whereclause":null}, "children" : [{"tablename" : "ad_field", "data" : {"ad_field_id":11683,
 "name":"Active",
 "ad_client_id":0,
 "ad_column_id":13784,
 "ad_fieldgroup_id":null,
 "ad_org_id":0,
 "ad_reference_id":null,
 "ad_reference_value_id":null,
 "ad_tab_id":721,
 "ad_val_rule_id":null,
 "columnspan":2,
 "created":"2005-05-15T01:55:10",
 "createdby":100,
 "defaultvalue":null,
 "description":"The record is active in the system",
 "displaylength":1,
 "displaylogic":null,
 "entitytype":"Human Resource & Payroll",
 "help":"There are two methods of making records unavailable in the system: One is to delete the record, the other is to de-activate the record. A de-activated record is not available for selection, but available for reports.\nThere are two reasons for de-activating and not deleting records:\n(1) The system requires the record for audit purposes.\n(2) The record is referenced by other records. E.g., you cannot delete a Business Partner, if there are invoices for this partner record existing. You de-activate the Business Partner and prevent that this record is used for future entries.",
 "included_tab_id":null,
 "infofactoryclass":null,
 "isactive":"Y",
 "isallowcopy":null,
 "isallownewattributeinstance":"N",
 "iscentrallymaintained":"Y",
 "isdisplayed":"Y",
 "isdisplayedgrid":"Y",
 "isencrypted":"N",
 "isfieldonly":"N",
 "isheading":"N",
 "ismandatory":null,
 "isquickentry":null,
 "isreadonly":"N",
 "issameline":"N",
 "numlines":1,
 "obscuretype":null,
 "seqno":60,
 "seqnogrid":null,
 "sortno":null,
 "updated":"2005-05-15T01:55:10",
 "updatedby":100,
 "xposition":2}, "children" : []},{"tablename" : "ad_field", "data" : {"ad_field_id":11684,
 "name":"Client",
 "ad_client_id":0,
 "ad_column_id":13782,
 "ad_fieldgroup_id":null,
 "ad_org_id":0,
 "ad_reference_id":null,
 "ad_reference_value_id":null,
 "ad_tab_id":721,
 "ad_val_rule_id":null,
 "columnspan":2,
 "created":"2005-05-15T01:55:10",
 "createdby":100,
 "defaultvalue":null,
 "description":"Client/Tenant for this installation.",
 "displaylength":14,
 "displaylogic":null,
 "entitytype":"Human Resource & Payroll",
 "help":"A Client is a company or a legal entity. You cannot share data between Clients. Tenant is a synonym for Client.",
 "included_tab_id":null,
 "infofactoryclass":null,
 "isactive":"Y",
 "isallowcopy":null,
 "isallownewattributeinstance":"N",
 "iscentrallymaintained":"Y",
 "isdisplayed":"Y",
 "isdisplayedgrid":"Y",
 "isencrypted":"N",
 "isfieldonly":"N",
 "isheading":"N",
 "ismandatory":null,
 "isquickentry":null,
 "isreadonly":"N",
 "issameline":"N",
 "numlines":1,
 "obscuretype":null,
 "seqno":10,
 "seqnogrid":null,
 "sortno":null,
 "updated":"2005-05-15T01:55:10",
 "updatedby":100,
 "xposition":1}, "children" : []},{"tablename" : "ad_field", "data" : {"ad_field_id":11685,
 "name":"Comment/Help",
 "ad_client_id":0,
 "ad_column_id":13791,
 "ad_fieldgroup_id":null,
 "ad_org_id":0,
 "ad_reference_id":null,
 "ad_reference_value_id":null,
 "ad_tab_id":721,
 "ad_val_rule_id":null,
 "columnspan":5,
 "created":"2005-05-15T01:55:10",
 "createdby":100,
 "defaultvalue":null,
 "description":"Comment or Hint",
 "displaylength":60,
 "displaylogic":null,
 "entitytype":"Human Resource & Payroll",
 "help":"The Help field contains a hint, comment or help about the use of this item.",
 "included_tab_id":null,
 "infofactoryclass":null,
 "isactive":"Y",
 "isallowcopy":null,
 "isallownewattributeinstance":"N",
 "iscentrallymaintained":"Y",
 "isdisplayed":"Y",
 "isdisplayedgrid":"Y",
 "isencrypted":"N",
 "isfieldonly":"N",
 "isheading":"N",
 "ismandatory":null,
 "isquickentry":null,
 "isreadonly":"N",
 "issameline":"N",
 "numlines":3,
 "obscuretype":null,
 "seqno":50,
 "seqnogrid":null,
 "sortno":null,
 "updated":"2005-05-15T01:55:10",
 "updatedby":100,
 "xposition":1}, "children" : []},{"tablename" : "ad_field", "data" : {"ad_field_id":11686,
 "name":"Description",
 "ad_client_id":0,
 "ad_column_id":13790,
 "ad_fieldgroup_id":null,
 "ad_org_id":0,
 "ad_reference_id":null,
 "ad_reference_value_id":null,
 "ad_tab_id":721,
 "ad_val_rule_id":null,
 "columnspan":5,
 "created":"2005-05-15T01:55:10",
 "createdby":100,
 "defaultvalue":null,
 "description":"Optional short description of the record",
 "displaylength":60,
 "displaylogic":null,
 "entitytype":"Human Resource & Payroll",
 "help":"A description is limited to 255 characters.",
 "included_tab_id":null,
 "infofactoryclass":null,
 "isactive":"Y",
 "isallowcopy":null,
 "isallownewattributeinstance":"N",
 "iscentrallymaintained":"Y",
 "isdisplayed":"Y",
 "isdisplayedgrid":"Y",
 "isencrypted":"N",
 "isfieldonly":"N",
 "isheading":"N",
 "ismandatory":null,
 "isquickentry":null,
 "isreadonly":"N",
 "issameline":"N",
 "numlines":1,
 "obscuretype":null,
 "seqno":40,
 "seqnogrid":null,
 "sortno":null,
 "updated":"2005-05-15T01:55:10",
 "updatedby":100,
 "xposition":1}, "children" : []},{"tablename" : "ad_field", "data" : {"ad_field_id":11687,
 "name":"Name",
 "ad_client_id":0,
 "ad_column_id":13789,
 "ad_fieldgroup_id":null,
 "ad_org_id":0,
 "ad_reference_id":null,
 "ad_reference_value_id":null,
 "ad_tab_id":721,
 "ad_val_rule_id":null,
 "columnspan":5,
 "created":"2005-05-15T01:55:10",
 "createdby":100,
 "defaultvalue":null,
 "description":"Alphanumeric identifier of the entity",
 "displaylength":60,
 "displaylogic":null,
 "entitytype":"Human Resource & Payroll",
 "help":"The name of an entity (record) is used as an default search option in addition to the search key. The name is up to 60 characters in length.",
 "included_tab_id":null,
 "infofactoryclass":null,
 "isactive":"Y",
 "isallowcopy":null,
 "isallownewattributeinstance":"N",
 "iscentrallymaintained":"Y",
 "isdisplayed":"Y",
 "isdisplayedgrid":"Y",
 "isencrypted":"N",
 "isfieldonly":"N",
 "isheading":"N",
 "ismandatory":null,
 "isquickentry":null,
 "isreadonly":"N",
 "issameline":"N",
 "numlines":1,
 "obscuretype":null,
 "seqno":30,
 "seqnogrid":null,
 "sortno":1,
 "updated":"2005-05-15T02:29:39",
 "updatedby":100,
 "xposition":1}, "children" : []},{"tablename" : "ad_field", "data" : {"ad_field_id":11688,
 "name":"Organisation",
 "ad_client_id":0,
 "ad_column_id":13783,
 "ad_fieldgroup_id":null,
 "ad_org_id":0,
 "ad_reference_id":null,
 "ad_reference_value_id":null,
 "ad_tab_id":721,
 "ad_val_rule_id":null,
 "columnspan":2,
 "created":"2005-05-15T01:55:10",
 "createdby":100,
 "defaultvalue":null,
 "description":"Organisational entity within client",
 "displaylength":14,
 "displaylogic":null,
 "entitytype":"Human Resource & Payroll",
 "help":"An organisation is a unit of your client or legal entity - examples are store, department. You can share data between organisations.",
 "included_tab_id":null,
 "infofactoryclass":null,
 "isactive":"Y",
 "isallowcopy":null,
 "isallownewattributeinstance":"N",
 "iscentrallymaintained":"Y",
 "isdisplayed":"Y",
 "isdisplayedgrid":"Y",
 "isencrypted":"N",
 "isfieldonly":"N",
 "isheading":"N",
 "ismandatory":null,
 "isquickentry":null,
 "isreadonly":"N",
 "issameline":"Y",
 "numlines":1,
 "obscuretype":null,
 "seqno":20,
 "seqnogrid":null,
 "sortno":null,
 "updated":"2005-05-15T02:01:09",
 "updatedby":100,
 "xposition":4}, "children" : []},{"tablename" : "ad_field", "data" : {"ad_field_id":11689,
 "name":"Position",
 "ad_client_id":0,
 "ad_column_id":13781,
 "ad_fieldgroup_id":null,
 "ad_org_id":0,
 "ad_reference_id":null,
 "ad_reference_value_id":null,
 "ad_tab_id":721,
 "ad_val_rule_id":null,
 "columnspan":2,
 "created":"2005-05-15T01:55:10",
 "createdby":100,
 "defaultvalue":null,
 "description":"Job Position",
 "displaylength":14,
 "displaylogic":null,
 "entitytype":"Human Resource & Payroll",
 "help":null,
 "included_tab_id":null,
 "infofactoryclass":null,
 "isactive":"Y",
 "isallowcopy":null,
 "isallownewattributeinstance":"N",
 "iscentrallymaintained":"Y",
 "isdisplayed":"N",
 "isdisplayedgrid":"Y",
 "isencrypted":"N",
 "isfieldonly":"N",
 "isheading":"N",
 "ismandatory":null,
 "isquickentry":null,
 "isreadonly":"N",
 "issameline":"N",
 "numlines":1,
 "obscuretype":null,
 "seqno":0,
 "seqnogrid":null,
 "sortno":null,
 "updated":"2005-05-15T01:55:10",
 "updatedby":100,
 "xposition":1}, "children" : []},{"tablename" : "ad_field", "data" : {"ad_field_id":11690,
 "name":"Position Category",
 "ad_client_id":0,
 "ad_column_id":13792,
 "ad_fieldgroup_id":null,
 "ad_org_id":0,
 "ad_reference_id":null,
 "ad_reference_value_id":null,
 "ad_tab_id":721,
 "ad_val_rule_id":null,
 "columnspan":2,
 "created":"2005-05-15T01:55:10",
 "createdby":100,
 "defaultvalue":null,
 "description":"Job Position Category",
 "displaylength":14,
 "displaylogic":null,
 "entitytype":"Human Resource & Payroll",
 "help":"Classification of Job Positions",
 "included_tab_id":null,
 "infofactoryclass":null,
 "isactive":"Y",
 "isallowcopy":null,
 "isallownewattributeinstance":"N",
 "iscentrallymaintained":"Y",
 "isdisplayed":"Y",
 "isdisplayedgrid":"Y",
 "isencrypted":"N",
 "isfieldonly":"N",
 "isheading":"N",
 "ismandatory":null,
 "isquickentry":null,
 "isreadonly":"N",
 "issameline":"N",
 "numlines":1,
 "obscuretype":null,
 "seqno":70,
 "seqnogrid":null,
 "sortno":null,
 "updated":"2005-05-15T01:55:10",
 "updatedby":100,
 "xposition":1}, "children" : []},{"tablename" : "ad_field", "data" : {"ad_field_id":12322,
 "name":"Employee",
 "ad_client_id":0,
 "ad_column_id":14397,
 "ad_fieldgroup_id":null,
 "ad_org_id":0,
 "ad_reference_id":null,
 "ad_reference_value_id":null,
 "ad_tab_id":721,
 "ad_val_rule_id":null,
 "columnspan":2,
 "created":"2005-09-16T18:10:03",
 "createdby":100,
 "defaultvalue":null,
 "description":"Indicates if  this Business Partner is an employee",
 "displaylength":1,
 "displaylogic":null,
 "entitytype":"Human Resource & Payroll",
 "help":"The Employee checkbox indicates if this Business Partner is an Employee.  If it is selected, additional fields will display which further identify this employee.",
 "included_tab_id":null,
 "infofactoryclass":null,
 "isactive":"Y",
 "isallowcopy":null,
 "isallownewattributeinstance":"N",
 "iscentrallymaintained":"Y",
 "isdisplayed":"Y",
 "isdisplayedgrid":"Y",
 "isencrypted":"N",
 "isfieldonly":"N",
 "isheading":"N",
 "ismandatory":null,
 "isquickentry":null,
 "isreadonly":"N",
 "issameline":"Y",
 "numlines":1,
 "obscuretype":null,
 "seqno":null,
 "seqnogrid":null,
 "sortno":null,
 "updated":"2005-09-16T18:10:18",
 "updatedby":100,
 "xposition":5}, "children" : []}]},{"tablename" : "ad_tab", "data" : {"ad_tab_id":722,
 "name":"Assignment",
 "ad_window_id":351,
 "ad_client_id":0,
 "ad_column_id":13813,
 "ad_columnsortorder_id":null,
 "ad_columnsortyesno_id":null,
 "ad_image_id":null,
 "ad_org_id":0,
 "ad_process_id":null,
 "ad_table_id":791,
 "commitwarning":null,
 "created":"2005-05-15T01:56:43",
 "createdby":100,
 "description":"Employee Assignment",
 "displaylogic":null,
 "entitytype":"Human Resource & Payroll",
 "hastree":"N",
 "help":null,
 "importfields":"N",
 "included_tab_id":null,
 "isactive":"Y",
 "isadvancedtab":"N",
 "isinfotab":"N",
 "isinheritfiltertoreports":"N",
 "isinsertrecord":"Y",
 "isreadonly":"N",
 "issinglerow":"N",
 "issorttab":"N",
 "istranslationtab":"N",
 "orderbyclause":null,
 "parent_column_id":null,
 "processing":"N",
 "readonlylogic":null,
 "seqno":20,
 "tablevel":1,
 "updated":"2005-05-15T01:56:43",
 "updatedby":100,
 "whereclause":null}, "children" : [{"tablename" : "ad_field", "data" : {"ad_field_id":11691,
 "name":"Active",
 "ad_client_id":0,
 "ad_column_id":13807,
 "ad_fieldgroup_id":null,
 "ad_org_id":0,
 "ad_reference_id":null,
 "ad_reference_value_id":null,
 "ad_tab_id":722,
 "ad_val_rule_id":null,
 "columnspan":2,
 "created":"2005-05-15T01:56:48",
 "createdby":100,
 "defaultvalue":null,
 "description":"The record is active in the system",
 "displaylength":1,
 "displaylogic":null,
 "entitytype":"Human Resource & Payroll",
 "help":"There are two methods of making records unavailable in the system: One is to delete the record, the other is to de-activate the record. A de-activated record is not available for selection, but available for reports.\nThere are two reasons for de-activating and not deleting records:\n(1) The system requires the record for audit purposes.\n(2) The record is referenced by other records. E.g., you cannot delete a Business Partner, if there are invoices for this partner record existing. You de-activate the Business Partner and prevent that this record is used for future entries.",
 "included_tab_id":null,
 "infofactoryclass":null,
 "isactive":"Y",
 "isallowcopy":null,
 "isallownewattributeinstance":"N",
 "iscentrallymaintained":"Y",
 "isdisplayed":"Y",
 "isdisplayedgrid":"Y",
 "isencrypted":"N",
 "isfieldonly":"N",
 "isheading":"N",
 "ismandatory":null,
 "isquickentry":null,
 "isreadonly":"N",
 "issameline":"N",
 "numlines":1,
 "obscuretype":null,
 "seqno":50,
 "seqnogrid":null,
 "sortno":null,
 "updated":"2005-05-15T01:56:48",
 "updatedby":100,
 "xposition":2}, "children" : []},{"tablename" : "ad_field", "data" : {"ad_field_id":11692,
 "name":"Client",
 "ad_client_id":0,
 "ad_column_id":13805,
 "ad_fieldgroup_id":null,
 "ad_org_id":0,
 "ad_reference_id":null,
 "ad_reference_value_id":null,
 "ad_tab_id":722,
 "ad_val_rule_id":null,
 "columnspan":2,
 "created":"2005-05-15T01:56:48",
 "createdby":100,
 "defaultvalue":null,
 "description":"Client/Tenant for this installation.",
 "displaylength":14,
 "displaylogic":null,
 "entitytype":"Human Resource & Payroll",
 "help":"A Client is a company or a legal entity. You cannot share data between Clients. Tenant is a synonym for Client.",
 "included_tab_id":null,
 "infofactoryclass":null,
 "isactive":"Y",
 "isallowcopy":null,
 "isallownewattributeinstance":"N",
 "iscentrallymaintained":"Y",
 "isdisplayed":"Y",
 "isdisplayedgrid":"Y",
 "isencrypted":"N",
 "isfieldonly":"N",
 "isheading":"N",
 "ismandatory":null,
 "isquickentry":null,
 "isreadonly":"Y",
 "issameline":"N",
 "numlines":1,
 "obscuretype":null,
 "seqno":10,
 "seqnogrid":null,
 "sortno":null,
 "updated":"2005-05-15T02:01:47",
 "updatedby":100,
 "xposition":1}, "children" : []},{"tablename" : "ad_field", "data" : {"ad_field_id":11693,
 "name":"Description",
 "ad_client_id":0,
 "ad_column_id":13816,
 "ad_fieldgroup_id":null,
 "ad_org_id":0,
 "ad_reference_id":null,
 "ad_reference_value_id":null,
 "ad_tab_id":722,
 "ad_val_rule_id":null,
 "columnspan":5,
 "created":"2005-05-15T01:56:48",
 "createdby":100,
 "defaultvalue":null,
 "description":"Optional short description of the record",
 "displaylength":60,
 "displaylogic":null,
 "entitytype":"Human Resource & Payroll",
 "help":"A description is limited to 255 characters.",
 "included_tab_id":null,
 "infofactoryclass":null,
 "isactive":"Y",
 "isallowcopy":null,
 "isallownewattributeinstance":"N",
 "iscentrallymaintained":"Y",
 "isdisplayed":"Y",
 "isdisplayedgrid":"Y",
 "isencrypted":"N",
 "isfieldonly":"N",
 "isheading":"N",
 "ismandatory":null,
 "isquickentry":null,
 "isreadonly":"N",
 "issameline":"N",
 "numlines":1,
 "obscuretype":null,
 "seqno":80,
 "seqnogrid":null,
 "sortno":null,
 "updated":"2005-05-15T01:56:48",
 "updatedby":100,
 "xposition":1}, "children" : []},{"tablename" : "ad_field", "data" : {"ad_field_id":11694,
 "name":"Organisation",
 "ad_client_id":0,
 "ad_column_id":13806,
 "ad_fieldgroup_id":null,
 "ad_org_id":0,
 "ad_reference_id":null,
 "ad_reference_value_id":null,
 "ad_tab_id":722,
 "ad_val_rule_id":null,
 "columnspan":2,
 "created":"2005-05-15T01:56:48",
 "createdby":100,
 "defaultvalue":null,
 "description":"Organisational entity within client",
 "displaylength":14,
 "displaylogic":null,
 "entitytype":"Human Resource & Payroll",
 "help":"An organisation is a unit of your client or legal entity - examples are store, department. You can share data between organisations.",
 "included_tab_id":null,
 "infofactoryclass":null,
 "isactive":"Y",
 "isallowcopy":null,
 "isallownewattributeinstance":"N",
 "iscentrallymaintained":"Y",
 "isdisplayed":"Y",
 "isdisplayedgrid":"Y",
 "isencrypted":"N",
 "isfieldonly":"N",
 "isheading":"N",
 "ismandatory":null,
 "isquickentry":null,
 "isreadonly":"Y",
 "issameline":"Y",
 "numlines":1,
 "obscuretype":null,
 "seqno":20,
 "seqnogrid":null,
 "sortno":null,
 "updated":"2005-05-15T02:01:51",
 "updatedby":100,
 "xposition":4}, "children" : []},{"tablename" : "ad_field", "data" : {"ad_field_id":11695,
 "name":"Position",
 "ad_client_id":0,
 "ad_column_id":13813,
 "ad_fieldgroup_id":null,
 "ad_org_id":0,
 "ad_reference_id":null,
 "ad_reference_value_id":null,
 "ad_tab_id":722,
 "ad_val_rule_id":null,
 "columnspan":2,
 "created":"2005-05-15T01:56:48",
 "createdby":100,
 "defaultvalue":null,
 "description":"Job Position",
 "displaylength":14,
 "displaylogic":null,
 "entitytype":"Human Resource & Payroll",
 "help":null,
 "included_tab_id":null,
 "infofactoryclass":null,
 "isactive":"Y",
 "isallowcopy":null,
 "isallownewattributeinstance":"N",
 "iscentrallymaintained":"Y",
 "isdisplayed":"Y",
 "isdisplayedgrid":"Y",
 "isencrypted":"N",
 "isfieldonly":"N",
 "isheading":"N",
 "ismandatory":null,
 "isquickentry":null,
 "isreadonly":"Y",
 "issameline":"N",
 "numlines":1,
 "obscuretype":null,
 "seqno":30,
 "seqnogrid":null,
 "sortno":null,
 "updated":"2005-05-15T02:01:56",
 "updatedby":100,
 "xposition":1}, "children" : []},{"tablename" : "ad_field", "data" : {"ad_field_id":11696,
 "name":"Position Assignment",
 "ad_client_id":0,
 "ad_column_id":13804,
 "ad_fieldgroup_id":null,
 "ad_org_id":0,
 "ad_reference_id":null,
 "ad_reference_value_id":null,
 "ad_tab_id":722,
 "ad_val_rule_id":null,
 "columnspan":2,
 "created":"2005-05-15T01:56:48",
 "createdby":100,
 "defaultvalue":null,
 "description":"Assignment of Employee (User) to Job Position",
 "displaylength":14,
 "displaylogic":null,
 "entitytype":"Human Resource & Payroll",
 "help":null,
 "included_tab_id":null,
 "infofactoryclass":null,
 "isactive":"Y",
 "isallowcopy":null,
 "isallownewattributeinstance":"N",
 "iscentrallymaintained":"Y",
 "isdisplayed":"N",
 "isdisplayedgrid":"Y",
 "isencrypted":"N",
 "isfieldonly":"N",
 "isheading":"N",
 "ismandatory":null,
 "isquickentry":null,
 "isreadonly":"N",
 "issameline":"N",
 "numlines":1,
 "obscuretype":null,
 "seqno":0,
 "seqnogrid":null,
 "sortno":null,
 "updated":"2010-06-14T20:09:44.146448",
 "updatedby":100,
 "xposition":1}, "children" : []},{"tablename" : "ad_field", "data" : {"ad_field_id":11697,
 "name":"User/Contact",
 "ad_client_id":0,
 "ad_column_id":13812,
 "ad_fieldgroup_id":null,
 "ad_org_id":0,
 "ad_reference_id":null,
 "ad_reference_value_id":null,
 "ad_tab_id":722,
 "ad_val_rule_id":null,
 "columnspan":2,
 "created":"2005-05-15T01:56:48",
 "createdby":100,
 "defaultvalue":null,
 "description":"User within the system - Internal or Business Partner Contact",
 "displaylength":26,
 "displaylogic":null,
 "entitytype":"Human Resource & Payroll",
 "help":"The User identifies a unique user in the system. This could be an internal user or a business partner contact",
 "included_tab_id":null,
 "infofactoryclass":null,
 "isactive":"Y",
 "isallowcopy":null,
 "isallownewattributeinstance":"N",
 "iscentrallymaintained":"Y",
 "isdisplayed":"Y",
 "isdisplayedgrid":"Y",
 "isencrypted":"N",
 "isfieldonly":"N",
 "isheading":"N",
 "ismandatory":null,
 "isquickentry":null,
 "isreadonly":"N",
 "issameline":"N",
 "numlines":1,
 "obscuretype":null,
 "seqno":40,
 "seqnogrid":null,
 "sortno":1,
 "updated":"2005-05-15T02:30:03",
 "updatedby":100,
 "xposition":1}, "children" : []},{"tablename" : "ad_field", "data" : {"ad_field_id":11698,
 "name":"Valid from",
 "ad_client_id":0,
 "ad_column_id":13814,
 "ad_fieldgroup_id":null,
 "ad_org_id":0,
 "ad_reference_id":null,
 "ad_reference_value_id":null,
 "ad_tab_id":722,
 "ad_val_rule_id":null,
 "columnspan":2,
 "created":"2005-05-15T01:56:48",
 "createdby":100,
 "defaultvalue":null,
 "description":"Valid from including this date (first day)",
 "displaylength":20,
 "displaylogic":null,
 "entitytype":"Human Resource & Payroll",
 "help":"The Valid From date indicates the first day of a date range",
 "included_tab_id":null,
 "infofactoryclass":null,
 "isactive":"Y",
 "isallowcopy":null,
 "isallownewattributeinstance":"N",
 "iscentrallymaintained":"Y",
 "isdisplayed":"Y",
 "isdisplayedgrid":"Y",
 "isencrypted":"N",
 "isfieldonly":"N",
 "isheading":"N",
 "ismandatory":null,
 "isquickentry":null,
 "isreadonly":"N",
 "issameline":"N",
 "numlines":1,
 "obscuretype":null,
 "seqno":60,
 "seqnogrid":null,
 "sortno":-2,
 "updated":"2005-05-15T02:30:22",
 "updatedby":100,
 "xposition":1}, "children" : []},{"tablename" : "ad_field", "data" : {"ad_field_id":11699,
 "name":"Valid to",
 "ad_client_id":0,
 "ad_column_id":13815,
 "ad_fieldgroup_id":null,
 "ad_org_id":0,
 "ad_reference_id":null,
 "ad_reference_value_id":null,
 "ad_tab_id":722,
 "ad_val_rule_id":null,
 "columnspan":2,
 "created":"2005-05-15T01:56:48",
 "createdby":100,
 "defaultvalue":null,
 "description":"Valid to including this date (last day)",
 "displaylength":20,
 "displaylogic":null,
 "entitytype":"Human Resource & Payroll",
 "help":"The Valid To date indicates the last day of a date range",
 "included_tab_id":null,
 "infofactoryclass":null,
 "isactive":"Y",
 "isallowcopy":null,
 "isallownewattributeinstance":"N",
 "iscentrallymaintained":"Y",
 "isdisplayed":"Y",
 "isdisplayedgrid":"Y",
 "isencrypted":"N",
 "isfieldonly":"N",
 "isheading":"N",
 "ismandatory":null,
 "isquickentry":null,
 "isreadonly":"N",
 "issameline":"Y",
 "numlines":1,
 "obscuretype":null,
 "seqno":70,
 "seqnogrid":null,
 "sortno":null,
 "updated":"2005-05-15T02:02:07",
 "updatedby":100,
 "xposition":4}, "children" : []}]},{"tablename" : "ad_tab", "data" : {"ad_tab_id":723,
 "name":"Remuneration",
 "ad_window_id":351,
 "ad_client_id":0,
 "ad_column_id":13842,
 "ad_columnsortorder_id":null,
 "ad_columnsortyesno_id":null,
 "ad_image_id":null,
 "ad_org_id":0,
 "ad_process_id":null,
 "ad_table_id":793,
 "commitwarning":null,
 "created":"2005-05-15T01:57:42",
 "createdby":100,
 "description":"Position Remuneration",
 "displaylogic":null,
 "entitytype":"Human Resource & Payroll",
 "hastree":"N",
 "help":null,
 "importfields":"N",
 "included_tab_id":null,
 "isactive":"Y",
 "isadvancedtab":"N",
 "isinfotab":"N",
 "isinheritfiltertoreports":"N",
 "isinsertrecord":"Y",
 "isreadonly":"N",
 "issinglerow":"N",
 "issorttab":"N",
 "istranslationtab":"N",
 "orderbyclause":null,
 "parent_column_id":null,
 "processing":"N",
 "readonlylogic":null,
 "seqno":30,
 "tablevel":1,
 "updated":"2005-05-15T01:58:14",
 "updatedby":100,
 "whereclause":null}, "children" : [{"tablename" : "ad_field", "data" : {"ad_field_id":11700,
 "name":"Active",
 "ad_client_id":0,
 "ad_column_id":13837,
 "ad_fieldgroup_id":null,
 "ad_org_id":0,
 "ad_reference_id":null,
 "ad_reference_value_id":null,
 "ad_tab_id":723,
 "ad_val_rule_id":null,
 "columnspan":2,
 "created":"2005-05-15T02:02:26",
 "createdby":100,
 "defaultvalue":null,
 "description":"The record is active in the system",
 "displaylength":1,
 "displaylogic":null,
 "entitytype":"Human Resource & Payroll",
 "help":"There are two methods of making records unavailable in the system: One is to delete the record, the other is to de-activate the record. A de-activated record is not available for selection, but available for reports.\nThere are two reasons for de-activating and not deleting records:\n(1) The system requires the record for audit purposes.\n(2) The record is referenced by other records. E.g., you cannot delete a Business Partner, if there are invoices for this partner record existing. You de-activate the Business Partner and prevent that this record is used for future entries.",
 "included_tab_id":null,
 "infofactoryclass":null,
 "isactive":"Y",
 "isallowcopy":null,
 "isallownewattributeinstance":"N",
 "iscentrallymaintained":"Y",
 "isdisplayed":"Y",
 "isdisplayedgrid":"Y",
 "isencrypted":"N",
 "isfieldonly":"N",
 "isheading":"N",
 "ismandatory":null,
 "isquickentry":null,
 "isreadonly":"N",
 "issameline":"N",
 "numlines":1,
 "obscuretype":null,
 "seqno":50,
 "seqnogrid":null,
 "sortno":null,
 "updated":"2005-05-15T02:02:26",
 "updatedby":100,
 "xposition":2}, "children" : []},{"tablename" : "ad_field", "data" : {"ad_field_id":11701,
 "name":"Client",
 "ad_client_id":0,
 "ad_column_id":13835,
 "ad_fieldgroup_id":null,
 "ad_org_id":0,
 "ad_reference_id":null,
 "ad_reference_value_id":null,
 "ad_tab_id":723,
 "ad_val_rule_id":null,
 "columnspan":2,
 "created":"2005-05-15T02:02:26",
 "createdby":100,
 "defaultvalue":null,
 "description":"Client/Tenant for this installation.",
 "displaylength":14,
 "displaylogic":null,
 "entitytype":"Human Resource & Payroll",
 "help":"A Client is a company or a legal entity. You cannot share data between Clients. Tenant is a synonym for Client.",
 "included_tab_id":null,
 "infofactoryclass":null,
 "isactive":"Y",
 "isallowcopy":null,
 "isallownewattributeinstance":"N",
 "iscentrallymaintained":"Y",
 "isdisplayed":"Y",
 "isdisplayedgrid":"Y",
 "isencrypted":"N",
 "isfieldonly":"N",
 "isheading":"N",
 "ismandatory":null,
 "isquickentry":null,
 "isreadonly":"Y",
 "issameline":"N",
 "numlines":1,
 "obscuretype":null,
 "seqno":10,
 "seqnogrid":null,
 "sortno":null,
 "updated":"2005-05-15T02:03:28",
 "updatedby":100,
 "xposition":1}, "children" : []},{"tablename" : "ad_field", "data" : {"ad_field_id":11702,
 "name":"Description",
 "ad_client_id":0,
 "ad_column_id":13844,
 "ad_fieldgroup_id":null,
 "ad_org_id":0,
 "ad_reference_id":null,
 "ad_reference_value_id":null,
 "ad_tab_id":723,
 "ad_val_rule_id":null,
 "columnspan":5,
 "created":"2005-05-15T02:02:26",
 "createdby":100,
 "defaultvalue":null,
 "description":"Optional short description of the record",
 "displaylength":60,
 "displaylogic":null,
 "entitytype":"Human Resource & Payroll",
 "help":"A description is limited to 255 characters.",
 "included_tab_id":null,
 "infofactoryclass":null,
 "isactive":"Y",
 "isallowcopy":null,
 "isallownewattributeinstance":"N",
 "iscentrallymaintained":"Y",
 "isdisplayed":"Y",
 "isdisplayedgrid":"Y",
 "isencrypted":"N",
 "isfieldonly":"N",
 "isheading":"N",
 "ismandatory":null,
 "isquickentry":null,
 "isreadonly":"N",
 "issameline":"N",
 "numlines":1,
 "obscuretype":null,
 "seqno":80,
 "seqnogrid":null,
 "sortno":null,
 "updated":"2005-05-15T02:02:26",
 "updatedby":100,
 "xposition":1}, "children" : []},{"tablename" : "ad_field", "data" : {"ad_field_id":11703,
 "name":"Organisation",
 "ad_client_id":0,
 "ad_column_id":13836,
 "ad_fieldgroup_id":null,
 "ad_org_id":0,
 "ad_reference_id":null,
 "ad_reference_value_id":null,
 "ad_tab_id":723,
 "ad_val_rule_id":null,
 "columnspan":2,
 "created":"2005-05-15T02:02:26",
 "createdby":100,
 "defaultvalue":null,
 "description":"Organisational entity within client",
 "displaylength":14,
 "displaylogic":null,
 "entitytype":"Human Resource & Payroll",
 "help":"An organisation is a unit of your client or legal entity - examples are store, department. You can share data between organisations.",
 "included_tab_id":null,
 "infofactoryclass":null,
 "isactive":"Y",
 "isallowcopy":null,
 "isallownewattributeinstance":"N",
 "iscentrallymaintained":"Y",
 "isdisplayed":"Y",
 "isdisplayedgrid":"Y",
 "isencrypted":"N",
 "isfieldonly":"N",
 "isheading":"N",
 "ismandatory":null,
 "isquickentry":null,
 "isreadonly":"Y",
 "issameline":"Y",
 "numlines":1,
 "obscuretype":null,
 "seqno":20,
 "seqnogrid":null,
 "sortno":null,
 "updated":"2005-05-15T02:03:24",
 "updatedby":100,
 "xposition":4}, "children" : []},{"tablename" : "ad_field", "data" : {"ad_field_id":11704,
 "name":"Position",
 "ad_client_id":0,
 "ad_column_id":13842,
 "ad_fieldgroup_id":null,
 "ad_org_id":0,
 "ad_reference_id":null,
 "ad_reference_value_id":null,
 "ad_tab_id":723,
 "ad_val_rule_id":null,
 "columnspan":2,
 "created":"2005-05-15T02:02:27",
 "createdby":100,
 "defaultvalue":null,
 "description":"Job Position",
 "displaylength":14,
 "displaylogic":null,
 "entitytype":"Human Resource & Payroll",
 "help":null,
 "included_tab_id":null,
 "infofactoryclass":null,
 "isactive":"Y",
 "isallowcopy":null,
 "isallownewattributeinstance":"N",
 "iscentrallymaintained":"Y",
 "isdisplayed":"Y",
 "isdisplayedgrid":"Y",
 "isencrypted":"N",
 "isfieldonly":"N",
 "isheading":"N",
 "ismandatory":null,
 "isquickentry":null,
 "isreadonly":"Y",
 "issameline":"N",
 "numlines":1,
 "obscuretype":null,
 "seqno":30,
 "seqnogrid":null,
 "sortno":null,
 "updated":"2005-05-15T02:03:33",
 "updatedby":100,
 "xposition":1}, "children" : []},{"tablename" : "ad_field", "data" : {"ad_field_id":11705,
 "name":"Position Remuneration",
 "ad_client_id":0,
 "ad_column_id":13834,
 "ad_fieldgroup_id":null,
 "ad_org_id":0,
 "ad_reference_id":null,
 "ad_reference_value_id":null,
 "ad_tab_id":723,
 "ad_val_rule_id":null,
 "columnspan":2,
 "created":"2005-05-15T02:02:27",
 "createdby":100,
 "defaultvalue":null,
 "description":"Remuneration for the Position",
 "displaylength":14,
 "displaylogic":null,
 "entitytype":"Human Resource & Payroll",
 "help":null,
 "included_tab_id":null,
 "infofactoryclass":null,
 "isactive":"Y",
 "isallowcopy":null,
 "isallownewattributeinstance":"N",
 "iscentrallymaintained":"Y",
 "isdisplayed":"N",
 "isdisplayedgrid":"Y",
 "isencrypted":"N",
 "isfieldonly":"N",
 "isheading":"N",
 "ismandatory":null,
 "isquickentry":null,
 "isreadonly":"N",
 "issameline":"N",
 "numlines":1,
 "obscuretype":null,
 "seqno":0,
 "seqnogrid":null,
 "sortno":null,
 "updated":"2005-05-15T02:02:27",
 "updatedby":100,
 "xposition":1}, "children" : []},{"tablename" : "ad_field", "data" : {"ad_field_id":11706,
 "name":"Remuneration",
 "ad_client_id":0,
 "ad_column_id":13843,
 "ad_fieldgroup_id":null,
 "ad_org_id":0,
 "ad_reference_id":null,
 "ad_reference_value_id":null,
 "ad_tab_id":723,
 "ad_val_rule_id":null,
 "columnspan":2,
 "created":"2005-05-15T02:02:27",
 "createdby":100,
 "defaultvalue":null,
 "description":"Wage or Salary",
 "displaylength":14,
 "displaylogic":null,
 "entitytype":"Human Resource & Payroll",
 "help":null,
 "included_tab_id":null,
 "infofactoryclass":null,
 "isactive":"Y",
 "isallowcopy":null,
 "isallownewattributeinstance":"N",
 "iscentrallymaintained":"Y",
 "isdisplayed":"Y",
 "isdisplayedgrid":"Y",
 "isencrypted":"N",
 "isfieldonly":"N",
 "isheading":"N",
 "ismandatory":null,
 "isquickentry":null,
 "isreadonly":"N",
 "issameline":"N",
 "numlines":1,
 "obscuretype":null,
 "seqno":40,
 "seqnogrid":null,
 "sortno":null,
 "updated":"2005-05-15T02:02:27",
 "updatedby":100,
 "xposition":1}, "children" : []},{"tablename" : "ad_field", "data" : {"ad_field_id":11707,
 "name":"Valid from",
 "ad_client_id":0,
 "ad_column_id":13861,
 "ad_fieldgroup_id":null,
 "ad_org_id":0,
 "ad_reference_id":null,
 "ad_reference_value_id":null,
 "ad_tab_id":723,
 "ad_val_rule_id":null,
 "columnspan":2,
 "created":"2005-05-15T02:06:05",
 "createdby":100,
 "defaultvalue":null,
 "description":"Valid from including this date (first day)",
 "displaylength":20,
 "displaylogic":null,
 "entitytype":"Human Resource & Payroll",
 "help":"The Valid From date indicates the first day of a date range",
 "included_tab_id":null,
 "infofactoryclass":null,
 "isactive":"Y",
 "isallowcopy":null,
 "isallownewattributeinstance":"N",
 "iscentrallymaintained":"Y",
 "isdisplayed":"Y",
 "isdisplayedgrid":"Y",
 "isencrypted":"N",
 "isfieldonly":"N",
 "isheading":"N",
 "ismandatory":null,
 "isquickentry":null,
 "isreadonly":"N",
 "issameline":"N",
 "numlines":1,
 "obscuretype":null,
 "seqno":60,
 "seqnogrid":null,
 "sortno":-1,
 "updated":"2005-05-15T02:30:51",
 "updatedby":100,
 "xposition":1}, "children" : []},{"tablename" : "ad_field", "data" : {"ad_field_id":11708,
 "name":"Valid to",
 "ad_client_id":0,
 "ad_column_id":13862,
 "ad_fieldgroup_id":null,
 "ad_org_id":0,
 "ad_reference_id":null,
 "ad_reference_value_id":null,
 "ad_tab_id":723,
 "ad_val_rule_id":null,
 "columnspan":2,
 "created":"2005-05-15T02:06:05",
 "createdby":100,
 "defaultvalue":null,
 "description":"Valid to including this date (last day)",
 "displaylength":20,
 "displaylogic":null,
 "entitytype":"Human Resource & Payroll",
 "help":"The Valid To date indicates the last day of a date range",
 "included_tab_id":null,
 "infofactoryclass":null,
 "isactive":"Y",
 "isallowcopy":null,
 "isallownewattributeinstance":"N",
 "iscentrallymaintained":"Y",
 "isdisplayed":"Y",
 "isdisplayedgrid":"Y",
 "isencrypted":"N",
 "isfieldonly":"N",
 "isheading":"N",
 "ismandatory":null,
 "isquickentry":null,
 "isreadonly":"N",
 "issameline":"Y",
 "numlines":1,
 "obscuretype":null,
 "seqno":70,
 "seqnogrid":null,
 "sortno":null,
 "updated":"2005-05-15T02:06:24",
 "updatedby":100,
 "xposition":4}, "children" : []}]}]},
 {"tablename" : "ad_window", "data" : {"ad_window_id":352,
 "name":"Position Category",
 "ad_client_id":0,
 "ad_color_id":null,
 "ad_image_id":null,
 "ad_org_id":0,
 "created":"2005-05-15T02:08:06",
 "createdby":100,
 "description":"Maintain Job Position Categories",
 "entitytype":"Human Resource & Payroll",
 "help":null,
 "isactive":"Y",
 "isbetafunctionality":"Y",
 "isdefault":"N",
 "issotrx":"Y",
 "processing":"N",
 "updated":"2011-11-02T16:35:05",
 "updatedby":0,
 "windowtype":"M",
 "winheight":0,
 "winwidth":0}, "children" : [{"tablename" : "ad_tab", "data" : {"ad_tab_id":724,
 "name":"Position Category",
 "ad_window_id":352,
 "ad_client_id":0,
 "ad_column_id":null,
 "ad_columnsortorder_id":null,
 "ad_columnsortyesno_id":null,
 "ad_image_id":null,
 "ad_org_id":0,
 "ad_process_id":null,
 "ad_table_id":790,
 "commitwarning":null,
 "created":"2005-05-15T02:08:51",
 "createdby":100,
 "description":"Maintain Job Position Categories",
 "displaylogic":null,
 "entitytype":"Human Resource & Payroll",
 "hastree":"N",
 "help":null,
 "importfields":"N",
 "included_tab_id":null,
 "isactive":"Y",
 "isadvancedtab":"N",
 "isinfotab":"N",
 "isinheritfiltertoreports":"N",
 "isinsertrecord":"Y",
 "isreadonly":"N",
 "issinglerow":"N",
 "issorttab":"N",
 "istranslationtab":"N",
 "orderbyclause":null,
 "parent_column_id":null,
 "processing":"N",
 "readonlylogic":null,
 "seqno":10,
 "tablevel":0,
 "updated":"2005-05-15T02:08:51",
 "updatedby":100,
 "whereclause":null}, "children" : [{"tablename" : "ad_field", "data" : {"ad_field_id":11709,
 "name":"Active",
 "ad_client_id":0,
 "ad_column_id":13796,
 "ad_fieldgroup_id":null,
 "ad_org_id":0,
 "ad_reference_id":null,
 "ad_reference_value_id":null,
 "ad_tab_id":724,
 "ad_val_rule_id":null,
 "columnspan":2,
 "created":"2005-05-15T02:08:54",
 "createdby":100,
 "defaultvalue":null,
 "description":"The record is active in the system",
 "displaylength":1,
 "displaylogic":null,
 "entitytype":"Human Resource & Payroll",
 "help":"There are two methods of making records unavailable in the system: One is to delete the record, the other is to de-activate the record. A de-activated record is not available for selection, but available for reports.\nThere are two reasons for de-activating and not deleting records:\n(1) The system requires the record for audit purposes.\n(2) The record is referenced by other records. E.g., you cannot delete a Business Partner, if there are invoices for this partner record existing. You de-activate the Business Partner and prevent that this record is used for future entries.",
 "included_tab_id":null,
 "infofactoryclass":null,
 "isactive":"Y",
 "isallowcopy":null,
 "isallownewattributeinstance":"N",
 "iscentrallymaintained":"Y",
 "isdisplayed":"Y",
 "isdisplayedgrid":"Y",
 "isencrypted":"N",
 "isfieldonly":"N",
 "isheading":"N",
 "ismandatory":null,
 "isquickentry":null,
 "isreadonly":"N",
 "issameline":"N",
 "numlines":1,
 "obscuretype":null,
 "seqno":60,
 "seqnogrid":null,
 "sortno":null,
 "updated":"2005-05-15T02:08:54",
 "updatedby":100,
 "xposition":2}, "children" : []},{"tablename" : "ad_field", "data" : {"ad_field_id":11710,
 "name":"Client",
 "ad_client_id":0,
 "ad_column_id":13794,
 "ad_fieldgroup_id":null,
 "ad_org_id":0,
 "ad_reference_id":null,
 "ad_reference_value_id":null,
 "ad_tab_id":724,
 "ad_val_rule_id":null,
 "columnspan":2,
 "created":"2005-05-15T02:08:54",
 "createdby":100,
 "defaultvalue":null,
 "description":"Client/Tenant for this installation.",
 "displaylength":14,
 "displaylogic":null,
 "entitytype":"Human Resource & Payroll",
 "help":"A Client is a company or a legal entity. You cannot share data between Clients. Tenant is a synonym for Client.",
 "included_tab_id":null,
 "infofactoryclass":null,
 "isactive":"Y",
 "isallowcopy":null,
 "isallownewattributeinstance":"N",
 "iscentrallymaintained":"Y",
 "isdisplayed":"Y",
 "isdisplayedgrid":"Y",
 "isencrypted":"N",
 "isfieldonly":"N",
 "isheading":"N",
 "ismandatory":null,
 "isquickentry":null,
 "isreadonly":"N",
 "issameline":"N",
 "numlines":1,
 "obscuretype":null,
 "seqno":10,
 "seqnogrid":null,
 "sortno":null,
 "updated":"2005-05-15T02:08:54",
 "updatedby":100,
 "xposition":1}, "children" : []},{"tablename" : "ad_field", "data" : {"ad_field_id":11711,
 "name":"Comment/Help",
 "ad_client_id":0,
 "ad_column_id":13803,
 "ad_fieldgroup_id":null,
 "ad_org_id":0,
 "ad_reference_id":null,
 "ad_reference_value_id":null,
 "ad_tab_id":724,
 "ad_val_rule_id":null,
 "columnspan":5,
 "created":"2005-05-15T02:08:54",
 "createdby":100,
 "defaultvalue":null,
 "description":"Comment or Hint",
 "displaylength":60,
 "displaylogic":null,
 "entitytype":"Human Resource & Payroll",
 "help":"The Help field contains a hint, comment or help about the use of this item.",
 "included_tab_id":null,
 "infofactoryclass":null,
 "isactive":"Y",
 "isallowcopy":null,
 "isallownewattributeinstance":"N",
 "iscentrallymaintained":"Y",
 "isdisplayed":"Y",
 "isdisplayedgrid":"Y",
 "isencrypted":"N",
 "isfieldonly":"N",
 "isheading":"N",
 "ismandatory":null,
 "isquickentry":null,
 "isreadonly":"N",
 "issameline":"N",
 "numlines":3,
 "obscuretype":null,
 "seqno":50,
 "seqnogrid":null,
 "sortno":null,
 "updated":"2005-05-15T02:08:54",
 "updatedby":100,
 "xposition":1}, "children" : []},{"tablename" : "ad_field", "data" : {"ad_field_id":11712,
 "name":"Description",
 "ad_client_id":0,
 "ad_column_id":13802,
 "ad_fieldgroup_id":null,
 "ad_org_id":0,
 "ad_reference_id":null,
 "ad_reference_value_id":null,
 "ad_tab_id":724,
 "ad_val_rule_id":null,
 "columnspan":5,
 "created":"2005-05-15T02:08:54",
 "createdby":100,
 "defaultvalue":null,
 "description":"Optional short description of the record",
 "displaylength":60,
 "displaylogic":null,
 "entitytype":"Human Resource & Payroll",
 "help":"A description is limited to 255 characters.",
 "included_tab_id":null,
 "infofactoryclass":null,
 "isactive":"Y",
 "isallowcopy":null,
 "isallownewattributeinstance":"N",
 "iscentrallymaintained":"Y",
 "isdisplayed":"Y",
 "isdisplayedgrid":"Y",
 "isencrypted":"N",
 "isfieldonly":"N",
 "isheading":"N",
 "ismandatory":null,
 "isquickentry":null,
 "isreadonly":"N",
 "issameline":"N",
 "numlines":1,
 "obscuretype":null,
 "seqno":40,
 "seqnogrid":null,
 "sortno":null,
 "updated":"2005-05-15T02:08:54",
 "updatedby":100,
 "xposition":1}, "children" : []},{"tablename" : "ad_field", "data" : {"ad_field_id":11713,
 "name":"Name",
 "ad_client_id":0,
 "ad_column_id":13801,
 "ad_fieldgroup_id":null,
 "ad_org_id":0,
 "ad_reference_id":null,
 "ad_reference_value_id":null,
 "ad_tab_id":724,
 "ad_val_rule_id":null,
 "columnspan":5,
 "created":"2005-05-15T02:08:54",
 "createdby":100,
 "defaultvalue":null,
 "description":"Alphanumeric identifier of the entity",
 "displaylength":60,
 "displaylogic":null,
 "entitytype":"Human Resource & Payroll",
 "help":"The name of an entity (record) is used as an default search option in addition to the search key. The name is up to 60 characters in length.",
 "included_tab_id":null,
 "infofactoryclass":null,
 "isactive":"Y",
 "isallowcopy":null,
 "isallownewattributeinstance":"N",
 "iscentrallymaintained":"Y",
 "isdisplayed":"Y",
 "isdisplayedgrid":"Y",
 "isencrypted":"N",
 "isfieldonly":"N",
 "isheading":"N",
 "ismandatory":null,
 "isquickentry":null,
 "isreadonly":"N",
 "issameline":"N",
 "numlines":1,
 "obscuretype":null,
 "seqno":30,
 "seqnogrid":null,
 "sortno":1,
 "updated":"2005-05-15T02:29:19",
 "updatedby":100,
 "xposition":1}, "children" : []},{"tablename" : "ad_field", "data" : {"ad_field_id":11714,
 "name":"Organisation",
 "ad_client_id":0,
 "ad_column_id":13795,
 "ad_fieldgroup_id":null,
 "ad_org_id":0,
 "ad_reference_id":null,
 "ad_reference_value_id":null,
 "ad_tab_id":724,
 "ad_val_rule_id":null,
 "columnspan":2,
 "created":"2005-05-15T02:08:55",
 "createdby":100,
 "defaultvalue":null,
 "description":"Organisational entity within client",
 "displaylength":14,
 "displaylogic":null,
 "entitytype":"Human Resource & Payroll",
 "help":"An organisation is a unit of your client or legal entity - examples are store, department. You can share data between organisations.",
 "included_tab_id":null,
 "infofactoryclass":null,
 "isactive":"Y",
 "isallowcopy":null,
 "isallownewattributeinstance":"N",
 "iscentrallymaintained":"Y",
 "isdisplayed":"Y",
 "isdisplayedgrid":"Y",
 "isencrypted":"N",
 "isfieldonly":"N",
 "isheading":"N",
 "ismandatory":null,
 "isquickentry":null,
 "isreadonly":"N",
 "issameline":"Y",
 "numlines":1,
 "obscuretype":null,
 "seqno":20,
 "seqnogrid":null,
 "sortno":null,
 "updated":"2005-05-15T02:09:58",
 "updatedby":100,
 "xposition":4}, "children" : []},{"tablename" : "ad_field", "data" : {"ad_field_id":11715,
 "name":"Position Category",
 "ad_client_id":0,
 "ad_column_id":13793,
 "ad_fieldgroup_id":null,
 "ad_org_id":0,
 "ad_reference_id":null,
 "ad_reference_value_id":null,
 "ad_tab_id":724,
 "ad_val_rule_id":null,
 "columnspan":2,
 "created":"2005-05-15T02:08:55",
 "createdby":100,
 "defaultvalue":null,
 "description":"Job Position Category",
 "displaylength":14,
 "displaylogic":null,
 "entitytype":"Human Resource & Payroll",
 "help":"Classification of Job Positions",
 "included_tab_id":null,
 "infofactoryclass":null,
 "isactive":"Y",
 "isallowcopy":null,
 "isallownewattributeinstance":"N",
 "iscentrallymaintained":"Y",
 "isdisplayed":"N",
 "isdisplayedgrid":"Y",
 "isencrypted":"N",
 "isfieldonly":"N",
 "isheading":"N",
 "ismandatory":null,
 "isquickentry":null,
 "isreadonly":"N",
 "issameline":"N",
 "numlines":1,
 "obscuretype":null,
 "seqno":0,
 "seqnogrid":null,
 "sortno":null,
 "updated":"2005-05-15T02:08:55",
 "updatedby":100,
 "xposition":1}, "children" : []}]}]}]